<?xml version="1.0" encoding="utf-8" standalone="no"?>
<!DOCTYPE svg PUBLIC "-//W3C//DTD SVG 1.1//EN"
  "http://www.w3.org/Graphics/SVG/1.1/DTD/svg11.dtd">
<!-- Created with matplotlib (http://matplotlib.org/) -->
<svg height="216pt" version="1.1" viewBox="0 0 720 216" width="720pt" xmlns="http://www.w3.org/2000/svg" xmlns:xlink="http://www.w3.org/1999/xlink">
 <defs>
  <style type="text/css">
*{stroke-linecap:butt;stroke-linejoin:round;}
  </style>
 </defs>
 <g id="figure_1">
  <g id="patch_1">
   <path d="M 0 216 
L 720 216 
L 720 0 
L 0 0 
z
" style="fill:#ffffff;"/>
  </g>
  <g id="axes_1">
   <g id="patch_2">
    <path d="M 33.64 173.32 
L 229.62 173.32 
L 229.62 26.16 
L 33.64 26.16 
z
" style="fill:#ffffff;"/>
   </g>
   <g id="matplotlib.axis_1">
    <g id="xtick_1">
     <g id="line2d_1">
      <defs>
       <path d="M 0 0 
L 0 3.5 
" id="m62f88e230c" style="stroke:#000000;stroke-width:0.8;"/>
      </defs>
      <g>
       <use style="stroke:#000000;stroke-width:0.8;" x="50.839347" xlink:href="#m62f88e230c" y="173.32"/>
      </g>
     </g>
     <g id="text_1">
      <!-- 30 -->
      <defs>
       <path d="M 40.578125 39.3125 
Q 47.65625 37.796875 51.625 33 
Q 55.609375 28.21875 55.609375 21.1875 
Q 55.609375 10.40625 48.1875 4.484375 
Q 40.765625 -1.421875 27.09375 -1.421875 
Q 22.515625 -1.421875 17.65625 -0.515625 
Q 12.796875 0.390625 7.625 2.203125 
L 7.625 11.71875 
Q 11.71875 9.328125 16.59375 8.109375 
Q 21.484375 6.890625 26.8125 6.890625 
Q 36.078125 6.890625 40.9375 10.546875 
Q 45.796875 14.203125 45.796875 21.1875 
Q 45.796875 27.640625 41.28125 31.265625 
Q 36.765625 34.90625 28.71875 34.90625 
L 20.21875 34.90625 
L 20.21875 43.015625 
L 29.109375 43.015625 
Q 36.375 43.015625 40.234375 45.921875 
Q 44.09375 48.828125 44.09375 54.296875 
Q 44.09375 59.90625 40.109375 62.90625 
Q 36.140625 65.921875 28.71875 65.921875 
Q 24.65625 65.921875 20.015625 65.03125 
Q 15.375 64.15625 9.8125 62.3125 
L 9.8125 71.09375 
Q 15.4375 72.65625 20.34375 73.4375 
Q 25.25 74.21875 29.59375 74.21875 
Q 40.828125 74.21875 47.359375 69.109375 
Q 53.90625 64.015625 53.90625 55.328125 
Q 53.90625 49.265625 50.4375 45.09375 
Q 46.96875 40.921875 40.578125 39.3125 
z
" id="DejaVuSans-33"/>
       <path d="M 31.78125 66.40625 
Q 24.171875 66.40625 20.328125 58.90625 
Q 16.5 51.421875 16.5 36.375 
Q 16.5 21.390625 20.328125 13.890625 
Q 24.171875 6.390625 31.78125 6.390625 
Q 39.453125 6.390625 43.28125 13.890625 
Q 47.125 21.390625 47.125 36.375 
Q 47.125 51.421875 43.28125 58.90625 
Q 39.453125 66.40625 31.78125 66.40625 
z
M 31.78125 74.21875 
Q 44.046875 74.21875 50.515625 64.515625 
Q 56.984375 54.828125 56.984375 36.375 
Q 56.984375 17.96875 50.515625 8.265625 
Q 44.046875 -1.421875 31.78125 -1.421875 
Q 19.53125 -1.421875 13.0625 8.265625 
Q 6.59375 17.96875 6.59375 36.375 
Q 6.59375 54.828125 13.0625 64.515625 
Q 19.53125 74.21875 31.78125 74.21875 
z
" id="DejaVuSans-30"/>
      </defs>
      <g transform="translate(44.476847 187.918437)scale(0.1 -0.1)">
       <use xlink:href="#DejaVuSans-33"/>
       <use x="63.623047" xlink:href="#DejaVuSans-30"/>
      </g>
     </g>
    </g>
    <g id="xtick_2">
     <g id="line2d_2">
      <g>
       <use style="stroke:#000000;stroke-width:0.8;" x="115.111943" xlink:href="#m62f88e230c" y="173.32"/>
      </g>
     </g>
     <g id="text_2">
      <!-- 31 -->
      <defs>
       <path d="M 12.40625 8.296875 
L 28.515625 8.296875 
L 28.515625 63.921875 
L 10.984375 60.40625 
L 10.984375 69.390625 
L 28.421875 72.90625 
L 38.28125 72.90625 
L 38.28125 8.296875 
L 54.390625 8.296875 
L 54.390625 0 
L 12.40625 0 
z
" id="DejaVuSans-31"/>
      </defs>
      <g transform="translate(108.749443 187.918437)scale(0.1 -0.1)">
       <use xlink:href="#DejaVuSans-33"/>
       <use x="63.623047" xlink:href="#DejaVuSans-31"/>
      </g>
     </g>
    </g>
    <g id="xtick_3">
     <g id="line2d_3">
      <g>
       <use style="stroke:#000000;stroke-width:0.8;" x="179.384539" xlink:href="#m62f88e230c" y="173.32"/>
      </g>
     </g>
     <g id="text_3">
      <!-- 32 -->
      <defs>
       <path d="M 19.1875 8.296875 
L 53.609375 8.296875 
L 53.609375 0 
L 7.328125 0 
L 7.328125 8.296875 
Q 12.9375 14.109375 22.625 23.890625 
Q 32.328125 33.6875 34.8125 36.53125 
Q 39.546875 41.84375 41.421875 45.53125 
Q 43.3125 49.21875 43.3125 52.78125 
Q 43.3125 58.59375 39.234375 62.25 
Q 35.15625 65.921875 28.609375 65.921875 
Q 23.96875 65.921875 18.8125 64.3125 
Q 13.671875 62.703125 7.8125 59.421875 
L 7.8125 69.390625 
Q 13.765625 71.78125 18.9375 73 
Q 24.125 74.21875 28.421875 74.21875 
Q 39.75 74.21875 46.484375 68.546875 
Q 53.21875 62.890625 53.21875 53.421875 
Q 53.21875 48.921875 51.53125 44.890625 
Q 49.859375 40.875 45.40625 35.40625 
Q 44.1875 33.984375 37.640625 27.21875 
Q 31.109375 20.453125 19.1875 8.296875 
z
" id="DejaVuSans-32"/>
      </defs>
      <g transform="translate(173.022039 187.918437)scale(0.1 -0.1)">
       <use xlink:href="#DejaVuSans-33"/>
       <use x="63.623047" xlink:href="#DejaVuSans-32"/>
      </g>
     </g>
    </g>
    <g id="text_4">
     <!-- $E/\epsilon$ -->
     <defs>
      <path d="M 16.890625 72.90625 
L 62.984375 72.90625 
L 61.375 64.59375 
L 25.09375 64.59375 
L 20.90625 43.015625 
L 55.71875 43.015625 
L 54.109375 34.71875 
L 19.28125 34.71875 
L 14.203125 8.296875 
L 51.3125 8.296875 
L 49.703125 0 
L 2.6875 0 
z
" id="DejaVuSans-Oblique-45"/>
      <path d="M 25.390625 72.90625 
L 33.6875 72.90625 
L 8.296875 -9.28125 
L 0 -9.28125 
z
" id="DejaVuSans-2f"/>
      <path d="M 19.734375 29.5 
Q 14.453125 30.671875 12.15625 33.84375 
Q 10.453125 36.078125 10.453125 39.109375 
Q 10.453125 47.40625 18.359375 52.25 
Q 24.609375 56.0625 34.1875 56.0625 
Q 37.890625 56.0625 41.9375 55.46875 
Q 46 54.890625 50.53125 53.71875 
L 48.96875 45.5625 
Q 44.484375 46.96875 40.71875 47.609375 
Q 36.859375 48.25 33.40625 48.25 
Q 27.59375 48.25 23.78125 46 
Q 19.1875 43.3125 19.1875 39.40625 
Q 19.1875 36.8125 21.578125 35.015625 
Q 24.421875 32.859375 30.078125 32.859375 
L 37.640625 32.859375 
L 36.234375 25.4375 
L 29 25.4375 
Q 22.265625 25.4375 18.3125 22.953125 
Q 12.9375 19.578125 12.9375 14.3125 
Q 12.9375 10.984375 15.828125 8.796875 
Q 19.4375 6.0625 26.8125 6.0625 
Q 31.34375 6.0625 35.6875 6.9375 
Q 40.046875 7.859375 43.84375 9.671875 
L 42.1875 1.3125 
Q 37.546875 -0.046875 33.296875 -0.734375 
Q 29.046875 -1.421875 25.140625 -1.421875 
Q 13.53125 -1.421875 8.0625 3.03125 
Q 3.90625 6.453125 3.90625 12.203125 
Q 3.90625 19.96875 9.375 24.75 
Q 13.421875 28.328125 19.734375 29.5 
z
" id="DejaVuSans-Oblique-3b5"/>
     </defs>
     <g transform="translate(124.08 201.596562)scale(0.1 -0.1)">
      <use transform="translate(0 0.09375)" xlink:href="#DejaVuSans-Oblique-45"/>
      <use transform="translate(63.183594 0.09375)" xlink:href="#DejaVuSans-2f"/>
      <use transform="translate(96.875 0.09375)" xlink:href="#DejaVuSans-Oblique-3b5"/>
     </g>
    </g>
   </g>
   <g id="matplotlib.axis_2">
    <g id="ytick_1">
     <g id="line2d_4">
      <defs>
       <path d="M 0 0 
L -3.5 0 
" id="m660bbcd5dc" style="stroke:#000000;stroke-width:0.8;"/>
      </defs>
      <g>
       <use style="stroke:#000000;stroke-width:0.8;" x="33.64" xlink:href="#m660bbcd5dc" y="166.644049"/>
      </g>
     </g>
     <g id="text_5">
      <!-- 0.0 -->
      <defs>
       <path d="M 10.6875 12.40625 
L 21 12.40625 
L 21 0 
L 10.6875 0 
z
" id="DejaVuSans-2e"/>
      </defs>
      <g transform="translate(10.736875 170.443267)scale(0.1 -0.1)">
       <use xlink:href="#DejaVuSans-30"/>
       <use x="63.623047" xlink:href="#DejaVuSans-2e"/>
       <use x="95.410156" xlink:href="#DejaVuSans-30"/>
      </g>
     </g>
    </g>
    <g id="ytick_2">
     <g id="line2d_5">
      <g>
       <use style="stroke:#000000;stroke-width:0.8;" x="33.64" xlink:href="#m660bbcd5dc" y="142.117059"/>
      </g>
     </g>
     <g id="text_6">
      <!-- 0.2 -->
      <g transform="translate(10.736875 145.916278)scale(0.1 -0.1)">
       <use xlink:href="#DejaVuSans-30"/>
       <use x="63.623047" xlink:href="#DejaVuSans-2e"/>
       <use x="95.410156" xlink:href="#DejaVuSans-32"/>
      </g>
     </g>
    </g>
    <g id="ytick_3">
     <g id="line2d_6">
      <g>
       <use style="stroke:#000000;stroke-width:0.8;" x="33.64" xlink:href="#m660bbcd5dc" y="117.59007"/>
      </g>
     </g>
     <g id="text_7">
      <!-- 0.4 -->
      <defs>
       <path d="M 37.796875 64.3125 
L 12.890625 25.390625 
L 37.796875 25.390625 
z
M 35.203125 72.90625 
L 47.609375 72.90625 
L 47.609375 25.390625 
L 58.015625 25.390625 
L 58.015625 17.1875 
L 47.609375 17.1875 
L 47.609375 0 
L 37.796875 0 
L 37.796875 17.1875 
L 4.890625 17.1875 
L 4.890625 26.703125 
z
" id="DejaVuSans-34"/>
      </defs>
      <g transform="translate(10.736875 121.389289)scale(0.1 -0.1)">
       <use xlink:href="#DejaVuSans-30"/>
       <use x="63.623047" xlink:href="#DejaVuSans-2e"/>
       <use x="95.410156" xlink:href="#DejaVuSans-34"/>
      </g>
     </g>
    </g>
    <g id="ytick_4">
     <g id="line2d_7">
      <g>
       <use style="stroke:#000000;stroke-width:0.8;" x="33.64" xlink:href="#m660bbcd5dc" y="93.06308"/>
      </g>
     </g>
     <g id="text_8">
      <!-- 0.6 -->
      <defs>
       <path d="M 33.015625 40.375 
Q 26.375 40.375 22.484375 35.828125 
Q 18.609375 31.296875 18.609375 23.390625 
Q 18.609375 15.53125 22.484375 10.953125 
Q 26.375 6.390625 33.015625 6.390625 
Q 39.65625 6.390625 43.53125 10.953125 
Q 47.40625 15.53125 47.40625 23.390625 
Q 47.40625 31.296875 43.53125 35.828125 
Q 39.65625 40.375 33.015625 40.375 
z
M 52.59375 71.296875 
L 52.59375 62.3125 
Q 48.875 64.0625 45.09375 64.984375 
Q 41.3125 65.921875 37.59375 65.921875 
Q 27.828125 65.921875 22.671875 59.328125 
Q 17.53125 52.734375 16.796875 39.40625 
Q 19.671875 43.65625 24.015625 45.921875 
Q 28.375 48.1875 33.59375 48.1875 
Q 44.578125 48.1875 50.953125 41.515625 
Q 57.328125 34.859375 57.328125 23.390625 
Q 57.328125 12.15625 50.6875 5.359375 
Q 44.046875 -1.421875 33.015625 -1.421875 
Q 20.359375 -1.421875 13.671875 8.265625 
Q 6.984375 17.96875 6.984375 36.375 
Q 6.984375 53.65625 15.1875 63.9375 
Q 23.390625 74.21875 37.203125 74.21875 
Q 40.921875 74.21875 44.703125 73.484375 
Q 48.484375 72.75 52.59375 71.296875 
z
" id="DejaVuSans-36"/>
      </defs>
      <g transform="translate(10.736875 96.862299)scale(0.1 -0.1)">
       <use xlink:href="#DejaVuSans-30"/>
       <use x="63.623047" xlink:href="#DejaVuSans-2e"/>
       <use x="95.410156" xlink:href="#DejaVuSans-36"/>
      </g>
     </g>
    </g>
    <g id="ytick_5">
     <g id="line2d_8">
      <g>
       <use style="stroke:#000000;stroke-width:0.8;" x="33.64" xlink:href="#m660bbcd5dc" y="68.536091"/>
      </g>
     </g>
     <g id="text_9">
      <!-- 0.8 -->
      <defs>
       <path d="M 31.78125 34.625 
Q 24.75 34.625 20.71875 30.859375 
Q 16.703125 27.09375 16.703125 20.515625 
Q 16.703125 13.921875 20.71875 10.15625 
Q 24.75 6.390625 31.78125 6.390625 
Q 38.8125 6.390625 42.859375 10.171875 
Q 46.921875 13.96875 46.921875 20.515625 
Q 46.921875 27.09375 42.890625 30.859375 
Q 38.875 34.625 31.78125 34.625 
z
M 21.921875 38.8125 
Q 15.578125 40.375 12.03125 44.71875 
Q 8.5 49.078125 8.5 55.328125 
Q 8.5 64.0625 14.71875 69.140625 
Q 20.953125 74.21875 31.78125 74.21875 
Q 42.671875 74.21875 48.875 69.140625 
Q 55.078125 64.0625 55.078125 55.328125 
Q 55.078125 49.078125 51.53125 44.71875 
Q 48 40.375 41.703125 38.8125 
Q 48.828125 37.15625 52.796875 32.3125 
Q 56.78125 27.484375 56.78125 20.515625 
Q 56.78125 9.90625 50.3125 4.234375 
Q 43.84375 -1.421875 31.78125 -1.421875 
Q 19.734375 -1.421875 13.25 4.234375 
Q 6.78125 9.90625 6.78125 20.515625 
Q 6.78125 27.484375 10.78125 32.3125 
Q 14.796875 37.15625 21.921875 38.8125 
z
M 18.3125 54.390625 
Q 18.3125 48.734375 21.84375 45.5625 
Q 25.390625 42.390625 31.78125 42.390625 
Q 38.140625 42.390625 41.71875 45.5625 
Q 45.3125 48.734375 45.3125 54.390625 
Q 45.3125 60.0625 41.71875 63.234375 
Q 38.140625 66.40625 31.78125 66.40625 
Q 25.390625 66.40625 21.84375 63.234375 
Q 18.3125 60.0625 18.3125 54.390625 
z
" id="DejaVuSans-38"/>
      </defs>
      <g transform="translate(10.736875 72.33531)scale(0.1 -0.1)">
       <use xlink:href="#DejaVuSans-30"/>
       <use x="63.623047" xlink:href="#DejaVuSans-2e"/>
       <use x="95.410156" xlink:href="#DejaVuSans-38"/>
      </g>
     </g>
    </g>
    <g id="ytick_6">
     <g id="line2d_9">
      <g>
       <use style="stroke:#000000;stroke-width:0.8;" x="33.64" xlink:href="#m660bbcd5dc" y="44.009102"/>
      </g>
     </g>
     <g id="text_10">
      <!-- 1.0 -->
      <g transform="translate(10.736875 47.80832)scale(0.1 -0.1)">
       <use xlink:href="#DejaVuSans-31"/>
       <use x="63.623047" xlink:href="#DejaVuSans-2e"/>
       <use x="95.410156" xlink:href="#DejaVuSans-30"/>
      </g>
     </g>
    </g>
   </g>
   <g id="line2d_10">
    <defs>
     <path d="M 0 3 
C 0.795609 3 1.55874 2.683901 2.12132 2.12132 
C 2.683901 1.55874 3 0.795609 3 0 
C 3 -0.795609 2.683901 -1.55874 2.12132 -2.12132 
C 1.55874 -2.683901 0.795609 -3 0 -3 
C -0.795609 -3 -1.55874 -2.683901 -2.12132 -2.12132 
C -2.683901 -1.55874 -3 -0.795609 -3 0 
C -3 0.795609 -2.683901 1.55874 -2.12132 2.12132 
C -1.55874 2.683901 -0.795609 3 0 3 
z
" id="m855049dfb0" style="stroke:#1f77b4;"/>
    </defs>
    <g clip-path="url(#pcacf0b293b)">
     <use style="fill:#1f77b4;stroke:#1f77b4;" x="42.548182" xlink:href="#m855049dfb0" y="166.630909"/>
     <use style="fill:#1f77b4;stroke:#1f77b4;" x="44.347815" xlink:href="#m855049dfb0" y="166.555069"/>
     <use style="fill:#1f77b4;stroke:#1f77b4;" x="46.147447" xlink:href="#m855049dfb0" y="166.449262"/>
     <use style="fill:#1f77b4;stroke:#1f77b4;" x="47.94708" xlink:href="#m855049dfb0" y="166.460557"/>
     <use style="fill:#1f77b4;stroke:#1f77b4;" x="49.746713" xlink:href="#m855049dfb0" y="166.396473"/>
     <use style="fill:#1f77b4;stroke:#1f77b4;" x="51.546345" xlink:href="#m855049dfb0" y="166.213213"/>
     <use style="fill:#1f77b4;stroke:#1f77b4;" x="53.345978" xlink:href="#m855049dfb0" y="165.987767"/>
     <use style="fill:#1f77b4;stroke:#1f77b4;" x="55.145611" xlink:href="#m855049dfb0" y="165.845999"/>
     <use style="fill:#1f77b4;stroke:#1f77b4;" x="56.945243" xlink:href="#m855049dfb0" y="165.674725"/>
     <use style="fill:#1f77b4;stroke:#1f77b4;" x="58.744876" xlink:href="#m855049dfb0" y="165.265327"/>
     <use style="fill:#1f77b4;stroke:#1f77b4;" x="60.544509" xlink:href="#m855049dfb0" y="164.586225"/>
     <use style="fill:#1f77b4;stroke:#1f77b4;" x="62.344141" xlink:href="#m855049dfb0" y="164.332656"/>
     <use style="fill:#1f77b4;stroke:#1f77b4;" x="64.143774" xlink:href="#m855049dfb0" y="163.635804"/>
     <use style="fill:#1f77b4;stroke:#1f77b4;" x="65.943407" xlink:href="#m855049dfb0" y="163.153102"/>
     <use style="fill:#1f77b4;stroke:#1f77b4;" x="67.743039" xlink:href="#m855049dfb0" y="162.356666"/>
     <use style="fill:#1f77b4;stroke:#1f77b4;" x="69.542672" xlink:href="#m855049dfb0" y="161.368902"/>
     <use style="fill:#1f77b4;stroke:#1f77b4;" x="71.342305" xlink:href="#m855049dfb0" y="160.324661"/>
     <use style="fill:#1f77b4;stroke:#1f77b4;" x="73.141938" xlink:href="#m855049dfb0" y="159.287104"/>
     <use style="fill:#1f77b4;stroke:#1f77b4;" x="74.94157" xlink:href="#m855049dfb0" y="157.451729"/>
     <use style="fill:#1f77b4;stroke:#1f77b4;" x="76.741203" xlink:href="#m855049dfb0" y="155.77933"/>
     <use style="fill:#1f77b4;stroke:#1f77b4;" x="78.540836" xlink:href="#m855049dfb0" y="153.269232"/>
     <use style="fill:#1f77b4;stroke:#1f77b4;" x="80.340468" xlink:href="#m855049dfb0" y="150.856182"/>
     <use style="fill:#1f77b4;stroke:#1f77b4;" x="82.140101" xlink:href="#m855049dfb0" y="148.088136"/>
     <use style="fill:#1f77b4;stroke:#1f77b4;" x="83.939734" xlink:href="#m855049dfb0" y="143.988164"/>
     <use style="fill:#1f77b4;stroke:#1f77b4;" x="85.739366" xlink:href="#m855049dfb0" y="141.301491"/>
     <use style="fill:#1f77b4;stroke:#1f77b4;" x="87.538999" xlink:href="#m855049dfb0" y="138.327593"/>
     <use style="fill:#1f77b4;stroke:#1f77b4;" x="89.338632" xlink:href="#m855049dfb0" y="134.564637"/>
     <use style="fill:#1f77b4;stroke:#1f77b4;" x="91.138264" xlink:href="#m855049dfb0" y="128.893462"/>
     <use style="fill:#1f77b4;stroke:#1f77b4;" x="92.937897" xlink:href="#m855049dfb0" y="124.158416"/>
     <use style="fill:#1f77b4;stroke:#1f77b4;" x="94.73753" xlink:href="#m855049dfb0" y="121.291478"/>
     <use style="fill:#1f77b4;stroke:#1f77b4;" x="96.537163" xlink:href="#m855049dfb0" y="117.977108"/>
     <use style="fill:#1f77b4;stroke:#1f77b4;" x="98.336795" xlink:href="#m855049dfb0" y="115.646582"/>
     <use style="fill:#1f77b4;stroke:#1f77b4;" x="100.136428" xlink:href="#m855049dfb0" y="111.936414"/>
     <use style="fill:#1f77b4;stroke:#1f77b4;" x="101.936061" xlink:href="#m855049dfb0" y="106.490454"/>
     <use style="fill:#1f77b4;stroke:#1f77b4;" x="103.735693" xlink:href="#m855049dfb0" y="98.564825"/>
     <use style="fill:#1f77b4;stroke:#1f77b4;" x="105.535326" xlink:href="#m855049dfb0" y="91.056201"/>
     <use style="fill:#1f77b4;stroke:#1f77b4;" x="107.334959" xlink:href="#m855049dfb0" y="82.420119"/>
     <use style="fill:#1f77b4;stroke:#1f77b4;" x="109.134591" xlink:href="#m855049dfb0" y="76.034573"/>
     <use style="fill:#1f77b4;stroke:#1f77b4;" x="110.934224" xlink:href="#m855049dfb0" y="70.541126"/>
     <use style="fill:#1f77b4;stroke:#1f77b4;" x="112.733857" xlink:href="#m855049dfb0" y="63.540792"/>
     <use style="fill:#1f77b4;stroke:#1f77b4;" x="114.533489" xlink:href="#m855049dfb0" y="54.94505"/>
     <use style="fill:#1f77b4;stroke:#1f77b4;" x="116.333122" xlink:href="#m855049dfb0" y="50.682563"/>
     <use style="fill:#1f77b4;stroke:#1f77b4;" x="118.132755" xlink:href="#m855049dfb0" y="46.170197"/>
     <use style="fill:#1f77b4;stroke:#1f77b4;" x="119.932388" xlink:href="#m855049dfb0" y="43.066518"/>
     <use style="fill:#1f77b4;stroke:#1f77b4;" x="121.73202" xlink:href="#m855049dfb0" y="39.555286"/>
     <use style="fill:#1f77b4;stroke:#1f77b4;" x="123.531653" xlink:href="#m855049dfb0" y="36.68881"/>
     <use style="fill:#1f77b4;stroke:#1f77b4;" x="125.331286" xlink:href="#m855049dfb0" y="35.341439"/>
     <use style="fill:#1f77b4;stroke:#1f77b4;" x="127.130918" xlink:href="#m855049dfb0" y="32.849091"/>
     <use style="fill:#1f77b4;stroke:#1f77b4;" x="128.930551" xlink:href="#m855049dfb0" y="34.336385"/>
     <use style="fill:#1f77b4;stroke:#1f77b4;" x="130.730184" xlink:href="#m855049dfb0" y="35.934559"/>
     <use style="fill:#1f77b4;stroke:#1f77b4;" x="132.529816" xlink:href="#m855049dfb0" y="39.792949"/>
     <use style="fill:#1f77b4;stroke:#1f77b4;" x="134.329449" xlink:href="#m855049dfb0" y="42.87081"/>
     <use style="fill:#1f77b4;stroke:#1f77b4;" x="136.129082" xlink:href="#m855049dfb0" y="47.565976"/>
     <use style="fill:#1f77b4;stroke:#1f77b4;" x="137.928714" xlink:href="#m855049dfb0" y="52.739926"/>
     <use style="fill:#1f77b4;stroke:#1f77b4;" x="139.728347" xlink:href="#m855049dfb0" y="55.022734"/>
     <use style="fill:#1f77b4;stroke:#1f77b4;" x="141.52798" xlink:href="#m855049dfb0" y="61.076797"/>
     <use style="fill:#1f77b4;stroke:#1f77b4;" x="143.327612" xlink:href="#m855049dfb0" y="64.62399"/>
     <use style="fill:#1f77b4;stroke:#1f77b4;" x="145.127245" xlink:href="#m855049dfb0" y="67.626702"/>
     <use style="fill:#1f77b4;stroke:#1f77b4;" x="146.926878" xlink:href="#m855049dfb0" y="70.478426"/>
     <use style="fill:#1f77b4;stroke:#1f77b4;" x="148.726511" xlink:href="#m855049dfb0" y="75.608347"/>
     <use style="fill:#1f77b4;stroke:#1f77b4;" x="150.526143" xlink:href="#m855049dfb0" y="81.756692"/>
     <use style="fill:#1f77b4;stroke:#1f77b4;" x="152.325776" xlink:href="#m855049dfb0" y="84.215845"/>
     <use style="fill:#1f77b4;stroke:#1f77b4;" x="154.125409" xlink:href="#m855049dfb0" y="89.85129"/>
     <use style="fill:#1f77b4;stroke:#1f77b4;" x="155.925041" xlink:href="#m855049dfb0" y="94.813164"/>
     <use style="fill:#1f77b4;stroke:#1f77b4;" x="157.724674" xlink:href="#m855049dfb0" y="97.974472"/>
     <use style="fill:#1f77b4;stroke:#1f77b4;" x="159.524307" xlink:href="#m855049dfb0" y="102.210679"/>
     <use style="fill:#1f77b4;stroke:#1f77b4;" x="161.323939" xlink:href="#m855049dfb0" y="106.03357"/>
     <use style="fill:#1f77b4;stroke:#1f77b4;" x="163.123572" xlink:href="#m855049dfb0" y="111.873714"/>
     <use style="fill:#1f77b4;stroke:#1f77b4;" x="164.923205" xlink:href="#m855049dfb0" y="117.287862"/>
     <use style="fill:#1f77b4;stroke:#1f77b4;" x="166.722837" xlink:href="#m855049dfb0" y="122.100362"/>
     <use style="fill:#1f77b4;stroke:#1f77b4;" x="168.52247" xlink:href="#m855049dfb0" y="127.851756"/>
     <use style="fill:#1f77b4;stroke:#1f77b4;" x="170.322103" xlink:href="#m855049dfb0" y="132.77306"/>
     <use style="fill:#1f77b4;stroke:#1f77b4;" x="172.121736" xlink:href="#m855049dfb0" y="136.427904"/>
     <use style="fill:#1f77b4;stroke:#1f77b4;" x="173.921368" xlink:href="#m855049dfb0" y="139.915393"/>
     <use style="fill:#1f77b4;stroke:#1f77b4;" x="175.721001" xlink:href="#m855049dfb0" y="141.241556"/>
     <use style="fill:#1f77b4;stroke:#1f77b4;" x="177.520634" xlink:href="#m855049dfb0" y="144.754172"/>
     <use style="fill:#1f77b4;stroke:#1f77b4;" x="179.320266" xlink:href="#m855049dfb0" y="147.985095"/>
     <use style="fill:#1f77b4;stroke:#1f77b4;" x="181.119899" xlink:href="#m855049dfb0" y="150.170395"/>
     <use style="fill:#1f77b4;stroke:#1f77b4;" x="182.919532" xlink:href="#m855049dfb0" y="151.410806"/>
     <use style="fill:#1f77b4;stroke:#1f77b4;" x="184.719164" xlink:href="#m855049dfb0" y="152.624938"/>
     <use style="fill:#1f77b4;stroke:#1f77b4;" x="186.518797" xlink:href="#m855049dfb0" y="154.77589"/>
     <use style="fill:#1f77b4;stroke:#1f77b4;" x="188.31843" xlink:href="#m855049dfb0" y="156.907018"/>
     <use style="fill:#1f77b4;stroke:#1f77b4;" x="190.118062" xlink:href="#m855049dfb0" y="158.67416"/>
     <use style="fill:#1f77b4;stroke:#1f77b4;" x="191.917695" xlink:href="#m855049dfb0" y="160.253661"/>
     <use style="fill:#1f77b4;stroke:#1f77b4;" x="193.717328" xlink:href="#m855049dfb0" y="160.964806"/>
     <use style="fill:#1f77b4;stroke:#1f77b4;" x="195.516961" xlink:href="#m855049dfb0" y="162.248093"/>
     <use style="fill:#1f77b4;stroke:#1f77b4;" x="197.316593" xlink:href="#m855049dfb0" y="162.994045"/>
     <use style="fill:#1f77b4;stroke:#1f77b4;" x="199.116226" xlink:href="#m855049dfb0" y="163.547055"/>
     <use style="fill:#1f77b4;stroke:#1f77b4;" x="200.915859" xlink:href="#m855049dfb0" y="164.426707"/>
     <use style="fill:#1f77b4;stroke:#1f77b4;" x="202.715491" xlink:href="#m855049dfb0" y="164.748509"/>
     <use style="fill:#1f77b4;stroke:#1f77b4;" x="204.515124" xlink:href="#m855049dfb0" y="165.330103"/>
     <use style="fill:#1f77b4;stroke:#1f77b4;" x="206.314757" xlink:href="#m855049dfb0" y="165.852223"/>
     <use style="fill:#1f77b4;stroke:#1f77b4;" x="208.114389" xlink:href="#m855049dfb0" y="165.735121"/>
     <use style="fill:#1f77b4;stroke:#1f77b4;" x="209.914022" xlink:href="#m855049dfb0" y="166.118701"/>
     <use style="fill:#1f77b4;stroke:#1f77b4;" x="211.713655" xlink:href="#m855049dfb0" y="166.31925"/>
     <use style="fill:#1f77b4;stroke:#1f77b4;" x="213.513287" xlink:href="#m855049dfb0" y="166.467934"/>
     <use style="fill:#1f77b4;stroke:#1f77b4;" x="215.31292" xlink:href="#m855049dfb0" y="166.508044"/>
     <use style="fill:#1f77b4;stroke:#1f77b4;" x="217.112553" xlink:href="#m855049dfb0" y="166.567978"/>
     <use style="fill:#1f77b4;stroke:#1f77b4;" x="218.912185" xlink:href="#m855049dfb0" y="166.583423"/>
     <use style="fill:#1f77b4;stroke:#1f77b4;" x="220.711818" xlink:href="#m855049dfb0" y="166.610854"/>
    </g>
   </g>
   <g id="line2d_11">
    <path clip-path="url(#pcacf0b293b)" d="M 42.548182 166.411007 
L 44.347815 166.342436 
L 46.147447 166.255785 
L 47.94708 166.146921 
L 49.746713 166.010949 
L 51.546345 165.842116 
L 53.345978 165.63371 
L 55.145611 165.377977 
L 56.945243 165.066029 
L 58.744876 164.687777 
L 60.544509 164.231875 
L 62.344141 163.685692 
L 64.143774 163.035312 
L 65.943407 162.265578 
L 67.743039 161.360177 
L 69.542672 160.301778 
L 71.342305 159.072236 
L 73.141938 157.65285 
L 74.94157 156.024698 
L 76.741203 154.169037 
L 78.540836 152.067774 
L 80.340468 149.703995 
L 82.140101 147.062563 
L 83.939734 144.130751 
L 85.739366 140.898912 
L 87.538999 137.361159 
L 89.338632 133.516044 
L 91.138264 129.367195 
L 92.937897 124.923901 
L 94.73753 120.201606 
L 96.537163 115.222294 
L 98.336795 110.014727 
L 100.136428 104.614525 
L 101.936061 99.064054 
L 103.735693 93.412117 
L 105.535326 87.713441 
L 107.334959 82.027944 
L 109.134591 76.419809 
L 110.934224 70.956361 
L 112.733857 65.706788 
L 114.533489 60.740725 
L 116.333122 56.126743 
L 118.132755 51.930792 
L 119.932388 48.214641 
L 121.73202 45.034374 
L 123.531653 42.43898 
L 125.331286 40.4691 
L 127.130918 39.15597 
L 128.930551 38.520594 
L 130.730184 38.573188 
L 132.529816 39.312905 
L 134.329449 40.727859 
L 136.129082 42.79544 
L 137.928714 45.482919 
L 139.728347 48.748307 
L 141.52798 52.541447 
L 143.327612 56.805294 
L 145.127245 61.477341 
L 146.926878 66.491138 
L 148.726511 71.77785 
L 150.526143 77.267816 
L 152.325776 82.892043 
L 154.125409 88.583606 
L 155.925041 94.278905 
L 157.724674 99.918759 
L 159.524307 105.449303 
L 161.323939 110.822688 
L 163.123572 115.997561 
L 164.923205 120.939348 
L 166.722837 125.62033 
L 168.52247 130.01954 
L 170.322103 134.1225 
L 172.121736 137.920821 
L 173.921368 141.411687 
L 175.721001 144.597268 
L 177.520634 147.484068 
L 179.320266 150.082246 
L 181.119899 152.404942 
L 182.919532 154.467603 
L 184.719164 156.28736 
L 186.518797 157.882438 
L 188.31843 159.271637 
L 190.118062 160.473869 
L 191.917695 161.507768 
L 193.717328 162.391373 
L 195.516961 163.141869 
L 197.316593 163.775401 
L 199.116226 164.306942 
L 200.915859 164.750212 
L 202.715491 165.117646 
L 204.515124 165.420395 
L 206.314757 165.668362 
L 208.114389 165.870256 
L 209.914022 166.033666 
L 211.713655 166.165152 
L 213.513287 166.270331 
L 215.31292 166.353974 
L 217.112553 166.420106 
L 218.912185 166.472089 
L 220.711818 166.512714 
" style="fill:none;stroke:#ff0000;stroke-linecap:square;"/>
   </g>
   <g id="patch_3">
    <path d="M 33.64 173.32 
L 33.64 26.16 
" style="fill:none;stroke:#000000;stroke-linecap:square;stroke-linejoin:miter;stroke-width:0.8;"/>
   </g>
   <g id="patch_4">
    <path d="M 229.62 173.32 
L 229.62 26.16 
" style="fill:none;stroke:#000000;stroke-linecap:square;stroke-linejoin:miter;stroke-width:0.8;"/>
   </g>
   <g id="patch_5">
    <path d="M 33.64 173.32 
L 229.62 173.32 
" style="fill:none;stroke:#000000;stroke-linecap:square;stroke-linejoin:miter;stroke-width:0.8;"/>
   </g>
   <g id="patch_6">
    <path d="M 33.64 26.16 
L 229.62 26.16 
" style="fill:none;stroke:#000000;stroke-linecap:square;stroke-linejoin:miter;stroke-width:0.8;"/>
   </g>
   <g id="text_11">
    <!-- Energía total -->
    <defs>
     <path d="M 9.8125 72.90625 
L 55.90625 72.90625 
L 55.90625 64.59375 
L 19.671875 64.59375 
L 19.671875 43.015625 
L 54.390625 43.015625 
L 54.390625 34.71875 
L 19.671875 34.71875 
L 19.671875 8.296875 
L 56.78125 8.296875 
L 56.78125 0 
L 9.8125 0 
z
" id="DejaVuSans-45"/>
     <path d="M 54.890625 33.015625 
L 54.890625 0 
L 45.90625 0 
L 45.90625 32.71875 
Q 45.90625 40.484375 42.875 44.328125 
Q 39.84375 48.1875 33.796875 48.1875 
Q 26.515625 48.1875 22.3125 43.546875 
Q 18.109375 38.921875 18.109375 30.90625 
L 18.109375 0 
L 9.078125 0 
L 9.078125 54.6875 
L 18.109375 54.6875 
L 18.109375 46.1875 
Q 21.34375 51.125 25.703125 53.5625 
Q 30.078125 56 35.796875 56 
Q 45.21875 56 50.046875 50.171875 
Q 54.890625 44.34375 54.890625 33.015625 
z
" id="DejaVuSans-6e"/>
     <path d="M 56.203125 29.59375 
L 56.203125 25.203125 
L 14.890625 25.203125 
Q 15.484375 15.921875 20.484375 11.0625 
Q 25.484375 6.203125 34.421875 6.203125 
Q 39.59375 6.203125 44.453125 7.46875 
Q 49.3125 8.734375 54.109375 11.28125 
L 54.109375 2.78125 
Q 49.265625 0.734375 44.1875 -0.34375 
Q 39.109375 -1.421875 33.890625 -1.421875 
Q 20.796875 -1.421875 13.15625 6.1875 
Q 5.515625 13.8125 5.515625 26.8125 
Q 5.515625 40.234375 12.765625 48.109375 
Q 20.015625 56 32.328125 56 
Q 43.359375 56 49.78125 48.890625 
Q 56.203125 41.796875 56.203125 29.59375 
z
M 47.21875 32.234375 
Q 47.125 39.59375 43.09375 43.984375 
Q 39.0625 48.390625 32.421875 48.390625 
Q 24.90625 48.390625 20.390625 44.140625 
Q 15.875 39.890625 15.1875 32.171875 
z
" id="DejaVuSans-65"/>
     <path d="M 41.109375 46.296875 
Q 39.59375 47.171875 37.8125 47.578125 
Q 36.03125 48 33.890625 48 
Q 26.265625 48 22.1875 43.046875 
Q 18.109375 38.09375 18.109375 28.8125 
L 18.109375 0 
L 9.078125 0 
L 9.078125 54.6875 
L 18.109375 54.6875 
L 18.109375 46.1875 
Q 20.953125 51.171875 25.484375 53.578125 
Q 30.03125 56 36.53125 56 
Q 37.453125 56 38.578125 55.875 
Q 39.703125 55.765625 41.0625 55.515625 
z
" id="DejaVuSans-72"/>
     <path d="M 45.40625 27.984375 
Q 45.40625 37.75 41.375 43.109375 
Q 37.359375 48.484375 30.078125 48.484375 
Q 22.859375 48.484375 18.828125 43.109375 
Q 14.796875 37.75 14.796875 27.984375 
Q 14.796875 18.265625 18.828125 12.890625 
Q 22.859375 7.515625 30.078125 7.515625 
Q 37.359375 7.515625 41.375 12.890625 
Q 45.40625 18.265625 45.40625 27.984375 
z
M 54.390625 6.78125 
Q 54.390625 -7.171875 48.1875 -13.984375 
Q 42 -20.796875 29.203125 -20.796875 
Q 24.46875 -20.796875 20.265625 -20.09375 
Q 16.0625 -19.390625 12.109375 -17.921875 
L 12.109375 -9.1875 
Q 16.0625 -11.328125 19.921875 -12.34375 
Q 23.78125 -13.375 27.78125 -13.375 
Q 36.625 -13.375 41.015625 -8.765625 
Q 45.40625 -4.15625 45.40625 5.171875 
L 45.40625 9.625 
Q 42.625 4.78125 38.28125 2.390625 
Q 33.9375 0 27.875 0 
Q 17.828125 0 11.671875 7.65625 
Q 5.515625 15.328125 5.515625 27.984375 
Q 5.515625 40.671875 11.671875 48.328125 
Q 17.828125 56 27.875 56 
Q 33.9375 56 38.28125 53.609375 
Q 42.625 51.21875 45.40625 46.390625 
L 45.40625 54.6875 
L 54.390625 54.6875 
z
" id="DejaVuSans-67"/>
     <path d="M 20.65625 79.984375 
L 30.375 79.984375 
L 14.46875 61.625 
L 6.984375 61.625 
z
M 9.421875 54.6875 
L 18.40625 54.6875 
L 18.40625 0 
L 9.421875 0 
z
M 13.921875 56 
z
" id="DejaVuSans-ed"/>
     <path d="M 34.28125 27.484375 
Q 23.390625 27.484375 19.1875 25 
Q 14.984375 22.515625 14.984375 16.5 
Q 14.984375 11.71875 18.140625 8.90625 
Q 21.296875 6.109375 26.703125 6.109375 
Q 34.1875 6.109375 38.703125 11.40625 
Q 43.21875 16.703125 43.21875 25.484375 
L 43.21875 27.484375 
z
M 52.203125 31.203125 
L 52.203125 0 
L 43.21875 0 
L 43.21875 8.296875 
Q 40.140625 3.328125 35.546875 0.953125 
Q 30.953125 -1.421875 24.3125 -1.421875 
Q 15.921875 -1.421875 10.953125 3.296875 
Q 6 8.015625 6 15.921875 
Q 6 25.140625 12.171875 29.828125 
Q 18.359375 34.515625 30.609375 34.515625 
L 43.21875 34.515625 
L 43.21875 35.40625 
Q 43.21875 41.609375 39.140625 45 
Q 35.0625 48.390625 27.6875 48.390625 
Q 23 48.390625 18.546875 47.265625 
Q 14.109375 46.140625 10.015625 43.890625 
L 10.015625 52.203125 
Q 14.9375 54.109375 19.578125 55.046875 
Q 24.21875 56 28.609375 56 
Q 40.484375 56 46.34375 49.84375 
Q 52.203125 43.703125 52.203125 31.203125 
z
" id="DejaVuSans-61"/>
     <path id="DejaVuSans-20"/>
     <path d="M 18.3125 70.21875 
L 18.3125 54.6875 
L 36.8125 54.6875 
L 36.8125 47.703125 
L 18.3125 47.703125 
L 18.3125 18.015625 
Q 18.3125 11.328125 20.140625 9.421875 
Q 21.96875 7.515625 27.59375 7.515625 
L 36.8125 7.515625 
L 36.8125 0 
L 27.59375 0 
Q 17.1875 0 13.234375 3.875 
Q 9.28125 7.765625 9.28125 18.015625 
L 9.28125 47.703125 
L 2.6875 47.703125 
L 2.6875 54.6875 
L 9.28125 54.6875 
L 9.28125 70.21875 
z
" id="DejaVuSans-74"/>
     <path d="M 30.609375 48.390625 
Q 23.390625 48.390625 19.1875 42.75 
Q 14.984375 37.109375 14.984375 27.296875 
Q 14.984375 17.484375 19.15625 11.84375 
Q 23.34375 6.203125 30.609375 6.203125 
Q 37.796875 6.203125 41.984375 11.859375 
Q 46.1875 17.53125 46.1875 27.296875 
Q 46.1875 37.015625 41.984375 42.703125 
Q 37.796875 48.390625 30.609375 48.390625 
z
M 30.609375 56 
Q 42.328125 56 49.015625 48.375 
Q 55.71875 40.765625 55.71875 27.296875 
Q 55.71875 13.875 49.015625 6.21875 
Q 42.328125 -1.421875 30.609375 -1.421875 
Q 18.84375 -1.421875 12.171875 6.21875 
Q 5.515625 13.875 5.515625 27.296875 
Q 5.515625 40.765625 12.171875 48.375 
Q 18.84375 56 30.609375 56 
z
" id="DejaVuSans-6f"/>
     <path d="M 9.421875 75.984375 
L 18.40625 75.984375 
L 18.40625 0 
L 9.421875 0 
z
" id="DejaVuSans-6c"/>
    </defs>
    <g transform="translate(93.099687 20.16)scale(0.12 -0.12)">
     <use xlink:href="#DejaVuSans-45"/>
     <use x="63.183594" xlink:href="#DejaVuSans-6e"/>
     <use x="126.5625" xlink:href="#DejaVuSans-65"/>
     <use x="188.085938" xlink:href="#DejaVuSans-72"/>
     <use x="229.183594" xlink:href="#DejaVuSans-67"/>
     <use x="292.660156" xlink:href="#DejaVuSans-ed"/>
     <use x="320.443359" xlink:href="#DejaVuSans-61"/>
     <use x="381.722656" xlink:href="#DejaVuSans-20"/>
     <use x="413.509766" xlink:href="#DejaVuSans-74"/>
     <use x="452.71875" xlink:href="#DejaVuSans-6f"/>
     <use x="513.900391" xlink:href="#DejaVuSans-74"/>
     <use x="553.109375" xlink:href="#DejaVuSans-61"/>
     <use x="614.388672" xlink:href="#DejaVuSans-6c"/>
    </g>
   </g>
  </g>
  <g id="axes_2">
   <g id="patch_7">
    <path d="M 272.17 173.32 
L 468.15 173.32 
L 468.15 26.16 
L 272.17 26.16 
z
" style="fill:#ffffff;"/>
   </g>
   <g id="matplotlib.axis_3">
    <g id="xtick_4">
     <g id="line2d_12">
      <g>
       <use style="stroke:#000000;stroke-width:0.8;" x="305.467545" xlink:href="#m62f88e230c" y="173.32"/>
      </g>
     </g>
     <g id="text_12">
      <!-- 25.0 -->
      <defs>
       <path d="M 10.796875 72.90625 
L 49.515625 72.90625 
L 49.515625 64.59375 
L 19.828125 64.59375 
L 19.828125 46.734375 
Q 21.96875 47.46875 24.109375 47.828125 
Q 26.265625 48.1875 28.421875 48.1875 
Q 40.625 48.1875 47.75 41.5 
Q 54.890625 34.8125 54.890625 23.390625 
Q 54.890625 11.625 47.5625 5.09375 
Q 40.234375 -1.421875 26.90625 -1.421875 
Q 22.3125 -1.421875 17.546875 -0.640625 
Q 12.796875 0.140625 7.71875 1.703125 
L 7.71875 11.625 
Q 12.109375 9.234375 16.796875 8.0625 
Q 21.484375 6.890625 26.703125 6.890625 
Q 35.15625 6.890625 40.078125 11.328125 
Q 45.015625 15.765625 45.015625 23.390625 
Q 45.015625 31 40.078125 35.4375 
Q 35.15625 39.890625 26.703125 39.890625 
Q 22.75 39.890625 18.8125 39.015625 
Q 14.890625 38.140625 10.796875 36.28125 
z
" id="DejaVuSans-35"/>
      </defs>
      <g transform="translate(294.334732 187.918437)scale(0.1 -0.1)">
       <use xlink:href="#DejaVuSans-32"/>
       <use x="63.623047" xlink:href="#DejaVuSans-35"/>
       <use x="127.246094" xlink:href="#DejaVuSans-2e"/>
       <use x="159.033203" xlink:href="#DejaVuSans-30"/>
      </g>
     </g>
    </g>
    <g id="xtick_5">
     <g id="line2d_13">
      <g>
       <use style="stroke:#000000;stroke-width:0.8;" x="339.642112" xlink:href="#m62f88e230c" y="173.32"/>
      </g>
     </g>
     <g id="text_13">
      <!-- 25.5 -->
      <g transform="translate(328.509299 187.918437)scale(0.1 -0.1)">
       <use xlink:href="#DejaVuSans-32"/>
       <use x="63.623047" xlink:href="#DejaVuSans-35"/>
       <use x="127.246094" xlink:href="#DejaVuSans-2e"/>
       <use x="159.033203" xlink:href="#DejaVuSans-35"/>
      </g>
     </g>
    </g>
    <g id="xtick_6">
     <g id="line2d_14">
      <g>
       <use style="stroke:#000000;stroke-width:0.8;" x="373.816679" xlink:href="#m62f88e230c" y="173.32"/>
      </g>
     </g>
     <g id="text_14">
      <!-- 26.0 -->
      <g transform="translate(362.683866 187.918437)scale(0.1 -0.1)">
       <use xlink:href="#DejaVuSans-32"/>
       <use x="63.623047" xlink:href="#DejaVuSans-36"/>
       <use x="127.246094" xlink:href="#DejaVuSans-2e"/>
       <use x="159.033203" xlink:href="#DejaVuSans-30"/>
      </g>
     </g>
    </g>
    <g id="xtick_7">
     <g id="line2d_15">
      <g>
       <use style="stroke:#000000;stroke-width:0.8;" x="407.991246" xlink:href="#m62f88e230c" y="173.32"/>
      </g>
     </g>
     <g id="text_15">
      <!-- 26.5 -->
      <g transform="translate(396.858433 187.918437)scale(0.1 -0.1)">
       <use xlink:href="#DejaVuSans-32"/>
       <use x="63.623047" xlink:href="#DejaVuSans-36"/>
       <use x="127.246094" xlink:href="#DejaVuSans-2e"/>
       <use x="159.033203" xlink:href="#DejaVuSans-35"/>
      </g>
     </g>
    </g>
    <g id="xtick_8">
     <g id="line2d_16">
      <g>
       <use style="stroke:#000000;stroke-width:0.8;" x="442.165812" xlink:href="#m62f88e230c" y="173.32"/>
      </g>
     </g>
     <g id="text_16">
      <!-- 27.0 -->
      <defs>
       <path d="M 8.203125 72.90625 
L 55.078125 72.90625 
L 55.078125 68.703125 
L 28.609375 0 
L 18.3125 0 
L 43.21875 64.59375 
L 8.203125 64.59375 
z
" id="DejaVuSans-37"/>
      </defs>
      <g transform="translate(431.033 187.918437)scale(0.1 -0.1)">
       <use xlink:href="#DejaVuSans-32"/>
       <use x="63.623047" xlink:href="#DejaVuSans-37"/>
       <use x="127.246094" xlink:href="#DejaVuSans-2e"/>
       <use x="159.033203" xlink:href="#DejaVuSans-30"/>
      </g>
     </g>
    </g>
    <g id="text_17">
     <!-- $E/\epsilon$ -->
     <g transform="translate(362.61 201.596562)scale(0.1 -0.1)">
      <use transform="translate(0 0.09375)" xlink:href="#DejaVuSans-Oblique-45"/>
      <use transform="translate(63.183594 0.09375)" xlink:href="#DejaVuSans-2f"/>
      <use transform="translate(96.875 0.09375)" xlink:href="#DejaVuSans-Oblique-3b5"/>
     </g>
    </g>
   </g>
   <g id="matplotlib.axis_4">
    <g id="ytick_7">
     <g id="line2d_17">
      <g>
       <use style="stroke:#000000;stroke-width:0.8;" x="272.17" xlink:href="#m660bbcd5dc" y="166.631276"/>
      </g>
     </g>
     <g id="text_18">
      <!-- 0.00 -->
      <g transform="translate(242.904375 170.430495)scale(0.1 -0.1)">
       <use xlink:href="#DejaVuSans-30"/>
       <use x="63.623047" xlink:href="#DejaVuSans-2e"/>
       <use x="95.410156" xlink:href="#DejaVuSans-30"/>
       <use x="159.033203" xlink:href="#DejaVuSans-30"/>
      </g>
     </g>
    </g>
    <g id="ytick_8">
     <g id="line2d_18">
      <g>
       <use style="stroke:#000000;stroke-width:0.8;" x="272.17" xlink:href="#m660bbcd5dc" y="143.680281"/>
      </g>
     </g>
     <g id="text_19">
      <!-- 0.25 -->
      <g transform="translate(242.904375 147.4795)scale(0.1 -0.1)">
       <use xlink:href="#DejaVuSans-30"/>
       <use x="63.623047" xlink:href="#DejaVuSans-2e"/>
       <use x="95.410156" xlink:href="#DejaVuSans-32"/>
       <use x="159.033203" xlink:href="#DejaVuSans-35"/>
      </g>
     </g>
    </g>
    <g id="ytick_9">
     <g id="line2d_19">
      <g>
       <use style="stroke:#000000;stroke-width:0.8;" x="272.17" xlink:href="#m660bbcd5dc" y="120.729286"/>
      </g>
     </g>
     <g id="text_20">
      <!-- 0.50 -->
      <g transform="translate(242.904375 124.528504)scale(0.1 -0.1)">
       <use xlink:href="#DejaVuSans-30"/>
       <use x="63.623047" xlink:href="#DejaVuSans-2e"/>
       <use x="95.410156" xlink:href="#DejaVuSans-35"/>
       <use x="159.033203" xlink:href="#DejaVuSans-30"/>
      </g>
     </g>
    </g>
    <g id="ytick_10">
     <g id="line2d_20">
      <g>
       <use style="stroke:#000000;stroke-width:0.8;" x="272.17" xlink:href="#m660bbcd5dc" y="97.77829"/>
      </g>
     </g>
     <g id="text_21">
      <!-- 0.75 -->
      <g transform="translate(242.904375 101.577509)scale(0.1 -0.1)">
       <use xlink:href="#DejaVuSans-30"/>
       <use x="63.623047" xlink:href="#DejaVuSans-2e"/>
       <use x="95.410156" xlink:href="#DejaVuSans-37"/>
       <use x="159.033203" xlink:href="#DejaVuSans-35"/>
      </g>
     </g>
    </g>
    <g id="ytick_11">
     <g id="line2d_21">
      <g>
       <use style="stroke:#000000;stroke-width:0.8;" x="272.17" xlink:href="#m660bbcd5dc" y="74.827295"/>
      </g>
     </g>
     <g id="text_22">
      <!-- 1.00 -->
      <g transform="translate(242.904375 78.626514)scale(0.1 -0.1)">
       <use xlink:href="#DejaVuSans-31"/>
       <use x="63.623047" xlink:href="#DejaVuSans-2e"/>
       <use x="95.410156" xlink:href="#DejaVuSans-30"/>
       <use x="159.033203" xlink:href="#DejaVuSans-30"/>
      </g>
     </g>
    </g>
    <g id="ytick_12">
     <g id="line2d_22">
      <g>
       <use style="stroke:#000000;stroke-width:0.8;" x="272.17" xlink:href="#m660bbcd5dc" y="51.8763"/>
      </g>
     </g>
     <g id="text_23">
      <!-- 1.25 -->
      <g transform="translate(242.904375 55.675518)scale(0.1 -0.1)">
       <use xlink:href="#DejaVuSans-31"/>
       <use x="63.623047" xlink:href="#DejaVuSans-2e"/>
       <use x="95.410156" xlink:href="#DejaVuSans-32"/>
       <use x="159.033203" xlink:href="#DejaVuSans-35"/>
      </g>
     </g>
    </g>
    <g id="ytick_13">
     <g id="line2d_23">
      <g>
       <use style="stroke:#000000;stroke-width:0.8;" x="272.17" xlink:href="#m660bbcd5dc" y="28.925304"/>
      </g>
     </g>
     <g id="text_24">
      <!-- 1.50 -->
      <g transform="translate(242.904375 32.724523)scale(0.1 -0.1)">
       <use xlink:href="#DejaVuSans-31"/>
       <use x="63.623047" xlink:href="#DejaVuSans-2e"/>
       <use x="95.410156" xlink:href="#DejaVuSans-35"/>
       <use x="159.033203" xlink:href="#DejaVuSans-30"/>
      </g>
     </g>
    </g>
   </g>
   <g id="line2d_24">
    <defs>
     <path d="M 0 3 
C 0.795609 3 1.55874 2.683901 2.12132 2.12132 
C 2.683901 1.55874 3 0.795609 3 0 
C 3 -0.795609 2.683901 -1.55874 2.12132 -2.12132 
C 1.55874 -2.683901 0.795609 -3 0 -3 
C -0.795609 -3 -1.55874 -2.683901 -2.12132 -2.12132 
C -2.683901 -1.55874 -3 -0.795609 -3 0 
C -3 0.795609 -2.683901 1.55874 -2.12132 2.12132 
C -1.55874 2.683901 -0.795609 3 0 3 
z
" id="m4a756bc3af" style="stroke:#ff7f0e;"/>
    </defs>
    <g clip-path="url(#p21cae49ac2)">
     <use style="fill:#ff7f0e;stroke:#ff7f0e;" x="281.078182" xlink:href="#m4a756bc3af" y="166.630359"/>
     <use style="fill:#ff7f0e;stroke:#ff7f0e;" x="282.877815" xlink:href="#m4a756bc3af" y="166.629625"/>
     <use style="fill:#ff7f0e;stroke:#ff7f0e;" x="284.677447" xlink:href="#m4a756bc3af" y="166.625587"/>
     <use style="fill:#ff7f0e;stroke:#ff7f0e;" x="286.47708" xlink:href="#m4a756bc3af" y="166.622468"/>
     <use style="fill:#ff7f0e;stroke:#ff7f0e;" x="288.276713" xlink:href="#m4a756bc3af" y="166.61843"/>
     <use style="fill:#ff7f0e;stroke:#ff7f0e;" x="290.076345" xlink:href="#m4a756bc3af" y="166.606319"/>
     <use style="fill:#ff7f0e;stroke:#ff7f0e;" x="291.875978" xlink:href="#m4a756bc3af" y="166.589803"/>
     <use style="fill:#ff7f0e;stroke:#ff7f0e;" x="293.675611" xlink:href="#m4a756bc3af" y="166.554386"/>
     <use style="fill:#ff7f0e;stroke:#ff7f0e;" x="295.475243" xlink:href="#m4a756bc3af" y="166.522455"/>
     <use style="fill:#ff7f0e;stroke:#ff7f0e;" x="297.274876" xlink:href="#m4a756bc3af" y="166.441344"/>
     <use style="fill:#ff7f0e;stroke:#ff7f0e;" x="299.074509" xlink:href="#m4a756bc3af" y="166.382805"/>
     <use style="fill:#ff7f0e;stroke:#ff7f0e;" x="300.874141" xlink:href="#m4a756bc3af" y="166.35638"/>
     <use style="fill:#ff7f0e;stroke:#ff7f0e;" x="302.673774" xlink:href="#m4a756bc3af" y="166.217464"/>
     <use style="fill:#ff7f0e;stroke:#ff7f0e;" x="304.473407" xlink:href="#m4a756bc3af" y="166.118185"/>
     <use style="fill:#ff7f0e;stroke:#ff7f0e;" x="306.273039" xlink:href="#m4a756bc3af" y="165.982756"/>
     <use style="fill:#ff7f0e;stroke:#ff7f0e;" x="308.072672" xlink:href="#m4a756bc3af" y="165.768968"/>
     <use style="fill:#ff7f0e;stroke:#ff7f0e;" x="309.872305" xlink:href="#m4a756bc3af" y="165.553162"/>
     <use style="fill:#ff7f0e;stroke:#ff7f0e;" x="311.671938" xlink:href="#m4a756bc3af" y="165.345246"/>
     <use style="fill:#ff7f0e;stroke:#ff7f0e;" x="313.47157" xlink:href="#m4a756bc3af" y="164.957492"/>
     <use style="fill:#ff7f0e;stroke:#ff7f0e;" x="315.271203" xlink:href="#m4a756bc3af" y="164.622405"/>
     <use style="fill:#ff7f0e;stroke:#ff7f0e;" x="317.070836" xlink:href="#m4a756bc3af" y="164.146933"/>
     <use style="fill:#ff7f0e;stroke:#ff7f0e;" x="318.870468" xlink:href="#m4a756bc3af" y="163.376563"/>
     <use style="fill:#ff7f0e;stroke:#ff7f0e;" x="320.670101" xlink:href="#m4a756bc3af" y="162.692625"/>
     <use style="fill:#ff7f0e;stroke:#ff7f0e;" x="322.469734" xlink:href="#m4a756bc3af" y="161.760584"/>
     <use style="fill:#ff7f0e;stroke:#ff7f0e;" x="324.269366" xlink:href="#m4a756bc3af" y="160.279117"/>
     <use style="fill:#ff7f0e;stroke:#ff7f0e;" x="326.068999" xlink:href="#m4a756bc3af" y="158.912343"/>
     <use style="fill:#ff7f0e;stroke:#ff7f0e;" x="327.868632" xlink:href="#m4a756bc3af" y="157.214335"/>
     <use style="fill:#ff7f0e;stroke:#ff7f0e;" x="329.668264" xlink:href="#m4a756bc3af" y="154.604839"/>
     <use style="fill:#ff7f0e;stroke:#ff7f0e;" x="331.467897" xlink:href="#m4a756bc3af" y="152.239043"/>
     <use style="fill:#ff7f0e;stroke:#ff7f0e;" x="333.26753" xlink:href="#m4a756bc3af" y="149.006534"/>
     <use style="fill:#ff7f0e;stroke:#ff7f0e;" x="335.067163" xlink:href="#m4a756bc3af" y="144.526532"/>
     <use style="fill:#ff7f0e;stroke:#ff7f0e;" x="336.866795" xlink:href="#m4a756bc3af" y="140.790658"/>
     <use style="fill:#ff7f0e;stroke:#ff7f0e;" x="338.666428" xlink:href="#m4a756bc3af" y="136.093382"/>
     <use style="fill:#ff7f0e;stroke:#ff7f0e;" x="340.466061" xlink:href="#m4a756bc3af" y="129.139497"/>
     <use style="fill:#ff7f0e;stroke:#ff7f0e;" x="342.265693" xlink:href="#m4a756bc3af" y="124.277796"/>
     <use style="fill:#ff7f0e;stroke:#ff7f0e;" x="344.065326" xlink:href="#m4a756bc3af" y="117.777545"/>
     <use style="fill:#ff7f0e;stroke:#ff7f0e;" x="345.864959" xlink:href="#m4a756bc3af" y="108.919205"/>
     <use style="fill:#ff7f0e;stroke:#ff7f0e;" x="347.664591" xlink:href="#m4a756bc3af" y="103.042884"/>
     <use style="fill:#ff7f0e;stroke:#ff7f0e;" x="349.464224" xlink:href="#m4a756bc3af" y="95.659038"/>
     <use style="fill:#ff7f0e;stroke:#ff7f0e;" x="351.263857" xlink:href="#m4a756bc3af" y="84.655846"/>
     <use style="fill:#ff7f0e;stroke:#ff7f0e;" x="353.063489" xlink:href="#m4a756bc3af" y="79.75983"/>
     <use style="fill:#ff7f0e;stroke:#ff7f0e;" x="354.863122" xlink:href="#m4a756bc3af" y="72.313223"/>
     <use style="fill:#ff7f0e;stroke:#ff7f0e;" x="356.662755" xlink:href="#m4a756bc3af" y="61.32618"/>
     <use style="fill:#ff7f0e;stroke:#ff7f0e;" x="358.462388" xlink:href="#m4a756bc3af" y="58.603826"/>
     <use style="fill:#ff7f0e;stroke:#ff7f0e;" x="360.26202" xlink:href="#m4a756bc3af" y="52.889177"/>
     <use style="fill:#ff7f0e;stroke:#ff7f0e;" x="362.061653" xlink:href="#m4a756bc3af" y="43.45939"/>
     <use style="fill:#ff7f0e;stroke:#ff7f0e;" x="363.861286" xlink:href="#m4a756bc3af" y="44.262058"/>
     <use style="fill:#ff7f0e;stroke:#ff7f0e;" x="365.660918" xlink:href="#m4a756bc3af" y="41.28426"/>
     <use style="fill:#ff7f0e;stroke:#ff7f0e;" x="367.460551" xlink:href="#m4a756bc3af" y="33.695801"/>
     <use style="fill:#ff7f0e;stroke:#ff7f0e;" x="369.260184" xlink:href="#m4a756bc3af" y="37.234035"/>
     <use style="fill:#ff7f0e;stroke:#ff7f0e;" x="371.059816" xlink:href="#m4a756bc3af" y="37.009787"/>
     <use style="fill:#ff7f0e;stroke:#ff7f0e;" x="372.859449" xlink:href="#m4a756bc3af" y="32.849091"/>
     <use style="fill:#ff7f0e;stroke:#ff7f0e;" x="374.659082" xlink:href="#m4a756bc3af" y="39.973272"/>
     <use style="fill:#ff7f0e;stroke:#ff7f0e;" x="376.458714" xlink:href="#m4a756bc3af" y="43.036402"/>
     <use style="fill:#ff7f0e;stroke:#ff7f0e;" x="378.258347" xlink:href="#m4a756bc3af" y="42.004165"/>
     <use style="fill:#ff7f0e;stroke:#ff7f0e;" x="380.05798" xlink:href="#m4a756bc3af" y="51.648473"/>
     <use style="fill:#ff7f0e;stroke:#ff7f0e;" x="381.857612" xlink:href="#m4a756bc3af" y="57.046203"/>
     <use style="fill:#ff7f0e;stroke:#ff7f0e;" x="383.657245" xlink:href="#m4a756bc3af" y="59.38851"/>
     <use style="fill:#ff7f0e;stroke:#ff7f0e;" x="385.456878" xlink:href="#m4a756bc3af" y="70.262879"/>
     <use style="fill:#ff7f0e;stroke:#ff7f0e;" x="387.256511" xlink:href="#m4a756bc3af" y="77.338614"/>
     <use style="fill:#ff7f0e;stroke:#ff7f0e;" x="389.056143" xlink:href="#m4a756bc3af" y="81.625564"/>
     <use style="fill:#ff7f0e;stroke:#ff7f0e;" x="390.855776" xlink:href="#m4a756bc3af" y="92.386524"/>
     <use style="fill:#ff7f0e;stroke:#ff7f0e;" x="392.655409" xlink:href="#m4a756bc3af" y="99.703023"/>
     <use style="fill:#ff7f0e;stroke:#ff7f0e;" x="394.455041" xlink:href="#m4a756bc3af" y="104.973948"/>
     <use style="fill:#ff7f0e;stroke:#ff7f0e;" x="396.254674" xlink:href="#m4a756bc3af" y="114.085714"/>
     <use style="fill:#ff7f0e;stroke:#ff7f0e;" x="398.054307" xlink:href="#m4a756bc3af" y="120.833519"/>
     <use style="fill:#ff7f0e;stroke:#ff7f0e;" x="399.853939" xlink:href="#m4a756bc3af" y="125.268744"/>
     <use style="fill:#ff7f0e;stroke:#ff7f0e;" x="401.653572" xlink:href="#m4a756bc3af" y="132.61387"/>
     <use style="fill:#ff7f0e;stroke:#ff7f0e;" x="403.453205" xlink:href="#m4a756bc3af" y="137.808089"/>
     <use style="fill:#ff7f0e;stroke:#ff7f0e;" x="405.252837" xlink:href="#m4a756bc3af" y="141.688567"/>
     <use style="fill:#ff7f0e;stroke:#ff7f0e;" x="407.05247" xlink:href="#m4a756bc3af" y="146.534853"/>
     <use style="fill:#ff7f0e;stroke:#ff7f0e;" x="408.852103" xlink:href="#m4a756bc3af" y="150.042258"/>
     <use style="fill:#ff7f0e;stroke:#ff7f0e;" x="410.651736" xlink:href="#m4a756bc3af" y="152.715615"/>
     <use style="fill:#ff7f0e;stroke:#ff7f0e;" x="412.451368" xlink:href="#m4a756bc3af" y="155.625699"/>
     <use style="fill:#ff7f0e;stroke:#ff7f0e;" x="414.251001" xlink:href="#m4a756bc3af" y="157.882674"/>
     <use style="fill:#ff7f0e;stroke:#ff7f0e;" x="416.050634" xlink:href="#m4a756bc3af" y="159.339918"/>
     <use style="fill:#ff7f0e;stroke:#ff7f0e;" x="417.850266" xlink:href="#m4a756bc3af" y="161.08417"/>
     <use style="fill:#ff7f0e;stroke:#ff7f0e;" x="419.649899" xlink:href="#m4a756bc3af" y="162.284869"/>
     <use style="fill:#ff7f0e;stroke:#ff7f0e;" x="421.449532" xlink:href="#m4a756bc3af" y="163.119834"/>
     <use style="fill:#ff7f0e;stroke:#ff7f0e;" x="423.249164" xlink:href="#m4a756bc3af" y="164.017376"/>
     <use style="fill:#ff7f0e;stroke:#ff7f0e;" x="425.048797" xlink:href="#m4a756bc3af" y="164.617633"/>
     <use style="fill:#ff7f0e;stroke:#ff7f0e;" x="426.84843" xlink:href="#m4a756bc3af" y="165.066863"/>
     <use style="fill:#ff7f0e;stroke:#ff7f0e;" x="428.648062" xlink:href="#m4a756bc3af" y="165.510771"/>
     <use style="fill:#ff7f0e;stroke:#ff7f0e;" x="430.447695" xlink:href="#m4a756bc3af" y="165.805119"/>
     <use style="fill:#ff7f0e;stroke:#ff7f0e;" x="432.247328" xlink:href="#m4a756bc3af" y="166.022027"/>
     <use style="fill:#ff7f0e;stroke:#ff7f0e;" x="434.046961" xlink:href="#m4a756bc3af" y="166.200397"/>
     <use style="fill:#ff7f0e;stroke:#ff7f0e;" x="435.846593" xlink:href="#m4a756bc3af" y="166.322981"/>
     <use style="fill:#ff7f0e;stroke:#ff7f0e;" x="437.646226" xlink:href="#m4a756bc3af" y="166.415837"/>
     <use style="fill:#ff7f0e;stroke:#ff7f0e;" x="439.445859" xlink:href="#m4a756bc3af" y="166.491075"/>
     <use style="fill:#ff7f0e;stroke:#ff7f0e;" x="441.245491" xlink:href="#m4a756bc3af" y="166.543559"/>
     <use style="fill:#ff7f0e;stroke:#ff7f0e;" x="443.045124" xlink:href="#m4a756bc3af" y="166.575489"/>
     <use style="fill:#ff7f0e;stroke:#ff7f0e;" x="444.844757" xlink:href="#m4a756bc3af" y="166.602282"/>
     <use style="fill:#ff7f0e;stroke:#ff7f0e;" x="446.644389" xlink:href="#m4a756bc3af" y="166.613292"/>
     <use style="fill:#ff7f0e;stroke:#ff7f0e;" x="448.444022" xlink:href="#m4a756bc3af" y="166.618063"/>
     <use style="fill:#ff7f0e;stroke:#ff7f0e;" x="450.243655" xlink:href="#m4a756bc3af" y="166.624119"/>
     <use style="fill:#ff7f0e;stroke:#ff7f0e;" x="452.043287" xlink:href="#m4a756bc3af" y="166.627239"/>
     <use style="fill:#ff7f0e;stroke:#ff7f0e;" x="453.84292" xlink:href="#m4a756bc3af" y="166.629258"/>
     <use style="fill:#ff7f0e;stroke:#ff7f0e;" x="455.642553" xlink:href="#m4a756bc3af" y="166.630909"/>
     <use style="fill:#ff7f0e;stroke:#ff7f0e;" x="457.442185" xlink:href="#m4a756bc3af" y="166.630909"/>
     <use style="fill:#ff7f0e;stroke:#ff7f0e;" x="459.241818" xlink:href="#m4a756bc3af" y="166.630359"/>
    </g>
   </g>
   <g id="line2d_25">
    <path clip-path="url(#p21cae49ac2)" d="M 281.078182 166.629441 
L 282.877815 166.628411 
L 284.677447 166.626843 
L 286.47708 166.62448 
L 288.276713 166.62095 
L 290.076345 166.615729 
L 291.875978 166.608079 
L 293.675611 166.596975 
L 295.475243 166.581014 
L 297.274876 166.558289 
L 299.074509 166.526245 
L 300.874141 166.481493 
L 302.673774 166.419597 
L 304.473407 166.334819 
L 306.273039 166.219828 
L 308.072672 166.065377 
L 309.872305 165.859961 
L 311.671938 165.589452 
L 313.47157 165.236749 
L 315.271203 164.781457 
L 317.070836 164.199626 
L 318.870468 163.463585 
L 320.670101 162.541927 
L 322.469734 161.399667 
L 324.269366 159.99864 
L 326.068999 158.298173 
L 327.868632 156.256062 
L 329.668264 153.829885 
L 331.467897 150.978659 
L 333.26753 147.664807 
L 335.067163 143.856414 
L 336.866795 139.529687 
L 338.666428 134.671517 
L 340.466061 129.282019 
L 342.265693 123.376889 
L 344.065326 116.989409 
L 345.864959 110.171939 
L 347.664591 102.996696 
L 349.464224 95.555711 
L 351.263857 87.959818 
L 353.063489 80.336639 
L 354.863122 72.827537 
L 356.662755 65.583624 
L 358.462388 58.760938 
L 360.26202 52.515002 
L 362.061653 46.995007 
L 363.861286 42.337931 
L 365.660918 38.662911 
L 367.460551 36.066177 
L 369.260184 34.616872 
L 371.059816 34.353992 
L 372.859449 35.284641 
L 374.659082 37.383711 
L 376.458714 40.595012 
L 378.258347 44.833767 
L 380.05798 49.990332 
L 381.857612 55.934906 
L 383.657245 62.522949 
L 385.456878 69.600994 
L 387.256511 77.012533 
L 389.056143 84.603651 
L 390.855776 92.228153 
L 392.655409 99.751945 
L 394.455041 107.056501 
L 396.254674 114.04134 
L 398.054307 120.625475 
L 399.853939 126.747865 
L 401.653572 132.366987 
L 403.453205 137.459633 
L 405.252837 142.019113 
L 407.05247 146.053027 
L 408.852103 149.580789 
L 410.651736 152.631055 
L 412.451368 155.239204 
L 414.251001 157.444983 
L 416.050634 159.290405 
L 417.850266 160.817951 
L 419.649899 162.069107 
L 421.449532 163.083241 
L 423.249164 163.8968 
L 425.048797 164.542797 
L 426.84843 165.050553 
L 428.648062 165.44564 
L 430.447695 165.749991 
L 432.247328 165.982117 
L 434.046961 166.15741 
L 435.846593 166.288484 
L 437.646226 166.385537 
L 439.445859 166.456699 
L 441.245491 166.50837 
L 443.045124 166.545528 
L 444.844757 166.571991 
L 446.644389 166.590656 
L 448.444022 166.603696 
L 450.243655 166.612718 
L 452.043287 166.618901 
L 453.84292 166.623099 
L 455.642553 166.625921 
L 457.442185 166.627801 
L 459.241818 166.629041 
" style="fill:none;stroke:#ff0000;stroke-linecap:square;"/>
   </g>
   <g id="patch_8">
    <path d="M 272.17 173.32 
L 272.17 26.16 
" style="fill:none;stroke:#000000;stroke-linecap:square;stroke-linejoin:miter;stroke-width:0.8;"/>
   </g>
   <g id="patch_9">
    <path d="M 468.15 173.32 
L 468.15 26.16 
" style="fill:none;stroke:#000000;stroke-linecap:square;stroke-linejoin:miter;stroke-width:0.8;"/>
   </g>
   <g id="patch_10">
    <path d="M 272.17 173.32 
L 468.15 173.32 
" style="fill:none;stroke:#000000;stroke-linecap:square;stroke-linejoin:miter;stroke-width:0.8;"/>
   </g>
   <g id="patch_11">
    <path d="M 272.17 26.16 
L 468.15 26.16 
" style="fill:none;stroke:#000000;stroke-linecap:square;stroke-linejoin:miter;stroke-width:0.8;"/>
   </g>
   <g id="text_25">
    <!-- Energía potencial -->
    <defs>
     <path d="M 18.109375 8.203125 
L 18.109375 -20.796875 
L 9.078125 -20.796875 
L 9.078125 54.6875 
L 18.109375 54.6875 
L 18.109375 46.390625 
Q 20.953125 51.265625 25.265625 53.625 
Q 29.59375 56 35.59375 56 
Q 45.5625 56 51.78125 48.09375 
Q 58.015625 40.1875 58.015625 27.296875 
Q 58.015625 14.40625 51.78125 6.484375 
Q 45.5625 -1.421875 35.59375 -1.421875 
Q 29.59375 -1.421875 25.265625 0.953125 
Q 20.953125 3.328125 18.109375 8.203125 
z
M 48.6875 27.296875 
Q 48.6875 37.203125 44.609375 42.84375 
Q 40.53125 48.484375 33.40625 48.484375 
Q 26.265625 48.484375 22.1875 42.84375 
Q 18.109375 37.203125 18.109375 27.296875 
Q 18.109375 17.390625 22.1875 11.75 
Q 26.265625 6.109375 33.40625 6.109375 
Q 40.53125 6.109375 44.609375 11.75 
Q 48.6875 17.390625 48.6875 27.296875 
z
" id="DejaVuSans-70"/>
     <path d="M 48.78125 52.59375 
L 48.78125 44.1875 
Q 44.96875 46.296875 41.140625 47.34375 
Q 37.3125 48.390625 33.40625 48.390625 
Q 24.65625 48.390625 19.8125 42.84375 
Q 14.984375 37.3125 14.984375 27.296875 
Q 14.984375 17.28125 19.8125 11.734375 
Q 24.65625 6.203125 33.40625 6.203125 
Q 37.3125 6.203125 41.140625 7.25 
Q 44.96875 8.296875 48.78125 10.40625 
L 48.78125 2.09375 
Q 45.015625 0.34375 40.984375 -0.53125 
Q 36.96875 -1.421875 32.421875 -1.421875 
Q 20.0625 -1.421875 12.78125 6.34375 
Q 5.515625 14.109375 5.515625 27.296875 
Q 5.515625 40.671875 12.859375 48.328125 
Q 20.21875 56 33.015625 56 
Q 37.15625 56 41.109375 55.140625 
Q 45.0625 54.296875 48.78125 52.59375 
z
" id="DejaVuSans-63"/>
     <path d="M 9.421875 54.6875 
L 18.40625 54.6875 
L 18.40625 0 
L 9.421875 0 
z
M 9.421875 75.984375 
L 18.40625 75.984375 
L 18.40625 64.59375 
L 9.421875 64.59375 
z
" id="DejaVuSans-69"/>
    </defs>
    <g transform="translate(317.7125 20.16)scale(0.12 -0.12)">
     <use xlink:href="#DejaVuSans-45"/>
     <use x="63.183594" xlink:href="#DejaVuSans-6e"/>
     <use x="126.5625" xlink:href="#DejaVuSans-65"/>
     <use x="188.085938" xlink:href="#DejaVuSans-72"/>
     <use x="229.183594" xlink:href="#DejaVuSans-67"/>
     <use x="292.660156" xlink:href="#DejaVuSans-ed"/>
     <use x="320.443359" xlink:href="#DejaVuSans-61"/>
     <use x="381.722656" xlink:href="#DejaVuSans-20"/>
     <use x="413.509766" xlink:href="#DejaVuSans-70"/>
     <use x="476.986328" xlink:href="#DejaVuSans-6f"/>
     <use x="538.167969" xlink:href="#DejaVuSans-74"/>
     <use x="577.376953" xlink:href="#DejaVuSans-65"/>
     <use x="638.900391" xlink:href="#DejaVuSans-6e"/>
     <use x="702.279297" xlink:href="#DejaVuSans-63"/>
     <use x="757.259766" xlink:href="#DejaVuSans-69"/>
     <use x="785.042969" xlink:href="#DejaVuSans-61"/>
     <use x="846.322266" xlink:href="#DejaVuSans-6c"/>
    </g>
   </g>
  </g>
  <g id="axes_3">
   <g id="patch_12">
    <path d="M 510.7 173.32 
L 706.68 173.32 
L 706.68 26.16 
L 510.7 26.16 
z
" style="fill:#ffffff;"/>
   </g>
   <g id="matplotlib.axis_5">
    <g id="xtick_9">
     <g id="line2d_26">
      <g>
       <use style="stroke:#000000;stroke-width:0.8;" x="518.616179" xlink:href="#m62f88e230c" y="173.32"/>
      </g>
     </g>
     <g id="text_26">
      <!-- 4.0 -->
      <g transform="translate(510.664616 187.918437)scale(0.1 -0.1)">
       <use xlink:href="#DejaVuSans-34"/>
       <use x="63.623047" xlink:href="#DejaVuSans-2e"/>
       <use x="95.410156" xlink:href="#DejaVuSans-30"/>
      </g>
     </g>
    </g>
    <g id="xtick_10">
     <g id="line2d_27">
      <g>
       <use style="stroke:#000000;stroke-width:0.8;" x="555.490875" xlink:href="#m62f88e230c" y="173.32"/>
      </g>
     </g>
     <g id="text_27">
      <!-- 4.5 -->
      <g transform="translate(547.539313 187.918437)scale(0.1 -0.1)">
       <use xlink:href="#DejaVuSans-34"/>
       <use x="63.623047" xlink:href="#DejaVuSans-2e"/>
       <use x="95.410156" xlink:href="#DejaVuSans-35"/>
      </g>
     </g>
    </g>
    <g id="xtick_11">
     <g id="line2d_28">
      <g>
       <use style="stroke:#000000;stroke-width:0.8;" x="592.365572" xlink:href="#m62f88e230c" y="173.32"/>
      </g>
     </g>
     <g id="text_28">
      <!-- 5.0 -->
      <g transform="translate(584.414009 187.918437)scale(0.1 -0.1)">
       <use xlink:href="#DejaVuSans-35"/>
       <use x="63.623047" xlink:href="#DejaVuSans-2e"/>
       <use x="95.410156" xlink:href="#DejaVuSans-30"/>
      </g>
     </g>
    </g>
    <g id="xtick_12">
     <g id="line2d_29">
      <g>
       <use style="stroke:#000000;stroke-width:0.8;" x="629.240268" xlink:href="#m62f88e230c" y="173.32"/>
      </g>
     </g>
     <g id="text_29">
      <!-- 5.5 -->
      <g transform="translate(621.288706 187.918437)scale(0.1 -0.1)">
       <use xlink:href="#DejaVuSans-35"/>
       <use x="63.623047" xlink:href="#DejaVuSans-2e"/>
       <use x="95.410156" xlink:href="#DejaVuSans-35"/>
      </g>
     </g>
    </g>
    <g id="xtick_13">
     <g id="line2d_30">
      <g>
       <use style="stroke:#000000;stroke-width:0.8;" x="666.114965" xlink:href="#m62f88e230c" y="173.32"/>
      </g>
     </g>
     <g id="text_30">
      <!-- 6.0 -->
      <g transform="translate(658.163402 187.918437)scale(0.1 -0.1)">
       <use xlink:href="#DejaVuSans-36"/>
       <use x="63.623047" xlink:href="#DejaVuSans-2e"/>
       <use x="95.410156" xlink:href="#DejaVuSans-30"/>
      </g>
     </g>
    </g>
    <g id="xtick_14">
     <g id="line2d_31">
      <g>
       <use style="stroke:#000000;stroke-width:0.8;" x="702.989661" xlink:href="#m62f88e230c" y="173.32"/>
      </g>
     </g>
     <g id="text_31">
      <!-- 6.5 -->
      <g transform="translate(695.038099 187.918437)scale(0.1 -0.1)">
       <use xlink:href="#DejaVuSans-36"/>
       <use x="63.623047" xlink:href="#DejaVuSans-2e"/>
       <use x="95.410156" xlink:href="#DejaVuSans-35"/>
      </g>
     </g>
    </g>
    <g id="text_32">
     <!-- $E/\epsilon$ -->
     <g transform="translate(601.14 201.596562)scale(0.1 -0.1)">
      <use transform="translate(0 0.09375)" xlink:href="#DejaVuSans-Oblique-45"/>
      <use transform="translate(63.183594 0.09375)" xlink:href="#DejaVuSans-2f"/>
      <use transform="translate(96.875 0.09375)" xlink:href="#DejaVuSans-Oblique-3b5"/>
     </g>
    </g>
   </g>
   <g id="matplotlib.axis_6">
    <g id="ytick_14">
     <g id="line2d_32">
      <g>
       <use style="stroke:#000000;stroke-width:0.8;" x="510.7" xlink:href="#m660bbcd5dc" y="166.630909"/>
      </g>
     </g>
     <g id="text_33">
      <!-- 0.00 -->
      <g transform="translate(481.434375 170.430128)scale(0.1 -0.1)">
       <use xlink:href="#DejaVuSans-30"/>
       <use x="63.623047" xlink:href="#DejaVuSans-2e"/>
       <use x="95.410156" xlink:href="#DejaVuSans-30"/>
       <use x="159.033203" xlink:href="#DejaVuSans-30"/>
      </g>
     </g>
    </g>
    <g id="ytick_15">
     <g id="line2d_33">
      <g>
       <use style="stroke:#000000;stroke-width:0.8;" x="510.7" xlink:href="#m660bbcd5dc" y="145.036167"/>
      </g>
     </g>
     <g id="text_34">
      <!-- 0.25 -->
      <g transform="translate(481.434375 148.835386)scale(0.1 -0.1)">
       <use xlink:href="#DejaVuSans-30"/>
       <use x="63.623047" xlink:href="#DejaVuSans-2e"/>
       <use x="95.410156" xlink:href="#DejaVuSans-32"/>
       <use x="159.033203" xlink:href="#DejaVuSans-35"/>
      </g>
     </g>
    </g>
    <g id="ytick_16">
     <g id="line2d_34">
      <g>
       <use style="stroke:#000000;stroke-width:0.8;" x="510.7" xlink:href="#m660bbcd5dc" y="123.441426"/>
      </g>
     </g>
     <g id="text_35">
      <!-- 0.50 -->
      <g transform="translate(481.434375 127.240644)scale(0.1 -0.1)">
       <use xlink:href="#DejaVuSans-30"/>
       <use x="63.623047" xlink:href="#DejaVuSans-2e"/>
       <use x="95.410156" xlink:href="#DejaVuSans-35"/>
       <use x="159.033203" xlink:href="#DejaVuSans-30"/>
      </g>
     </g>
    </g>
    <g id="ytick_17">
     <g id="line2d_35">
      <g>
       <use style="stroke:#000000;stroke-width:0.8;" x="510.7" xlink:href="#m660bbcd5dc" y="101.846684"/>
      </g>
     </g>
     <g id="text_36">
      <!-- 0.75 -->
      <g transform="translate(481.434375 105.645903)scale(0.1 -0.1)">
       <use xlink:href="#DejaVuSans-30"/>
       <use x="63.623047" xlink:href="#DejaVuSans-2e"/>
       <use x="95.410156" xlink:href="#DejaVuSans-37"/>
       <use x="159.033203" xlink:href="#DejaVuSans-35"/>
      </g>
     </g>
    </g>
    <g id="ytick_18">
     <g id="line2d_36">
      <g>
       <use style="stroke:#000000;stroke-width:0.8;" x="510.7" xlink:href="#m660bbcd5dc" y="80.251942"/>
      </g>
     </g>
     <g id="text_37">
      <!-- 1.00 -->
      <g transform="translate(481.434375 84.051161)scale(0.1 -0.1)">
       <use xlink:href="#DejaVuSans-31"/>
       <use x="63.623047" xlink:href="#DejaVuSans-2e"/>
       <use x="95.410156" xlink:href="#DejaVuSans-30"/>
       <use x="159.033203" xlink:href="#DejaVuSans-30"/>
      </g>
     </g>
    </g>
    <g id="ytick_19">
     <g id="line2d_37">
      <g>
       <use style="stroke:#000000;stroke-width:0.8;" x="510.7" xlink:href="#m660bbcd5dc" y="58.6572"/>
      </g>
     </g>
     <g id="text_38">
      <!-- 1.25 -->
      <g transform="translate(481.434375 62.456419)scale(0.1 -0.1)">
       <use xlink:href="#DejaVuSans-31"/>
       <use x="63.623047" xlink:href="#DejaVuSans-2e"/>
       <use x="95.410156" xlink:href="#DejaVuSans-32"/>
       <use x="159.033203" xlink:href="#DejaVuSans-35"/>
      </g>
     </g>
    </g>
    <g id="ytick_20">
     <g id="line2d_38">
      <g>
       <use style="stroke:#000000;stroke-width:0.8;" x="510.7" xlink:href="#m660bbcd5dc" y="37.062459"/>
      </g>
     </g>
     <g id="text_39">
      <!-- 1.50 -->
      <g transform="translate(481.434375 40.861677)scale(0.1 -0.1)">
       <use xlink:href="#DejaVuSans-31"/>
       <use x="63.623047" xlink:href="#DejaVuSans-2e"/>
       <use x="95.410156" xlink:href="#DejaVuSans-35"/>
       <use x="159.033203" xlink:href="#DejaVuSans-30"/>
      </g>
     </g>
    </g>
   </g>
   <g id="line2d_39">
    <defs>
     <path d="M 0 3 
C 0.795609 3 1.55874 2.683901 2.12132 2.12132 
C 2.683901 1.55874 3 0.795609 3 0 
C 3 -0.795609 2.683901 -1.55874 2.12132 -2.12132 
C 1.55874 -2.683901 0.795609 -3 0 -3 
C -0.795609 -3 -1.55874 -2.683901 -2.12132 -2.12132 
C -2.683901 -1.55874 -3 -0.795609 -3 0 
C -3 0.795609 -2.683901 1.55874 -2.12132 2.12132 
C -1.55874 2.683901 -0.795609 3 0 3 
z
" id="m56dfdab5ac" style="stroke:#2ca02c;"/>
    </defs>
    <g clip-path="url(#p42f2ef6155)">
     <use style="fill:#2ca02c;stroke:#2ca02c;" x="519.608182" xlink:href="#m56dfdab5ac" y="166.629503"/>
     <use style="fill:#2ca02c;stroke:#2ca02c;" x="520.323698" xlink:href="#m56dfdab5ac" y="166.630909"/>
     <use style="fill:#2ca02c;stroke:#2ca02c;" x="521.039215" xlink:href="#m56dfdab5ac" y="166.630909"/>
     <use style="fill:#2ca02c;stroke:#2ca02c;" x="521.754732" xlink:href="#m56dfdab5ac" y="166.629035"/>
     <use style="fill:#2ca02c;stroke:#2ca02c;" x="522.470248" xlink:href="#m56dfdab5ac" y="166.630909"/>
     <use style="fill:#2ca02c;stroke:#2ca02c;" x="523.185765" xlink:href="#m56dfdab5ac" y="166.629972"/>
     <use style="fill:#2ca02c;stroke:#2ca02c;" x="523.901281" xlink:href="#m56dfdab5ac" y="166.629972"/>
     <use style="fill:#2ca02c;stroke:#2ca02c;" x="524.616798" xlink:href="#m56dfdab5ac" y="166.629503"/>
     <use style="fill:#2ca02c;stroke:#2ca02c;" x="525.332315" xlink:href="#m56dfdab5ac" y="166.630441"/>
     <use style="fill:#2ca02c;stroke:#2ca02c;" x="526.047831" xlink:href="#m56dfdab5ac" y="166.62716"/>
     <use style="fill:#2ca02c;stroke:#2ca02c;" x="526.763348" xlink:href="#m56dfdab5ac" y="166.622474"/>
     <use style="fill:#2ca02c;stroke:#2ca02c;" x="527.478865" xlink:href="#m56dfdab5ac" y="166.62388"/>
     <use style="fill:#2ca02c;stroke:#2ca02c;" x="528.194381" xlink:href="#m56dfdab5ac" y="166.622943"/>
     <use style="fill:#2ca02c;stroke:#2ca02c;" x="528.909898" xlink:href="#m56dfdab5ac" y="166.621537"/>
     <use style="fill:#2ca02c;stroke:#2ca02c;" x="529.625414" xlink:href="#m56dfdab5ac" y="166.617789"/>
     <use style="fill:#2ca02c;stroke:#2ca02c;" x="530.340931" xlink:href="#m56dfdab5ac" y="166.616383"/>
     <use style="fill:#2ca02c;stroke:#2ca02c;" x="531.056448" xlink:href="#m56dfdab5ac" y="166.609823"/>
     <use style="fill:#2ca02c;stroke:#2ca02c;" x="531.771964" xlink:href="#m56dfdab5ac" y="166.612165"/>
     <use style="fill:#2ca02c;stroke:#2ca02c;" x="532.487481" xlink:href="#m56dfdab5ac" y="166.602325"/>
     <use style="fill:#2ca02c;stroke:#2ca02c;" x="533.202997" xlink:href="#m56dfdab5ac" y="166.603262"/>
     <use style="fill:#2ca02c;stroke:#2ca02c;" x="533.918514" xlink:href="#m56dfdab5ac" y="166.588267"/>
     <use style="fill:#2ca02c;stroke:#2ca02c;" x="534.634031" xlink:href="#m56dfdab5ac" y="166.585924"/>
     <use style="fill:#2ca02c;stroke:#2ca02c;" x="535.349547" xlink:href="#m56dfdab5ac" y="166.582176"/>
     <use style="fill:#2ca02c;stroke:#2ca02c;" x="536.065064" xlink:href="#m56dfdab5ac" y="166.565775"/>
     <use style="fill:#2ca02c;stroke:#2ca02c;" x="536.780581" xlink:href="#m56dfdab5ac" y="166.555935"/>
     <use style="fill:#2ca02c;stroke:#2ca02c;" x="537.496097" xlink:href="#m56dfdab5ac" y="166.531099"/>
     <use style="fill:#2ca02c;stroke:#2ca02c;" x="538.211614" xlink:href="#m56dfdab5ac" y="166.518916"/>
     <use style="fill:#2ca02c;stroke:#2ca02c;" x="538.92713" xlink:href="#m56dfdab5ac" y="166.499704"/>
     <use style="fill:#2ca02c;stroke:#2ca02c;" x="539.642647" xlink:href="#m56dfdab5ac" y="166.461279"/>
     <use style="fill:#2ca02c;stroke:#2ca02c;" x="540.358164" xlink:href="#m56dfdab5ac" y="166.435038"/>
     <use style="fill:#2ca02c;stroke:#2ca02c;" x="541.07368" xlink:href="#m56dfdab5ac" y="166.433164"/>
     <use style="fill:#2ca02c;stroke:#2ca02c;" x="541.789197" xlink:href="#m56dfdab5ac" y="166.386305"/>
     <use style="fill:#2ca02c;stroke:#2ca02c;" x="542.504713" xlink:href="#m56dfdab5ac" y="166.391928"/>
     <use style="fill:#2ca02c;stroke:#2ca02c;" x="543.22023" xlink:href="#m56dfdab5ac" y="166.322577"/>
     <use style="fill:#2ca02c;stroke:#2ca02c;" x="543.935747" xlink:href="#m56dfdab5ac" y="166.283684"/>
     <use style="fill:#2ca02c;stroke:#2ca02c;" x="544.651263" xlink:href="#m56dfdab5ac" y="166.254631"/>
     <use style="fill:#2ca02c;stroke:#2ca02c;" x="545.36678" xlink:href="#m56dfdab5ac" y="166.244791"/>
     <use style="fill:#2ca02c;stroke:#2ca02c;" x="546.082296" xlink:href="#m56dfdab5ac" y="166.152479"/>
     <use style="fill:#2ca02c;stroke:#2ca02c;" x="546.797813" xlink:href="#m56dfdab5ac" y="166.106557"/>
     <use style="fill:#2ca02c;stroke:#2ca02c;" x="547.51333" xlink:href="#m56dfdab5ac" y="166.023616"/>
     <use style="fill:#2ca02c;stroke:#2ca02c;" x="548.228846" xlink:href="#m56dfdab5ac" y="165.991752"/>
     <use style="fill:#2ca02c;stroke:#2ca02c;" x="548.944363" xlink:href="#m56dfdab5ac" y="165.952391"/>
     <use style="fill:#2ca02c;stroke:#2ca02c;" x="549.65988" xlink:href="#m56dfdab5ac" y="165.916309"/>
     <use style="fill:#2ca02c;stroke:#2ca02c;" x="550.375396" xlink:href="#m56dfdab5ac" y="165.832432"/>
     <use style="fill:#2ca02c;stroke:#2ca02c;" x="551.090913" xlink:href="#m56dfdab5ac" y="165.785104"/>
     <use style="fill:#2ca02c;stroke:#2ca02c;" x="551.806429" xlink:href="#m56dfdab5ac" y="165.725124"/>
     <use style="fill:#2ca02c;stroke:#2ca02c;" x="552.521946" xlink:href="#m56dfdab5ac" y="165.639372"/>
     <use style="fill:#2ca02c;stroke:#2ca02c;" x="553.237463" xlink:href="#m56dfdab5ac" y="165.538157"/>
     <use style="fill:#2ca02c;stroke:#2ca02c;" x="553.952979" xlink:href="#m56dfdab5ac" y="165.44725"/>
     <use style="fill:#2ca02c;stroke:#2ca02c;" x="554.668496" xlink:href="#m56dfdab5ac" y="165.279964"/>
     <use style="fill:#2ca02c;stroke:#2ca02c;" x="555.384012" xlink:href="#m56dfdab5ac" y="165.182497"/>
     <use style="fill:#2ca02c;stroke:#2ca02c;" x="556.099529" xlink:href="#m56dfdab5ac" y="165.030205"/>
     <use style="fill:#2ca02c;stroke:#2ca02c;" x="556.815046" xlink:href="#m56dfdab5ac" y="164.998341"/>
     <use style="fill:#2ca02c;stroke:#2ca02c;" x="557.530562" xlink:href="#m56dfdab5ac" y="164.768263"/>
     <use style="fill:#2ca02c;stroke:#2ca02c;" x="558.246079" xlink:href="#m56dfdab5ac" y="164.567238"/>
     <use style="fill:#2ca02c;stroke:#2ca02c;" x="558.961595" xlink:href="#m56dfdab5ac" y="164.426193"/>
     <use style="fill:#2ca02c;stroke:#2ca02c;" x="559.677112" xlink:href="#m56dfdab5ac" y="164.219076"/>
     <use style="fill:#2ca02c;stroke:#2ca02c;" x="560.392629" xlink:href="#m56dfdab5ac" y="163.939796"/>
     <use style="fill:#2ca02c;stroke:#2ca02c;" x="561.108145" xlink:href="#m56dfdab5ac" y="163.6891"/>
     <use style="fill:#2ca02c;stroke:#2ca02c;" x="561.823662" xlink:href="#m56dfdab5ac" y="163.35031"/>
     <use style="fill:#2ca02c;stroke:#2ca02c;" x="562.539179" xlink:href="#m56dfdab5ac" y="163.113672"/>
     <use style="fill:#2ca02c;stroke:#2ca02c;" x="563.254695" xlink:href="#m56dfdab5ac" y="162.825489"/>
     <use style="fill:#2ca02c;stroke:#2ca02c;" x="563.970212" xlink:href="#m56dfdab5ac" y="162.468423"/>
     <use style="fill:#2ca02c;stroke:#2ca02c;" x="564.685728" xlink:href="#m56dfdab5ac" y="162.091208"/>
     <use style="fill:#2ca02c;stroke:#2ca02c;" x="565.401245" xlink:href="#m56dfdab5ac" y="161.751949"/>
     <use style="fill:#2ca02c;stroke:#2ca02c;" x="566.116762" xlink:href="#m56dfdab5ac" y="161.292262"/>
     <use style="fill:#2ca02c;stroke:#2ca02c;" x="566.832278" xlink:href="#m56dfdab5ac" y="160.735577"/>
     <use style="fill:#2ca02c;stroke:#2ca02c;" x="567.547795" xlink:href="#m56dfdab5ac" y="160.214973"/>
     <use style="fill:#2ca02c;stroke:#2ca02c;" x="568.263311" xlink:href="#m56dfdab5ac" y="159.5313"/>
     <use style="fill:#2ca02c;stroke:#2ca02c;" x="568.978828" xlink:href="#m56dfdab5ac" y="158.863091"/>
     <use style="fill:#2ca02c;stroke:#2ca02c;" x="569.694345" xlink:href="#m56dfdab5ac" y="158.233774"/>
     <use style="fill:#2ca02c;stroke:#2ca02c;" x="570.409861" xlink:href="#m56dfdab5ac" y="157.34439"/>
     <use style="fill:#2ca02c;stroke:#2ca02c;" x="571.125378" xlink:href="#m56dfdab5ac" y="156.520608"/>
     <use style="fill:#2ca02c;stroke:#2ca02c;" x="571.840894" xlink:href="#m56dfdab5ac" y="155.763835"/>
     <use style="fill:#2ca02c;stroke:#2ca02c;" x="572.556411" xlink:href="#m56dfdab5ac" y="154.726845"/>
     <use style="fill:#2ca02c;stroke:#2ca02c;" x="573.271928" xlink:href="#m56dfdab5ac" y="153.635499"/>
     <use style="fill:#2ca02c;stroke:#2ca02c;" x="573.987444" xlink:href="#m56dfdab5ac" y="152.590543"/>
     <use style="fill:#2ca02c;stroke:#2ca02c;" x="574.702961" xlink:href="#m56dfdab5ac" y="151.182898"/>
     <use style="fill:#2ca02c;stroke:#2ca02c;" x="575.418478" xlink:href="#m56dfdab5ac" y="149.869909"/>
     <use style="fill:#2ca02c;stroke:#2ca02c;" x="576.133994" xlink:href="#m56dfdab5ac" y="148.391038"/>
     <use style="fill:#2ca02c;stroke:#2ca02c;" x="576.849511" xlink:href="#m56dfdab5ac" y="147.10429"/>
     <use style="fill:#2ca02c;stroke:#2ca02c;" x="577.565027" xlink:href="#m56dfdab5ac" y="145.538262"/>
     <use style="fill:#2ca02c;stroke:#2ca02c;" x="578.280544" xlink:href="#m56dfdab5ac" y="143.78714"/>
     <use style="fill:#2ca02c;stroke:#2ca02c;" x="578.996061" xlink:href="#m56dfdab5ac" y="142.163007"/>
     <use style="fill:#2ca02c;stroke:#2ca02c;" x="579.711577" xlink:href="#m56dfdab5ac" y="140.009835"/>
     <use style="fill:#2ca02c;stroke:#2ca02c;" x="580.427094" xlink:href="#m56dfdab5ac" y="138.208106"/>
     <use style="fill:#2ca02c;stroke:#2ca02c;" x="581.14261" xlink:href="#m56dfdab5ac" y="136.316408"/>
     <use style="fill:#2ca02c;stroke:#2ca02c;" x="581.858127" xlink:href="#m56dfdab5ac" y="133.912541"/>
     <use style="fill:#2ca02c;stroke:#2ca02c;" x="582.573644" xlink:href="#m56dfdab5ac" y="131.693766"/>
     <use style="fill:#2ca02c;stroke:#2ca02c;" x="583.28916" xlink:href="#m56dfdab5ac" y="129.061227"/>
     <use style="fill:#2ca02c;stroke:#2ca02c;" x="584.004677" xlink:href="#m56dfdab5ac" y="126.728585"/>
     <use style="fill:#2ca02c;stroke:#2ca02c;" x="584.720194" xlink:href="#m56dfdab5ac" y="124.542612"/>
     <use style="fill:#2ca02c;stroke:#2ca02c;" x="585.43571" xlink:href="#m56dfdab5ac" y="121.884301"/>
     <use style="fill:#2ca02c;stroke:#2ca02c;" x="586.151227" xlink:href="#m56dfdab5ac" y="118.959361"/>
     <use style="fill:#2ca02c;stroke:#2ca02c;" x="586.866743" xlink:href="#m56dfdab5ac" y="116.330102"/>
     <use style="fill:#2ca02c;stroke:#2ca02c;" x="587.58226" xlink:href="#m56dfdab5ac" y="113.630554"/>
     <use style="fill:#2ca02c;stroke:#2ca02c;" x="588.297777" xlink:href="#m56dfdab5ac" y="110.704677"/>
     <use style="fill:#2ca02c;stroke:#2ca02c;" x="589.013293" xlink:href="#m56dfdab5ac" y="107.913286"/>
     <use style="fill:#2ca02c;stroke:#2ca02c;" x="589.72881" xlink:href="#m56dfdab5ac" y="104.903063"/>
     <use style="fill:#2ca02c;stroke:#2ca02c;" x="590.444326" xlink:href="#m56dfdab5ac" y="100.936916"/>
     <use style="fill:#2ca02c;stroke:#2ca02c;" x="591.159843" xlink:href="#m56dfdab5ac" y="97.902326"/>
     <use style="fill:#2ca02c;stroke:#2ca02c;" x="591.87536" xlink:href="#m56dfdab5ac" y="94.989102"/>
     <use style="fill:#2ca02c;stroke:#2ca02c;" x="592.590876" xlink:href="#m56dfdab5ac" y="92.128359"/>
     <use style="fill:#2ca02c;stroke:#2ca02c;" x="593.306393" xlink:href="#m56dfdab5ac" y="88.963033"/>
     <use style="fill:#2ca02c;stroke:#2ca02c;" x="594.021909" xlink:href="#m56dfdab5ac" y="85.784586"/>
     <use style="fill:#2ca02c;stroke:#2ca02c;" x="594.737426" xlink:href="#m56dfdab5ac" y="82.171287"/>
     <use style="fill:#2ca02c;stroke:#2ca02c;" x="595.452943" xlink:href="#m56dfdab5ac" y="79.239787"/>
     <use style="fill:#2ca02c;stroke:#2ca02c;" x="596.168459" xlink:href="#m56dfdab5ac" y="75.912798"/>
     <use style="fill:#2ca02c;stroke:#2ca02c;" x="596.883976" xlink:href="#m56dfdab5ac" y="72.864619"/>
     <use style="fill:#2ca02c;stroke:#2ca02c;" x="597.599493" xlink:href="#m56dfdab5ac" y="70.065261"/>
     <use style="fill:#2ca02c;stroke:#2ca02c;" x="598.315009" xlink:href="#m56dfdab5ac" y="66.424785"/>
     <use style="fill:#2ca02c;stroke:#2ca02c;" x="599.030526" xlink:href="#m56dfdab5ac" y="64.067776"/>
     <use style="fill:#2ca02c;stroke:#2ca02c;" x="599.746042" xlink:href="#m56dfdab5ac" y="61.019129"/>
     <use style="fill:#2ca02c;stroke:#2ca02c;" x="600.461559" xlink:href="#m56dfdab5ac" y="58.733815"/>
     <use style="fill:#2ca02c;stroke:#2ca02c;" x="601.177076" xlink:href="#m56dfdab5ac" y="56.001934"/>
     <use style="fill:#2ca02c;stroke:#2ca02c;" x="601.892592" xlink:href="#m56dfdab5ac" y="53.744267"/>
     <use style="fill:#2ca02c;stroke:#2ca02c;" x="602.608109" xlink:href="#m56dfdab5ac" y="51.236841"/>
     <use style="fill:#2ca02c;stroke:#2ca02c;" x="603.323625" xlink:href="#m56dfdab5ac" y="49.45573"/>
     <use style="fill:#2ca02c;stroke:#2ca02c;" x="604.039142" xlink:href="#m56dfdab5ac" y="46.819911"/>
     <use style="fill:#2ca02c;stroke:#2ca02c;" x="604.754659" xlink:href="#m56dfdab5ac" y="45.040206"/>
     <use style="fill:#2ca02c;stroke:#2ca02c;" x="605.470175" xlink:href="#m56dfdab5ac" y="43.17756"/>
     <use style="fill:#2ca02c;stroke:#2ca02c;" x="606.185692" xlink:href="#m56dfdab5ac" y="41.584353"/>
     <use style="fill:#2ca02c;stroke:#2ca02c;" x="606.901208" xlink:href="#m56dfdab5ac" y="40.548769"/>
     <use style="fill:#2ca02c;stroke:#2ca02c;" x="607.616725" xlink:href="#m56dfdab5ac" y="38.416684"/>
     <use style="fill:#2ca02c;stroke:#2ca02c;" x="608.332242" xlink:href="#m56dfdab5ac" y="37.419056"/>
     <use style="fill:#2ca02c;stroke:#2ca02c;" x="609.047758" xlink:href="#m56dfdab5ac" y="36.655254"/>
     <use style="fill:#2ca02c;stroke:#2ca02c;" x="609.763275" xlink:href="#m56dfdab5ac" y="35.458943"/>
     <use style="fill:#2ca02c;stroke:#2ca02c;" x="610.478792" xlink:href="#m56dfdab5ac" y="34.823066"/>
     <use style="fill:#2ca02c;stroke:#2ca02c;" x="611.194308" xlink:href="#m56dfdab5ac" y="33.973513"/>
     <use style="fill:#2ca02c;stroke:#2ca02c;" x="611.909825" xlink:href="#m56dfdab5ac" y="34.002565"/>
     <use style="fill:#2ca02c;stroke:#2ca02c;" x="612.625341" xlink:href="#m56dfdab5ac" y="33.283748"/>
     <use style="fill:#2ca02c;stroke:#2ca02c;" x="613.340858" xlink:href="#m56dfdab5ac" y="33.810443"/>
     <use style="fill:#2ca02c;stroke:#2ca02c;" x="614.056375" xlink:href="#m56dfdab5ac" y="33.742966"/>
     <use style="fill:#2ca02c;stroke:#2ca02c;" x="614.771891" xlink:href="#m56dfdab5ac" y="34.636099"/>
     <use style="fill:#2ca02c;stroke:#2ca02c;" x="615.487408" xlink:href="#m56dfdab5ac" y="34.870394"/>
     <use style="fill:#2ca02c;stroke:#2ca02c;" x="616.202924" xlink:href="#m56dfdab5ac" y="35.793517"/>
     <use style="fill:#2ca02c;stroke:#2ca02c;" x="616.918441" xlink:href="#m56dfdab5ac" y="36.744286"/>
     <use style="fill:#2ca02c;stroke:#2ca02c;" x="617.633958" xlink:href="#m56dfdab5ac" y="37.249426"/>
     <use style="fill:#2ca02c;stroke:#2ca02c;" x="618.349474" xlink:href="#m56dfdab5ac" y="39.001485"/>
     <use style="fill:#2ca02c;stroke:#2ca02c;" x="619.064991" xlink:href="#m56dfdab5ac" y="39.899303"/>
     <use style="fill:#2ca02c;stroke:#2ca02c;" x="619.780507" xlink:href="#m56dfdab5ac" y="41.122323"/>
     <use style="fill:#2ca02c;stroke:#2ca02c;" x="620.496024" xlink:href="#m56dfdab5ac" y="43.142416"/>
     <use style="fill:#2ca02c;stroke:#2ca02c;" x="621.211541" xlink:href="#m56dfdab5ac" y="44.873856"/>
     <use style="fill:#2ca02c;stroke:#2ca02c;" x="621.927057" xlink:href="#m56dfdab5ac" y="46.226676"/>
     <use style="fill:#2ca02c;stroke:#2ca02c;" x="622.642574" xlink:href="#m56dfdab5ac" y="48.47216"/>
     <use style="fill:#2ca02c;stroke:#2ca02c;" x="623.358091" xlink:href="#m56dfdab5ac" y="50.548951"/>
     <use style="fill:#2ca02c;stroke:#2ca02c;" x="624.073607" xlink:href="#m56dfdab5ac" y="52.933138"/>
     <use style="fill:#2ca02c;stroke:#2ca02c;" x="624.789124" xlink:href="#m56dfdab5ac" y="54.807967"/>
     <use style="fill:#2ca02c;stroke:#2ca02c;" x="625.50464" xlink:href="#m56dfdab5ac" y="57.915656"/>
     <use style="fill:#2ca02c;stroke:#2ca02c;" x="626.220157" xlink:href="#m56dfdab5ac" y="59.207091"/>
     <use style="fill:#2ca02c;stroke:#2ca02c;" x="626.935674" xlink:href="#m56dfdab5ac" y="63.831138"/>
     <use style="fill:#2ca02c;stroke:#2ca02c;" x="627.65119" xlink:href="#m56dfdab5ac" y="65.765478"/>
     <use style="fill:#2ca02c;stroke:#2ca02c;" x="628.366707" xlink:href="#m56dfdab5ac" y="68.572333"/>
     <use style="fill:#2ca02c;stroke:#2ca02c;" x="629.082223" xlink:href="#m56dfdab5ac" y="71.687052"/>
     <use style="fill:#2ca02c;stroke:#2ca02c;" x="629.79774" xlink:href="#m56dfdab5ac" y="74.462042"/>
     <use style="fill:#2ca02c;stroke:#2ca02c;" x="630.513257" xlink:href="#m56dfdab5ac" y="77.115668"/>
     <use style="fill:#2ca02c;stroke:#2ca02c;" x="631.228773" xlink:href="#m56dfdab5ac" y="80.445938"/>
     <use style="fill:#2ca02c;stroke:#2ca02c;" x="631.94429" xlink:href="#m56dfdab5ac" y="83.412583"/>
     <use style="fill:#2ca02c;stroke:#2ca02c;" x="632.659806" xlink:href="#m56dfdab5ac" y="86.128531"/>
     <use style="fill:#2ca02c;stroke:#2ca02c;" x="633.375323" xlink:href="#m56dfdab5ac" y="89.374455"/>
     <use style="fill:#2ca02c;stroke:#2ca02c;" x="634.09084" xlink:href="#m56dfdab5ac" y="91.894064"/>
     <use style="fill:#2ca02c;stroke:#2ca02c;" x="634.806356" xlink:href="#m56dfdab5ac" y="95.221522"/>
     <use style="fill:#2ca02c;stroke:#2ca02c;" x="635.521873" xlink:href="#m56dfdab5ac" y="98.500247"/>
     <use style="fill:#2ca02c;stroke:#2ca02c;" x="636.23739" xlink:href="#m56dfdab5ac" y="101.056407"/>
     <use style="fill:#2ca02c;stroke:#2ca02c;" x="636.952906" xlink:href="#m56dfdab5ac" y="104.185183"/>
     <use style="fill:#2ca02c;stroke:#2ca02c;" x="637.668423" xlink:href="#m56dfdab5ac" y="107.120431"/>
     <use style="fill:#2ca02c;stroke:#2ca02c;" x="638.383939" xlink:href="#m56dfdab5ac" y="110.075361"/>
     <use style="fill:#2ca02c;stroke:#2ca02c;" x="639.099456" xlink:href="#m56dfdab5ac" y="112.70134"/>
     <use style="fill:#2ca02c;stroke:#2ca02c;" x="639.814973" xlink:href="#m56dfdab5ac" y="115.129574"/>
     <use style="fill:#2ca02c;stroke:#2ca02c;" x="640.530489" xlink:href="#m56dfdab5ac" y="117.942989"/>
     <use style="fill:#2ca02c;stroke:#2ca02c;" x="641.246006" xlink:href="#m56dfdab5ac" y="120.33889"/>
     <use style="fill:#2ca02c;stroke:#2ca02c;" x="641.961522" xlink:href="#m56dfdab5ac" y="122.964869"/>
     <use style="fill:#2ca02c;stroke:#2ca02c;" x="642.677039" xlink:href="#m56dfdab5ac" y="125.333593"/>
     <use style="fill:#2ca02c;stroke:#2ca02c;" x="643.392556" xlink:href="#m56dfdab5ac" y="127.542526"/>
     <use style="fill:#2ca02c;stroke:#2ca02c;" x="644.108072" xlink:href="#m56dfdab5ac" y="130.365313"/>
     <use style="fill:#2ca02c;stroke:#2ca02c;" x="644.823589" xlink:href="#m56dfdab5ac" y="132.202187"/>
     <use style="fill:#2ca02c;stroke:#2ca02c;" x="645.539106" xlink:href="#m56dfdab5ac" y="134.627141"/>
     <use style="fill:#2ca02c;stroke:#2ca02c;" x="646.254622" xlink:href="#m56dfdab5ac" y="136.426527"/>
     <use style="fill:#2ca02c;stroke:#2ca02c;" x="646.970139" xlink:href="#m56dfdab5ac" y="138.246999"/>
     <use style="fill:#2ca02c;stroke:#2ca02c;" x="647.685655" xlink:href="#m56dfdab5ac" y="140.186962"/>
     <use style="fill:#2ca02c;stroke:#2ca02c;" x="648.401172" xlink:href="#m56dfdab5ac" y="141.66021"/>
     <use style="fill:#2ca02c;stroke:#2ca02c;" x="649.116689" xlink:href="#m56dfdab5ac" y="143.396336"/>
     <use style="fill:#2ca02c;stroke:#2ca02c;" x="649.832205" xlink:href="#m56dfdab5ac" y="145.031716"/>
     <use style="fill:#2ca02c;stroke:#2ca02c;" x="650.547722" xlink:href="#m56dfdab5ac" y="146.685839"/>
     <use style="fill:#2ca02c;stroke:#2ca02c;" x="651.263238" xlink:href="#m56dfdab5ac" y="147.936506"/>
     <use style="fill:#2ca02c;stroke:#2ca02c;" x="651.978755" xlink:href="#m56dfdab5ac" y="149.348837"/>
     <use style="fill:#2ca02c;stroke:#2ca02c;" x="652.694272" xlink:href="#m56dfdab5ac" y="150.707748"/>
     <use style="fill:#2ca02c;stroke:#2ca02c;" x="653.409788" xlink:href="#m56dfdab5ac" y="151.877349"/>
     <use style="fill:#2ca02c;stroke:#2ca02c;" x="654.125305" xlink:href="#m56dfdab5ac" y="152.95042"/>
     <use style="fill:#2ca02c;stroke:#2ca02c;" x="654.840821" xlink:href="#m56dfdab5ac" y="154.155166"/>
     <use style="fill:#2ca02c;stroke:#2ca02c;" x="655.556338" xlink:href="#m56dfdab5ac" y="154.959266"/>
     <use style="fill:#2ca02c;stroke:#2ca02c;" x="656.271855" xlink:href="#m56dfdab5ac" y="155.88192"/>
     <use style="fill:#2ca02c;stroke:#2ca02c;" x="656.987371" xlink:href="#m56dfdab5ac" y="156.911413"/>
     <use style="fill:#2ca02c;stroke:#2ca02c;" x="657.702888" xlink:href="#m56dfdab5ac" y="157.683181"/>
     <use style="fill:#2ca02c;stroke:#2ca02c;" x="658.418405" xlink:href="#m56dfdab5ac" y="158.318589"/>
     <use style="fill:#2ca02c;stroke:#2ca02c;" x="659.133921" xlink:href="#m56dfdab5ac" y="159.131593"/>
     <use style="fill:#2ca02c;stroke:#2ca02c;" x="659.849438" xlink:href="#m56dfdab5ac" y="159.659225"/>
     <use style="fill:#2ca02c;stroke:#2ca02c;" x="660.564954" xlink:href="#m56dfdab5ac" y="160.424901"/>
     <use style="fill:#2ca02c;stroke:#2ca02c;" x="661.280471" xlink:href="#m56dfdab5ac" y="161.042035"/>
     <use style="fill:#2ca02c;stroke:#2ca02c;" x="661.995988" xlink:href="#m56dfdab5ac" y="161.551861"/>
     <use style="fill:#2ca02c;stroke:#2ca02c;" x="662.711504" xlink:href="#m56dfdab5ac" y="161.948757"/>
     <use style="fill:#2ca02c;stroke:#2ca02c;" x="663.427021" xlink:href="#m56dfdab5ac" y="162.370488"/>
     <use style="fill:#2ca02c;stroke:#2ca02c;" x="664.142537" xlink:href="#m56dfdab5ac" y="162.703655"/>
     <use style="fill:#2ca02c;stroke:#2ca02c;" x="664.858054" xlink:href="#m56dfdab5ac" y="163.175057"/>
     <use style="fill:#2ca02c;stroke:#2ca02c;" x="665.573571" xlink:href="#m56dfdab5ac" y="163.504944"/>
     <use style="fill:#2ca02c;stroke:#2ca02c;" x="666.289087" xlink:href="#m56dfdab5ac" y="163.778601"/>
     <use style="fill:#2ca02c;stroke:#2ca02c;" x="667.004604" xlink:href="#m56dfdab5ac" y="164.115049"/>
     <use style="fill:#2ca02c;stroke:#2ca02c;" x="667.72012" xlink:href="#m56dfdab5ac" y="164.338566"/>
     <use style="fill:#2ca02c;stroke:#2ca02c;" x="668.435637" xlink:href="#m56dfdab5ac" y="164.596759"/>
     <use style="fill:#2ca02c;stroke:#2ca02c;" x="669.151154" xlink:href="#m56dfdab5ac" y="164.82918"/>
     <use style="fill:#2ca02c;stroke:#2ca02c;" x="669.86667" xlink:href="#m56dfdab5ac" y="165.039577"/>
     <use style="fill:#2ca02c;stroke:#2ca02c;" x="670.582187" xlink:href="#m56dfdab5ac" y="165.249037"/>
     <use style="fill:#2ca02c;stroke:#2ca02c;" x="671.297704" xlink:href="#m56dfdab5ac" y="165.435067"/>
     <use style="fill:#2ca02c;stroke:#2ca02c;" x="672.01322" xlink:href="#m56dfdab5ac" y="165.556432"/>
     <use style="fill:#2ca02c;stroke:#2ca02c;" x="672.728737" xlink:href="#m56dfdab5ac" y="165.690449"/>
     <use style="fill:#2ca02c;stroke:#2ca02c;" x="673.444253" xlink:href="#m56dfdab5ac" y="165.782292"/>
     <use style="fill:#2ca02c;stroke:#2ca02c;" x="674.15977" xlink:href="#m56dfdab5ac" y="165.919589"/>
     <use style="fill:#2ca02c;stroke:#2ca02c;" x="674.875287" xlink:href="#m56dfdab5ac" y="166.005341"/>
     <use style="fill:#2ca02c;stroke:#2ca02c;" x="675.590803" xlink:href="#m56dfdab5ac" y="166.062978"/>
     <use style="fill:#2ca02c;stroke:#2ca02c;" x="676.30632" xlink:href="#m56dfdab5ac" y="166.136547"/>
     <use style="fill:#2ca02c;stroke:#2ca02c;" x="677.021836" xlink:href="#m56dfdab5ac" y="166.224641"/>
     <use style="fill:#2ca02c;stroke:#2ca02c;" x="677.737353" xlink:href="#m56dfdab5ac" y="166.260723"/>
     <use style="fill:#2ca02c;stroke:#2ca02c;" x="678.45287" xlink:href="#m56dfdab5ac" y="166.323983"/>
     <use style="fill:#2ca02c;stroke:#2ca02c;" x="679.168386" xlink:href="#m56dfdab5ac" y="166.356315"/>
     <use style="fill:#2ca02c;stroke:#2ca02c;" x="679.883903" xlink:href="#m56dfdab5ac" y="166.389585"/>
     <use style="fill:#2ca02c;stroke:#2ca02c;" x="680.599419" xlink:href="#m56dfdab5ac" y="166.424261"/>
     <use style="fill:#2ca02c;stroke:#2ca02c;" x="681.314936" xlink:href="#m56dfdab5ac" y="166.449565"/>
     <use style="fill:#2ca02c;stroke:#2ca02c;" x="682.030453" xlink:href="#m56dfdab5ac" y="166.481429"/>
     <use style="fill:#2ca02c;stroke:#2ca02c;" x="682.745969" xlink:href="#m56dfdab5ac" y="166.50111"/>
     <use style="fill:#2ca02c;stroke:#2ca02c;" x="683.461486" xlink:href="#m56dfdab5ac" y="166.526882"/>
     <use style="fill:#2ca02c;stroke:#2ca02c;" x="684.177003" xlink:href="#m56dfdab5ac" y="166.533442"/>
     <use style="fill:#2ca02c;stroke:#2ca02c;" x="684.892519" xlink:href="#m56dfdab5ac" y="166.559215"/>
     <use style="fill:#2ca02c;stroke:#2ca02c;" x="685.608036" xlink:href="#m56dfdab5ac" y="166.570461"/>
     <use style="fill:#2ca02c;stroke:#2ca02c;" x="686.323552" xlink:href="#m56dfdab5ac" y="166.577958"/>
     <use style="fill:#2ca02c;stroke:#2ca02c;" x="687.039069" xlink:href="#m56dfdab5ac" y="166.587799"/>
     <use style="fill:#2ca02c;stroke:#2ca02c;" x="687.754586" xlink:href="#m56dfdab5ac" y="166.596702"/>
     <use style="fill:#2ca02c;stroke:#2ca02c;" x="688.470102" xlink:href="#m56dfdab5ac" y="166.605605"/>
     <use style="fill:#2ca02c;stroke:#2ca02c;" x="689.185619" xlink:href="#m56dfdab5ac" y="166.608417"/>
     <use style="fill:#2ca02c;stroke:#2ca02c;" x="689.901135" xlink:href="#m56dfdab5ac" y="166.608417"/>
     <use style="fill:#2ca02c;stroke:#2ca02c;" x="690.616652" xlink:href="#m56dfdab5ac" y="166.61732"/>
     <use style="fill:#2ca02c;stroke:#2ca02c;" x="691.332169" xlink:href="#m56dfdab5ac" y="166.619663"/>
     <use style="fill:#2ca02c;stroke:#2ca02c;" x="692.047685" xlink:href="#m56dfdab5ac" y="166.622006"/>
     <use style="fill:#2ca02c;stroke:#2ca02c;" x="692.763202" xlink:href="#m56dfdab5ac" y="166.625755"/>
     <use style="fill:#2ca02c;stroke:#2ca02c;" x="693.478719" xlink:href="#m56dfdab5ac" y="166.62388"/>
     <use style="fill:#2ca02c;stroke:#2ca02c;" x="694.194235" xlink:href="#m56dfdab5ac" y="166.626223"/>
     <use style="fill:#2ca02c;stroke:#2ca02c;" x="694.909752" xlink:href="#m56dfdab5ac" y="166.629035"/>
     <use style="fill:#2ca02c;stroke:#2ca02c;" x="695.625268" xlink:href="#m56dfdab5ac" y="166.628566"/>
     <use style="fill:#2ca02c;stroke:#2ca02c;" x="696.340785" xlink:href="#m56dfdab5ac" y="166.629503"/>
     <use style="fill:#2ca02c;stroke:#2ca02c;" x="697.056302" xlink:href="#m56dfdab5ac" y="166.630441"/>
     <use style="fill:#2ca02c;stroke:#2ca02c;" x="697.771818" xlink:href="#m56dfdab5ac" y="166.629972"/>
    </g>
   </g>
   <g id="line2d_40">
    <path clip-path="url(#p42f2ef6155)" d="M 519.608182 166.630218 
L 541.789197 166.519865 
L 547.51333 166.300769 
L 551.806429 165.926664 
L 554.668496 165.496545 
L 557.530562 164.844739 
L 559.677112 164.157298 
L 561.823662 163.248742 
L 563.970212 162.065145 
L 566.116762 160.545541 
L 567.547795 159.312975 
L 568.978828 157.880554 
L 570.409861 156.226957 
L 571.840894 154.330868 
L 573.271928 152.171508 
L 574.702961 149.729241 
L 576.849511 145.49711 
L 578.996061 140.540523 
L 581.14261 134.830087 
L 583.28916 128.361556 
L 585.43571 121.161551 
L 587.58226 113.292329 
L 590.444326 101.9396 
L 595.452943 80.772427 
L 599.030526 65.911781 
L 601.177076 57.658695 
L 603.323625 50.225137 
L 604.754659 45.849597 
L 606.185692 42.018728 
L 607.616725 38.79385 
L 609.047758 36.227613 
L 610.478792 34.362573 
L 611.194308 33.703246 
L 611.909825 33.230018 
L 612.625341 32.944896 
L 613.340858 32.849091 
L 614.056375 32.943011 
L 614.771891 33.226255 
L 615.487408 33.697622 
L 616.202924 34.355112 
L 616.918441 35.195944 
L 618.349474 37.412734 
L 619.780507 40.310996 
L 621.211541 43.843014 
L 622.642574 47.951654 
L 624.789124 55.051822 
L 626.935674 63.058108 
L 629.79774 74.691028 
L 638.383939 110.50917 
L 641.246006 121.136535 
L 643.392556 128.338881 
L 645.539106 134.809898 
L 647.685655 140.522855 
L 649.832205 145.481904 
L 651.978755 149.716364 
L 654.125305 153.274626 
L 656.271855 156.218149 
L 658.418405 158.615956 
L 660.564954 160.539874 
L 662.711504 162.0607 
L 664.858054 163.245306 
L 667.004604 164.15468 
L 669.151154 164.842773 
L 672.01322 165.495233 
L 674.875287 165.925809 
L 678.45287 166.254523 
L 683.461486 166.483647 
L 692.047685 166.605836 
L 697.771818 166.624033 
L 697.771818 166.624033 
" style="fill:none;stroke:#ff0000;stroke-linecap:square;"/>
   </g>
   <g id="patch_13">
    <path d="M 510.7 173.32 
L 510.7 26.16 
" style="fill:none;stroke:#000000;stroke-linecap:square;stroke-linejoin:miter;stroke-width:0.8;"/>
   </g>
   <g id="patch_14">
    <path d="M 706.68 173.32 
L 706.68 26.16 
" style="fill:none;stroke:#000000;stroke-linecap:square;stroke-linejoin:miter;stroke-width:0.8;"/>
   </g>
   <g id="patch_15">
    <path d="M 510.7 173.32 
L 706.68 173.32 
" style="fill:none;stroke:#000000;stroke-linecap:square;stroke-linejoin:miter;stroke-width:0.8;"/>
   </g>
   <g id="patch_16">
    <path d="M 510.7 26.16 
L 706.68 26.16 
" style="fill:none;stroke:#000000;stroke-linecap:square;stroke-linejoin:miter;stroke-width:0.8;"/>
   </g>
   <g id="text_40">
    <!-- Energía cinética -->
    <defs>
     <path d="M 56.203125 29.59375 
L 56.203125 25.203125 
L 14.890625 25.203125 
Q 15.484375 15.921875 20.484375 11.0625 
Q 25.484375 6.203125 34.421875 6.203125 
Q 39.59375 6.203125 44.453125 7.46875 
Q 49.3125 8.734375 54.109375 11.28125 
L 54.109375 2.78125 
Q 49.265625 0.734375 44.1875 -0.34375 
Q 39.109375 -1.421875 33.890625 -1.421875 
Q 20.796875 -1.421875 13.15625 6.1875 
Q 5.515625 13.8125 5.515625 26.8125 
Q 5.515625 40.234375 12.765625 48.109375 
Q 20.015625 56 32.328125 56 
Q 43.359375 56 49.78125 48.890625 
Q 56.203125 41.796875 56.203125 29.59375 
z
M 47.21875 32.234375 
Q 47.125 39.59375 43.09375 43.984375 
Q 39.0625 48.390625 32.421875 48.390625 
Q 24.90625 48.390625 20.390625 44.140625 
Q 15.875 39.890625 15.1875 32.171875 
z
M 38.53125 79.984375 
L 48.25 79.984375 
L 32.34375 61.625 
L 24.859375 61.625 
z
" id="DejaVuSans-e9"/>
    </defs>
    <g transform="translate(560.42375 20.16)scale(0.12 -0.12)">
     <use xlink:href="#DejaVuSans-45"/>
     <use x="63.183594" xlink:href="#DejaVuSans-6e"/>
     <use x="126.5625" xlink:href="#DejaVuSans-65"/>
     <use x="188.085938" xlink:href="#DejaVuSans-72"/>
     <use x="229.183594" xlink:href="#DejaVuSans-67"/>
     <use x="292.660156" xlink:href="#DejaVuSans-ed"/>
     <use x="320.443359" xlink:href="#DejaVuSans-61"/>
     <use x="381.722656" xlink:href="#DejaVuSans-20"/>
     <use x="413.509766" xlink:href="#DejaVuSans-63"/>
     <use x="468.490234" xlink:href="#DejaVuSans-69"/>
     <use x="496.273438" xlink:href="#DejaVuSans-6e"/>
     <use x="559.652344" xlink:href="#DejaVuSans-e9"/>
     <use x="621.175781" xlink:href="#DejaVuSans-74"/>
     <use x="660.384766" xlink:href="#DejaVuSans-69"/>
     <use x="688.167969" xlink:href="#DejaVuSans-63"/>
     <use x="743.148438" xlink:href="#DejaVuSans-61"/>
    </g>
   </g>
  </g>
 </g>
 <defs>
  <clipPath id="pcacf0b293b">
   <rect height="147.16" width="195.98" x="33.64" y="26.16"/>
  </clipPath>
  <clipPath id="p21cae49ac2">
   <rect height="147.16" width="195.98" x="272.17" y="26.16"/>
  </clipPath>
  <clipPath id="p42f2ef6155">
   <rect height="147.16" width="195.98" x="510.7" y="26.16"/>
  </clipPath>
 </defs>
</svg>
