<?xml version="1.0" encoding="utf-8" standalone="no"?>
<!DOCTYPE svg PUBLIC "-//W3C//DTD SVG 1.1//EN"
  "http://www.w3.org/Graphics/SVG/1.1/DTD/svg11.dtd">
<!-- Created with matplotlib (http://matplotlib.org/) -->
<svg height="255pt" version="1.1" viewBox="0 0 255 255" width="255pt" xmlns="http://www.w3.org/2000/svg" xmlns:xlink="http://www.w3.org/1999/xlink">
 <defs>
  <style type="text/css">
*{stroke-linecap:butt;stroke-linejoin:round;}
  </style>
 </defs>
 <g id="figure_1">
  <g id="patch_1">
   <path d="M 0 255.11811 
L 255.11811 255.11811 
L 255.11811 0 
L 0 0 
z
" style="fill:#ffffff;"/>
  </g>
  <g id="axes_1">
   <g id="patch_2">
    <path d="M 49.16 212.43811 
L 241.79811 212.43811 
L 241.79811 29.256 
L 49.16 29.256 
z
" style="fill:#ffffff;"/>
   </g>
   <g id="matplotlib.axis_1">
    <g id="xtick_1">
     <g id="line2d_1">
      <defs>
       <path d="M 0 0 
L 0 3.5 
" id="mc1731b3122" style="stroke:#000000;stroke-width:0.8;"/>
      </defs>
      <g>
       <use style="stroke:#000000;stroke-width:0.8;" x="77.374673" xlink:href="#mc1731b3122" y="212.43811"/>
      </g>
     </g>
     <g id="text_1">
      <!-- 2 -->
      <defs>
       <path d="M 19.1875 8.296875 
L 53.609375 8.296875 
L 53.609375 0 
L 7.328125 0 
L 7.328125 8.296875 
Q 12.9375 14.109375 22.625 23.890625 
Q 32.328125 33.6875 34.8125 36.53125 
Q 39.546875 41.84375 41.421875 45.53125 
Q 43.3125 49.21875 43.3125 52.78125 
Q 43.3125 58.59375 39.234375 62.25 
Q 35.15625 65.921875 28.609375 65.921875 
Q 23.96875 65.921875 18.8125 64.3125 
Q 13.671875 62.703125 7.8125 59.421875 
L 7.8125 69.390625 
Q 13.765625 71.78125 18.9375 73 
Q 24.125 74.21875 28.421875 74.21875 
Q 39.75 74.21875 46.484375 68.546875 
Q 53.21875 62.890625 53.21875 53.421875 
Q 53.21875 48.921875 51.53125 44.890625 
Q 49.859375 40.875 45.40625 35.40625 
Q 44.1875 33.984375 37.640625 27.21875 
Q 31.109375 20.453125 19.1875 8.296875 
z
" id="DejaVuSans-32"/>
      </defs>
      <g transform="translate(74.193423 227.036548)scale(0.1 -0.1)">
       <use xlink:href="#DejaVuSans-32"/>
      </g>
     </g>
    </g>
    <g id="xtick_2">
     <g id="line2d_2">
      <g>
       <use style="stroke:#000000;stroke-width:0.8;" x="116.291463" xlink:href="#mc1731b3122" y="212.43811"/>
      </g>
     </g>
     <g id="text_2">
      <!-- 4 -->
      <defs>
       <path d="M 37.796875 64.3125 
L 12.890625 25.390625 
L 37.796875 25.390625 
z
M 35.203125 72.90625 
L 47.609375 72.90625 
L 47.609375 25.390625 
L 58.015625 25.390625 
L 58.015625 17.1875 
L 47.609375 17.1875 
L 47.609375 0 
L 37.796875 0 
L 37.796875 17.1875 
L 4.890625 17.1875 
L 4.890625 26.703125 
z
" id="DejaVuSans-34"/>
      </defs>
      <g transform="translate(113.110213 227.036548)scale(0.1 -0.1)">
       <use xlink:href="#DejaVuSans-34"/>
      </g>
     </g>
    </g>
    <g id="xtick_3">
     <g id="line2d_3">
      <g>
       <use style="stroke:#000000;stroke-width:0.8;" x="155.208253" xlink:href="#mc1731b3122" y="212.43811"/>
      </g>
     </g>
     <g id="text_3">
      <!-- 6 -->
      <defs>
       <path d="M 33.015625 40.375 
Q 26.375 40.375 22.484375 35.828125 
Q 18.609375 31.296875 18.609375 23.390625 
Q 18.609375 15.53125 22.484375 10.953125 
Q 26.375 6.390625 33.015625 6.390625 
Q 39.65625 6.390625 43.53125 10.953125 
Q 47.40625 15.53125 47.40625 23.390625 
Q 47.40625 31.296875 43.53125 35.828125 
Q 39.65625 40.375 33.015625 40.375 
z
M 52.59375 71.296875 
L 52.59375 62.3125 
Q 48.875 64.0625 45.09375 64.984375 
Q 41.3125 65.921875 37.59375 65.921875 
Q 27.828125 65.921875 22.671875 59.328125 
Q 17.53125 52.734375 16.796875 39.40625 
Q 19.671875 43.65625 24.015625 45.921875 
Q 28.375 48.1875 33.59375 48.1875 
Q 44.578125 48.1875 50.953125 41.515625 
Q 57.328125 34.859375 57.328125 23.390625 
Q 57.328125 12.15625 50.6875 5.359375 
Q 44.046875 -1.421875 33.015625 -1.421875 
Q 20.359375 -1.421875 13.671875 8.265625 
Q 6.984375 17.96875 6.984375 36.375 
Q 6.984375 53.65625 15.1875 63.9375 
Q 23.390625 74.21875 37.203125 74.21875 
Q 40.921875 74.21875 44.703125 73.484375 
Q 48.484375 72.75 52.59375 71.296875 
z
" id="DejaVuSans-36"/>
      </defs>
      <g transform="translate(152.027003 227.036548)scale(0.1 -0.1)">
       <use xlink:href="#DejaVuSans-36"/>
      </g>
     </g>
    </g>
    <g id="xtick_4">
     <g id="line2d_4">
      <g>
       <use style="stroke:#000000;stroke-width:0.8;" x="194.125043" xlink:href="#mc1731b3122" y="212.43811"/>
      </g>
     </g>
     <g id="text_4">
      <!-- 8 -->
      <defs>
       <path d="M 31.78125 34.625 
Q 24.75 34.625 20.71875 30.859375 
Q 16.703125 27.09375 16.703125 20.515625 
Q 16.703125 13.921875 20.71875 10.15625 
Q 24.75 6.390625 31.78125 6.390625 
Q 38.8125 6.390625 42.859375 10.171875 
Q 46.921875 13.96875 46.921875 20.515625 
Q 46.921875 27.09375 42.890625 30.859375 
Q 38.875 34.625 31.78125 34.625 
z
M 21.921875 38.8125 
Q 15.578125 40.375 12.03125 44.71875 
Q 8.5 49.078125 8.5 55.328125 
Q 8.5 64.0625 14.71875 69.140625 
Q 20.953125 74.21875 31.78125 74.21875 
Q 42.671875 74.21875 48.875 69.140625 
Q 55.078125 64.0625 55.078125 55.328125 
Q 55.078125 49.078125 51.53125 44.71875 
Q 48 40.375 41.703125 38.8125 
Q 48.828125 37.15625 52.796875 32.3125 
Q 56.78125 27.484375 56.78125 20.515625 
Q 56.78125 9.90625 50.3125 4.234375 
Q 43.84375 -1.421875 31.78125 -1.421875 
Q 19.734375 -1.421875 13.25 4.234375 
Q 6.78125 9.90625 6.78125 20.515625 
Q 6.78125 27.484375 10.78125 32.3125 
Q 14.796875 37.15625 21.921875 38.8125 
z
M 18.3125 54.390625 
Q 18.3125 48.734375 21.84375 45.5625 
Q 25.390625 42.390625 31.78125 42.390625 
Q 38.140625 42.390625 41.71875 45.5625 
Q 45.3125 48.734375 45.3125 54.390625 
Q 45.3125 60.0625 41.71875 63.234375 
Q 38.140625 66.40625 31.78125 66.40625 
Q 25.390625 66.40625 21.84375 63.234375 
Q 18.3125 60.0625 18.3125 54.390625 
z
" id="DejaVuSans-38"/>
      </defs>
      <g transform="translate(190.943793 227.036548)scale(0.1 -0.1)">
       <use xlink:href="#DejaVuSans-38"/>
      </g>
     </g>
    </g>
    <g id="xtick_5">
     <g id="line2d_5">
      <g>
       <use style="stroke:#000000;stroke-width:0.8;" x="233.041832" xlink:href="#mc1731b3122" y="212.43811"/>
      </g>
     </g>
     <g id="text_5">
      <!-- 10 -->
      <defs>
       <path d="M 12.40625 8.296875 
L 28.515625 8.296875 
L 28.515625 63.921875 
L 10.984375 60.40625 
L 10.984375 69.390625 
L 28.421875 72.90625 
L 38.28125 72.90625 
L 38.28125 8.296875 
L 54.390625 8.296875 
L 54.390625 0 
L 12.40625 0 
z
" id="DejaVuSans-31"/>
       <path d="M 31.78125 66.40625 
Q 24.171875 66.40625 20.328125 58.90625 
Q 16.5 51.421875 16.5 36.375 
Q 16.5 21.390625 20.328125 13.890625 
Q 24.171875 6.390625 31.78125 6.390625 
Q 39.453125 6.390625 43.28125 13.890625 
Q 47.125 21.390625 47.125 36.375 
Q 47.125 51.421875 43.28125 58.90625 
Q 39.453125 66.40625 31.78125 66.40625 
z
M 31.78125 74.21875 
Q 44.046875 74.21875 50.515625 64.515625 
Q 56.984375 54.828125 56.984375 36.375 
Q 56.984375 17.96875 50.515625 8.265625 
Q 44.046875 -1.421875 31.78125 -1.421875 
Q 19.53125 -1.421875 13.0625 8.265625 
Q 6.59375 17.96875 6.59375 36.375 
Q 6.59375 54.828125 13.0625 64.515625 
Q 19.53125 74.21875 31.78125 74.21875 
z
" id="DejaVuSans-30"/>
      </defs>
      <g transform="translate(226.679332 227.036548)scale(0.1 -0.1)">
       <use xlink:href="#DejaVuSans-31"/>
       <use x="63.623047" xlink:href="#DejaVuSans-30"/>
      </g>
     </g>
    </g>
    <g id="text_6">
     <!-- $Vecino$ -->
     <defs>
      <path d="M 20.609375 0 
L 7.8125 72.90625 
L 17.484375 72.90625 
L 28.078125 10.203125 
L 63.484375 72.90625 
L 74.21875 72.90625 
L 32.078125 0 
z
" id="DejaVuSans-Oblique-56"/>
      <path d="M 48.09375 32.234375 
Q 48.25 33.015625 48.3125 33.84375 
Q 48.390625 34.671875 48.390625 35.5 
Q 48.390625 41.453125 44.890625 44.921875 
Q 41.40625 48.390625 35.40625 48.390625 
Q 28.71875 48.390625 23.578125 44.15625 
Q 18.453125 39.9375 15.828125 32.171875 
z
M 55.90625 25.203125 
L 14.109375 25.203125 
Q 13.8125 23.34375 13.71875 22.265625 
Q 13.625 21.1875 13.625 20.40625 
Q 13.625 13.625 17.796875 9.90625 
Q 21.96875 6.203125 29.59375 6.203125 
Q 35.453125 6.203125 40.671875 7.515625 
Q 45.90625 8.84375 50.390625 11.375 
L 48.6875 2.484375 
Q 43.84375 0.53125 38.6875 -0.4375 
Q 33.546875 -1.421875 28.21875 -1.421875 
Q 16.84375 -1.421875 10.71875 4.015625 
Q 4.59375 9.46875 4.59375 19.484375 
Q 4.59375 28.03125 7.640625 35.375 
Q 10.6875 42.71875 16.609375 48.484375 
Q 20.40625 52.09375 25.65625 54.046875 
Q 30.90625 56 36.8125 56 
Q 46.09375 56 51.578125 50.4375 
Q 57.078125 44.875 57.078125 35.5 
Q 57.078125 33.25 56.78125 30.6875 
Q 56.5 28.125 55.90625 25.203125 
z
" id="DejaVuSans-Oblique-65"/>
      <path d="M 53.609375 52.59375 
L 51.8125 43.703125 
Q 48.578125 46.046875 44.9375 47.21875 
Q 41.3125 48.390625 37.40625 48.390625 
Q 33.109375 48.390625 29.21875 46.875 
Q 25.34375 45.359375 22.703125 42.578125 
Q 18.5 38.328125 16.203125 32.609375 
Q 13.921875 26.90625 13.921875 20.796875 
Q 13.921875 13.421875 17.609375 9.8125 
Q 21.296875 6.203125 28.8125 6.203125 
Q 32.515625 6.203125 36.6875 7.328125 
Q 40.875 8.453125 45.40625 10.6875 
L 43.703125 1.8125 
Q 39.796875 0.203125 35.671875 -0.609375 
Q 31.546875 -1.421875 27.203125 -1.421875 
Q 16.3125 -1.421875 10.453125 4.015625 
Q 4.59375 9.46875 4.59375 19.578125 
Q 4.59375 28.078125 7.640625 35.234375 
Q 10.6875 42.390625 16.703125 48.09375 
Q 20.796875 52 26.3125 54 
Q 31.84375 56 38.375 56 
Q 42.1875 56 45.9375 55.140625 
Q 49.703125 54.296875 53.609375 52.59375 
z
" id="DejaVuSans-Oblique-63"/>
      <path d="M 18.3125 75.984375 
L 27.296875 75.984375 
L 25.09375 64.59375 
L 16.109375 64.59375 
z
M 14.203125 54.6875 
L 23.1875 54.6875 
L 12.5 0 
L 3.515625 0 
z
" id="DejaVuSans-Oblique-69"/>
      <path d="M 55.71875 33.015625 
L 49.3125 0 
L 40.28125 0 
L 46.6875 32.671875 
Q 47.125 34.96875 47.359375 36.71875 
Q 47.609375 38.484375 47.609375 39.5 
Q 47.609375 43.609375 45.015625 45.890625 
Q 42.4375 48.1875 37.796875 48.1875 
Q 30.5625 48.1875 25.34375 43.375 
Q 20.125 38.578125 18.5 30.328125 
L 12.5 0 
L 3.515625 0 
L 14.109375 54.6875 
L 23.09375 54.6875 
L 21.296875 46.09375 
Q 25.046875 50.828125 30.3125 53.40625 
Q 35.59375 56 41.40625 56 
Q 48.640625 56 52.609375 52.09375 
Q 56.59375 48.1875 56.59375 41.109375 
Q 56.59375 39.359375 56.375 37.359375 
Q 56.15625 35.359375 55.71875 33.015625 
z
" id="DejaVuSans-Oblique-6e"/>
      <path d="M 25.390625 -1.421875 
Q 15.765625 -1.421875 10.171875 4.515625 
Q 4.59375 10.453125 4.59375 20.703125 
Q 4.59375 26.65625 6.515625 32.828125 
Q 8.453125 39.015625 11.53125 43.21875 
Q 16.359375 49.75 22.3125 52.875 
Q 28.265625 56 35.796875 56 
Q 45.125 56 50.859375 50.1875 
Q 56.59375 44.390625 56.59375 35.015625 
Q 56.59375 28.515625 54.6875 22.0625 
Q 52.78125 15.625 49.703125 11.375 
Q 44.921875 4.828125 38.96875 1.703125 
Q 33.015625 -1.421875 25.390625 -1.421875 
z
M 13.921875 21 
Q 13.921875 13.578125 17.015625 9.890625 
Q 20.125 6.203125 26.421875 6.203125 
Q 35.453125 6.203125 41.375 14.078125 
Q 47.3125 21.96875 47.3125 34.078125 
Q 47.3125 41.15625 44.140625 44.765625 
Q 40.96875 48.390625 34.8125 48.390625 
Q 29.734375 48.390625 25.78125 46.015625 
Q 21.828125 43.65625 18.703125 38.8125 
Q 16.40625 35.203125 15.15625 30.5625 
Q 13.921875 25.921875 13.921875 21 
z
" id="DejaVuSans-Oblique-6f"/>
     </defs>
     <g transform="translate(128.579055 240.714673)scale(0.1 -0.1)">
      <use transform="translate(0 0.015625)" xlink:href="#DejaVuSans-Oblique-56"/>
      <use transform="translate(68.408203 0.015625)" xlink:href="#DejaVuSans-Oblique-65"/>
      <use transform="translate(129.931641 0.015625)" xlink:href="#DejaVuSans-Oblique-63"/>
      <use transform="translate(184.912109 0.015625)" xlink:href="#DejaVuSans-Oblique-69"/>
      <use transform="translate(212.695312 0.015625)" xlink:href="#DejaVuSans-Oblique-6e"/>
      <use transform="translate(276.074219 0.015625)" xlink:href="#DejaVuSans-Oblique-6f"/>
     </g>
    </g>
   </g>
   <g id="matplotlib.axis_2">
    <g id="ytick_1">
     <g id="line2d_6">
      <defs>
       <path d="M 0 0 
L -3.5 0 
" id="m293a18d688" style="stroke:#000000;stroke-width:0.8;"/>
      </defs>
      <g>
       <use style="stroke:#000000;stroke-width:0.8;" x="49.16" xlink:href="#m293a18d688" y="193.782761"/>
      </g>
     </g>
     <g id="text_7">
      <!-- 0.0 -->
      <defs>
       <path d="M 10.6875 12.40625 
L 21 12.40625 
L 21 0 
L 10.6875 0 
z
" id="DejaVuSans-2e"/>
      </defs>
      <g transform="translate(26.256875 197.581979)scale(0.1 -0.1)">
       <use xlink:href="#DejaVuSans-30"/>
       <use x="63.623047" xlink:href="#DejaVuSans-2e"/>
       <use x="95.410156" xlink:href="#DejaVuSans-30"/>
      </g>
     </g>
    </g>
    <g id="ytick_2">
     <g id="line2d_7">
      <g>
       <use style="stroke:#000000;stroke-width:0.8;" x="49.16" xlink:href="#m293a18d688" y="161.718211"/>
      </g>
     </g>
     <g id="text_8">
      <!-- 0.1 -->
      <g transform="translate(26.256875 165.51743)scale(0.1 -0.1)">
       <use xlink:href="#DejaVuSans-30"/>
       <use x="63.623047" xlink:href="#DejaVuSans-2e"/>
       <use x="95.410156" xlink:href="#DejaVuSans-31"/>
      </g>
     </g>
    </g>
    <g id="ytick_3">
     <g id="line2d_8">
      <g>
       <use style="stroke:#000000;stroke-width:0.8;" x="49.16" xlink:href="#m293a18d688" y="129.653661"/>
      </g>
     </g>
     <g id="text_9">
      <!-- 0.2 -->
      <g transform="translate(26.256875 133.45288)scale(0.1 -0.1)">
       <use xlink:href="#DejaVuSans-30"/>
       <use x="63.623047" xlink:href="#DejaVuSans-2e"/>
       <use x="95.410156" xlink:href="#DejaVuSans-32"/>
      </g>
     </g>
    </g>
    <g id="ytick_4">
     <g id="line2d_9">
      <g>
       <use style="stroke:#000000;stroke-width:0.8;" x="49.16" xlink:href="#m293a18d688" y="97.589112"/>
      </g>
     </g>
     <g id="text_10">
      <!-- 0.3 -->
      <defs>
       <path d="M 40.578125 39.3125 
Q 47.65625 37.796875 51.625 33 
Q 55.609375 28.21875 55.609375 21.1875 
Q 55.609375 10.40625 48.1875 4.484375 
Q 40.765625 -1.421875 27.09375 -1.421875 
Q 22.515625 -1.421875 17.65625 -0.515625 
Q 12.796875 0.390625 7.625 2.203125 
L 7.625 11.71875 
Q 11.71875 9.328125 16.59375 8.109375 
Q 21.484375 6.890625 26.8125 6.890625 
Q 36.078125 6.890625 40.9375 10.546875 
Q 45.796875 14.203125 45.796875 21.1875 
Q 45.796875 27.640625 41.28125 31.265625 
Q 36.765625 34.90625 28.71875 34.90625 
L 20.21875 34.90625 
L 20.21875 43.015625 
L 29.109375 43.015625 
Q 36.375 43.015625 40.234375 45.921875 
Q 44.09375 48.828125 44.09375 54.296875 
Q 44.09375 59.90625 40.109375 62.90625 
Q 36.140625 65.921875 28.71875 65.921875 
Q 24.65625 65.921875 20.015625 65.03125 
Q 15.375 64.15625 9.8125 62.3125 
L 9.8125 71.09375 
Q 15.4375 72.65625 20.34375 73.4375 
Q 25.25 74.21875 29.59375 74.21875 
Q 40.828125 74.21875 47.359375 69.109375 
Q 53.90625 64.015625 53.90625 55.328125 
Q 53.90625 49.265625 50.4375 45.09375 
Q 46.96875 40.921875 40.578125 39.3125 
z
" id="DejaVuSans-33"/>
      </defs>
      <g transform="translate(26.256875 101.38833)scale(0.1 -0.1)">
       <use xlink:href="#DejaVuSans-30"/>
       <use x="63.623047" xlink:href="#DejaVuSans-2e"/>
       <use x="95.410156" xlink:href="#DejaVuSans-33"/>
      </g>
     </g>
    </g>
    <g id="ytick_5">
     <g id="line2d_10">
      <g>
       <use style="stroke:#000000;stroke-width:0.8;" x="49.16" xlink:href="#m293a18d688" y="65.524562"/>
      </g>
     </g>
     <g id="text_11">
      <!-- 0.4 -->
      <g transform="translate(26.256875 69.323781)scale(0.1 -0.1)">
       <use xlink:href="#DejaVuSans-30"/>
       <use x="63.623047" xlink:href="#DejaVuSans-2e"/>
       <use x="95.410156" xlink:href="#DejaVuSans-34"/>
      </g>
     </g>
    </g>
    <g id="ytick_6">
     <g id="line2d_11">
      <g>
       <use style="stroke:#000000;stroke-width:0.8;" x="49.16" xlink:href="#m293a18d688" y="33.460012"/>
      </g>
     </g>
     <g id="text_12">
      <!-- 0.5 -->
      <defs>
       <path d="M 10.796875 72.90625 
L 49.515625 72.90625 
L 49.515625 64.59375 
L 19.828125 64.59375 
L 19.828125 46.734375 
Q 21.96875 47.46875 24.109375 47.828125 
Q 26.265625 48.1875 28.421875 48.1875 
Q 40.625 48.1875 47.75 41.5 
Q 54.890625 34.8125 54.890625 23.390625 
Q 54.890625 11.625 47.5625 5.09375 
Q 40.234375 -1.421875 26.90625 -1.421875 
Q 22.3125 -1.421875 17.546875 -0.640625 
Q 12.796875 0.140625 7.71875 1.703125 
L 7.71875 11.625 
Q 12.109375 9.234375 16.796875 8.0625 
Q 21.484375 6.890625 26.703125 6.890625 
Q 35.15625 6.890625 40.078125 11.328125 
Q 45.015625 15.765625 45.015625 23.390625 
Q 45.015625 31 40.078125 35.4375 
Q 35.15625 39.890625 26.703125 39.890625 
Q 22.75 39.890625 18.8125 39.015625 
Q 14.890625 38.140625 10.796875 36.28125 
z
" id="DejaVuSans-35"/>
      </defs>
      <g transform="translate(26.256875 37.259231)scale(0.1 -0.1)">
       <use xlink:href="#DejaVuSans-30"/>
       <use x="63.623047" xlink:href="#DejaVuSans-2e"/>
       <use x="95.410156" xlink:href="#DejaVuSans-35"/>
      </g>
     </g>
    </g>
    <g id="text_13">
     <!-- $Correlación$ -->
     <defs>
      <path d="M 69.484375 67.28125 
L 67.484375 56.890625 
Q 62.796875 61.625 57.546875 63.921875 
Q 52.296875 66.21875 46.1875 66.21875 
Q 37.84375 66.21875 31.515625 62.203125 
Q 25.203125 58.203125 20.609375 50 
Q 17.671875 44.734375 16.125 38.84375 
Q 14.59375 32.953125 14.59375 27 
Q 14.59375 17.046875 19.75 11.8125 
Q 24.90625 6.59375 34.71875 6.59375 
Q 41.5 6.59375 47.75 8.765625 
Q 54 10.9375 59.90625 15.28125 
L 57.625 3.609375 
Q 51.8125 1.125 45.875 -0.140625 
Q 39.9375 -1.421875 33.984375 -1.421875 
Q 19.96875 -1.421875 12.078125 6.1875 
Q 4.203125 13.8125 4.203125 27.390625 
Q 4.203125 36.078125 7.203125 44.46875 
Q 10.203125 52.875 15.828125 59.8125 
Q 21.78125 67.1875 29.421875 70.703125 
Q 37.0625 74.21875 47.21875 74.21875 
Q 53.46875 74.21875 59.0625 72.484375 
Q 64.65625 70.75 69.484375 67.28125 
z
" id="DejaVuSans-Oblique-43"/>
      <path d="M 44.578125 46.390625 
Q 43.21875 47.125 41.453125 47.515625 
Q 39.703125 47.90625 37.703125 47.90625 
Q 30.515625 47.90625 25.140625 42.453125 
Q 19.78125 37.015625 18.015625 27.875 
L 12.5 0 
L 3.515625 0 
L 14.203125 54.6875 
L 23.1875 54.6875 
L 21.484375 46.1875 
Q 25.046875 50.921875 30 53.453125 
Q 34.96875 56 40.578125 56 
Q 42.046875 56 43.453125 55.828125 
Q 44.875 55.671875 46.296875 55.28125 
z
" id="DejaVuSans-Oblique-72"/>
      <path d="M 18.3125 75.984375 
L 27.296875 75.984375 
L 12.5 0 
L 3.515625 0 
z
" id="DejaVuSans-Oblique-6c"/>
      <path d="M 53.71875 31.203125 
L 47.609375 0 
L 38.625 0 
L 40.28125 8.296875 
Q 36.328125 3.421875 31.265625 1 
Q 26.21875 -1.421875 20.015625 -1.421875 
Q 13.03125 -1.421875 8.5625 2.84375 
Q 4.109375 7.125 4.109375 13.8125 
Q 4.109375 23.390625 11.75 28.953125 
Q 19.390625 34.515625 32.8125 34.515625 
L 45.3125 34.515625 
L 45.796875 36.921875 
Q 45.90625 37.3125 45.953125 37.765625 
Q 46 38.234375 46 39.203125 
Q 46 43.5625 42.453125 45.96875 
Q 38.921875 48.390625 32.515625 48.390625 
Q 28.125 48.390625 23.5 47.265625 
Q 18.890625 46.140625 14.015625 43.890625 
L 15.578125 52.203125 
Q 20.65625 54.109375 25.515625 55.046875 
Q 30.375 56 34.90625 56 
Q 44.578125 56 49.625 51.796875 
Q 54.6875 47.609375 54.6875 39.59375 
Q 54.6875 37.984375 54.4375 35.8125 
Q 54.203125 33.640625 53.71875 31.203125 
z
M 44 27.484375 
L 35.015625 27.484375 
Q 23.96875 27.484375 18.671875 24.53125 
Q 13.375 21.578125 13.375 15.375 
Q 13.375 11.078125 16.078125 8.640625 
Q 18.796875 6.203125 23.578125 6.203125 
Q 30.90625 6.203125 36.375 11.453125 
Q 41.84375 16.703125 43.609375 25.484375 
z
" id="DejaVuSans-Oblique-61"/>
      <path d="M 25.390625 -1.421875 
Q 15.765625 -1.421875 10.171875 4.515625 
Q 4.59375 10.453125 4.59375 20.703125 
Q 4.59375 26.65625 6.515625 32.828125 
Q 8.453125 39.015625 11.53125 43.21875 
Q 16.359375 49.75 22.3125 52.875 
Q 28.265625 56 35.796875 56 
Q 45.125 56 50.859375 50.1875 
Q 56.59375 44.390625 56.59375 35.015625 
Q 56.59375 28.515625 54.6875 22.0625 
Q 52.78125 15.625 49.703125 11.375 
Q 44.921875 4.828125 38.96875 1.703125 
Q 33.015625 -1.421875 25.390625 -1.421875 
z
M 13.921875 21 
Q 13.921875 13.578125 17.015625 9.890625 
Q 20.125 6.203125 26.421875 6.203125 
Q 35.453125 6.203125 41.375 14.078125 
Q 47.3125 21.96875 47.3125 34.078125 
Q 47.3125 41.15625 44.140625 44.765625 
Q 40.96875 48.390625 34.8125 48.390625 
Q 29.734375 48.390625 25.78125 46.015625 
Q 21.828125 43.65625 18.703125 38.8125 
Q 16.40625 35.203125 15.15625 30.5625 
Q 13.921875 25.921875 13.921875 21 
z
M 48.09375 79.984375 
L 57.8125 79.984375 
L 38.328125 61.625 
L 30.8125 61.625 
z
" id="DejaVuSans-Oblique-f3"/>
     </defs>
     <g transform="translate(20.177188 149.447055)rotate(-90)scale(0.1 -0.1)">
      <use transform="translate(0 0.015625)" xlink:href="#DejaVuSans-Oblique-43"/>
      <use transform="translate(69.824219 0.015625)" xlink:href="#DejaVuSans-Oblique-6f"/>
      <use transform="translate(131.005859 0.015625)" xlink:href="#DejaVuSans-Oblique-72"/>
      <use transform="translate(172.119141 0.015625)" xlink:href="#DejaVuSans-Oblique-72"/>
      <use transform="translate(213.232422 0.015625)" xlink:href="#DejaVuSans-Oblique-65"/>
      <use transform="translate(274.755859 0.015625)" xlink:href="#DejaVuSans-Oblique-6c"/>
      <use transform="translate(302.539062 0.015625)" xlink:href="#DejaVuSans-Oblique-61"/>
      <use transform="translate(363.818359 0.015625)" xlink:href="#DejaVuSans-Oblique-63"/>
      <use transform="translate(418.798828 0.015625)" xlink:href="#DejaVuSans-Oblique-69"/>
      <use transform="translate(446.582031 0.015625)" xlink:href="#DejaVuSans-Oblique-f3"/>
      <use transform="translate(507.763672 0.015625)" xlink:href="#DejaVuSans-Oblique-6e"/>
     </g>
    </g>
   </g>
   <g id="LineCollection_1">
    <path clip-path="url(#pfde223655d)" d="M 57.916278 43.93525 
L 57.916278 40.735135 
" style="fill:none;stroke:#1f77b4;"/>
    <path clip-path="url(#pfde223655d)" d="M 77.374673 106.105447 
L 77.374673 102.960564 
" style="fill:none;stroke:#1f77b4;"/>
    <path clip-path="url(#pfde223655d)" d="M 96.833068 141.370143 
L 96.833068 138.241618 
" style="fill:none;stroke:#1f77b4;"/>
    <path clip-path="url(#pfde223655d)" d="M 116.291463 161.855142 
L 116.291463 158.09239 
" style="fill:none;stroke:#1f77b4;"/>
    <path clip-path="url(#pfde223655d)" d="M 135.749858 171.826042 
L 135.749858 168.69995 
" style="fill:none;stroke:#1f77b4;"/>
    <path clip-path="url(#pfde223655d)" d="M 155.208253 175.741476 
L 155.208253 172.857453 
" style="fill:none;stroke:#1f77b4;"/>
    <path clip-path="url(#pfde223655d)" d="M 174.666648 177.746389 
L 174.666648 173.618499 
" style="fill:none;stroke:#1f77b4;"/>
    <path clip-path="url(#pfde223655d)" d="M 194.125043 176.700366 
L 194.125043 171.699869 
" style="fill:none;stroke:#1f77b4;"/>
    <path clip-path="url(#pfde223655d)" d="M 213.583438 178.239859 
L 213.583438 172.256432 
" style="fill:none;stroke:#1f77b4;"/>
    <path clip-path="url(#pfde223655d)" d="M 233.041832 177.778408 
L 233.041832 171.076525 
" style="fill:none;stroke:#1f77b4;"/>
   </g>
   <g id="LineCollection_2">
    <path clip-path="url(#pfde223655d)" d="M 57.916278 54.390384 
L 57.916278 51.400661 
" style="fill:none;stroke:#ff7f0e;"/>
    <path clip-path="url(#pfde223655d)" d="M 77.374673 125.047623 
L 77.374673 122.213721 
" style="fill:none;stroke:#ff7f0e;"/>
    <path clip-path="url(#pfde223655d)" d="M 96.833068 166.16822 
L 96.833068 163.045501 
" style="fill:none;stroke:#ff7f0e;"/>
    <path clip-path="url(#pfde223655d)" d="M 116.291463 185.399633 
L 116.291463 181.322996 
" style="fill:none;stroke:#ff7f0e;"/>
    <path clip-path="url(#pfde223655d)" d="M 135.749858 191.240757 
L 135.749858 186.358664 
" style="fill:none;stroke:#ff7f0e;"/>
    <path clip-path="url(#pfde223655d)" d="M 155.208253 192.641814 
L 155.208253 188.403078 
" style="fill:none;stroke:#ff7f0e;"/>
    <path clip-path="url(#pfde223655d)" d="M 174.666648 194.260505 
L 174.666648 190.671275 
" style="fill:none;stroke:#ff7f0e;"/>
    <path clip-path="url(#pfde223655d)" d="M 194.125043 198.696447 
L 194.125043 195.516592 
" style="fill:none;stroke:#ff7f0e;"/>
    <path clip-path="url(#pfde223655d)" d="M 213.583438 202.300944 
L 213.583438 199.543186 
" style="fill:none;stroke:#ff7f0e;"/>
    <path clip-path="url(#pfde223655d)" d="M 233.041832 204.111651 
L 233.041832 200.656243 
" style="fill:none;stroke:#ff7f0e;"/>
   </g>
   <g id="LineCollection_3">
    <path clip-path="url(#pfde223655d)" d="M 57.916278 45.578547 
L 57.916278 41.770061 
" style="fill:none;stroke:#2ca02c;"/>
    <path clip-path="url(#pfde223655d)" d="M 77.374673 109.31604 
L 77.374673 105.04892 
" style="fill:none;stroke:#2ca02c;"/>
    <path clip-path="url(#pfde223655d)" d="M 96.833068 148.666451 
L 96.833068 144.590611 
" style="fill:none;stroke:#2ca02c;"/>
    <path clip-path="url(#pfde223655d)" d="M 116.291463 171.761067 
L 116.291463 168.828779 
" style="fill:none;stroke:#2ca02c;"/>
    <path clip-path="url(#pfde223655d)" d="M 135.749858 184.379774 
L 135.749858 180.95163 
" style="fill:none;stroke:#2ca02c;"/>
    <path clip-path="url(#pfde223655d)" d="M 155.208253 189.30362 
L 155.208253 184.408583 
" style="fill:none;stroke:#2ca02c;"/>
    <path clip-path="url(#pfde223655d)" d="M 174.666648 187.403758 
L 174.666648 182.642163 
" style="fill:none;stroke:#2ca02c;"/>
    <path clip-path="url(#pfde223655d)" d="M 194.125043 184.02708 
L 194.125043 179.605621 
" style="fill:none;stroke:#2ca02c;"/>
    <path clip-path="url(#pfde223655d)" d="M 213.583438 181.089791 
L 213.583438 176.997917 
" style="fill:none;stroke:#2ca02c;"/>
    <path clip-path="url(#pfde223655d)" d="M 233.041832 181.324986 
L 233.041832 176.708429 
" style="fill:none;stroke:#2ca02c;"/>
   </g>
   <g id="LineCollection_4">
    <path clip-path="url(#pfde223655d)" d="M 57.916278 43.121703 
L 57.916278 38.350469 
" style="fill:none;stroke:#d62728;"/>
    <path clip-path="url(#pfde223655d)" d="M 77.374673 101.835291 
L 77.374673 96.356432 
" style="fill:none;stroke:#d62728;"/>
    <path clip-path="url(#pfde223655d)" d="M 96.833068 133.493217 
L 96.833068 129.535321 
" style="fill:none;stroke:#d62728;"/>
    <path clip-path="url(#pfde223655d)" d="M 116.291463 153.057915 
L 116.291463 150.568385 
" style="fill:none;stroke:#d62728;"/>
    <path clip-path="url(#pfde223655d)" d="M 135.749858 167.007608 
L 135.749858 165.558967 
" style="fill:none;stroke:#d62728;"/>
    <path clip-path="url(#pfde223655d)" d="M 155.208253 177.895117 
L 155.208253 175.733225 
" style="fill:none;stroke:#d62728;"/>
    <path clip-path="url(#pfde223655d)" d="M 174.666648 186.588839 
L 174.666648 183.843034 
" style="fill:none;stroke:#d62728;"/>
    <path clip-path="url(#pfde223655d)" d="M 194.125043 193.908917 
L 194.125043 191.389728 
" style="fill:none;stroke:#d62728;"/>
    <path clip-path="url(#pfde223655d)" d="M 213.583438 199.383759 
L 213.583438 196.359364 
" style="fill:none;stroke:#d62728;"/>
    <path clip-path="url(#pfde223655d)" d="M 233.041832 201.568823 
L 233.041832 197.977671 
" style="fill:none;stroke:#d62728;"/>
   </g>
   <g id="LineCollection_5">
    <path clip-path="url(#pfde223655d)" d="M 57.916278 46.981773 
L 57.916278 43.755228 
" style="fill:none;stroke:#9467bd;"/>
    <path clip-path="url(#pfde223655d)" d="M 77.374673 111.383215 
L 77.374673 108.837446 
" style="fill:none;stroke:#9467bd;"/>
    <path clip-path="url(#pfde223655d)" d="M 96.833068 147.522061 
L 96.833068 144.912728 
" style="fill:none;stroke:#9467bd;"/>
    <path clip-path="url(#pfde223655d)" d="M 116.291463 169.490394 
L 116.291463 166.337967 
" style="fill:none;stroke:#9467bd;"/>
    <path clip-path="url(#pfde223655d)" d="M 135.749858 182.285795 
L 135.749858 178.028745 
" style="fill:none;stroke:#9467bd;"/>
    <path clip-path="url(#pfde223655d)" d="M 155.208253 188.630497 
L 155.208253 184.394961 
" style="fill:none;stroke:#9467bd;"/>
    <path clip-path="url(#pfde223655d)" d="M 174.666648 187.084452 
L 174.666648 183.569549 
" style="fill:none;stroke:#9467bd;"/>
    <path clip-path="url(#pfde223655d)" d="M 194.125043 180.937011 
L 194.125043 178.039021 
" style="fill:none;stroke:#9467bd;"/>
    <path clip-path="url(#pfde223655d)" d="M 213.583438 176.553839 
L 213.583438 171.980187 
" style="fill:none;stroke:#9467bd;"/>
    <path clip-path="url(#pfde223655d)" d="M 233.041832 175.215754 
L 233.041832 169.693548 
" style="fill:none;stroke:#9467bd;"/>
   </g>
   <g id="LineCollection_6">
    <path clip-path="url(#pfde223655d)" d="M 57.916278 40.47548 
L 57.916278 37.58246 
" style="fill:none;stroke:#8c564b;"/>
    <path clip-path="url(#pfde223655d)" d="M 77.374673 101.339049 
L 77.374673 97.315959 
" style="fill:none;stroke:#8c564b;"/>
    <path clip-path="url(#pfde223655d)" d="M 96.833068 132.750477 
L 96.833068 128.743412 
" style="fill:none;stroke:#8c564b;"/>
    <path clip-path="url(#pfde223655d)" d="M 116.291463 149.605875 
L 116.291463 144.811739 
" style="fill:none;stroke:#8c564b;"/>
    <path clip-path="url(#pfde223655d)" d="M 135.749858 158.903142 
L 135.749858 154.387125 
" style="fill:none;stroke:#8c564b;"/>
    <path clip-path="url(#pfde223655d)" d="M 155.208253 165.739544 
L 155.208253 161.087437 
" style="fill:none;stroke:#8c564b;"/>
    <path clip-path="url(#pfde223655d)" d="M 174.666648 171.254908 
L 174.666648 167.383609 
" style="fill:none;stroke:#8c564b;"/>
    <path clip-path="url(#pfde223655d)" d="M 194.125043 174.154718 
L 194.125043 170.330928 
" style="fill:none;stroke:#8c564b;"/>
    <path clip-path="url(#pfde223655d)" d="M 213.583438 179.460415 
L 213.583438 173.607894 
" style="fill:none;stroke:#8c564b;"/>
    <path clip-path="url(#pfde223655d)" d="M 233.041832 182.540674 
L 233.041832 175.309588 
" style="fill:none;stroke:#8c564b;"/>
   </g>
   <g id="line2d_12">
    <defs>
     <path d="M 5 0 
L -5 -0 
" id="m39bb859b8b" style="stroke:#1f77b4;"/>
    </defs>
    <g clip-path="url(#pfde223655d)">
     <use style="fill:#1f77b4;stroke:#1f77b4;" x="57.916278" xlink:href="#m39bb859b8b" y="43.93525"/>
     <use style="fill:#1f77b4;stroke:#1f77b4;" x="77.374673" xlink:href="#m39bb859b8b" y="106.105447"/>
     <use style="fill:#1f77b4;stroke:#1f77b4;" x="96.833068" xlink:href="#m39bb859b8b" y="141.370143"/>
     <use style="fill:#1f77b4;stroke:#1f77b4;" x="116.291463" xlink:href="#m39bb859b8b" y="161.855142"/>
     <use style="fill:#1f77b4;stroke:#1f77b4;" x="135.749858" xlink:href="#m39bb859b8b" y="171.826042"/>
     <use style="fill:#1f77b4;stroke:#1f77b4;" x="155.208253" xlink:href="#m39bb859b8b" y="175.741476"/>
     <use style="fill:#1f77b4;stroke:#1f77b4;" x="174.666648" xlink:href="#m39bb859b8b" y="177.746389"/>
     <use style="fill:#1f77b4;stroke:#1f77b4;" x="194.125043" xlink:href="#m39bb859b8b" y="176.700366"/>
     <use style="fill:#1f77b4;stroke:#1f77b4;" x="213.583438" xlink:href="#m39bb859b8b" y="178.239859"/>
     <use style="fill:#1f77b4;stroke:#1f77b4;" x="233.041832" xlink:href="#m39bb859b8b" y="177.778408"/>
    </g>
   </g>
   <g id="line2d_13">
    <g clip-path="url(#pfde223655d)">
     <use style="fill:#1f77b4;stroke:#1f77b4;" x="57.916278" xlink:href="#m39bb859b8b" y="40.735135"/>
     <use style="fill:#1f77b4;stroke:#1f77b4;" x="77.374673" xlink:href="#m39bb859b8b" y="102.960564"/>
     <use style="fill:#1f77b4;stroke:#1f77b4;" x="96.833068" xlink:href="#m39bb859b8b" y="138.241618"/>
     <use style="fill:#1f77b4;stroke:#1f77b4;" x="116.291463" xlink:href="#m39bb859b8b" y="158.09239"/>
     <use style="fill:#1f77b4;stroke:#1f77b4;" x="135.749858" xlink:href="#m39bb859b8b" y="168.69995"/>
     <use style="fill:#1f77b4;stroke:#1f77b4;" x="155.208253" xlink:href="#m39bb859b8b" y="172.857453"/>
     <use style="fill:#1f77b4;stroke:#1f77b4;" x="174.666648" xlink:href="#m39bb859b8b" y="173.618499"/>
     <use style="fill:#1f77b4;stroke:#1f77b4;" x="194.125043" xlink:href="#m39bb859b8b" y="171.699869"/>
     <use style="fill:#1f77b4;stroke:#1f77b4;" x="213.583438" xlink:href="#m39bb859b8b" y="172.256432"/>
     <use style="fill:#1f77b4;stroke:#1f77b4;" x="233.041832" xlink:href="#m39bb859b8b" y="171.076525"/>
    </g>
   </g>
   <g id="line2d_14">
    <defs>
     <path d="M 5 0 
L -5 -0 
" id="mbd6120fccd" style="stroke:#ff7f0e;"/>
    </defs>
    <g clip-path="url(#pfde223655d)">
     <use style="fill:#ff7f0e;stroke:#ff7f0e;" x="57.916278" xlink:href="#mbd6120fccd" y="54.390384"/>
     <use style="fill:#ff7f0e;stroke:#ff7f0e;" x="77.374673" xlink:href="#mbd6120fccd" y="125.047623"/>
     <use style="fill:#ff7f0e;stroke:#ff7f0e;" x="96.833068" xlink:href="#mbd6120fccd" y="166.16822"/>
     <use style="fill:#ff7f0e;stroke:#ff7f0e;" x="116.291463" xlink:href="#mbd6120fccd" y="185.399633"/>
     <use style="fill:#ff7f0e;stroke:#ff7f0e;" x="135.749858" xlink:href="#mbd6120fccd" y="191.240757"/>
     <use style="fill:#ff7f0e;stroke:#ff7f0e;" x="155.208253" xlink:href="#mbd6120fccd" y="192.641814"/>
     <use style="fill:#ff7f0e;stroke:#ff7f0e;" x="174.666648" xlink:href="#mbd6120fccd" y="194.260505"/>
     <use style="fill:#ff7f0e;stroke:#ff7f0e;" x="194.125043" xlink:href="#mbd6120fccd" y="198.696447"/>
     <use style="fill:#ff7f0e;stroke:#ff7f0e;" x="213.583438" xlink:href="#mbd6120fccd" y="202.300944"/>
     <use style="fill:#ff7f0e;stroke:#ff7f0e;" x="233.041832" xlink:href="#mbd6120fccd" y="204.111651"/>
    </g>
   </g>
   <g id="line2d_15">
    <g clip-path="url(#pfde223655d)">
     <use style="fill:#ff7f0e;stroke:#ff7f0e;" x="57.916278" xlink:href="#mbd6120fccd" y="51.400661"/>
     <use style="fill:#ff7f0e;stroke:#ff7f0e;" x="77.374673" xlink:href="#mbd6120fccd" y="122.213721"/>
     <use style="fill:#ff7f0e;stroke:#ff7f0e;" x="96.833068" xlink:href="#mbd6120fccd" y="163.045501"/>
     <use style="fill:#ff7f0e;stroke:#ff7f0e;" x="116.291463" xlink:href="#mbd6120fccd" y="181.322996"/>
     <use style="fill:#ff7f0e;stroke:#ff7f0e;" x="135.749858" xlink:href="#mbd6120fccd" y="186.358664"/>
     <use style="fill:#ff7f0e;stroke:#ff7f0e;" x="155.208253" xlink:href="#mbd6120fccd" y="188.403078"/>
     <use style="fill:#ff7f0e;stroke:#ff7f0e;" x="174.666648" xlink:href="#mbd6120fccd" y="190.671275"/>
     <use style="fill:#ff7f0e;stroke:#ff7f0e;" x="194.125043" xlink:href="#mbd6120fccd" y="195.516592"/>
     <use style="fill:#ff7f0e;stroke:#ff7f0e;" x="213.583438" xlink:href="#mbd6120fccd" y="199.543186"/>
     <use style="fill:#ff7f0e;stroke:#ff7f0e;" x="233.041832" xlink:href="#mbd6120fccd" y="200.656243"/>
    </g>
   </g>
   <g id="line2d_16">
    <defs>
     <path d="M 5 0 
L -5 -0 
" id="me368d03f89" style="stroke:#2ca02c;"/>
    </defs>
    <g clip-path="url(#pfde223655d)">
     <use style="fill:#2ca02c;stroke:#2ca02c;" x="57.916278" xlink:href="#me368d03f89" y="45.578547"/>
     <use style="fill:#2ca02c;stroke:#2ca02c;" x="77.374673" xlink:href="#me368d03f89" y="109.31604"/>
     <use style="fill:#2ca02c;stroke:#2ca02c;" x="96.833068" xlink:href="#me368d03f89" y="148.666451"/>
     <use style="fill:#2ca02c;stroke:#2ca02c;" x="116.291463" xlink:href="#me368d03f89" y="171.761067"/>
     <use style="fill:#2ca02c;stroke:#2ca02c;" x="135.749858" xlink:href="#me368d03f89" y="184.379774"/>
     <use style="fill:#2ca02c;stroke:#2ca02c;" x="155.208253" xlink:href="#me368d03f89" y="189.30362"/>
     <use style="fill:#2ca02c;stroke:#2ca02c;" x="174.666648" xlink:href="#me368d03f89" y="187.403758"/>
     <use style="fill:#2ca02c;stroke:#2ca02c;" x="194.125043" xlink:href="#me368d03f89" y="184.02708"/>
     <use style="fill:#2ca02c;stroke:#2ca02c;" x="213.583438" xlink:href="#me368d03f89" y="181.089791"/>
     <use style="fill:#2ca02c;stroke:#2ca02c;" x="233.041832" xlink:href="#me368d03f89" y="181.324986"/>
    </g>
   </g>
   <g id="line2d_17">
    <g clip-path="url(#pfde223655d)">
     <use style="fill:#2ca02c;stroke:#2ca02c;" x="57.916278" xlink:href="#me368d03f89" y="41.770061"/>
     <use style="fill:#2ca02c;stroke:#2ca02c;" x="77.374673" xlink:href="#me368d03f89" y="105.04892"/>
     <use style="fill:#2ca02c;stroke:#2ca02c;" x="96.833068" xlink:href="#me368d03f89" y="144.590611"/>
     <use style="fill:#2ca02c;stroke:#2ca02c;" x="116.291463" xlink:href="#me368d03f89" y="168.828779"/>
     <use style="fill:#2ca02c;stroke:#2ca02c;" x="135.749858" xlink:href="#me368d03f89" y="180.95163"/>
     <use style="fill:#2ca02c;stroke:#2ca02c;" x="155.208253" xlink:href="#me368d03f89" y="184.408583"/>
     <use style="fill:#2ca02c;stroke:#2ca02c;" x="174.666648" xlink:href="#me368d03f89" y="182.642163"/>
     <use style="fill:#2ca02c;stroke:#2ca02c;" x="194.125043" xlink:href="#me368d03f89" y="179.605621"/>
     <use style="fill:#2ca02c;stroke:#2ca02c;" x="213.583438" xlink:href="#me368d03f89" y="176.997917"/>
     <use style="fill:#2ca02c;stroke:#2ca02c;" x="233.041832" xlink:href="#me368d03f89" y="176.708429"/>
    </g>
   </g>
   <g id="line2d_18">
    <defs>
     <path d="M 5 0 
L -5 -0 
" id="m3bf2c4a56c" style="stroke:#d62728;"/>
    </defs>
    <g clip-path="url(#pfde223655d)">
     <use style="fill:#d62728;stroke:#d62728;" x="57.916278" xlink:href="#m3bf2c4a56c" y="43.121703"/>
     <use style="fill:#d62728;stroke:#d62728;" x="77.374673" xlink:href="#m3bf2c4a56c" y="101.835291"/>
     <use style="fill:#d62728;stroke:#d62728;" x="96.833068" xlink:href="#m3bf2c4a56c" y="133.493217"/>
     <use style="fill:#d62728;stroke:#d62728;" x="116.291463" xlink:href="#m3bf2c4a56c" y="153.057915"/>
     <use style="fill:#d62728;stroke:#d62728;" x="135.749858" xlink:href="#m3bf2c4a56c" y="167.007608"/>
     <use style="fill:#d62728;stroke:#d62728;" x="155.208253" xlink:href="#m3bf2c4a56c" y="177.895117"/>
     <use style="fill:#d62728;stroke:#d62728;" x="174.666648" xlink:href="#m3bf2c4a56c" y="186.588839"/>
     <use style="fill:#d62728;stroke:#d62728;" x="194.125043" xlink:href="#m3bf2c4a56c" y="193.908917"/>
     <use style="fill:#d62728;stroke:#d62728;" x="213.583438" xlink:href="#m3bf2c4a56c" y="199.383759"/>
     <use style="fill:#d62728;stroke:#d62728;" x="233.041832" xlink:href="#m3bf2c4a56c" y="201.568823"/>
    </g>
   </g>
   <g id="line2d_19">
    <g clip-path="url(#pfde223655d)">
     <use style="fill:#d62728;stroke:#d62728;" x="57.916278" xlink:href="#m3bf2c4a56c" y="38.350469"/>
     <use style="fill:#d62728;stroke:#d62728;" x="77.374673" xlink:href="#m3bf2c4a56c" y="96.356432"/>
     <use style="fill:#d62728;stroke:#d62728;" x="96.833068" xlink:href="#m3bf2c4a56c" y="129.535321"/>
     <use style="fill:#d62728;stroke:#d62728;" x="116.291463" xlink:href="#m3bf2c4a56c" y="150.568385"/>
     <use style="fill:#d62728;stroke:#d62728;" x="135.749858" xlink:href="#m3bf2c4a56c" y="165.558967"/>
     <use style="fill:#d62728;stroke:#d62728;" x="155.208253" xlink:href="#m3bf2c4a56c" y="175.733225"/>
     <use style="fill:#d62728;stroke:#d62728;" x="174.666648" xlink:href="#m3bf2c4a56c" y="183.843034"/>
     <use style="fill:#d62728;stroke:#d62728;" x="194.125043" xlink:href="#m3bf2c4a56c" y="191.389728"/>
     <use style="fill:#d62728;stroke:#d62728;" x="213.583438" xlink:href="#m3bf2c4a56c" y="196.359364"/>
     <use style="fill:#d62728;stroke:#d62728;" x="233.041832" xlink:href="#m3bf2c4a56c" y="197.977671"/>
    </g>
   </g>
   <g id="line2d_20">
    <defs>
     <path d="M 5 0 
L -5 -0 
" id="m93474ed77d" style="stroke:#9467bd;"/>
    </defs>
    <g clip-path="url(#pfde223655d)">
     <use style="fill:#9467bd;stroke:#9467bd;" x="57.916278" xlink:href="#m93474ed77d" y="46.981773"/>
     <use style="fill:#9467bd;stroke:#9467bd;" x="77.374673" xlink:href="#m93474ed77d" y="111.383215"/>
     <use style="fill:#9467bd;stroke:#9467bd;" x="96.833068" xlink:href="#m93474ed77d" y="147.522061"/>
     <use style="fill:#9467bd;stroke:#9467bd;" x="116.291463" xlink:href="#m93474ed77d" y="169.490394"/>
     <use style="fill:#9467bd;stroke:#9467bd;" x="135.749858" xlink:href="#m93474ed77d" y="182.285795"/>
     <use style="fill:#9467bd;stroke:#9467bd;" x="155.208253" xlink:href="#m93474ed77d" y="188.630497"/>
     <use style="fill:#9467bd;stroke:#9467bd;" x="174.666648" xlink:href="#m93474ed77d" y="187.084452"/>
     <use style="fill:#9467bd;stroke:#9467bd;" x="194.125043" xlink:href="#m93474ed77d" y="180.937011"/>
     <use style="fill:#9467bd;stroke:#9467bd;" x="213.583438" xlink:href="#m93474ed77d" y="176.553839"/>
     <use style="fill:#9467bd;stroke:#9467bd;" x="233.041832" xlink:href="#m93474ed77d" y="175.215754"/>
    </g>
   </g>
   <g id="line2d_21">
    <g clip-path="url(#pfde223655d)">
     <use style="fill:#9467bd;stroke:#9467bd;" x="57.916278" xlink:href="#m93474ed77d" y="43.755228"/>
     <use style="fill:#9467bd;stroke:#9467bd;" x="77.374673" xlink:href="#m93474ed77d" y="108.837446"/>
     <use style="fill:#9467bd;stroke:#9467bd;" x="96.833068" xlink:href="#m93474ed77d" y="144.912728"/>
     <use style="fill:#9467bd;stroke:#9467bd;" x="116.291463" xlink:href="#m93474ed77d" y="166.337967"/>
     <use style="fill:#9467bd;stroke:#9467bd;" x="135.749858" xlink:href="#m93474ed77d" y="178.028745"/>
     <use style="fill:#9467bd;stroke:#9467bd;" x="155.208253" xlink:href="#m93474ed77d" y="184.394961"/>
     <use style="fill:#9467bd;stroke:#9467bd;" x="174.666648" xlink:href="#m93474ed77d" y="183.569549"/>
     <use style="fill:#9467bd;stroke:#9467bd;" x="194.125043" xlink:href="#m93474ed77d" y="178.039021"/>
     <use style="fill:#9467bd;stroke:#9467bd;" x="213.583438" xlink:href="#m93474ed77d" y="171.980187"/>
     <use style="fill:#9467bd;stroke:#9467bd;" x="233.041832" xlink:href="#m93474ed77d" y="169.693548"/>
    </g>
   </g>
   <g id="line2d_22">
    <defs>
     <path d="M 5 0 
L -5 -0 
" id="mdd810682cb" style="stroke:#8c564b;"/>
    </defs>
    <g clip-path="url(#pfde223655d)">
     <use style="fill:#8c564b;stroke:#8c564b;" x="57.916278" xlink:href="#mdd810682cb" y="40.47548"/>
     <use style="fill:#8c564b;stroke:#8c564b;" x="77.374673" xlink:href="#mdd810682cb" y="101.339049"/>
     <use style="fill:#8c564b;stroke:#8c564b;" x="96.833068" xlink:href="#mdd810682cb" y="132.750477"/>
     <use style="fill:#8c564b;stroke:#8c564b;" x="116.291463" xlink:href="#mdd810682cb" y="149.605875"/>
     <use style="fill:#8c564b;stroke:#8c564b;" x="135.749858" xlink:href="#mdd810682cb" y="158.903142"/>
     <use style="fill:#8c564b;stroke:#8c564b;" x="155.208253" xlink:href="#mdd810682cb" y="165.739544"/>
     <use style="fill:#8c564b;stroke:#8c564b;" x="174.666648" xlink:href="#mdd810682cb" y="171.254908"/>
     <use style="fill:#8c564b;stroke:#8c564b;" x="194.125043" xlink:href="#mdd810682cb" y="174.154718"/>
     <use style="fill:#8c564b;stroke:#8c564b;" x="213.583438" xlink:href="#mdd810682cb" y="179.460415"/>
     <use style="fill:#8c564b;stroke:#8c564b;" x="233.041832" xlink:href="#mdd810682cb" y="182.540674"/>
    </g>
   </g>
   <g id="line2d_23">
    <g clip-path="url(#pfde223655d)">
     <use style="fill:#8c564b;stroke:#8c564b;" x="57.916278" xlink:href="#mdd810682cb" y="37.58246"/>
     <use style="fill:#8c564b;stroke:#8c564b;" x="77.374673" xlink:href="#mdd810682cb" y="97.315959"/>
     <use style="fill:#8c564b;stroke:#8c564b;" x="96.833068" xlink:href="#mdd810682cb" y="128.743412"/>
     <use style="fill:#8c564b;stroke:#8c564b;" x="116.291463" xlink:href="#mdd810682cb" y="144.811739"/>
     <use style="fill:#8c564b;stroke:#8c564b;" x="135.749858" xlink:href="#mdd810682cb" y="154.387125"/>
     <use style="fill:#8c564b;stroke:#8c564b;" x="155.208253" xlink:href="#mdd810682cb" y="161.087437"/>
     <use style="fill:#8c564b;stroke:#8c564b;" x="174.666648" xlink:href="#mdd810682cb" y="167.383609"/>
     <use style="fill:#8c564b;stroke:#8c564b;" x="194.125043" xlink:href="#mdd810682cb" y="170.330928"/>
     <use style="fill:#8c564b;stroke:#8c564b;" x="213.583438" xlink:href="#mdd810682cb" y="173.607894"/>
     <use style="fill:#8c564b;stroke:#8c564b;" x="233.041832" xlink:href="#mdd810682cb" y="175.309588"/>
    </g>
   </g>
   <g id="line2d_24">
    <path clip-path="url(#pfde223655d)" d="M 57.916278 42.335192 
L 77.374673 104.533005 
L 96.833068 139.80588 
L 116.291463 159.973766 
L 135.749858 170.262996 
L 155.208253 174.299465 
L 174.666648 175.682444 
L 194.125043 174.200118 
L 213.583438 175.248145 
L 233.041832 174.427467 
" style="fill:none;stroke:#1f77b4;stroke-linecap:square;"/>
    <defs>
     <path d="M 0 1.5 
C 0.397805 1.5 0.77937 1.341951 1.06066 1.06066 
C 1.341951 0.77937 1.5 0.397805 1.5 0 
C 1.5 -0.397805 1.341951 -0.77937 1.06066 -1.06066 
C 0.77937 -1.341951 0.397805 -1.5 0 -1.5 
C -0.397805 -1.5 -0.77937 -1.341951 -1.06066 -1.06066 
C -1.341951 -0.77937 -1.5 -0.397805 -1.5 0 
C -1.5 0.397805 -1.341951 0.77937 -1.06066 1.06066 
C -0.77937 1.341951 -0.397805 1.5 0 1.5 
z
" id="m2af8ad46e4" style="stroke:#1f77b4;"/>
    </defs>
    <g clip-path="url(#pfde223655d)">
     <use style="fill:#1f77b4;stroke:#1f77b4;" x="57.916278" xlink:href="#m2af8ad46e4" y="42.335192"/>
     <use style="fill:#1f77b4;stroke:#1f77b4;" x="77.374673" xlink:href="#m2af8ad46e4" y="104.533005"/>
     <use style="fill:#1f77b4;stroke:#1f77b4;" x="96.833068" xlink:href="#m2af8ad46e4" y="139.80588"/>
     <use style="fill:#1f77b4;stroke:#1f77b4;" x="116.291463" xlink:href="#m2af8ad46e4" y="159.973766"/>
     <use style="fill:#1f77b4;stroke:#1f77b4;" x="135.749858" xlink:href="#m2af8ad46e4" y="170.262996"/>
     <use style="fill:#1f77b4;stroke:#1f77b4;" x="155.208253" xlink:href="#m2af8ad46e4" y="174.299465"/>
     <use style="fill:#1f77b4;stroke:#1f77b4;" x="174.666648" xlink:href="#m2af8ad46e4" y="175.682444"/>
     <use style="fill:#1f77b4;stroke:#1f77b4;" x="194.125043" xlink:href="#m2af8ad46e4" y="174.200118"/>
     <use style="fill:#1f77b4;stroke:#1f77b4;" x="213.583438" xlink:href="#m2af8ad46e4" y="175.248145"/>
     <use style="fill:#1f77b4;stroke:#1f77b4;" x="233.041832" xlink:href="#m2af8ad46e4" y="174.427467"/>
    </g>
   </g>
   <g id="line2d_25">
    <path clip-path="url(#pfde223655d)" d="M 57.916278 52.895523 
L 77.374673 123.630672 
L 96.833068 164.606861 
L 116.291463 183.361315 
L 135.749858 188.79971 
L 155.208253 190.522446 
L 174.666648 192.46589 
L 194.125043 197.106519 
L 213.583438 200.922065 
L 233.041832 202.383947 
" style="fill:none;stroke:#ff7f0e;stroke-linecap:square;"/>
    <defs>
     <path d="M 0 1.5 
C 0.397805 1.5 0.77937 1.341951 1.06066 1.06066 
C 1.341951 0.77937 1.5 0.397805 1.5 0 
C 1.5 -0.397805 1.341951 -0.77937 1.06066 -1.06066 
C 0.77937 -1.341951 0.397805 -1.5 0 -1.5 
C -0.397805 -1.5 -0.77937 -1.341951 -1.06066 -1.06066 
C -1.341951 -0.77937 -1.5 -0.397805 -1.5 0 
C -1.5 0.397805 -1.341951 0.77937 -1.06066 1.06066 
C -0.77937 1.341951 -0.397805 1.5 0 1.5 
z
" id="mde776c4527" style="stroke:#ff7f0e;"/>
    </defs>
    <g clip-path="url(#pfde223655d)">
     <use style="fill:#ff7f0e;stroke:#ff7f0e;" x="57.916278" xlink:href="#mde776c4527" y="52.895523"/>
     <use style="fill:#ff7f0e;stroke:#ff7f0e;" x="77.374673" xlink:href="#mde776c4527" y="123.630672"/>
     <use style="fill:#ff7f0e;stroke:#ff7f0e;" x="96.833068" xlink:href="#mde776c4527" y="164.606861"/>
     <use style="fill:#ff7f0e;stroke:#ff7f0e;" x="116.291463" xlink:href="#mde776c4527" y="183.361315"/>
     <use style="fill:#ff7f0e;stroke:#ff7f0e;" x="135.749858" xlink:href="#mde776c4527" y="188.79971"/>
     <use style="fill:#ff7f0e;stroke:#ff7f0e;" x="155.208253" xlink:href="#mde776c4527" y="190.522446"/>
     <use style="fill:#ff7f0e;stroke:#ff7f0e;" x="174.666648" xlink:href="#mde776c4527" y="192.46589"/>
     <use style="fill:#ff7f0e;stroke:#ff7f0e;" x="194.125043" xlink:href="#mde776c4527" y="197.106519"/>
     <use style="fill:#ff7f0e;stroke:#ff7f0e;" x="213.583438" xlink:href="#mde776c4527" y="200.922065"/>
     <use style="fill:#ff7f0e;stroke:#ff7f0e;" x="233.041832" xlink:href="#mde776c4527" y="202.383947"/>
    </g>
   </g>
   <g id="line2d_26">
    <path clip-path="url(#pfde223655d)" d="M 57.916278 43.674304 
L 77.374673 107.18248 
L 96.833068 146.628531 
L 116.291463 170.294923 
L 135.749858 182.665702 
L 155.208253 186.856101 
L 174.666648 185.022961 
L 194.125043 181.81635 
L 213.583438 179.043854 
L 233.041832 179.016708 
" style="fill:none;stroke:#2ca02c;stroke-linecap:square;"/>
    <defs>
     <path d="M 0 1.5 
C 0.397805 1.5 0.77937 1.341951 1.06066 1.06066 
C 1.341951 0.77937 1.5 0.397805 1.5 0 
C 1.5 -0.397805 1.341951 -0.77937 1.06066 -1.06066 
C 0.77937 -1.341951 0.397805 -1.5 0 -1.5 
C -0.397805 -1.5 -0.77937 -1.341951 -1.06066 -1.06066 
C -1.341951 -0.77937 -1.5 -0.397805 -1.5 0 
C -1.5 0.397805 -1.341951 0.77937 -1.06066 1.06066 
C -0.77937 1.341951 -0.397805 1.5 0 1.5 
z
" id="m2e385cc7ac" style="stroke:#2ca02c;"/>
    </defs>
    <g clip-path="url(#pfde223655d)">
     <use style="fill:#2ca02c;stroke:#2ca02c;" x="57.916278" xlink:href="#m2e385cc7ac" y="43.674304"/>
     <use style="fill:#2ca02c;stroke:#2ca02c;" x="77.374673" xlink:href="#m2e385cc7ac" y="107.18248"/>
     <use style="fill:#2ca02c;stroke:#2ca02c;" x="96.833068" xlink:href="#m2e385cc7ac" y="146.628531"/>
     <use style="fill:#2ca02c;stroke:#2ca02c;" x="116.291463" xlink:href="#m2e385cc7ac" y="170.294923"/>
     <use style="fill:#2ca02c;stroke:#2ca02c;" x="135.749858" xlink:href="#m2e385cc7ac" y="182.665702"/>
     <use style="fill:#2ca02c;stroke:#2ca02c;" x="155.208253" xlink:href="#m2e385cc7ac" y="186.856101"/>
     <use style="fill:#2ca02c;stroke:#2ca02c;" x="174.666648" xlink:href="#m2e385cc7ac" y="185.022961"/>
     <use style="fill:#2ca02c;stroke:#2ca02c;" x="194.125043" xlink:href="#m2e385cc7ac" y="181.81635"/>
     <use style="fill:#2ca02c;stroke:#2ca02c;" x="213.583438" xlink:href="#m2e385cc7ac" y="179.043854"/>
     <use style="fill:#2ca02c;stroke:#2ca02c;" x="233.041832" xlink:href="#m2e385cc7ac" y="179.016708"/>
    </g>
   </g>
   <g id="line2d_27">
    <path clip-path="url(#pfde223655d)" d="M 57.916278 40.736086 
L 77.374673 99.095861 
L 96.833068 131.514269 
L 116.291463 151.81315 
L 135.749858 166.283288 
L 155.208253 176.814171 
L 174.666648 185.215937 
L 194.125043 192.649323 
L 213.583438 197.871562 
L 233.041832 199.773247 
" style="fill:none;stroke:#d62728;stroke-linecap:square;"/>
    <defs>
     <path d="M 0 1.5 
C 0.397805 1.5 0.77937 1.341951 1.06066 1.06066 
C 1.341951 0.77937 1.5 0.397805 1.5 0 
C 1.5 -0.397805 1.341951 -0.77937 1.06066 -1.06066 
C 0.77937 -1.341951 0.397805 -1.5 0 -1.5 
C -0.397805 -1.5 -0.77937 -1.341951 -1.06066 -1.06066 
C -1.341951 -0.77937 -1.5 -0.397805 -1.5 0 
C -1.5 0.397805 -1.341951 0.77937 -1.06066 1.06066 
C -0.77937 1.341951 -0.397805 1.5 0 1.5 
z
" id="m6a08c05c39" style="stroke:#d62728;"/>
    </defs>
    <g clip-path="url(#pfde223655d)">
     <use style="fill:#d62728;stroke:#d62728;" x="57.916278" xlink:href="#m6a08c05c39" y="40.736086"/>
     <use style="fill:#d62728;stroke:#d62728;" x="77.374673" xlink:href="#m6a08c05c39" y="99.095861"/>
     <use style="fill:#d62728;stroke:#d62728;" x="96.833068" xlink:href="#m6a08c05c39" y="131.514269"/>
     <use style="fill:#d62728;stroke:#d62728;" x="116.291463" xlink:href="#m6a08c05c39" y="151.81315"/>
     <use style="fill:#d62728;stroke:#d62728;" x="135.749858" xlink:href="#m6a08c05c39" y="166.283288"/>
     <use style="fill:#d62728;stroke:#d62728;" x="155.208253" xlink:href="#m6a08c05c39" y="176.814171"/>
     <use style="fill:#d62728;stroke:#d62728;" x="174.666648" xlink:href="#m6a08c05c39" y="185.215937"/>
     <use style="fill:#d62728;stroke:#d62728;" x="194.125043" xlink:href="#m6a08c05c39" y="192.649323"/>
     <use style="fill:#d62728;stroke:#d62728;" x="213.583438" xlink:href="#m6a08c05c39" y="197.871562"/>
     <use style="fill:#d62728;stroke:#d62728;" x="233.041832" xlink:href="#m6a08c05c39" y="199.773247"/>
    </g>
   </g>
   <g id="line2d_28">
    <path clip-path="url(#pfde223655d)" d="M 57.916278 45.3685 
L 77.374673 110.11033 
L 96.833068 146.217395 
L 116.291463 167.91418 
L 135.749858 180.15727 
L 155.208253 186.512729 
L 174.666648 185.327001 
L 194.125043 179.488016 
L 213.583438 174.267013 
L 233.041832 172.454651 
" style="fill:none;stroke:#9467bd;stroke-linecap:square;"/>
    <defs>
     <path d="M 0 1.5 
C 0.397805 1.5 0.77937 1.341951 1.06066 1.06066 
C 1.341951 0.77937 1.5 0.397805 1.5 0 
C 1.5 -0.397805 1.341951 -0.77937 1.06066 -1.06066 
C 0.77937 -1.341951 0.397805 -1.5 0 -1.5 
C -0.397805 -1.5 -0.77937 -1.341951 -1.06066 -1.06066 
C -1.341951 -0.77937 -1.5 -0.397805 -1.5 0 
C -1.5 0.397805 -1.341951 0.77937 -1.06066 1.06066 
C -0.77937 1.341951 -0.397805 1.5 0 1.5 
z
" id="mc4bccaa7af" style="stroke:#9467bd;"/>
    </defs>
    <g clip-path="url(#pfde223655d)">
     <use style="fill:#9467bd;stroke:#9467bd;" x="57.916278" xlink:href="#mc4bccaa7af" y="45.3685"/>
     <use style="fill:#9467bd;stroke:#9467bd;" x="77.374673" xlink:href="#mc4bccaa7af" y="110.11033"/>
     <use style="fill:#9467bd;stroke:#9467bd;" x="96.833068" xlink:href="#mc4bccaa7af" y="146.217395"/>
     <use style="fill:#9467bd;stroke:#9467bd;" x="116.291463" xlink:href="#mc4bccaa7af" y="167.91418"/>
     <use style="fill:#9467bd;stroke:#9467bd;" x="135.749858" xlink:href="#mc4bccaa7af" y="180.15727"/>
     <use style="fill:#9467bd;stroke:#9467bd;" x="155.208253" xlink:href="#mc4bccaa7af" y="186.512729"/>
     <use style="fill:#9467bd;stroke:#9467bd;" x="174.666648" xlink:href="#mc4bccaa7af" y="185.327001"/>
     <use style="fill:#9467bd;stroke:#9467bd;" x="194.125043" xlink:href="#mc4bccaa7af" y="179.488016"/>
     <use style="fill:#9467bd;stroke:#9467bd;" x="213.583438" xlink:href="#mc4bccaa7af" y="174.267013"/>
     <use style="fill:#9467bd;stroke:#9467bd;" x="233.041832" xlink:href="#mc4bccaa7af" y="172.454651"/>
    </g>
   </g>
   <g id="line2d_29">
    <path clip-path="url(#pfde223655d)" d="M 57.916278 39.02897 
L 77.374673 99.327504 
L 96.833068 130.746945 
L 116.291463 147.208807 
L 135.749858 156.645133 
L 155.208253 163.41349 
L 174.666648 169.319259 
L 194.125043 172.242823 
L 213.583438 176.534155 
L 233.041832 178.925131 
" style="fill:none;stroke:#8c564b;stroke-linecap:square;"/>
    <defs>
     <path d="M 0 1.5 
C 0.397805 1.5 0.77937 1.341951 1.06066 1.06066 
C 1.341951 0.77937 1.5 0.397805 1.5 0 
C 1.5 -0.397805 1.341951 -0.77937 1.06066 -1.06066 
C 0.77937 -1.341951 0.397805 -1.5 0 -1.5 
C -0.397805 -1.5 -0.77937 -1.341951 -1.06066 -1.06066 
C -1.341951 -0.77937 -1.5 -0.397805 -1.5 0 
C -1.5 0.397805 -1.341951 0.77937 -1.06066 1.06066 
C -0.77937 1.341951 -0.397805 1.5 0 1.5 
z
" id="m13dbceeb9b" style="stroke:#8c564b;"/>
    </defs>
    <g clip-path="url(#pfde223655d)">
     <use style="fill:#8c564b;stroke:#8c564b;" x="57.916278" xlink:href="#m13dbceeb9b" y="39.02897"/>
     <use style="fill:#8c564b;stroke:#8c564b;" x="77.374673" xlink:href="#m13dbceeb9b" y="99.327504"/>
     <use style="fill:#8c564b;stroke:#8c564b;" x="96.833068" xlink:href="#m13dbceeb9b" y="130.746945"/>
     <use style="fill:#8c564b;stroke:#8c564b;" x="116.291463" xlink:href="#m13dbceeb9b" y="147.208807"/>
     <use style="fill:#8c564b;stroke:#8c564b;" x="135.749858" xlink:href="#m13dbceeb9b" y="156.645133"/>
     <use style="fill:#8c564b;stroke:#8c564b;" x="155.208253" xlink:href="#m13dbceeb9b" y="163.41349"/>
     <use style="fill:#8c564b;stroke:#8c564b;" x="174.666648" xlink:href="#m13dbceeb9b" y="169.319259"/>
     <use style="fill:#8c564b;stroke:#8c564b;" x="194.125043" xlink:href="#m13dbceeb9b" y="172.242823"/>
     <use style="fill:#8c564b;stroke:#8c564b;" x="213.583438" xlink:href="#m13dbceeb9b" y="176.534155"/>
     <use style="fill:#8c564b;stroke:#8c564b;" x="233.041832" xlink:href="#m13dbceeb9b" y="178.925131"/>
    </g>
   </g>
   <g id="patch_3">
    <path d="M 49.16 212.43811 
L 49.16 29.256 
" style="fill:none;stroke:#000000;stroke-linecap:square;stroke-linejoin:miter;stroke-width:0.8;"/>
   </g>
   <g id="patch_4">
    <path d="M 241.79811 212.43811 
L 241.79811 29.256 
" style="fill:none;stroke:#000000;stroke-linecap:square;stroke-linejoin:miter;stroke-width:0.8;"/>
   </g>
   <g id="patch_5">
    <path d="M 49.16 212.43811 
L 241.79811 212.43811 
" style="fill:none;stroke:#000000;stroke-linecap:square;stroke-linejoin:miter;stroke-width:0.8;"/>
   </g>
   <g id="patch_6">
    <path d="M 49.16 29.256 
L 241.79811 29.256 
" style="fill:none;stroke:#000000;stroke-linecap:square;stroke-linejoin:miter;stroke-width:0.8;"/>
   </g>
   <g id="text_14">
    <!-- $ k =40.10\;\epsilon/\sigma^2$ -->
    <defs>
     <path d="M 18.3125 75.984375 
L 27.296875 75.984375 
L 18.703125 31.6875 
L 49.515625 54.6875 
L 61.1875 54.6875 
L 26.8125 28.515625 
L 51.90625 0 
L 41.015625 0 
L 17.671875 26.703125 
L 12.5 0 
L 3.515625 0 
z
" id="DejaVuSans-Oblique-6b"/>
     <path d="M 10.59375 45.40625 
L 73.1875 45.40625 
L 73.1875 37.203125 
L 10.59375 37.203125 
z
M 10.59375 25.484375 
L 73.1875 25.484375 
L 73.1875 17.1875 
L 10.59375 17.1875 
z
" id="DejaVuSans-3d"/>
     <path d="M 19.734375 29.5 
Q 14.453125 30.671875 12.15625 33.84375 
Q 10.453125 36.078125 10.453125 39.109375 
Q 10.453125 47.40625 18.359375 52.25 
Q 24.609375 56.0625 34.1875 56.0625 
Q 37.890625 56.0625 41.9375 55.46875 
Q 46 54.890625 50.53125 53.71875 
L 48.96875 45.5625 
Q 44.484375 46.96875 40.71875 47.609375 
Q 36.859375 48.25 33.40625 48.25 
Q 27.59375 48.25 23.78125 46 
Q 19.1875 43.3125 19.1875 39.40625 
Q 19.1875 36.8125 21.578125 35.015625 
Q 24.421875 32.859375 30.078125 32.859375 
L 37.640625 32.859375 
L 36.234375 25.4375 
L 29 25.4375 
Q 22.265625 25.4375 18.3125 22.953125 
Q 12.9375 19.578125 12.9375 14.3125 
Q 12.9375 10.984375 15.828125 8.796875 
Q 19.4375 6.0625 26.8125 6.0625 
Q 31.34375 6.0625 35.6875 6.9375 
Q 40.046875 7.859375 43.84375 9.671875 
L 42.1875 1.3125 
Q 37.546875 -0.046875 33.296875 -0.734375 
Q 29.046875 -1.421875 25.140625 -1.421875 
Q 13.53125 -1.421875 8.0625 3.03125 
Q 3.90625 6.453125 3.90625 12.203125 
Q 3.90625 19.96875 9.375 24.75 
Q 13.421875 28.328125 19.734375 29.5 
z
" id="DejaVuSans-Oblique-3b5"/>
     <path d="M 25.390625 72.90625 
L 33.6875 72.90625 
L 8.296875 -9.28125 
L 0 -9.28125 
z
" id="DejaVuSans-2f"/>
     <path d="M 34.671875 47.5625 
Q 27.25 47.5625 22.21875 42.1875 
Q 16.890625 36.578125 15.140625 27.296875 
Q 13.1875 17.484375 16.3125 11.8125 
Q 19.390625 6.203125 26.65625 6.203125 
Q 33.84375 6.203125 39.109375 11.859375 
Q 44.4375 17.53125 46.34375 27.296875 
Q 48.046875 36.234375 45.015625 42.1875 
Q 42.1875 47.5625 34.671875 47.5625 
z
M 36.078125 54.734375 
L 65.921875 54.6875 
L 64.15625 45.703125 
L 54.109375 45.703125 
Q 57.90625 38.09375 55.859375 27.296875 
Q 53.21875 13.875 45.0625 6.25 
Q 36.859375 -1.421875 25.140625 -1.421875 
Q 13.375 -1.421875 8.203125 6.25 
Q 3.03125 13.875 5.671875 27.296875 
Q 8.25 40.765625 16.40625 48.390625 
Q 23.1875 54.734375 36.078125 54.734375 
z
" id="DejaVuSans-Oblique-3c3"/>
    </defs>
    <g transform="translate(103.659055 23.256)scale(0.12 -0.12)">
     <use transform="translate(0 0.765625)" xlink:href="#DejaVuSans-Oblique-6b"/>
     <use transform="translate(77.392578 0.765625)" xlink:href="#DejaVuSans-3d"/>
     <use transform="translate(180.664062 0.765625)" xlink:href="#DejaVuSans-34"/>
     <use transform="translate(244.287109 0.765625)" xlink:href="#DejaVuSans-30"/>
     <use transform="translate(307.910156 0.765625)" xlink:href="#DejaVuSans-2e"/>
     <use transform="translate(339.697266 0.765625)" xlink:href="#DejaVuSans-31"/>
     <use transform="translate(403.320312 0.765625)" xlink:href="#DejaVuSans-30"/>
     <use transform="translate(494.002495 0.765625)" xlink:href="#DejaVuSans-Oblique-3b5"/>
     <use transform="translate(548.055229 0.765625)" xlink:href="#DejaVuSans-2f"/>
     <use transform="translate(581.746636 0.765625)" xlink:href="#DejaVuSans-Oblique-3c3"/>
     <use transform="translate(649.59825 39.046875)scale(0.7)" xlink:href="#DejaVuSans-32"/>
    </g>
   </g>
   <g id="legend_1">
    <g id="patch_7">
     <path d="M 142.07311 81.290375 
L 234.79811 81.290375 
Q 236.79811 81.290375 236.79811 79.290375 
L 236.79811 36.256 
Q 236.79811 34.256 234.79811 34.256 
L 142.07311 34.256 
Q 140.07311 34.256 140.07311 36.256 
L 140.07311 79.290375 
Q 140.07311 81.290375 142.07311 81.290375 
z
" style="fill:#ffffff;opacity:0.8;stroke:#cccccc;stroke-linejoin:miter;"/>
    </g>
    <g id="LineCollection_7">
     <path d="M 154.07311 47.354438 
L 154.07311 37.354438 
" style="fill:none;stroke:#1f77b4;"/>
    </g>
    <g id="line2d_30">
     <g>
      <use style="fill:#1f77b4;stroke:#1f77b4;" x="154.07311" xlink:href="#m39bb859b8b" y="47.354438"/>
     </g>
    </g>
    <g id="line2d_31">
     <g>
      <use style="fill:#1f77b4;stroke:#1f77b4;" x="154.07311" xlink:href="#m39bb859b8b" y="37.354438"/>
     </g>
    </g>
    <g id="line2d_32">
     <path d="M 144.07311 42.354438 
L 164.07311 42.354438 
" style="fill:none;stroke:#1f77b4;stroke-linecap:square;"/>
    </g>
    <g id="line2d_33">
     <g>
      <use style="fill:#1f77b4;stroke:#1f77b4;" x="154.07311" xlink:href="#m2af8ad46e4" y="42.354438"/>
     </g>
    </g>
    <g id="text_15">
     <!-- 0 -->
     <g transform="translate(172.07311 45.854438)scale(0.1 -0.1)">
      <use xlink:href="#DejaVuSans-30"/>
     </g>
    </g>
    <g id="LineCollection_8">
     <path d="M 154.07311 62.032563 
L 154.07311 52.032563 
" style="fill:none;stroke:#ff7f0e;"/>
    </g>
    <g id="line2d_34">
     <g>
      <use style="fill:#ff7f0e;stroke:#ff7f0e;" x="154.07311" xlink:href="#mbd6120fccd" y="62.032563"/>
     </g>
    </g>
    <g id="line2d_35">
     <g>
      <use style="fill:#ff7f0e;stroke:#ff7f0e;" x="154.07311" xlink:href="#mbd6120fccd" y="52.032563"/>
     </g>
    </g>
    <g id="line2d_36">
     <path d="M 144.07311 57.032563 
L 164.07311 57.032563 
" style="fill:none;stroke:#ff7f0e;stroke-linecap:square;"/>
    </g>
    <g id="line2d_37">
     <g>
      <use style="fill:#ff7f0e;stroke:#ff7f0e;" x="154.07311" xlink:href="#mde776c4527" y="57.032563"/>
     </g>
    </g>
    <g id="text_16">
     <!-- 1 -->
     <g transform="translate(172.07311 60.532563)scale(0.1 -0.1)">
      <use xlink:href="#DejaVuSans-31"/>
     </g>
    </g>
    <g id="LineCollection_9">
     <path d="M 154.07311 76.710688 
L 154.07311 66.710688 
" style="fill:none;stroke:#2ca02c;"/>
    </g>
    <g id="line2d_38">
     <g>
      <use style="fill:#2ca02c;stroke:#2ca02c;" x="154.07311" xlink:href="#me368d03f89" y="76.710688"/>
     </g>
    </g>
    <g id="line2d_39">
     <g>
      <use style="fill:#2ca02c;stroke:#2ca02c;" x="154.07311" xlink:href="#me368d03f89" y="66.710688"/>
     </g>
    </g>
    <g id="line2d_40">
     <path d="M 144.07311 71.710688 
L 164.07311 71.710688 
" style="fill:none;stroke:#2ca02c;stroke-linecap:square;"/>
    </g>
    <g id="line2d_41">
     <g>
      <use style="fill:#2ca02c;stroke:#2ca02c;" x="154.07311" xlink:href="#m2e385cc7ac" y="71.710688"/>
     </g>
    </g>
    <g id="text_17">
     <!-- 2 -->
     <g transform="translate(172.07311 75.210688)scale(0.1 -0.1)">
      <use xlink:href="#DejaVuSans-32"/>
     </g>
    </g>
    <g id="LineCollection_10">
     <path d="M 208.43561 47.354438 
L 208.43561 37.354438 
" style="fill:none;stroke:#d62728;"/>
    </g>
    <g id="line2d_42">
     <g>
      <use style="fill:#d62728;stroke:#d62728;" x="208.43561" xlink:href="#m3bf2c4a56c" y="47.354438"/>
     </g>
    </g>
    <g id="line2d_43">
     <g>
      <use style="fill:#d62728;stroke:#d62728;" x="208.43561" xlink:href="#m3bf2c4a56c" y="37.354438"/>
     </g>
    </g>
    <g id="line2d_44">
     <path d="M 198.43561 42.354438 
L 218.43561 42.354438 
" style="fill:none;stroke:#d62728;stroke-linecap:square;"/>
    </g>
    <g id="line2d_45">
     <g>
      <use style="fill:#d62728;stroke:#d62728;" x="208.43561" xlink:href="#m6a08c05c39" y="42.354438"/>
     </g>
    </g>
    <g id="text_18">
     <!-- 3 -->
     <g transform="translate(226.43561 45.854438)scale(0.1 -0.1)">
      <use xlink:href="#DejaVuSans-33"/>
     </g>
    </g>
    <g id="LineCollection_11">
     <path d="M 208.43561 62.032563 
L 208.43561 52.032563 
" style="fill:none;stroke:#9467bd;"/>
    </g>
    <g id="line2d_46">
     <g>
      <use style="fill:#9467bd;stroke:#9467bd;" x="208.43561" xlink:href="#m93474ed77d" y="62.032563"/>
     </g>
    </g>
    <g id="line2d_47">
     <g>
      <use style="fill:#9467bd;stroke:#9467bd;" x="208.43561" xlink:href="#m93474ed77d" y="52.032563"/>
     </g>
    </g>
    <g id="line2d_48">
     <path d="M 198.43561 57.032563 
L 218.43561 57.032563 
" style="fill:none;stroke:#9467bd;stroke-linecap:square;"/>
    </g>
    <g id="line2d_49">
     <g>
      <use style="fill:#9467bd;stroke:#9467bd;" x="208.43561" xlink:href="#mc4bccaa7af" y="57.032563"/>
     </g>
    </g>
    <g id="text_19">
     <!-- 4 -->
     <g transform="translate(226.43561 60.532563)scale(0.1 -0.1)">
      <use xlink:href="#DejaVuSans-34"/>
     </g>
    </g>
    <g id="LineCollection_12">
     <path d="M 208.43561 76.710688 
L 208.43561 66.710688 
" style="fill:none;stroke:#8c564b;"/>
    </g>
    <g id="line2d_50">
     <g>
      <use style="fill:#8c564b;stroke:#8c564b;" x="208.43561" xlink:href="#mdd810682cb" y="76.710688"/>
     </g>
    </g>
    <g id="line2d_51">
     <g>
      <use style="fill:#8c564b;stroke:#8c564b;" x="208.43561" xlink:href="#mdd810682cb" y="66.710688"/>
     </g>
    </g>
    <g id="line2d_52">
     <path d="M 198.43561 71.710688 
L 218.43561 71.710688 
" style="fill:none;stroke:#8c564b;stroke-linecap:square;"/>
    </g>
    <g id="line2d_53">
     <g>
      <use style="fill:#8c564b;stroke:#8c564b;" x="208.43561" xlink:href="#m13dbceeb9b" y="71.710688"/>
     </g>
    </g>
    <g id="text_20">
     <!-- 5 -->
     <g transform="translate(226.43561 75.210688)scale(0.1 -0.1)">
      <use xlink:href="#DejaVuSans-35"/>
     </g>
    </g>
   </g>
  </g>
 </g>
 <defs>
  <clipPath id="pfde223655d">
   <rect height="183.18211" width="192.63811" x="49.16" y="29.256"/>
  </clipPath>
 </defs>
</svg>
