<?xml version="1.0" encoding="utf-8" standalone="no"?>
<!DOCTYPE svg PUBLIC "-//W3C//DTD SVG 1.1//EN"
  "http://www.w3.org/Graphics/SVG/1.1/DTD/svg11.dtd">
<!-- Created with matplotlib (http://matplotlib.org/) -->
<svg height="255pt" version="1.1" viewBox="0 0 255 255" width="255pt" xmlns="http://www.w3.org/2000/svg" xmlns:xlink="http://www.w3.org/1999/xlink">
 <defs>
  <style type="text/css">
*{stroke-linecap:butt;stroke-linejoin:round;}
  </style>
 </defs>
 <g id="figure_1">
  <g id="patch_1">
   <path d="M 0 255.11811 
L 255.11811 255.11811 
L 255.11811 0 
L 0 0 
z
" style="fill:#ffffff;"/>
  </g>
  <g id="axes_1">
   <g id="patch_2">
    <path d="M 63.83 212.43811 
L 241.79811 212.43811 
L 241.79811 29.256 
L 63.83 29.256 
z
" style="fill:#ffffff;"/>
   </g>
   <g id="matplotlib.axis_1">
    <g id="xtick_1">
     <g id="line2d_1">
      <defs>
       <path d="M 0 0 
L 0 3.5 
" id="m7dfe9700f9" style="stroke:#000000;stroke-width:0.8;"/>
      </defs>
      <g>
       <use style="stroke:#000000;stroke-width:0.8;" x="89.896036" xlink:href="#m7dfe9700f9" y="212.43811"/>
      </g>
     </g>
     <g id="text_1">
      <!-- 2 -->
      <defs>
       <path d="M 19.1875 8.296875 
L 53.609375 8.296875 
L 53.609375 0 
L 7.328125 0 
L 7.328125 8.296875 
Q 12.9375 14.109375 22.625 23.890625 
Q 32.328125 33.6875 34.8125 36.53125 
Q 39.546875 41.84375 41.421875 45.53125 
Q 43.3125 49.21875 43.3125 52.78125 
Q 43.3125 58.59375 39.234375 62.25 
Q 35.15625 65.921875 28.609375 65.921875 
Q 23.96875 65.921875 18.8125 64.3125 
Q 13.671875 62.703125 7.8125 59.421875 
L 7.8125 69.390625 
Q 13.765625 71.78125 18.9375 73 
Q 24.125 74.21875 28.421875 74.21875 
Q 39.75 74.21875 46.484375 68.546875 
Q 53.21875 62.890625 53.21875 53.421875 
Q 53.21875 48.921875 51.53125 44.890625 
Q 49.859375 40.875 45.40625 35.40625 
Q 44.1875 33.984375 37.640625 27.21875 
Q 31.109375 20.453125 19.1875 8.296875 
z
" id="DejaVuSans-32"/>
      </defs>
      <g transform="translate(86.714786 227.036548)scale(0.1 -0.1)">
       <use xlink:href="#DejaVuSans-32"/>
      </g>
     </g>
    </g>
    <g id="xtick_2">
     <g id="line2d_2">
      <g>
       <use style="stroke:#000000;stroke-width:0.8;" x="125.84919" xlink:href="#m7dfe9700f9" y="212.43811"/>
      </g>
     </g>
     <g id="text_2">
      <!-- 4 -->
      <defs>
       <path d="M 37.796875 64.3125 
L 12.890625 25.390625 
L 37.796875 25.390625 
z
M 35.203125 72.90625 
L 47.609375 72.90625 
L 47.609375 25.390625 
L 58.015625 25.390625 
L 58.015625 17.1875 
L 47.609375 17.1875 
L 47.609375 0 
L 37.796875 0 
L 37.796875 17.1875 
L 4.890625 17.1875 
L 4.890625 26.703125 
z
" id="DejaVuSans-34"/>
      </defs>
      <g transform="translate(122.66794 227.036548)scale(0.1 -0.1)">
       <use xlink:href="#DejaVuSans-34"/>
      </g>
     </g>
    </g>
    <g id="xtick_3">
     <g id="line2d_3">
      <g>
       <use style="stroke:#000000;stroke-width:0.8;" x="161.802344" xlink:href="#m7dfe9700f9" y="212.43811"/>
      </g>
     </g>
     <g id="text_3">
      <!-- 6 -->
      <defs>
       <path d="M 33.015625 40.375 
Q 26.375 40.375 22.484375 35.828125 
Q 18.609375 31.296875 18.609375 23.390625 
Q 18.609375 15.53125 22.484375 10.953125 
Q 26.375 6.390625 33.015625 6.390625 
Q 39.65625 6.390625 43.53125 10.953125 
Q 47.40625 15.53125 47.40625 23.390625 
Q 47.40625 31.296875 43.53125 35.828125 
Q 39.65625 40.375 33.015625 40.375 
z
M 52.59375 71.296875 
L 52.59375 62.3125 
Q 48.875 64.0625 45.09375 64.984375 
Q 41.3125 65.921875 37.59375 65.921875 
Q 27.828125 65.921875 22.671875 59.328125 
Q 17.53125 52.734375 16.796875 39.40625 
Q 19.671875 43.65625 24.015625 45.921875 
Q 28.375 48.1875 33.59375 48.1875 
Q 44.578125 48.1875 50.953125 41.515625 
Q 57.328125 34.859375 57.328125 23.390625 
Q 57.328125 12.15625 50.6875 5.359375 
Q 44.046875 -1.421875 33.015625 -1.421875 
Q 20.359375 -1.421875 13.671875 8.265625 
Q 6.984375 17.96875 6.984375 36.375 
Q 6.984375 53.65625 15.1875 63.9375 
Q 23.390625 74.21875 37.203125 74.21875 
Q 40.921875 74.21875 44.703125 73.484375 
Q 48.484375 72.75 52.59375 71.296875 
z
" id="DejaVuSans-36"/>
      </defs>
      <g transform="translate(158.621094 227.036548)scale(0.1 -0.1)">
       <use xlink:href="#DejaVuSans-36"/>
      </g>
     </g>
    </g>
    <g id="xtick_4">
     <g id="line2d_4">
      <g>
       <use style="stroke:#000000;stroke-width:0.8;" x="197.755497" xlink:href="#m7dfe9700f9" y="212.43811"/>
      </g>
     </g>
     <g id="text_4">
      <!-- 8 -->
      <defs>
       <path d="M 31.78125 34.625 
Q 24.75 34.625 20.71875 30.859375 
Q 16.703125 27.09375 16.703125 20.515625 
Q 16.703125 13.921875 20.71875 10.15625 
Q 24.75 6.390625 31.78125 6.390625 
Q 38.8125 6.390625 42.859375 10.171875 
Q 46.921875 13.96875 46.921875 20.515625 
Q 46.921875 27.09375 42.890625 30.859375 
Q 38.875 34.625 31.78125 34.625 
z
M 21.921875 38.8125 
Q 15.578125 40.375 12.03125 44.71875 
Q 8.5 49.078125 8.5 55.328125 
Q 8.5 64.0625 14.71875 69.140625 
Q 20.953125 74.21875 31.78125 74.21875 
Q 42.671875 74.21875 48.875 69.140625 
Q 55.078125 64.0625 55.078125 55.328125 
Q 55.078125 49.078125 51.53125 44.71875 
Q 48 40.375 41.703125 38.8125 
Q 48.828125 37.15625 52.796875 32.3125 
Q 56.78125 27.484375 56.78125 20.515625 
Q 56.78125 9.90625 50.3125 4.234375 
Q 43.84375 -1.421875 31.78125 -1.421875 
Q 19.734375 -1.421875 13.25 4.234375 
Q 6.78125 9.90625 6.78125 20.515625 
Q 6.78125 27.484375 10.78125 32.3125 
Q 14.796875 37.15625 21.921875 38.8125 
z
M 18.3125 54.390625 
Q 18.3125 48.734375 21.84375 45.5625 
Q 25.390625 42.390625 31.78125 42.390625 
Q 38.140625 42.390625 41.71875 45.5625 
Q 45.3125 48.734375 45.3125 54.390625 
Q 45.3125 60.0625 41.71875 63.234375 
Q 38.140625 66.40625 31.78125 66.40625 
Q 25.390625 66.40625 21.84375 63.234375 
Q 18.3125 60.0625 18.3125 54.390625 
z
" id="DejaVuSans-38"/>
      </defs>
      <g transform="translate(194.574247 227.036548)scale(0.1 -0.1)">
       <use xlink:href="#DejaVuSans-38"/>
      </g>
     </g>
    </g>
    <g id="xtick_5">
     <g id="line2d_5">
      <g>
       <use style="stroke:#000000;stroke-width:0.8;" x="233.708651" xlink:href="#m7dfe9700f9" y="212.43811"/>
      </g>
     </g>
     <g id="text_5">
      <!-- 10 -->
      <defs>
       <path d="M 12.40625 8.296875 
L 28.515625 8.296875 
L 28.515625 63.921875 
L 10.984375 60.40625 
L 10.984375 69.390625 
L 28.421875 72.90625 
L 38.28125 72.90625 
L 38.28125 8.296875 
L 54.390625 8.296875 
L 54.390625 0 
L 12.40625 0 
z
" id="DejaVuSans-31"/>
       <path d="M 31.78125 66.40625 
Q 24.171875 66.40625 20.328125 58.90625 
Q 16.5 51.421875 16.5 36.375 
Q 16.5 21.390625 20.328125 13.890625 
Q 24.171875 6.390625 31.78125 6.390625 
Q 39.453125 6.390625 43.28125 13.890625 
Q 47.125 21.390625 47.125 36.375 
Q 47.125 51.421875 43.28125 58.90625 
Q 39.453125 66.40625 31.78125 66.40625 
z
M 31.78125 74.21875 
Q 44.046875 74.21875 50.515625 64.515625 
Q 56.984375 54.828125 56.984375 36.375 
Q 56.984375 17.96875 50.515625 8.265625 
Q 44.046875 -1.421875 31.78125 -1.421875 
Q 19.53125 -1.421875 13.0625 8.265625 
Q 6.59375 17.96875 6.59375 36.375 
Q 6.59375 54.828125 13.0625 64.515625 
Q 19.53125 74.21875 31.78125 74.21875 
z
" id="DejaVuSans-30"/>
      </defs>
      <g transform="translate(227.346151 227.036548)scale(0.1 -0.1)">
       <use xlink:href="#DejaVuSans-31"/>
       <use x="63.623047" xlink:href="#DejaVuSans-30"/>
      </g>
     </g>
    </g>
    <g id="text_6">
     <!-- $Vecino$ -->
     <defs>
      <path d="M 20.609375 0 
L 7.8125 72.90625 
L 17.484375 72.90625 
L 28.078125 10.203125 
L 63.484375 72.90625 
L 74.21875 72.90625 
L 32.078125 0 
z
" id="DejaVuSans-Oblique-56"/>
      <path d="M 48.09375 32.234375 
Q 48.25 33.015625 48.3125 33.84375 
Q 48.390625 34.671875 48.390625 35.5 
Q 48.390625 41.453125 44.890625 44.921875 
Q 41.40625 48.390625 35.40625 48.390625 
Q 28.71875 48.390625 23.578125 44.15625 
Q 18.453125 39.9375 15.828125 32.171875 
z
M 55.90625 25.203125 
L 14.109375 25.203125 
Q 13.8125 23.34375 13.71875 22.265625 
Q 13.625 21.1875 13.625 20.40625 
Q 13.625 13.625 17.796875 9.90625 
Q 21.96875 6.203125 29.59375 6.203125 
Q 35.453125 6.203125 40.671875 7.515625 
Q 45.90625 8.84375 50.390625 11.375 
L 48.6875 2.484375 
Q 43.84375 0.53125 38.6875 -0.4375 
Q 33.546875 -1.421875 28.21875 -1.421875 
Q 16.84375 -1.421875 10.71875 4.015625 
Q 4.59375 9.46875 4.59375 19.484375 
Q 4.59375 28.03125 7.640625 35.375 
Q 10.6875 42.71875 16.609375 48.484375 
Q 20.40625 52.09375 25.65625 54.046875 
Q 30.90625 56 36.8125 56 
Q 46.09375 56 51.578125 50.4375 
Q 57.078125 44.875 57.078125 35.5 
Q 57.078125 33.25 56.78125 30.6875 
Q 56.5 28.125 55.90625 25.203125 
z
" id="DejaVuSans-Oblique-65"/>
      <path d="M 53.609375 52.59375 
L 51.8125 43.703125 
Q 48.578125 46.046875 44.9375 47.21875 
Q 41.3125 48.390625 37.40625 48.390625 
Q 33.109375 48.390625 29.21875 46.875 
Q 25.34375 45.359375 22.703125 42.578125 
Q 18.5 38.328125 16.203125 32.609375 
Q 13.921875 26.90625 13.921875 20.796875 
Q 13.921875 13.421875 17.609375 9.8125 
Q 21.296875 6.203125 28.8125 6.203125 
Q 32.515625 6.203125 36.6875 7.328125 
Q 40.875 8.453125 45.40625 10.6875 
L 43.703125 1.8125 
Q 39.796875 0.203125 35.671875 -0.609375 
Q 31.546875 -1.421875 27.203125 -1.421875 
Q 16.3125 -1.421875 10.453125 4.015625 
Q 4.59375 9.46875 4.59375 19.578125 
Q 4.59375 28.078125 7.640625 35.234375 
Q 10.6875 42.390625 16.703125 48.09375 
Q 20.796875 52 26.3125 54 
Q 31.84375 56 38.375 56 
Q 42.1875 56 45.9375 55.140625 
Q 49.703125 54.296875 53.609375 52.59375 
z
" id="DejaVuSans-Oblique-63"/>
      <path d="M 18.3125 75.984375 
L 27.296875 75.984375 
L 25.09375 64.59375 
L 16.109375 64.59375 
z
M 14.203125 54.6875 
L 23.1875 54.6875 
L 12.5 0 
L 3.515625 0 
z
" id="DejaVuSans-Oblique-69"/>
      <path d="M 55.71875 33.015625 
L 49.3125 0 
L 40.28125 0 
L 46.6875 32.671875 
Q 47.125 34.96875 47.359375 36.71875 
Q 47.609375 38.484375 47.609375 39.5 
Q 47.609375 43.609375 45.015625 45.890625 
Q 42.4375 48.1875 37.796875 48.1875 
Q 30.5625 48.1875 25.34375 43.375 
Q 20.125 38.578125 18.5 30.328125 
L 12.5 0 
L 3.515625 0 
L 14.109375 54.6875 
L 23.09375 54.6875 
L 21.296875 46.09375 
Q 25.046875 50.828125 30.3125 53.40625 
Q 35.59375 56 41.40625 56 
Q 48.640625 56 52.609375 52.09375 
Q 56.59375 48.1875 56.59375 41.109375 
Q 56.59375 39.359375 56.375 37.359375 
Q 56.15625 35.359375 55.71875 33.015625 
z
" id="DejaVuSans-Oblique-6e"/>
      <path d="M 25.390625 -1.421875 
Q 15.765625 -1.421875 10.171875 4.515625 
Q 4.59375 10.453125 4.59375 20.703125 
Q 4.59375 26.65625 6.515625 32.828125 
Q 8.453125 39.015625 11.53125 43.21875 
Q 16.359375 49.75 22.3125 52.875 
Q 28.265625 56 35.796875 56 
Q 45.125 56 50.859375 50.1875 
Q 56.59375 44.390625 56.59375 35.015625 
Q 56.59375 28.515625 54.6875 22.0625 
Q 52.78125 15.625 49.703125 11.375 
Q 44.921875 4.828125 38.96875 1.703125 
Q 33.015625 -1.421875 25.390625 -1.421875 
z
M 13.921875 21 
Q 13.921875 13.578125 17.015625 9.890625 
Q 20.125 6.203125 26.421875 6.203125 
Q 35.453125 6.203125 41.375 14.078125 
Q 47.3125 21.96875 47.3125 34.078125 
Q 47.3125 41.15625 44.140625 44.765625 
Q 40.96875 48.390625 34.8125 48.390625 
Q 29.734375 48.390625 25.78125 46.015625 
Q 21.828125 43.65625 18.703125 38.8125 
Q 16.40625 35.203125 15.15625 30.5625 
Q 13.921875 25.921875 13.921875 21 
z
" id="DejaVuSans-Oblique-6f"/>
     </defs>
     <g transform="translate(135.914055 240.714673)scale(0.1 -0.1)">
      <use transform="translate(0 0.015625)" xlink:href="#DejaVuSans-Oblique-56"/>
      <use transform="translate(68.408203 0.015625)" xlink:href="#DejaVuSans-Oblique-65"/>
      <use transform="translate(129.931641 0.015625)" xlink:href="#DejaVuSans-Oblique-63"/>
      <use transform="translate(184.912109 0.015625)" xlink:href="#DejaVuSans-Oblique-69"/>
      <use transform="translate(212.695312 0.015625)" xlink:href="#DejaVuSans-Oblique-6e"/>
      <use transform="translate(276.074219 0.015625)" xlink:href="#DejaVuSans-Oblique-6f"/>
     </g>
    </g>
   </g>
   <g id="matplotlib.axis_2">
    <g id="ytick_1">
     <g id="line2d_6">
      <defs>
       <path d="M 0 0 
L -3.5 0 
" id="m0dc9eba987" style="stroke:#000000;stroke-width:0.8;"/>
      </defs>
      <g>
       <use style="stroke:#000000;stroke-width:0.8;" x="63.83" xlink:href="#m0dc9eba987" y="204.312181"/>
      </g>
     </g>
     <g id="text_7">
      <!-- −0.03 -->
      <defs>
       <path d="M 10.59375 35.5 
L 73.1875 35.5 
L 73.1875 27.203125 
L 10.59375 27.203125 
z
" id="DejaVuSans-2212"/>
       <path d="M 10.6875 12.40625 
L 21 12.40625 
L 21 0 
L 10.6875 0 
z
" id="DejaVuSans-2e"/>
       <path d="M 40.578125 39.3125 
Q 47.65625 37.796875 51.625 33 
Q 55.609375 28.21875 55.609375 21.1875 
Q 55.609375 10.40625 48.1875 4.484375 
Q 40.765625 -1.421875 27.09375 -1.421875 
Q 22.515625 -1.421875 17.65625 -0.515625 
Q 12.796875 0.390625 7.625 2.203125 
L 7.625 11.71875 
Q 11.71875 9.328125 16.59375 8.109375 
Q 21.484375 6.890625 26.8125 6.890625 
Q 36.078125 6.890625 40.9375 10.546875 
Q 45.796875 14.203125 45.796875 21.1875 
Q 45.796875 27.640625 41.28125 31.265625 
Q 36.765625 34.90625 28.71875 34.90625 
L 20.21875 34.90625 
L 20.21875 43.015625 
L 29.109375 43.015625 
Q 36.375 43.015625 40.234375 45.921875 
Q 44.09375 48.828125 44.09375 54.296875 
Q 44.09375 59.90625 40.109375 62.90625 
Q 36.140625 65.921875 28.71875 65.921875 
Q 24.65625 65.921875 20.015625 65.03125 
Q 15.375 64.15625 9.8125 62.3125 
L 9.8125 71.09375 
Q 15.4375 72.65625 20.34375 73.4375 
Q 25.25 74.21875 29.59375 74.21875 
Q 40.828125 74.21875 47.359375 69.109375 
Q 53.90625 64.015625 53.90625 55.328125 
Q 53.90625 49.265625 50.4375 45.09375 
Q 46.96875 40.921875 40.578125 39.3125 
z
" id="DejaVuSans-33"/>
      </defs>
      <g transform="translate(26.184688 208.1114)scale(0.1 -0.1)">
       <use xlink:href="#DejaVuSans-2212"/>
       <use x="83.789062" xlink:href="#DejaVuSans-30"/>
       <use x="147.412109" xlink:href="#DejaVuSans-2e"/>
       <use x="179.199219" xlink:href="#DejaVuSans-30"/>
       <use x="242.822266" xlink:href="#DejaVuSans-33"/>
      </g>
     </g>
    </g>
    <g id="ytick_2">
     <g id="line2d_7">
      <g>
       <use style="stroke:#000000;stroke-width:0.8;" x="63.83" xlink:href="#m0dc9eba987" y="179.279972"/>
      </g>
     </g>
     <g id="text_8">
      <!-- −0.02 -->
      <g transform="translate(26.184688 183.079191)scale(0.1 -0.1)">
       <use xlink:href="#DejaVuSans-2212"/>
       <use x="83.789062" xlink:href="#DejaVuSans-30"/>
       <use x="147.412109" xlink:href="#DejaVuSans-2e"/>
       <use x="179.199219" xlink:href="#DejaVuSans-30"/>
       <use x="242.822266" xlink:href="#DejaVuSans-32"/>
      </g>
     </g>
    </g>
    <g id="ytick_3">
     <g id="line2d_8">
      <g>
       <use style="stroke:#000000;stroke-width:0.8;" x="63.83" xlink:href="#m0dc9eba987" y="154.247763"/>
      </g>
     </g>
     <g id="text_9">
      <!-- −0.01 -->
      <g transform="translate(26.184688 158.046982)scale(0.1 -0.1)">
       <use xlink:href="#DejaVuSans-2212"/>
       <use x="83.789062" xlink:href="#DejaVuSans-30"/>
       <use x="147.412109" xlink:href="#DejaVuSans-2e"/>
       <use x="179.199219" xlink:href="#DejaVuSans-30"/>
       <use x="242.822266" xlink:href="#DejaVuSans-31"/>
      </g>
     </g>
    </g>
    <g id="ytick_4">
     <g id="line2d_9">
      <g>
       <use style="stroke:#000000;stroke-width:0.8;" x="63.83" xlink:href="#m0dc9eba987" y="129.215554"/>
      </g>
     </g>
     <g id="text_10">
      <!-- 0.00 -->
      <g transform="translate(34.564375 133.014773)scale(0.1 -0.1)">
       <use xlink:href="#DejaVuSans-30"/>
       <use x="63.623047" xlink:href="#DejaVuSans-2e"/>
       <use x="95.410156" xlink:href="#DejaVuSans-30"/>
       <use x="159.033203" xlink:href="#DejaVuSans-30"/>
      </g>
     </g>
    </g>
    <g id="ytick_5">
     <g id="line2d_10">
      <g>
       <use style="stroke:#000000;stroke-width:0.8;" x="63.83" xlink:href="#m0dc9eba987" y="104.183345"/>
      </g>
     </g>
     <g id="text_11">
      <!-- 0.01 -->
      <g transform="translate(34.564375 107.982564)scale(0.1 -0.1)">
       <use xlink:href="#DejaVuSans-30"/>
       <use x="63.623047" xlink:href="#DejaVuSans-2e"/>
       <use x="95.410156" xlink:href="#DejaVuSans-30"/>
       <use x="159.033203" xlink:href="#DejaVuSans-31"/>
      </g>
     </g>
    </g>
    <g id="ytick_6">
     <g id="line2d_11">
      <g>
       <use style="stroke:#000000;stroke-width:0.8;" x="63.83" xlink:href="#m0dc9eba987" y="79.151136"/>
      </g>
     </g>
     <g id="text_12">
      <!-- 0.02 -->
      <g transform="translate(34.564375 82.950355)scale(0.1 -0.1)">
       <use xlink:href="#DejaVuSans-30"/>
       <use x="63.623047" xlink:href="#DejaVuSans-2e"/>
       <use x="95.410156" xlink:href="#DejaVuSans-30"/>
       <use x="159.033203" xlink:href="#DejaVuSans-32"/>
      </g>
     </g>
    </g>
    <g id="ytick_7">
     <g id="line2d_12">
      <g>
       <use style="stroke:#000000;stroke-width:0.8;" x="63.83" xlink:href="#m0dc9eba987" y="54.118927"/>
      </g>
     </g>
     <g id="text_13">
      <!-- 0.03 -->
      <g transform="translate(34.564375 57.918146)scale(0.1 -0.1)">
       <use xlink:href="#DejaVuSans-30"/>
       <use x="63.623047" xlink:href="#DejaVuSans-2e"/>
       <use x="95.410156" xlink:href="#DejaVuSans-30"/>
       <use x="159.033203" xlink:href="#DejaVuSans-33"/>
      </g>
     </g>
    </g>
    <g id="ytick_8">
     <g id="line2d_13">
      <g>
       <use style="stroke:#000000;stroke-width:0.8;" x="63.83" xlink:href="#m0dc9eba987" y="29.086718"/>
      </g>
     </g>
     <g id="text_14">
      <!-- 0.04 -->
      <g transform="translate(34.564375 32.885937)scale(0.1 -0.1)">
       <use xlink:href="#DejaVuSans-30"/>
       <use x="63.623047" xlink:href="#DejaVuSans-2e"/>
       <use x="95.410156" xlink:href="#DejaVuSans-30"/>
       <use x="159.033203" xlink:href="#DejaVuSans-34"/>
      </g>
     </g>
    </g>
    <g id="text_15">
     <!-- $Correlación$ -->
     <defs>
      <path d="M 69.484375 67.28125 
L 67.484375 56.890625 
Q 62.796875 61.625 57.546875 63.921875 
Q 52.296875 66.21875 46.1875 66.21875 
Q 37.84375 66.21875 31.515625 62.203125 
Q 25.203125 58.203125 20.609375 50 
Q 17.671875 44.734375 16.125 38.84375 
Q 14.59375 32.953125 14.59375 27 
Q 14.59375 17.046875 19.75 11.8125 
Q 24.90625 6.59375 34.71875 6.59375 
Q 41.5 6.59375 47.75 8.765625 
Q 54 10.9375 59.90625 15.28125 
L 57.625 3.609375 
Q 51.8125 1.125 45.875 -0.140625 
Q 39.9375 -1.421875 33.984375 -1.421875 
Q 19.96875 -1.421875 12.078125 6.1875 
Q 4.203125 13.8125 4.203125 27.390625 
Q 4.203125 36.078125 7.203125 44.46875 
Q 10.203125 52.875 15.828125 59.8125 
Q 21.78125 67.1875 29.421875 70.703125 
Q 37.0625 74.21875 47.21875 74.21875 
Q 53.46875 74.21875 59.0625 72.484375 
Q 64.65625 70.75 69.484375 67.28125 
z
" id="DejaVuSans-Oblique-43"/>
      <path d="M 44.578125 46.390625 
Q 43.21875 47.125 41.453125 47.515625 
Q 39.703125 47.90625 37.703125 47.90625 
Q 30.515625 47.90625 25.140625 42.453125 
Q 19.78125 37.015625 18.015625 27.875 
L 12.5 0 
L 3.515625 0 
L 14.203125 54.6875 
L 23.1875 54.6875 
L 21.484375 46.1875 
Q 25.046875 50.921875 30 53.453125 
Q 34.96875 56 40.578125 56 
Q 42.046875 56 43.453125 55.828125 
Q 44.875 55.671875 46.296875 55.28125 
z
" id="DejaVuSans-Oblique-72"/>
      <path d="M 18.3125 75.984375 
L 27.296875 75.984375 
L 12.5 0 
L 3.515625 0 
z
" id="DejaVuSans-Oblique-6c"/>
      <path d="M 53.71875 31.203125 
L 47.609375 0 
L 38.625 0 
L 40.28125 8.296875 
Q 36.328125 3.421875 31.265625 1 
Q 26.21875 -1.421875 20.015625 -1.421875 
Q 13.03125 -1.421875 8.5625 2.84375 
Q 4.109375 7.125 4.109375 13.8125 
Q 4.109375 23.390625 11.75 28.953125 
Q 19.390625 34.515625 32.8125 34.515625 
L 45.3125 34.515625 
L 45.796875 36.921875 
Q 45.90625 37.3125 45.953125 37.765625 
Q 46 38.234375 46 39.203125 
Q 46 43.5625 42.453125 45.96875 
Q 38.921875 48.390625 32.515625 48.390625 
Q 28.125 48.390625 23.5 47.265625 
Q 18.890625 46.140625 14.015625 43.890625 
L 15.578125 52.203125 
Q 20.65625 54.109375 25.515625 55.046875 
Q 30.375 56 34.90625 56 
Q 44.578125 56 49.625 51.796875 
Q 54.6875 47.609375 54.6875 39.59375 
Q 54.6875 37.984375 54.4375 35.8125 
Q 54.203125 33.640625 53.71875 31.203125 
z
M 44 27.484375 
L 35.015625 27.484375 
Q 23.96875 27.484375 18.671875 24.53125 
Q 13.375 21.578125 13.375 15.375 
Q 13.375 11.078125 16.078125 8.640625 
Q 18.796875 6.203125 23.578125 6.203125 
Q 30.90625 6.203125 36.375 11.453125 
Q 41.84375 16.703125 43.609375 25.484375 
z
" id="DejaVuSans-Oblique-61"/>
      <path d="M 25.390625 -1.421875 
Q 15.765625 -1.421875 10.171875 4.515625 
Q 4.59375 10.453125 4.59375 20.703125 
Q 4.59375 26.65625 6.515625 32.828125 
Q 8.453125 39.015625 11.53125 43.21875 
Q 16.359375 49.75 22.3125 52.875 
Q 28.265625 56 35.796875 56 
Q 45.125 56 50.859375 50.1875 
Q 56.59375 44.390625 56.59375 35.015625 
Q 56.59375 28.515625 54.6875 22.0625 
Q 52.78125 15.625 49.703125 11.375 
Q 44.921875 4.828125 38.96875 1.703125 
Q 33.015625 -1.421875 25.390625 -1.421875 
z
M 13.921875 21 
Q 13.921875 13.578125 17.015625 9.890625 
Q 20.125 6.203125 26.421875 6.203125 
Q 35.453125 6.203125 41.375 14.078125 
Q 47.3125 21.96875 47.3125 34.078125 
Q 47.3125 41.15625 44.140625 44.765625 
Q 40.96875 48.390625 34.8125 48.390625 
Q 29.734375 48.390625 25.78125 46.015625 
Q 21.828125 43.65625 18.703125 38.8125 
Q 16.40625 35.203125 15.15625 30.5625 
Q 13.921875 25.921875 13.921875 21 
z
M 48.09375 79.984375 
L 57.8125 79.984375 
L 38.328125 61.625 
L 30.8125 61.625 
z
" id="DejaVuSans-Oblique-f3"/>
     </defs>
     <g transform="translate(20.105 149.447055)rotate(-90)scale(0.1 -0.1)">
      <use transform="translate(0 0.015625)" xlink:href="#DejaVuSans-Oblique-43"/>
      <use transform="translate(69.824219 0.015625)" xlink:href="#DejaVuSans-Oblique-6f"/>
      <use transform="translate(131.005859 0.015625)" xlink:href="#DejaVuSans-Oblique-72"/>
      <use transform="translate(172.119141 0.015625)" xlink:href="#DejaVuSans-Oblique-72"/>
      <use transform="translate(213.232422 0.015625)" xlink:href="#DejaVuSans-Oblique-65"/>
      <use transform="translate(274.755859 0.015625)" xlink:href="#DejaVuSans-Oblique-6c"/>
      <use transform="translate(302.539062 0.015625)" xlink:href="#DejaVuSans-Oblique-61"/>
      <use transform="translate(363.818359 0.015625)" xlink:href="#DejaVuSans-Oblique-63"/>
      <use transform="translate(418.798828 0.015625)" xlink:href="#DejaVuSans-Oblique-69"/>
      <use transform="translate(446.582031 0.015625)" xlink:href="#DejaVuSans-Oblique-f3"/>
      <use transform="translate(507.763672 0.015625)" xlink:href="#DejaVuSans-Oblique-6e"/>
     </g>
    </g>
   </g>
   <g id="LineCollection_1">
    <path clip-path="url(#p6c926f467e)" d="M 71.91946 90.979453 
L 71.91946 58.988142 
" style="fill:none;stroke:#1f77b4;"/>
    <path clip-path="url(#p6c926f467e)" d="M 89.896036 78.306434 
L 89.896036 46.07096 
" style="fill:none;stroke:#1f77b4;"/>
    <path clip-path="url(#p6c926f467e)" d="M 107.872613 144.746611 
L 107.872613 116.781546 
" style="fill:none;stroke:#1f77b4;"/>
    <path clip-path="url(#p6c926f467e)" d="M 125.84919 138.333761 
L 125.84919 114.268136 
" style="fill:none;stroke:#1f77b4;"/>
    <path clip-path="url(#p6c926f467e)" d="M 143.825767 194.696969 
L 143.825767 173.662919 
" style="fill:none;stroke:#1f77b4;"/>
    <path clip-path="url(#p6c926f467e)" d="M 161.802344 132.937439 
L 161.802344 94.682193 
" style="fill:none;stroke:#1f77b4;"/>
    <path clip-path="url(#p6c926f467e)" d="M 179.77892 147.828424 
L 179.77892 118.101017 
" style="fill:none;stroke:#1f77b4;"/>
    <path clip-path="url(#p6c926f467e)" d="M 197.755497 117.791477 
L 197.755497 92.430538 
" style="fill:none;stroke:#1f77b4;"/>
    <path clip-path="url(#p6c926f467e)" d="M 215.732074 174.234125 
L 215.732074 141.918 
" style="fill:none;stroke:#1f77b4;"/>
    <path clip-path="url(#p6c926f467e)" d="M 233.708651 154.433067 
L 233.708651 98.09842 
" style="fill:none;stroke:#1f77b4;"/>
   </g>
   <g id="LineCollection_2">
    <path clip-path="url(#p6c926f467e)" d="M 71.91946 75.472798 
L 71.91946 43.069586 
" style="fill:none;stroke:#ff7f0e;"/>
    <path clip-path="url(#p6c926f467e)" d="M 89.896036 111.465087 
L 89.896036 84.60365 
" style="fill:none;stroke:#ff7f0e;"/>
    <path clip-path="url(#p6c926f467e)" d="M 107.872613 134.582982 
L 107.872613 114.361329 
" style="fill:none;stroke:#ff7f0e;"/>
    <path clip-path="url(#p6c926f467e)" d="M 125.84919 143.97591 
L 125.84919 124.035802 
" style="fill:none;stroke:#ff7f0e;"/>
    <path clip-path="url(#p6c926f467e)" d="M 143.825767 170.24506 
L 143.825767 136.749499 
" style="fill:none;stroke:#ff7f0e;"/>
    <path clip-path="url(#p6c926f467e)" d="M 161.802344 175.774711 
L 161.802344 150.383311 
" style="fill:none;stroke:#ff7f0e;"/>
    <path clip-path="url(#p6c926f467e)" d="M 179.77892 147.52975 
L 179.77892 116.622745 
" style="fill:none;stroke:#ff7f0e;"/>
    <path clip-path="url(#p6c926f467e)" d="M 197.755497 132.700061 
L 197.755497 106.995353 
" style="fill:none;stroke:#ff7f0e;"/>
    <path clip-path="url(#p6c926f467e)" d="M 215.732074 155.602733 
L 215.732074 116.985771 
" style="fill:none;stroke:#ff7f0e;"/>
    <path clip-path="url(#p6c926f467e)" d="M 233.708651 154.192855 
L 233.708651 104.622811 
" style="fill:none;stroke:#ff7f0e;"/>
   </g>
   <g id="LineCollection_3">
    <path clip-path="url(#p6c926f467e)" d="M 71.91946 106.719641 
L 71.91946 67.078777 
" style="fill:none;stroke:#2ca02c;"/>
    <path clip-path="url(#p6c926f467e)" d="M 89.896036 168.863295 
L 89.896036 140.838815 
" style="fill:none;stroke:#2ca02c;"/>
    <path clip-path="url(#p6c926f467e)" d="M 107.872613 158.024403 
L 107.872613 121.523866 
" style="fill:none;stroke:#2ca02c;"/>
    <path clip-path="url(#p6c926f467e)" d="M 125.84919 175.103932 
L 125.84919 137.568211 
" style="fill:none;stroke:#2ca02c;"/>
    <path clip-path="url(#p6c926f467e)" d="M 143.825767 137.10647 
L 143.825767 108.812638 
" style="fill:none;stroke:#2ca02c;"/>
    <path clip-path="url(#p6c926f467e)" d="M 161.802344 118.195053 
L 161.802344 89.218986 
" style="fill:none;stroke:#2ca02c;"/>
    <path clip-path="url(#p6c926f467e)" d="M 179.77892 167.019305 
L 179.77892 138.406379 
" style="fill:none;stroke:#2ca02c;"/>
    <path clip-path="url(#p6c926f467e)" d="M 197.755497 164.391559 
L 197.755497 126.285237 
" style="fill:none;stroke:#2ca02c;"/>
    <path clip-path="url(#p6c926f467e)" d="M 215.732074 157.847283 
L 215.732074 119.826554 
" style="fill:none;stroke:#2ca02c;"/>
    <path clip-path="url(#p6c926f467e)" d="M 233.708651 188.704935 
L 233.708651 149.242443 
" style="fill:none;stroke:#2ca02c;"/>
   </g>
   <g id="LineCollection_4">
    <path clip-path="url(#p6c926f467e)" d="M 71.91946 97.954542 
L 71.91946 68.066136 
" style="fill:none;stroke:#d62728;"/>
    <path clip-path="url(#p6c926f467e)" d="M 89.896036 130.051936 
L 89.896036 94.073772 
" style="fill:none;stroke:#d62728;"/>
    <path clip-path="url(#p6c926f467e)" d="M 107.872613 144.62578 
L 107.872613 116.087257 
" style="fill:none;stroke:#d62728;"/>
    <path clip-path="url(#p6c926f467e)" d="M 125.84919 174.862882 
L 125.84919 131.084539 
" style="fill:none;stroke:#d62728;"/>
    <path clip-path="url(#p6c926f467e)" d="M 143.825767 125.897333 
L 143.825767 95.751494 
" style="fill:none;stroke:#d62728;"/>
    <path clip-path="url(#p6c926f467e)" d="M 161.802344 140.994903 
L 161.802344 106.085171 
" style="fill:none;stroke:#d62728;"/>
    <path clip-path="url(#p6c926f467e)" d="M 179.77892 116.303929 
L 179.77892 79.659846 
" style="fill:none;stroke:#d62728;"/>
    <path clip-path="url(#p6c926f467e)" d="M 197.755497 135.238979 
L 197.755497 104.305913 
" style="fill:none;stroke:#d62728;"/>
    <path clip-path="url(#p6c926f467e)" d="M 215.732074 130.562628 
L 215.732074 100.160539 
" style="fill:none;stroke:#d62728;"/>
    <path clip-path="url(#p6c926f467e)" d="M 233.708651 204.111651 
L 233.708651 160.675926 
" style="fill:none;stroke:#d62728;"/>
   </g>
   <g id="LineCollection_5">
    <path clip-path="url(#p6c926f467e)" d="M 71.91946 79.588001 
L 71.91946 37.58246 
" style="fill:none;stroke:#9467bd;"/>
    <path clip-path="url(#p6c926f467e)" d="M 89.896036 200.868424 
L 89.896036 163.956236 
" style="fill:none;stroke:#9467bd;"/>
    <path clip-path="url(#p6c926f467e)" d="M 107.872613 121.474562 
L 107.872613 92.381621 
" style="fill:none;stroke:#9467bd;"/>
    <path clip-path="url(#p6c926f467e)" d="M 125.84919 117.178766 
L 125.84919 82.817439 
" style="fill:none;stroke:#9467bd;"/>
    <path clip-path="url(#p6c926f467e)" d="M 143.825767 128.380026 
L 143.825767 92.751428 
" style="fill:none;stroke:#9467bd;"/>
    <path clip-path="url(#p6c926f467e)" d="M 161.802344 199.565365 
L 161.802344 173.378667 
" style="fill:none;stroke:#9467bd;"/>
    <path clip-path="url(#p6c926f467e)" d="M 179.77892 130.246016 
L 179.77892 99.94285 
" style="fill:none;stroke:#9467bd;"/>
    <path clip-path="url(#p6c926f467e)" d="M 197.755497 117.015041 
L 197.755497 93.311404 
" style="fill:none;stroke:#9467bd;"/>
    <path clip-path="url(#p6c926f467e)" d="M 215.732074 174.673116 
L 215.732074 147.785353 
" style="fill:none;stroke:#9467bd;"/>
    <path clip-path="url(#p6c926f467e)" d="M 233.708651 165.769942 
L 233.708651 135.225881 
" style="fill:none;stroke:#9467bd;"/>
   </g>
   <g id="LineCollection_6">
    <path clip-path="url(#p6c926f467e)" d="M 71.91946 117.912276 
L 71.91946 84.278448 
" style="fill:none;stroke:#8c564b;"/>
    <path clip-path="url(#p6c926f467e)" d="M 89.896036 123.684881 
L 89.896036 103.964019 
" style="fill:none;stroke:#8c564b;"/>
    <path clip-path="url(#p6c926f467e)" d="M 107.872613 170.594883 
L 107.872613 144.880992 
" style="fill:none;stroke:#8c564b;"/>
    <path clip-path="url(#p6c926f467e)" d="M 125.84919 164.786335 
L 125.84919 141.687181 
" style="fill:none;stroke:#8c564b;"/>
    <path clip-path="url(#p6c926f467e)" d="M 143.825767 181.050639 
L 143.825767 145.715433 
" style="fill:none;stroke:#8c564b;"/>
    <path clip-path="url(#p6c926f467e)" d="M 161.802344 135.944468 
L 161.802344 113.077076 
" style="fill:none;stroke:#8c564b;"/>
    <path clip-path="url(#p6c926f467e)" d="M 179.77892 153.457013 
L 179.77892 124.258956 
" style="fill:none;stroke:#8c564b;"/>
    <path clip-path="url(#p6c926f467e)" d="M 197.755497 127.535787 
L 197.755497 92.9883 
" style="fill:none;stroke:#8c564b;"/>
    <path clip-path="url(#p6c926f467e)" d="M 215.732074 114.131807 
L 215.732074 79.374772 
" style="fill:none;stroke:#8c564b;"/>
    <path clip-path="url(#p6c926f467e)" d="M 233.708651 183.271843 
L 233.708651 126.143585 
" style="fill:none;stroke:#8c564b;"/>
   </g>
   <g id="line2d_14">
    <defs>
     <path d="M 5 0 
L -5 -0 
" id="m1197428769" style="stroke:#1f77b4;"/>
    </defs>
    <g clip-path="url(#p6c926f467e)">
     <use style="fill:#1f77b4;stroke:#1f77b4;" x="71.91946" xlink:href="#m1197428769" y="90.979453"/>
     <use style="fill:#1f77b4;stroke:#1f77b4;" x="89.896036" xlink:href="#m1197428769" y="78.306434"/>
     <use style="fill:#1f77b4;stroke:#1f77b4;" x="107.872613" xlink:href="#m1197428769" y="144.746611"/>
     <use style="fill:#1f77b4;stroke:#1f77b4;" x="125.84919" xlink:href="#m1197428769" y="138.333761"/>
     <use style="fill:#1f77b4;stroke:#1f77b4;" x="143.825767" xlink:href="#m1197428769" y="194.696969"/>
     <use style="fill:#1f77b4;stroke:#1f77b4;" x="161.802344" xlink:href="#m1197428769" y="132.937439"/>
     <use style="fill:#1f77b4;stroke:#1f77b4;" x="179.77892" xlink:href="#m1197428769" y="147.828424"/>
     <use style="fill:#1f77b4;stroke:#1f77b4;" x="197.755497" xlink:href="#m1197428769" y="117.791477"/>
     <use style="fill:#1f77b4;stroke:#1f77b4;" x="215.732074" xlink:href="#m1197428769" y="174.234125"/>
     <use style="fill:#1f77b4;stroke:#1f77b4;" x="233.708651" xlink:href="#m1197428769" y="154.433067"/>
    </g>
   </g>
   <g id="line2d_15">
    <g clip-path="url(#p6c926f467e)">
     <use style="fill:#1f77b4;stroke:#1f77b4;" x="71.91946" xlink:href="#m1197428769" y="58.988142"/>
     <use style="fill:#1f77b4;stroke:#1f77b4;" x="89.896036" xlink:href="#m1197428769" y="46.07096"/>
     <use style="fill:#1f77b4;stroke:#1f77b4;" x="107.872613" xlink:href="#m1197428769" y="116.781546"/>
     <use style="fill:#1f77b4;stroke:#1f77b4;" x="125.84919" xlink:href="#m1197428769" y="114.268136"/>
     <use style="fill:#1f77b4;stroke:#1f77b4;" x="143.825767" xlink:href="#m1197428769" y="173.662919"/>
     <use style="fill:#1f77b4;stroke:#1f77b4;" x="161.802344" xlink:href="#m1197428769" y="94.682193"/>
     <use style="fill:#1f77b4;stroke:#1f77b4;" x="179.77892" xlink:href="#m1197428769" y="118.101017"/>
     <use style="fill:#1f77b4;stroke:#1f77b4;" x="197.755497" xlink:href="#m1197428769" y="92.430538"/>
     <use style="fill:#1f77b4;stroke:#1f77b4;" x="215.732074" xlink:href="#m1197428769" y="141.918"/>
     <use style="fill:#1f77b4;stroke:#1f77b4;" x="233.708651" xlink:href="#m1197428769" y="98.09842"/>
    </g>
   </g>
   <g id="line2d_16">
    <defs>
     <path d="M 5 0 
L -5 -0 
" id="m4919b335fc" style="stroke:#ff7f0e;"/>
    </defs>
    <g clip-path="url(#p6c926f467e)">
     <use style="fill:#ff7f0e;stroke:#ff7f0e;" x="71.91946" xlink:href="#m4919b335fc" y="75.472798"/>
     <use style="fill:#ff7f0e;stroke:#ff7f0e;" x="89.896036" xlink:href="#m4919b335fc" y="111.465087"/>
     <use style="fill:#ff7f0e;stroke:#ff7f0e;" x="107.872613" xlink:href="#m4919b335fc" y="134.582982"/>
     <use style="fill:#ff7f0e;stroke:#ff7f0e;" x="125.84919" xlink:href="#m4919b335fc" y="143.97591"/>
     <use style="fill:#ff7f0e;stroke:#ff7f0e;" x="143.825767" xlink:href="#m4919b335fc" y="170.24506"/>
     <use style="fill:#ff7f0e;stroke:#ff7f0e;" x="161.802344" xlink:href="#m4919b335fc" y="175.774711"/>
     <use style="fill:#ff7f0e;stroke:#ff7f0e;" x="179.77892" xlink:href="#m4919b335fc" y="147.52975"/>
     <use style="fill:#ff7f0e;stroke:#ff7f0e;" x="197.755497" xlink:href="#m4919b335fc" y="132.700061"/>
     <use style="fill:#ff7f0e;stroke:#ff7f0e;" x="215.732074" xlink:href="#m4919b335fc" y="155.602733"/>
     <use style="fill:#ff7f0e;stroke:#ff7f0e;" x="233.708651" xlink:href="#m4919b335fc" y="154.192855"/>
    </g>
   </g>
   <g id="line2d_17">
    <g clip-path="url(#p6c926f467e)">
     <use style="fill:#ff7f0e;stroke:#ff7f0e;" x="71.91946" xlink:href="#m4919b335fc" y="43.069586"/>
     <use style="fill:#ff7f0e;stroke:#ff7f0e;" x="89.896036" xlink:href="#m4919b335fc" y="84.60365"/>
     <use style="fill:#ff7f0e;stroke:#ff7f0e;" x="107.872613" xlink:href="#m4919b335fc" y="114.361329"/>
     <use style="fill:#ff7f0e;stroke:#ff7f0e;" x="125.84919" xlink:href="#m4919b335fc" y="124.035802"/>
     <use style="fill:#ff7f0e;stroke:#ff7f0e;" x="143.825767" xlink:href="#m4919b335fc" y="136.749499"/>
     <use style="fill:#ff7f0e;stroke:#ff7f0e;" x="161.802344" xlink:href="#m4919b335fc" y="150.383311"/>
     <use style="fill:#ff7f0e;stroke:#ff7f0e;" x="179.77892" xlink:href="#m4919b335fc" y="116.622745"/>
     <use style="fill:#ff7f0e;stroke:#ff7f0e;" x="197.755497" xlink:href="#m4919b335fc" y="106.995353"/>
     <use style="fill:#ff7f0e;stroke:#ff7f0e;" x="215.732074" xlink:href="#m4919b335fc" y="116.985771"/>
     <use style="fill:#ff7f0e;stroke:#ff7f0e;" x="233.708651" xlink:href="#m4919b335fc" y="104.622811"/>
    </g>
   </g>
   <g id="line2d_18">
    <defs>
     <path d="M 5 0 
L -5 -0 
" id="m8ecb531221" style="stroke:#2ca02c;"/>
    </defs>
    <g clip-path="url(#p6c926f467e)">
     <use style="fill:#2ca02c;stroke:#2ca02c;" x="71.91946" xlink:href="#m8ecb531221" y="106.719641"/>
     <use style="fill:#2ca02c;stroke:#2ca02c;" x="89.896036" xlink:href="#m8ecb531221" y="168.863295"/>
     <use style="fill:#2ca02c;stroke:#2ca02c;" x="107.872613" xlink:href="#m8ecb531221" y="158.024403"/>
     <use style="fill:#2ca02c;stroke:#2ca02c;" x="125.84919" xlink:href="#m8ecb531221" y="175.103932"/>
     <use style="fill:#2ca02c;stroke:#2ca02c;" x="143.825767" xlink:href="#m8ecb531221" y="137.10647"/>
     <use style="fill:#2ca02c;stroke:#2ca02c;" x="161.802344" xlink:href="#m8ecb531221" y="118.195053"/>
     <use style="fill:#2ca02c;stroke:#2ca02c;" x="179.77892" xlink:href="#m8ecb531221" y="167.019305"/>
     <use style="fill:#2ca02c;stroke:#2ca02c;" x="197.755497" xlink:href="#m8ecb531221" y="164.391559"/>
     <use style="fill:#2ca02c;stroke:#2ca02c;" x="215.732074" xlink:href="#m8ecb531221" y="157.847283"/>
     <use style="fill:#2ca02c;stroke:#2ca02c;" x="233.708651" xlink:href="#m8ecb531221" y="188.704935"/>
    </g>
   </g>
   <g id="line2d_19">
    <g clip-path="url(#p6c926f467e)">
     <use style="fill:#2ca02c;stroke:#2ca02c;" x="71.91946" xlink:href="#m8ecb531221" y="67.078777"/>
     <use style="fill:#2ca02c;stroke:#2ca02c;" x="89.896036" xlink:href="#m8ecb531221" y="140.838815"/>
     <use style="fill:#2ca02c;stroke:#2ca02c;" x="107.872613" xlink:href="#m8ecb531221" y="121.523866"/>
     <use style="fill:#2ca02c;stroke:#2ca02c;" x="125.84919" xlink:href="#m8ecb531221" y="137.568211"/>
     <use style="fill:#2ca02c;stroke:#2ca02c;" x="143.825767" xlink:href="#m8ecb531221" y="108.812638"/>
     <use style="fill:#2ca02c;stroke:#2ca02c;" x="161.802344" xlink:href="#m8ecb531221" y="89.218986"/>
     <use style="fill:#2ca02c;stroke:#2ca02c;" x="179.77892" xlink:href="#m8ecb531221" y="138.406379"/>
     <use style="fill:#2ca02c;stroke:#2ca02c;" x="197.755497" xlink:href="#m8ecb531221" y="126.285237"/>
     <use style="fill:#2ca02c;stroke:#2ca02c;" x="215.732074" xlink:href="#m8ecb531221" y="119.826554"/>
     <use style="fill:#2ca02c;stroke:#2ca02c;" x="233.708651" xlink:href="#m8ecb531221" y="149.242443"/>
    </g>
   </g>
   <g id="line2d_20">
    <defs>
     <path d="M 5 0 
L -5 -0 
" id="m9b8a5fd62b" style="stroke:#d62728;"/>
    </defs>
    <g clip-path="url(#p6c926f467e)">
     <use style="fill:#d62728;stroke:#d62728;" x="71.91946" xlink:href="#m9b8a5fd62b" y="97.954542"/>
     <use style="fill:#d62728;stroke:#d62728;" x="89.896036" xlink:href="#m9b8a5fd62b" y="130.051936"/>
     <use style="fill:#d62728;stroke:#d62728;" x="107.872613" xlink:href="#m9b8a5fd62b" y="144.62578"/>
     <use style="fill:#d62728;stroke:#d62728;" x="125.84919" xlink:href="#m9b8a5fd62b" y="174.862882"/>
     <use style="fill:#d62728;stroke:#d62728;" x="143.825767" xlink:href="#m9b8a5fd62b" y="125.897333"/>
     <use style="fill:#d62728;stroke:#d62728;" x="161.802344" xlink:href="#m9b8a5fd62b" y="140.994903"/>
     <use style="fill:#d62728;stroke:#d62728;" x="179.77892" xlink:href="#m9b8a5fd62b" y="116.303929"/>
     <use style="fill:#d62728;stroke:#d62728;" x="197.755497" xlink:href="#m9b8a5fd62b" y="135.238979"/>
     <use style="fill:#d62728;stroke:#d62728;" x="215.732074" xlink:href="#m9b8a5fd62b" y="130.562628"/>
     <use style="fill:#d62728;stroke:#d62728;" x="233.708651" xlink:href="#m9b8a5fd62b" y="204.111651"/>
    </g>
   </g>
   <g id="line2d_21">
    <g clip-path="url(#p6c926f467e)">
     <use style="fill:#d62728;stroke:#d62728;" x="71.91946" xlink:href="#m9b8a5fd62b" y="68.066136"/>
     <use style="fill:#d62728;stroke:#d62728;" x="89.896036" xlink:href="#m9b8a5fd62b" y="94.073772"/>
     <use style="fill:#d62728;stroke:#d62728;" x="107.872613" xlink:href="#m9b8a5fd62b" y="116.087257"/>
     <use style="fill:#d62728;stroke:#d62728;" x="125.84919" xlink:href="#m9b8a5fd62b" y="131.084539"/>
     <use style="fill:#d62728;stroke:#d62728;" x="143.825767" xlink:href="#m9b8a5fd62b" y="95.751494"/>
     <use style="fill:#d62728;stroke:#d62728;" x="161.802344" xlink:href="#m9b8a5fd62b" y="106.085171"/>
     <use style="fill:#d62728;stroke:#d62728;" x="179.77892" xlink:href="#m9b8a5fd62b" y="79.659846"/>
     <use style="fill:#d62728;stroke:#d62728;" x="197.755497" xlink:href="#m9b8a5fd62b" y="104.305913"/>
     <use style="fill:#d62728;stroke:#d62728;" x="215.732074" xlink:href="#m9b8a5fd62b" y="100.160539"/>
     <use style="fill:#d62728;stroke:#d62728;" x="233.708651" xlink:href="#m9b8a5fd62b" y="160.675926"/>
    </g>
   </g>
   <g id="line2d_22">
    <defs>
     <path d="M 5 0 
L -5 -0 
" id="m4bce45cff6" style="stroke:#9467bd;"/>
    </defs>
    <g clip-path="url(#p6c926f467e)">
     <use style="fill:#9467bd;stroke:#9467bd;" x="71.91946" xlink:href="#m4bce45cff6" y="79.588001"/>
     <use style="fill:#9467bd;stroke:#9467bd;" x="89.896036" xlink:href="#m4bce45cff6" y="200.868424"/>
     <use style="fill:#9467bd;stroke:#9467bd;" x="107.872613" xlink:href="#m4bce45cff6" y="121.474562"/>
     <use style="fill:#9467bd;stroke:#9467bd;" x="125.84919" xlink:href="#m4bce45cff6" y="117.178766"/>
     <use style="fill:#9467bd;stroke:#9467bd;" x="143.825767" xlink:href="#m4bce45cff6" y="128.380026"/>
     <use style="fill:#9467bd;stroke:#9467bd;" x="161.802344" xlink:href="#m4bce45cff6" y="199.565365"/>
     <use style="fill:#9467bd;stroke:#9467bd;" x="179.77892" xlink:href="#m4bce45cff6" y="130.246016"/>
     <use style="fill:#9467bd;stroke:#9467bd;" x="197.755497" xlink:href="#m4bce45cff6" y="117.015041"/>
     <use style="fill:#9467bd;stroke:#9467bd;" x="215.732074" xlink:href="#m4bce45cff6" y="174.673116"/>
     <use style="fill:#9467bd;stroke:#9467bd;" x="233.708651" xlink:href="#m4bce45cff6" y="165.769942"/>
    </g>
   </g>
   <g id="line2d_23">
    <g clip-path="url(#p6c926f467e)">
     <use style="fill:#9467bd;stroke:#9467bd;" x="71.91946" xlink:href="#m4bce45cff6" y="37.58246"/>
     <use style="fill:#9467bd;stroke:#9467bd;" x="89.896036" xlink:href="#m4bce45cff6" y="163.956236"/>
     <use style="fill:#9467bd;stroke:#9467bd;" x="107.872613" xlink:href="#m4bce45cff6" y="92.381621"/>
     <use style="fill:#9467bd;stroke:#9467bd;" x="125.84919" xlink:href="#m4bce45cff6" y="82.817439"/>
     <use style="fill:#9467bd;stroke:#9467bd;" x="143.825767" xlink:href="#m4bce45cff6" y="92.751428"/>
     <use style="fill:#9467bd;stroke:#9467bd;" x="161.802344" xlink:href="#m4bce45cff6" y="173.378667"/>
     <use style="fill:#9467bd;stroke:#9467bd;" x="179.77892" xlink:href="#m4bce45cff6" y="99.94285"/>
     <use style="fill:#9467bd;stroke:#9467bd;" x="197.755497" xlink:href="#m4bce45cff6" y="93.311404"/>
     <use style="fill:#9467bd;stroke:#9467bd;" x="215.732074" xlink:href="#m4bce45cff6" y="147.785353"/>
     <use style="fill:#9467bd;stroke:#9467bd;" x="233.708651" xlink:href="#m4bce45cff6" y="135.225881"/>
    </g>
   </g>
   <g id="line2d_24">
    <defs>
     <path d="M 5 0 
L -5 -0 
" id="m259cc0ba86" style="stroke:#8c564b;"/>
    </defs>
    <g clip-path="url(#p6c926f467e)">
     <use style="fill:#8c564b;stroke:#8c564b;" x="71.91946" xlink:href="#m259cc0ba86" y="117.912276"/>
     <use style="fill:#8c564b;stroke:#8c564b;" x="89.896036" xlink:href="#m259cc0ba86" y="123.684881"/>
     <use style="fill:#8c564b;stroke:#8c564b;" x="107.872613" xlink:href="#m259cc0ba86" y="170.594883"/>
     <use style="fill:#8c564b;stroke:#8c564b;" x="125.84919" xlink:href="#m259cc0ba86" y="164.786335"/>
     <use style="fill:#8c564b;stroke:#8c564b;" x="143.825767" xlink:href="#m259cc0ba86" y="181.050639"/>
     <use style="fill:#8c564b;stroke:#8c564b;" x="161.802344" xlink:href="#m259cc0ba86" y="135.944468"/>
     <use style="fill:#8c564b;stroke:#8c564b;" x="179.77892" xlink:href="#m259cc0ba86" y="153.457013"/>
     <use style="fill:#8c564b;stroke:#8c564b;" x="197.755497" xlink:href="#m259cc0ba86" y="127.535787"/>
     <use style="fill:#8c564b;stroke:#8c564b;" x="215.732074" xlink:href="#m259cc0ba86" y="114.131807"/>
     <use style="fill:#8c564b;stroke:#8c564b;" x="233.708651" xlink:href="#m259cc0ba86" y="183.271843"/>
    </g>
   </g>
   <g id="line2d_25">
    <g clip-path="url(#p6c926f467e)">
     <use style="fill:#8c564b;stroke:#8c564b;" x="71.91946" xlink:href="#m259cc0ba86" y="84.278448"/>
     <use style="fill:#8c564b;stroke:#8c564b;" x="89.896036" xlink:href="#m259cc0ba86" y="103.964019"/>
     <use style="fill:#8c564b;stroke:#8c564b;" x="107.872613" xlink:href="#m259cc0ba86" y="144.880992"/>
     <use style="fill:#8c564b;stroke:#8c564b;" x="125.84919" xlink:href="#m259cc0ba86" y="141.687181"/>
     <use style="fill:#8c564b;stroke:#8c564b;" x="143.825767" xlink:href="#m259cc0ba86" y="145.715433"/>
     <use style="fill:#8c564b;stroke:#8c564b;" x="161.802344" xlink:href="#m259cc0ba86" y="113.077076"/>
     <use style="fill:#8c564b;stroke:#8c564b;" x="179.77892" xlink:href="#m259cc0ba86" y="124.258956"/>
     <use style="fill:#8c564b;stroke:#8c564b;" x="197.755497" xlink:href="#m259cc0ba86" y="92.9883"/>
     <use style="fill:#8c564b;stroke:#8c564b;" x="215.732074" xlink:href="#m259cc0ba86" y="79.374772"/>
     <use style="fill:#8c564b;stroke:#8c564b;" x="233.708651" xlink:href="#m259cc0ba86" y="126.143585"/>
    </g>
   </g>
   <g id="line2d_26">
    <path clip-path="url(#p6c926f467e)" d="M 71.91946 74.983798 
L 89.896036 62.188697 
L 107.872613 130.764078 
L 125.84919 126.300949 
L 143.825767 184.179944 
L 161.802344 113.809816 
L 179.77892 132.96472 
L 197.755497 105.111007 
L 215.732074 158.076062 
L 233.708651 126.265744 
" style="fill:none;stroke:#1f77b4;stroke-linecap:square;"/>
    <defs>
     <path d="M 0 1.5 
C 0.397805 1.5 0.77937 1.341951 1.06066 1.06066 
C 1.341951 0.77937 1.5 0.397805 1.5 0 
C 1.5 -0.397805 1.341951 -0.77937 1.06066 -1.06066 
C 0.77937 -1.341951 0.397805 -1.5 0 -1.5 
C -0.397805 -1.5 -0.77937 -1.341951 -1.06066 -1.06066 
C -1.341951 -0.77937 -1.5 -0.397805 -1.5 0 
C -1.5 0.397805 -1.341951 0.77937 -1.06066 1.06066 
C -0.77937 1.341951 -0.397805 1.5 0 1.5 
z
" id="m258b313b08" style="stroke:#1f77b4;"/>
    </defs>
    <g clip-path="url(#p6c926f467e)">
     <use style="fill:#1f77b4;stroke:#1f77b4;" x="71.91946" xlink:href="#m258b313b08" y="74.983798"/>
     <use style="fill:#1f77b4;stroke:#1f77b4;" x="89.896036" xlink:href="#m258b313b08" y="62.188697"/>
     <use style="fill:#1f77b4;stroke:#1f77b4;" x="107.872613" xlink:href="#m258b313b08" y="130.764078"/>
     <use style="fill:#1f77b4;stroke:#1f77b4;" x="125.84919" xlink:href="#m258b313b08" y="126.300949"/>
     <use style="fill:#1f77b4;stroke:#1f77b4;" x="143.825767" xlink:href="#m258b313b08" y="184.179944"/>
     <use style="fill:#1f77b4;stroke:#1f77b4;" x="161.802344" xlink:href="#m258b313b08" y="113.809816"/>
     <use style="fill:#1f77b4;stroke:#1f77b4;" x="179.77892" xlink:href="#m258b313b08" y="132.96472"/>
     <use style="fill:#1f77b4;stroke:#1f77b4;" x="197.755497" xlink:href="#m258b313b08" y="105.111007"/>
     <use style="fill:#1f77b4;stroke:#1f77b4;" x="215.732074" xlink:href="#m258b313b08" y="158.076062"/>
     <use style="fill:#1f77b4;stroke:#1f77b4;" x="233.708651" xlink:href="#m258b313b08" y="126.265744"/>
    </g>
   </g>
   <g id="line2d_27">
    <path clip-path="url(#p6c926f467e)" d="M 71.91946 59.271192 
L 89.896036 98.034368 
L 107.872613 124.472155 
L 125.84919 134.005856 
L 143.825767 153.497279 
L 161.802344 163.079011 
L 179.77892 132.076248 
L 197.755497 119.847707 
L 215.732074 136.294252 
L 233.708651 129.407833 
" style="fill:none;stroke:#ff7f0e;stroke-linecap:square;"/>
    <defs>
     <path d="M 0 1.5 
C 0.397805 1.5 0.77937 1.341951 1.06066 1.06066 
C 1.341951 0.77937 1.5 0.397805 1.5 0 
C 1.5 -0.397805 1.341951 -0.77937 1.06066 -1.06066 
C 0.77937 -1.341951 0.397805 -1.5 0 -1.5 
C -0.397805 -1.5 -0.77937 -1.341951 -1.06066 -1.06066 
C -1.341951 -0.77937 -1.5 -0.397805 -1.5 0 
C -1.5 0.397805 -1.341951 0.77937 -1.06066 1.06066 
C -0.77937 1.341951 -0.397805 1.5 0 1.5 
z
" id="m6f26b937af" style="stroke:#ff7f0e;"/>
    </defs>
    <g clip-path="url(#p6c926f467e)">
     <use style="fill:#ff7f0e;stroke:#ff7f0e;" x="71.91946" xlink:href="#m6f26b937af" y="59.271192"/>
     <use style="fill:#ff7f0e;stroke:#ff7f0e;" x="89.896036" xlink:href="#m6f26b937af" y="98.034368"/>
     <use style="fill:#ff7f0e;stroke:#ff7f0e;" x="107.872613" xlink:href="#m6f26b937af" y="124.472155"/>
     <use style="fill:#ff7f0e;stroke:#ff7f0e;" x="125.84919" xlink:href="#m6f26b937af" y="134.005856"/>
     <use style="fill:#ff7f0e;stroke:#ff7f0e;" x="143.825767" xlink:href="#m6f26b937af" y="153.497279"/>
     <use style="fill:#ff7f0e;stroke:#ff7f0e;" x="161.802344" xlink:href="#m6f26b937af" y="163.079011"/>
     <use style="fill:#ff7f0e;stroke:#ff7f0e;" x="179.77892" xlink:href="#m6f26b937af" y="132.076248"/>
     <use style="fill:#ff7f0e;stroke:#ff7f0e;" x="197.755497" xlink:href="#m6f26b937af" y="119.847707"/>
     <use style="fill:#ff7f0e;stroke:#ff7f0e;" x="215.732074" xlink:href="#m6f26b937af" y="136.294252"/>
     <use style="fill:#ff7f0e;stroke:#ff7f0e;" x="233.708651" xlink:href="#m6f26b937af" y="129.407833"/>
    </g>
   </g>
   <g id="line2d_28">
    <path clip-path="url(#p6c926f467e)" d="M 71.91946 86.899209 
L 89.896036 154.851055 
L 107.872613 139.774134 
L 125.84919 156.336071 
L 143.825767 122.959554 
L 161.802344 103.707019 
L 179.77892 152.712842 
L 197.755497 145.338398 
L 215.732074 138.836918 
L 233.708651 168.973689 
" style="fill:none;stroke:#2ca02c;stroke-linecap:square;"/>
    <defs>
     <path d="M 0 1.5 
C 0.397805 1.5 0.77937 1.341951 1.06066 1.06066 
C 1.341951 0.77937 1.5 0.397805 1.5 0 
C 1.5 -0.397805 1.341951 -0.77937 1.06066 -1.06066 
C 0.77937 -1.341951 0.397805 -1.5 0 -1.5 
C -0.397805 -1.5 -0.77937 -1.341951 -1.06066 -1.06066 
C -1.341951 -0.77937 -1.5 -0.397805 -1.5 0 
C -1.5 0.397805 -1.341951 0.77937 -1.06066 1.06066 
C -0.77937 1.341951 -0.397805 1.5 0 1.5 
z
" id="m736597e041" style="stroke:#2ca02c;"/>
    </defs>
    <g clip-path="url(#p6c926f467e)">
     <use style="fill:#2ca02c;stroke:#2ca02c;" x="71.91946" xlink:href="#m736597e041" y="86.899209"/>
     <use style="fill:#2ca02c;stroke:#2ca02c;" x="89.896036" xlink:href="#m736597e041" y="154.851055"/>
     <use style="fill:#2ca02c;stroke:#2ca02c;" x="107.872613" xlink:href="#m736597e041" y="139.774134"/>
     <use style="fill:#2ca02c;stroke:#2ca02c;" x="125.84919" xlink:href="#m736597e041" y="156.336071"/>
     <use style="fill:#2ca02c;stroke:#2ca02c;" x="143.825767" xlink:href="#m736597e041" y="122.959554"/>
     <use style="fill:#2ca02c;stroke:#2ca02c;" x="161.802344" xlink:href="#m736597e041" y="103.707019"/>
     <use style="fill:#2ca02c;stroke:#2ca02c;" x="179.77892" xlink:href="#m736597e041" y="152.712842"/>
     <use style="fill:#2ca02c;stroke:#2ca02c;" x="197.755497" xlink:href="#m736597e041" y="145.338398"/>
     <use style="fill:#2ca02c;stroke:#2ca02c;" x="215.732074" xlink:href="#m736597e041" y="138.836918"/>
     <use style="fill:#2ca02c;stroke:#2ca02c;" x="233.708651" xlink:href="#m736597e041" y="168.973689"/>
    </g>
   </g>
   <g id="line2d_29">
    <path clip-path="url(#p6c926f467e)" d="M 71.91946 83.010339 
L 89.896036 112.062854 
L 107.872613 130.356519 
L 125.84919 152.97371 
L 143.825767 110.824413 
L 161.802344 123.540037 
L 179.77892 97.981888 
L 197.755497 119.772446 
L 215.732074 115.361584 
L 233.708651 182.393788 
" style="fill:none;stroke:#d62728;stroke-linecap:square;"/>
    <defs>
     <path d="M 0 1.5 
C 0.397805 1.5 0.77937 1.341951 1.06066 1.06066 
C 1.341951 0.77937 1.5 0.397805 1.5 0 
C 1.5 -0.397805 1.341951 -0.77937 1.06066 -1.06066 
C 0.77937 -1.341951 0.397805 -1.5 0 -1.5 
C -0.397805 -1.5 -0.77937 -1.341951 -1.06066 -1.06066 
C -1.341951 -0.77937 -1.5 -0.397805 -1.5 0 
C -1.5 0.397805 -1.341951 0.77937 -1.06066 1.06066 
C -0.77937 1.341951 -0.397805 1.5 0 1.5 
z
" id="mb664eab6c1" style="stroke:#d62728;"/>
    </defs>
    <g clip-path="url(#p6c926f467e)">
     <use style="fill:#d62728;stroke:#d62728;" x="71.91946" xlink:href="#mb664eab6c1" y="83.010339"/>
     <use style="fill:#d62728;stroke:#d62728;" x="89.896036" xlink:href="#mb664eab6c1" y="112.062854"/>
     <use style="fill:#d62728;stroke:#d62728;" x="107.872613" xlink:href="#mb664eab6c1" y="130.356519"/>
     <use style="fill:#d62728;stroke:#d62728;" x="125.84919" xlink:href="#mb664eab6c1" y="152.97371"/>
     <use style="fill:#d62728;stroke:#d62728;" x="143.825767" xlink:href="#mb664eab6c1" y="110.824413"/>
     <use style="fill:#d62728;stroke:#d62728;" x="161.802344" xlink:href="#mb664eab6c1" y="123.540037"/>
     <use style="fill:#d62728;stroke:#d62728;" x="179.77892" xlink:href="#mb664eab6c1" y="97.981888"/>
     <use style="fill:#d62728;stroke:#d62728;" x="197.755497" xlink:href="#mb664eab6c1" y="119.772446"/>
     <use style="fill:#d62728;stroke:#d62728;" x="215.732074" xlink:href="#mb664eab6c1" y="115.361584"/>
     <use style="fill:#d62728;stroke:#d62728;" x="233.708651" xlink:href="#mb664eab6c1" y="182.393788"/>
    </g>
   </g>
   <g id="line2d_30">
    <path clip-path="url(#p6c926f467e)" d="M 71.91946 58.58523 
L 89.896036 182.41233 
L 107.872613 106.928092 
L 125.84919 99.998103 
L 143.825767 110.565727 
L 161.802344 186.472016 
L 179.77892 115.094433 
L 197.755497 105.163223 
L 215.732074 161.229235 
L 233.708651 150.497912 
" style="fill:none;stroke:#9467bd;stroke-linecap:square;"/>
    <defs>
     <path d="M 0 1.5 
C 0.397805 1.5 0.77937 1.341951 1.06066 1.06066 
C 1.341951 0.77937 1.5 0.397805 1.5 0 
C 1.5 -0.397805 1.341951 -0.77937 1.06066 -1.06066 
C 0.77937 -1.341951 0.397805 -1.5 0 -1.5 
C -0.397805 -1.5 -0.77937 -1.341951 -1.06066 -1.06066 
C -1.341951 -0.77937 -1.5 -0.397805 -1.5 0 
C -1.5 0.397805 -1.341951 0.77937 -1.06066 1.06066 
C -0.77937 1.341951 -0.397805 1.5 0 1.5 
z
" id="m475bed64ef" style="stroke:#9467bd;"/>
    </defs>
    <g clip-path="url(#p6c926f467e)">
     <use style="fill:#9467bd;stroke:#9467bd;" x="71.91946" xlink:href="#m475bed64ef" y="58.58523"/>
     <use style="fill:#9467bd;stroke:#9467bd;" x="89.896036" xlink:href="#m475bed64ef" y="182.41233"/>
     <use style="fill:#9467bd;stroke:#9467bd;" x="107.872613" xlink:href="#m475bed64ef" y="106.928092"/>
     <use style="fill:#9467bd;stroke:#9467bd;" x="125.84919" xlink:href="#m475bed64ef" y="99.998103"/>
     <use style="fill:#9467bd;stroke:#9467bd;" x="143.825767" xlink:href="#m475bed64ef" y="110.565727"/>
     <use style="fill:#9467bd;stroke:#9467bd;" x="161.802344" xlink:href="#m475bed64ef" y="186.472016"/>
     <use style="fill:#9467bd;stroke:#9467bd;" x="179.77892" xlink:href="#m475bed64ef" y="115.094433"/>
     <use style="fill:#9467bd;stroke:#9467bd;" x="197.755497" xlink:href="#m475bed64ef" y="105.163223"/>
     <use style="fill:#9467bd;stroke:#9467bd;" x="215.732074" xlink:href="#m475bed64ef" y="161.229235"/>
     <use style="fill:#9467bd;stroke:#9467bd;" x="233.708651" xlink:href="#m475bed64ef" y="150.497912"/>
    </g>
   </g>
   <g id="line2d_31">
    <path clip-path="url(#p6c926f467e)" d="M 71.91946 101.095362 
L 89.896036 113.82445 
L 107.872613 157.737937 
L 125.84919 153.236758 
L 143.825767 163.383036 
L 161.802344 124.510772 
L 179.77892 138.857984 
L 197.755497 110.262043 
L 215.732074 96.75329 
L 233.708651 154.707714 
" style="fill:none;stroke:#8c564b;stroke-linecap:square;"/>
    <defs>
     <path d="M 0 1.5 
C 0.397805 1.5 0.77937 1.341951 1.06066 1.06066 
C 1.341951 0.77937 1.5 0.397805 1.5 0 
C 1.5 -0.397805 1.341951 -0.77937 1.06066 -1.06066 
C 0.77937 -1.341951 0.397805 -1.5 0 -1.5 
C -0.397805 -1.5 -0.77937 -1.341951 -1.06066 -1.06066 
C -1.341951 -0.77937 -1.5 -0.397805 -1.5 0 
C -1.5 0.397805 -1.341951 0.77937 -1.06066 1.06066 
C -0.77937 1.341951 -0.397805 1.5 0 1.5 
z
" id="mff7f707024" style="stroke:#8c564b;"/>
    </defs>
    <g clip-path="url(#p6c926f467e)">
     <use style="fill:#8c564b;stroke:#8c564b;" x="71.91946" xlink:href="#mff7f707024" y="101.095362"/>
     <use style="fill:#8c564b;stroke:#8c564b;" x="89.896036" xlink:href="#mff7f707024" y="113.82445"/>
     <use style="fill:#8c564b;stroke:#8c564b;" x="107.872613" xlink:href="#mff7f707024" y="157.737937"/>
     <use style="fill:#8c564b;stroke:#8c564b;" x="125.84919" xlink:href="#mff7f707024" y="153.236758"/>
     <use style="fill:#8c564b;stroke:#8c564b;" x="143.825767" xlink:href="#mff7f707024" y="163.383036"/>
     <use style="fill:#8c564b;stroke:#8c564b;" x="161.802344" xlink:href="#mff7f707024" y="124.510772"/>
     <use style="fill:#8c564b;stroke:#8c564b;" x="179.77892" xlink:href="#mff7f707024" y="138.857984"/>
     <use style="fill:#8c564b;stroke:#8c564b;" x="197.755497" xlink:href="#mff7f707024" y="110.262043"/>
     <use style="fill:#8c564b;stroke:#8c564b;" x="215.732074" xlink:href="#mff7f707024" y="96.75329"/>
     <use style="fill:#8c564b;stroke:#8c564b;" x="233.708651" xlink:href="#mff7f707024" y="154.707714"/>
    </g>
   </g>
   <g id="patch_3">
    <path d="M 63.83 212.43811 
L 63.83 29.256 
" style="fill:none;stroke:#000000;stroke-linecap:square;stroke-linejoin:miter;stroke-width:0.8;"/>
   </g>
   <g id="patch_4">
    <path d="M 241.79811 212.43811 
L 241.79811 29.256 
" style="fill:none;stroke:#000000;stroke-linecap:square;stroke-linejoin:miter;stroke-width:0.8;"/>
   </g>
   <g id="patch_5">
    <path d="M 63.83 212.43811 
L 241.79811 212.43811 
" style="fill:none;stroke:#000000;stroke-linecap:square;stroke-linejoin:miter;stroke-width:0.8;"/>
   </g>
   <g id="patch_6">
    <path d="M 63.83 29.256 
L 241.79811 29.256 
" style="fill:none;stroke:#000000;stroke-linecap:square;stroke-linejoin:miter;stroke-width:0.8;"/>
   </g>
   <g id="text_16">
    <!-- $ k =3.14\;\epsilon/\sigma^2$ -->
    <defs>
     <path d="M 18.3125 75.984375 
L 27.296875 75.984375 
L 18.703125 31.6875 
L 49.515625 54.6875 
L 61.1875 54.6875 
L 26.8125 28.515625 
L 51.90625 0 
L 41.015625 0 
L 17.671875 26.703125 
L 12.5 0 
L 3.515625 0 
z
" id="DejaVuSans-Oblique-6b"/>
     <path d="M 10.59375 45.40625 
L 73.1875 45.40625 
L 73.1875 37.203125 
L 10.59375 37.203125 
z
M 10.59375 25.484375 
L 73.1875 25.484375 
L 73.1875 17.1875 
L 10.59375 17.1875 
z
" id="DejaVuSans-3d"/>
     <path d="M 19.734375 29.5 
Q 14.453125 30.671875 12.15625 33.84375 
Q 10.453125 36.078125 10.453125 39.109375 
Q 10.453125 47.40625 18.359375 52.25 
Q 24.609375 56.0625 34.1875 56.0625 
Q 37.890625 56.0625 41.9375 55.46875 
Q 46 54.890625 50.53125 53.71875 
L 48.96875 45.5625 
Q 44.484375 46.96875 40.71875 47.609375 
Q 36.859375 48.25 33.40625 48.25 
Q 27.59375 48.25 23.78125 46 
Q 19.1875 43.3125 19.1875 39.40625 
Q 19.1875 36.8125 21.578125 35.015625 
Q 24.421875 32.859375 30.078125 32.859375 
L 37.640625 32.859375 
L 36.234375 25.4375 
L 29 25.4375 
Q 22.265625 25.4375 18.3125 22.953125 
Q 12.9375 19.578125 12.9375 14.3125 
Q 12.9375 10.984375 15.828125 8.796875 
Q 19.4375 6.0625 26.8125 6.0625 
Q 31.34375 6.0625 35.6875 6.9375 
Q 40.046875 7.859375 43.84375 9.671875 
L 42.1875 1.3125 
Q 37.546875 -0.046875 33.296875 -0.734375 
Q 29.046875 -1.421875 25.140625 -1.421875 
Q 13.53125 -1.421875 8.0625 3.03125 
Q 3.90625 6.453125 3.90625 12.203125 
Q 3.90625 19.96875 9.375 24.75 
Q 13.421875 28.328125 19.734375 29.5 
z
" id="DejaVuSans-Oblique-3b5"/>
     <path d="M 25.390625 72.90625 
L 33.6875 72.90625 
L 8.296875 -9.28125 
L 0 -9.28125 
z
" id="DejaVuSans-2f"/>
     <path d="M 34.671875 47.5625 
Q 27.25 47.5625 22.21875 42.1875 
Q 16.890625 36.578125 15.140625 27.296875 
Q 13.1875 17.484375 16.3125 11.8125 
Q 19.390625 6.203125 26.65625 6.203125 
Q 33.84375 6.203125 39.109375 11.859375 
Q 44.4375 17.53125 46.34375 27.296875 
Q 48.046875 36.234375 45.015625 42.1875 
Q 42.1875 47.5625 34.671875 47.5625 
z
M 36.078125 54.734375 
L 65.921875 54.6875 
L 64.15625 45.703125 
L 54.109375 45.703125 
Q 57.90625 38.09375 55.859375 27.296875 
Q 53.21875 13.875 45.0625 6.25 
Q 36.859375 -1.421875 25.140625 -1.421875 
Q 13.375 -1.421875 8.203125 6.25 
Q 3.03125 13.875 5.671875 27.296875 
Q 8.25 40.765625 16.40625 48.390625 
Q 23.1875 54.734375 36.078125 54.734375 
z
" id="DejaVuSans-Oblique-3c3"/>
    </defs>
    <g transform="translate(114.774055 23.256)scale(0.12 -0.12)">
     <use transform="translate(0 0.765625)" xlink:href="#DejaVuSans-Oblique-6b"/>
     <use transform="translate(77.392578 0.765625)" xlink:href="#DejaVuSans-3d"/>
     <use transform="translate(180.664062 0.765625)" xlink:href="#DejaVuSans-33"/>
     <use transform="translate(244.287109 0.765625)" xlink:href="#DejaVuSans-2e"/>
     <use transform="translate(276.074219 0.765625)" xlink:href="#DejaVuSans-31"/>
     <use transform="translate(339.697266 0.765625)" xlink:href="#DejaVuSans-34"/>
     <use transform="translate(430.379448 0.765625)" xlink:href="#DejaVuSans-Oblique-3b5"/>
     <use transform="translate(484.432183 0.765625)" xlink:href="#DejaVuSans-2f"/>
     <use transform="translate(518.123589 0.765625)" xlink:href="#DejaVuSans-Oblique-3c3"/>
     <use transform="translate(585.975203 39.046875)scale(0.7)" xlink:href="#DejaVuSans-32"/>
    </g>
   </g>
   <g id="legend_1">
    <g id="patch_7">
     <path d="M 106.451555 81.290375 
L 199.176555 81.290375 
Q 201.176555 81.290375 201.176555 79.290375 
L 201.176555 36.256 
Q 201.176555 34.256 199.176555 34.256 
L 106.451555 34.256 
Q 104.451555 34.256 104.451555 36.256 
L 104.451555 79.290375 
Q 104.451555 81.290375 106.451555 81.290375 
z
" style="fill:#ffffff;opacity:0.8;stroke:#cccccc;stroke-linejoin:miter;"/>
    </g>
    <g id="LineCollection_7">
     <path d="M 118.451555 47.354438 
L 118.451555 37.354438 
" style="fill:none;stroke:#1f77b4;"/>
    </g>
    <g id="line2d_32">
     <g>
      <use style="fill:#1f77b4;stroke:#1f77b4;" x="118.451555" xlink:href="#m1197428769" y="47.354438"/>
     </g>
    </g>
    <g id="line2d_33">
     <g>
      <use style="fill:#1f77b4;stroke:#1f77b4;" x="118.451555" xlink:href="#m1197428769" y="37.354438"/>
     </g>
    </g>
    <g id="line2d_34">
     <path d="M 108.451555 42.354438 
L 128.451555 42.354438 
" style="fill:none;stroke:#1f77b4;stroke-linecap:square;"/>
    </g>
    <g id="line2d_35">
     <g>
      <use style="fill:#1f77b4;stroke:#1f77b4;" x="118.451555" xlink:href="#m258b313b08" y="42.354438"/>
     </g>
    </g>
    <g id="text_17">
     <!-- 0 -->
     <g transform="translate(136.451555 45.854438)scale(0.1 -0.1)">
      <use xlink:href="#DejaVuSans-30"/>
     </g>
    </g>
    <g id="LineCollection_8">
     <path d="M 118.451555 62.032563 
L 118.451555 52.032563 
" style="fill:none;stroke:#ff7f0e;"/>
    </g>
    <g id="line2d_36">
     <g>
      <use style="fill:#ff7f0e;stroke:#ff7f0e;" x="118.451555" xlink:href="#m4919b335fc" y="62.032563"/>
     </g>
    </g>
    <g id="line2d_37">
     <g>
      <use style="fill:#ff7f0e;stroke:#ff7f0e;" x="118.451555" xlink:href="#m4919b335fc" y="52.032563"/>
     </g>
    </g>
    <g id="line2d_38">
     <path d="M 108.451555 57.032563 
L 128.451555 57.032563 
" style="fill:none;stroke:#ff7f0e;stroke-linecap:square;"/>
    </g>
    <g id="line2d_39">
     <g>
      <use style="fill:#ff7f0e;stroke:#ff7f0e;" x="118.451555" xlink:href="#m6f26b937af" y="57.032563"/>
     </g>
    </g>
    <g id="text_18">
     <!-- 1 -->
     <g transform="translate(136.451555 60.532563)scale(0.1 -0.1)">
      <use xlink:href="#DejaVuSans-31"/>
     </g>
    </g>
    <g id="LineCollection_9">
     <path d="M 118.451555 76.710688 
L 118.451555 66.710688 
" style="fill:none;stroke:#2ca02c;"/>
    </g>
    <g id="line2d_40">
     <g>
      <use style="fill:#2ca02c;stroke:#2ca02c;" x="118.451555" xlink:href="#m8ecb531221" y="76.710688"/>
     </g>
    </g>
    <g id="line2d_41">
     <g>
      <use style="fill:#2ca02c;stroke:#2ca02c;" x="118.451555" xlink:href="#m8ecb531221" y="66.710688"/>
     </g>
    </g>
    <g id="line2d_42">
     <path d="M 108.451555 71.710688 
L 128.451555 71.710688 
" style="fill:none;stroke:#2ca02c;stroke-linecap:square;"/>
    </g>
    <g id="line2d_43">
     <g>
      <use style="fill:#2ca02c;stroke:#2ca02c;" x="118.451555" xlink:href="#m736597e041" y="71.710688"/>
     </g>
    </g>
    <g id="text_19">
     <!-- 2 -->
     <g transform="translate(136.451555 75.210688)scale(0.1 -0.1)">
      <use xlink:href="#DejaVuSans-32"/>
     </g>
    </g>
    <g id="LineCollection_10">
     <path d="M 172.814055 47.354438 
L 172.814055 37.354438 
" style="fill:none;stroke:#d62728;"/>
    </g>
    <g id="line2d_44">
     <g>
      <use style="fill:#d62728;stroke:#d62728;" x="172.814055" xlink:href="#m9b8a5fd62b" y="47.354438"/>
     </g>
    </g>
    <g id="line2d_45">
     <g>
      <use style="fill:#d62728;stroke:#d62728;" x="172.814055" xlink:href="#m9b8a5fd62b" y="37.354438"/>
     </g>
    </g>
    <g id="line2d_46">
     <path d="M 162.814055 42.354438 
L 182.814055 42.354438 
" style="fill:none;stroke:#d62728;stroke-linecap:square;"/>
    </g>
    <g id="line2d_47">
     <g>
      <use style="fill:#d62728;stroke:#d62728;" x="172.814055" xlink:href="#mb664eab6c1" y="42.354438"/>
     </g>
    </g>
    <g id="text_20">
     <!-- 3 -->
     <g transform="translate(190.814055 45.854438)scale(0.1 -0.1)">
      <use xlink:href="#DejaVuSans-33"/>
     </g>
    </g>
    <g id="LineCollection_11">
     <path d="M 172.814055 62.032563 
L 172.814055 52.032563 
" style="fill:none;stroke:#9467bd;"/>
    </g>
    <g id="line2d_48">
     <g>
      <use style="fill:#9467bd;stroke:#9467bd;" x="172.814055" xlink:href="#m4bce45cff6" y="62.032563"/>
     </g>
    </g>
    <g id="line2d_49">
     <g>
      <use style="fill:#9467bd;stroke:#9467bd;" x="172.814055" xlink:href="#m4bce45cff6" y="52.032563"/>
     </g>
    </g>
    <g id="line2d_50">
     <path d="M 162.814055 57.032563 
L 182.814055 57.032563 
" style="fill:none;stroke:#9467bd;stroke-linecap:square;"/>
    </g>
    <g id="line2d_51">
     <g>
      <use style="fill:#9467bd;stroke:#9467bd;" x="172.814055" xlink:href="#m475bed64ef" y="57.032563"/>
     </g>
    </g>
    <g id="text_21">
     <!-- 4 -->
     <g transform="translate(190.814055 60.532563)scale(0.1 -0.1)">
      <use xlink:href="#DejaVuSans-34"/>
     </g>
    </g>
    <g id="LineCollection_12">
     <path d="M 172.814055 76.710688 
L 172.814055 66.710688 
" style="fill:none;stroke:#8c564b;"/>
    </g>
    <g id="line2d_52">
     <g>
      <use style="fill:#8c564b;stroke:#8c564b;" x="172.814055" xlink:href="#m259cc0ba86" y="76.710688"/>
     </g>
    </g>
    <g id="line2d_53">
     <g>
      <use style="fill:#8c564b;stroke:#8c564b;" x="172.814055" xlink:href="#m259cc0ba86" y="66.710688"/>
     </g>
    </g>
    <g id="line2d_54">
     <path d="M 162.814055 71.710688 
L 182.814055 71.710688 
" style="fill:none;stroke:#8c564b;stroke-linecap:square;"/>
    </g>
    <g id="line2d_55">
     <g>
      <use style="fill:#8c564b;stroke:#8c564b;" x="172.814055" xlink:href="#mff7f707024" y="71.710688"/>
     </g>
    </g>
    <g id="text_22">
     <!-- 5 -->
     <defs>
      <path d="M 10.796875 72.90625 
L 49.515625 72.90625 
L 49.515625 64.59375 
L 19.828125 64.59375 
L 19.828125 46.734375 
Q 21.96875 47.46875 24.109375 47.828125 
Q 26.265625 48.1875 28.421875 48.1875 
Q 40.625 48.1875 47.75 41.5 
Q 54.890625 34.8125 54.890625 23.390625 
Q 54.890625 11.625 47.5625 5.09375 
Q 40.234375 -1.421875 26.90625 -1.421875 
Q 22.3125 -1.421875 17.546875 -0.640625 
Q 12.796875 0.140625 7.71875 1.703125 
L 7.71875 11.625 
Q 12.109375 9.234375 16.796875 8.0625 
Q 21.484375 6.890625 26.703125 6.890625 
Q 35.15625 6.890625 40.078125 11.328125 
Q 45.015625 15.765625 45.015625 23.390625 
Q 45.015625 31 40.078125 35.4375 
Q 35.15625 39.890625 26.703125 39.890625 
Q 22.75 39.890625 18.8125 39.015625 
Q 14.890625 38.140625 10.796875 36.28125 
z
" id="DejaVuSans-35"/>
     </defs>
     <g transform="translate(190.814055 75.210688)scale(0.1 -0.1)">
      <use xlink:href="#DejaVuSans-35"/>
     </g>
    </g>
   </g>
  </g>
 </g>
 <defs>
  <clipPath id="p6c926f467e">
   <rect height="183.18211" width="177.96811" x="63.83" y="29.256"/>
  </clipPath>
 </defs>
</svg>
