%!PS-Adobe-3.0 EPSF-3.0
%%Title: /home/bezzecchi/van_der_pol_todos.eps
%%Creator: matplotlib version 1.4.3, http://matplotlib.org/
%%CreationDate: Fri Jun  2 16:45:21 2017
%%Orientation: portrait
%%BoundingBox: -274 145 886 646
%%EndComments
%%BeginProlog
/mpldict 9 dict def
mpldict begin
/m { moveto } bind def
/l { lineto } bind def
/r { rlineto } bind def
/c { curveto } bind def
/cl { closepath } bind def
/box {
m
1 index 0 r
0 exch r
neg 0 r
cl
} bind def
/clipbox {
box
clip
newpath
} bind def
%!PS-Adobe-3.0 Resource-Font
%%Title: Bitstream Vera Sans
%%Copyright: Copyright (c) 2003 by Bitstream, Inc. All Rights Reserved.
%%Creator: Converted from TrueType to type 3 by PPR
25 dict begin
/_d{bind def}bind def
/_m{moveto}_d
/_l{lineto}_d
/_cl{closepath eofill}_d
/_c{curveto}_d
/_sc{7 -1 roll{setcachedevice}{pop pop pop pop pop pop}ifelse}_d
/_e{exec}_d
/FontName /BitstreamVeraSans-Roman def
/PaintType 0 def
/FontMatrix[.001 0 0 .001 0 0]def
/FontBBox[-183 -236 1287 928]def
/FontType 3 def
/Encoding [ /zero /one /two /three /five /minus ] def
/FontInfo 10 dict dup begin
/FamilyName (Bitstream Vera Sans) def
/FullName (Bitstream Vera Sans) def
/Notice (Copyright (c) 2003 by Bitstream, Inc. All Rights Reserved. Bitstream Vera is a trademark of Bitstream, Inc.) def
/Weight (Roman) def
/Version (Release 1.10) def
/ItalicAngle 0.0 def
/isFixedPitch false def
/UnderlinePosition -213 def
/UnderlineThickness 143 def
end readonly def
/CharStrings 6 dict dup begin
/zero{636 0 66 -13 570 742 _sc
318 664 _m
267 664 229 639 203 589 _c
177 539 165 464 165 364 _c
165 264 177 189 203 139 _c
229 89 267 64 318 64 _c
369 64 407 89 433 139 _c
458 189 471 264 471 364 _c
471 464 458 539 433 589 _c
407 639 369 664 318 664 _c
318 742 _m
399 742 461 709 505 645 _c
548 580 570 486 570 364 _c
570 241 548 147 505 83 _c
461 19 399 -13 318 -13 _c
236 -13 173 19 130 83 _c
87 147 66 241 66 364 _c
66 486 87 580 130 645 _c
173 709 236 742 318 742 _c
_cl}_d
/one{636 0 110 0 544 729 _sc
124 83 _m
285 83 _l
285 639 _l
110 604 _l
110 694 _l
284 729 _l
383 729 _l
383 83 _l
544 83 _l
544 0 _l
124 0 _l
124 83 _l
_cl}_d
/two{{636 0 73 0 536 742 _sc
192 83 _m
536 83 _l
536 0 _l
73 0 _l
73 83 _l
110 121 161 173 226 239 _c
290 304 331 346 348 365 _c
380 400 402 430 414 455 _c
426 479 433 504 433 528 _c
433 566 419 598 392 622 _c
365 646 330 659 286 659 _c
255 659 222 653 188 643 _c
154 632 117 616 78 594 _c
78 694 _l
118 710 155 722 189 730 _c
223 738 255 742 284 742 _c
}_e{359 742 419 723 464 685 _c
509 647 532 597 532 534 _c
532 504 526 475 515 449 _c
504 422 484 390 454 354 _c
446 344 420 317 376 272 _c
332 227 271 164 192 83 _c
_cl}_e}_d
/three{{636 0 76 -13 556 742 _sc
406 393 _m
453 383 490 362 516 330 _c
542 298 556 258 556 212 _c
556 140 531 84 482 45 _c
432 6 362 -13 271 -13 _c
240 -13 208 -10 176 -4 _c
144 1 110 10 76 22 _c
76 117 _l
103 101 133 89 166 81 _c
198 73 232 69 268 69 _c
330 69 377 81 409 105 _c
441 129 458 165 458 212 _c
458 254 443 288 413 312 _c
383 336 341 349 287 349 _c
}_e{202 349 _l
202 430 _l
291 430 _l
339 430 376 439 402 459 _c
428 478 441 506 441 543 _c
441 580 427 609 401 629 _c
374 649 336 659 287 659 _c
260 659 231 656 200 650 _c
169 644 135 635 98 623 _c
98 711 _l
135 721 170 729 203 734 _c
235 739 266 742 296 742 _c
370 742 429 725 473 691 _c
517 657 539 611 539 553 _c
539 513 527 479 504 451 _c
481 423 448 403 406 393 _c
_cl}_e}_d
/five{{636 0 77 -13 549 729 _sc
108 729 _m
495 729 _l
495 646 _l
198 646 _l
198 467 _l
212 472 227 476 241 478 _c
255 480 270 482 284 482 _c
365 482 429 459 477 415 _c
525 370 549 310 549 234 _c
549 155 524 94 475 51 _c
426 8 357 -13 269 -13 _c
238 -13 207 -10 175 -6 _c
143 -1 111 6 77 17 _c
77 116 _l
106 100 136 88 168 80 _c
199 72 232 69 267 69 _c
}_e{323 69 368 83 401 113 _c
433 143 450 183 450 234 _c
450 284 433 324 401 354 _c
368 384 323 399 267 399 _c
241 399 214 396 188 390 _c
162 384 135 375 108 363 _c
108 729 _l
_cl}_e}_d
/minus{838 0 106 272 732 355 _sc
106 355 _m
732 355 _l
732 272 _l
106 272 _l
106 355 _l
_cl}_d
end readonly def

/BuildGlyph
 {exch begin
 CharStrings exch
 2 copy known not{pop /.notdef}if
 true 3 1 roll get exec
 end}_d

/BuildChar {
 1 index /Encoding get exch get
 1 index /BuildGlyph get exec
}_d

FontName currentdict end definefont pop
%!PS-Adobe-3.0 Resource-Font
%%Title: cmmi10
%%Copyright: Copyright (C) 1994, Basil K. Malyshev. All Rights Reserved.012BaKoMa Fonts Collection, Level-B.
%%Creator: Converted from TrueType to type 3 by PPR
25 dict begin
/_d{bind def}bind def
/_m{moveto}_d
/_l{lineto}_d
/_cl{closepath eofill}_d
/_c{curveto}_d
/_sc{7 -1 roll{setcachedevice}{pop pop pop pop pop pop}ifelse}_d
/_e{exec}_d
/FontName /Cmmi10 def
/PaintType 0 def
/FontMatrix[.001 0 0 .001 0 0]def
/FontBBox[-34 -250 1048 750]def
/FontType 3 def
/Encoding [ /t /x /y ] def
/FontInfo 10 dict dup begin
/FamilyName (cmmi10) def
/FullName (cmmi10) def
/Notice (Copyright (C) 1994, Basil K. Malyshev. All Rights Reserved.012BaKoMa Fonts Collection, Level-B. ) def
/Weight (Regular) def
/Version (1.1/12-Nov-94) def
/ItalicAngle 0.0 def
/isFixedPitch false def
/UnderlinePosition -133 def
/UnderlineThickness 20 def
end readonly def
/CharStrings 3 dict dup begin
/t{{361 0 22 -10 330 626 _sc
62 81 _m
62 91 63 100 65 109 _c
137 396 _l
32 396 _l
25 396 22 400 22 409 _c
24 423 29 431 35 431 _c
146 431 _l
186 594 _l
188 602 193 610 201 616 _c
209 622 218 626 228 626 _c
236 626 243 623 249 618 _c
255 613 258 606 258 598 _c
258 596 257 594 257 593 _c
257 592 257 591 257 590 _c
217 431 _l
320 431 _l
326 431 330 426 330 418 _c
}_e{330 416 329 414 328 410 _c
327 406 326 402 324 400 _c
322 397 320 396 317 396 _c
208 396 _l
136 107 _l
131 88 129 72 129 58 _c
129 29 138 15 158 15 _c
187 15 213 28 236 56 _c
258 84 276 114 288 147 _c
290 151 293 153 296 153 _c
308 153 _l
310 153 312 152 314 150 _c
316 148 317 146 317 144 _c
317 142 316 141 316 141 _c
301 101 280 65 252 35 _c
}_e{224 5 192 -10 156 -10 _c
129 -10 107 -1 89 15 _c
71 32 62 54 62 81 _c
_cl}_e}_d
/x{{571 0 31 -10 526 442 _sc
78 29 _m
90 19 106 15 128 15 _c
148 15 167 25 183 45 _c
199 65 210 87 216 111 _c
261 288 _l
268 320 272 342 272 354 _c
272 370 267 385 258 397 _c
248 409 235 416 219 416 _c
198 416 178 409 160 396 _c
141 382 125 365 113 345 _c
100 325 91 304 86 284 _c
84 280 82 278 78 278 _c
66 278 _l
60 278 58 281 58 287 _c
58 290 _l
}_e{64 314 75 338 91 362 _c
107 386 126 405 149 420 _c
171 434 195 442 221 442 _c
245 442 267 435 287 422 _c
307 409 321 391 329 369 _c
340 389 354 407 372 421 _c
390 435 409 442 431 442 _c
445 442 460 439 475 434 _c
490 429 502 421 512 411 _c
521 401 526 388 526 372 _c
526 355 520 340 509 328 _c
498 316 484 310 468 310 _c
457 310 448 313 441 320 _c
}_e{433 327 430 336 430 346 _c
430 360 434 372 444 383 _c
454 393 465 400 479 402 _c
467 411 450 416 429 416 _c
407 416 389 406 373 386 _c
357 366 346 344 340 320 _c
296 143 _l
288 116 285 94 285 77 _c
285 60 289 45 299 33 _c
309 21 322 15 338 15 _c
369 15 397 28 421 56 _c
445 84 462 114 470 147 _c
471 151 474 153 478 153 _c
490 153 _l
492 153 494 152 496 150 _c
}_e{498 148 499 146 499 144 _c
499 143 498 142 498 141 _c
488 101 468 66 438 36 _c
408 5 374 -10 336 -10 _c
311 -10 289 -3 269 9 _c
249 21 236 39 228 62 _c
217 42 202 25 184 11 _c
166 -3 146 -10 126 -10 _c
111 -10 96 -7 81 -3 _c
66 1 54 9 45 19 _c
35 29 31 43 31 59 _c
31 75 36 89 47 102 _c
57 114 71 121 88 121 _c
}_e{98 121 107 117 115 111 _c
123 104 127 95 127 85 _c
127 71 122 58 113 48 _c
103 38 92 31 78 29 _c
_cl}_e}_d
/y{{490 0 27 -204 492 442 _sc
84 -142 _m
98 -166 122 -178 157 -178 _c
189 -178 216 -167 239 -145 _c
262 -123 281 -96 295 -65 _c
309 -33 320 -1 328 31 _c
298 3 266 -10 232 -10 _c
205 -10 182 -5 164 3 _c
146 11 131 25 121 43 _c
111 61 106 83 106 109 _c
106 131 109 153 115 176 _c
121 198 129 224 139 252 _c
149 280 159 305 167 326 _c
175 350 180 370 180 386 _c
}_e{180 406 172 416 158 416 _c
132 416 110 402 93 375 _c
75 347 63 317 55 284 _c
53 280 51 278 47 278 _c
35 278 _l
29 278 27 281 27 287 _c
27 290 _l
37 330 54 365 76 396 _c
98 426 126 442 160 442 _c
184 442 204 434 220 418 _c
236 402 245 383 245 359 _c
245 346 242 333 237 320 _c
233 312 226 294 216 267 _c
206 239 198 217 193 199 _c
187 181 183 163 179 146 _c
}_e{175 128 174 111 174 94 _c
174 72 178 53 188 38 _c
197 22 212 15 233 15 _c
274 15 311 40 344 91 _c
420 399 _l
422 407 427 415 435 421 _c
443 427 452 431 462 431 _c
470 431 477 428 483 423 _c
489 418 492 411 492 403 _c
492 399 491 396 491 395 _c
392 -2 _l
383 -36 367 -68 344 -100 _c
320 -131 292 -156 259 -175 _c
225 -194 191 -204 156 -204 _c
138 -204 121 -200 104 -194 _c
}_e{87 -187 73 -177 63 -164 _c
53 -150 48 -135 48 -117 _c
48 -99 53 -83 64 -70 _c
74 -56 89 -50 107 -50 _c
117 -50 126 -53 134 -60 _c
141 -66 145 -75 145 -86 _c
145 -101 139 -114 128 -126 _c
116 -137 103 -143 88 -143 _c
87 -143 86 -142 86 -142 _c
85 -142 84 -142 84 -142 _c
_cl}_e}_d
end readonly def

/BuildGlyph
 {exch begin
 CharStrings exch
 2 copy known not{pop /.notdef}if
 true 3 1 roll get exec
 end}_d

/BuildChar {
 1 index /Encoding get exch get
 1 index /BuildGlyph get exec
}_d

FontName currentdict end definefont pop
end
%%EndProlog
mpldict begin
-274.5 145.8 translate
1161 500.4 0 0 clipbox
gsave
0 0 m
1161 0 l
1161 500.4 l
0 500.4 l
cl
1.000 setgray
fill
grestore
gsave
81.2362 50.04 m
548.959 50.04 l
548.959 472.681 l
81.2362 472.681 l
cl
1.000 setgray
fill
grestore
1.000 setlinewidth
1 setlinejoin
0 setlinecap
[6 6] 0 setdash
1.000 0.000 0.000 setrgbcolor
gsave
467.7 422.6 81.24 50.04 clipbox
378.954 301.763 m
381.042 299.527 l
383.006 297.089 l
384.835 294.468 l
386.587 291.561 l
388.174 288.495 l
389.588 285.294 l
390.867 281.844 l
391.944 278.298 l
392.815 274.679 l
393.476 271.01 l
393.925 267.308 l
394.165 263.449 l
394.175 259.589 l
393.954 255.74 l
393.503 251.909 l
392.824 248.1 l
391.918 244.314 l
390.787 240.548 l
389.431 236.796 l
387.788 232.91 l
385.904 229.018 l
383.698 224.964 l
381.141 220.725 l
378.1 216.127 l
374.619 211.269 l
370.411 205.792 l
365.484 199.755 l
359.585 192.881 l
352.367 184.827 l
344.129 175.974 l
335.584 167.11 l
327.311 158.843 l
319.795 151.646 l
313.055 145.494 l
307.022 140.278 l
301.285 135.613 l
296.197 131.751 l
291.254 128.278 l
286.787 125.401 l
282.535 122.915 l
278.52 120.814 l
274.763 119.08 l
270.963 117.571 l
267.447 116.408 l
263.906 115.477 l
260.67 114.85 l
257.422 114.446 l
254.167 114.279 l
251.237 114.343 l
248.311 114.619 l
245.392 115.113 l
242.485 115.833 l
239.595 116.784 l
236.726 117.968 l
233.883 119.389 l
231.071 121.047 l
228.294 122.94 l
225.558 125.065 l
222.865 127.418 l
219.932 130.291 l
217.065 133.425 l
214.27 136.806 l
211.285 140.79 l
208.4 145.029 l
205.622 149.495 l
202.717 154.591 l
199.951 159.883 l
197.116 165.789 l
194.254 172.293 l
191.596 178.883 l
188.975 185.97 l
186.438 193.484 l
184.032 201.334 l
181.918 208.973 l
179.987 216.76 l
178.277 224.585 l
176.887 231.961 l
175.748 239.212 l
174.918 245.926 l
174.374 252.109 l
174.092 257.779 l
174.05 262.964 l
174.227 267.696 l
174.604 272.013 l
175.164 275.95 l
175.891 279.548 l
176.818 282.999 l
177.898 286.156 l
179.119 289.056 l
180.537 291.859 l
182.16 294.569 l
183.995 297.199 l
186.135 299.863 l
188.606 302.566 l
191.434 305.325 l
194.857 308.343 l
199.172 311.833 l
205.122 316.334 l
232.209 336.465 l
240.174 342.847 l
248.051 349.449 l
256.158 356.542 l
264.704 364.317 l
274.705 373.728 l
288.94 387.472 l
305.863 403.757 l
314.615 411.866 l
321.758 418.19 l
328.114 423.518 l
333.57 427.819 l
338.788 431.654 l
343.737 435.007 l
348.389 437.874 l
352.716 440.269 l
356.698 442.222 l
360.317 443.771 l
363.965 445.101 l
367.637 446.19 l
370.917 446.939 l
374.208 447.465 l
377.507 447.756 l
380.808 447.798 l
383.696 447.621 l
386.579 447.237 l
389.455 446.639 l
392.32 445.821 l
395.17 444.78 l
398.003 443.511 l
400.814 442.013 l
403.6 440.285 l
406.357 438.326 l
409.083 436.14 l
412.154 433.367 l
415.173 430.308 l
418.136 426.973 l
421.037 423.373 l
423.872 419.523 l
426.978 414.913 l
429.989 410.033 l
432.9 404.911 l
436.012 398.972 l
438.991 392.815 l
442.107 385.844 l
445.051 378.721 l
448.064 370.849 l
451.092 362.283 l
453.873 353.761 l
456.596 344.723 l
459.207 335.294 l
461.653 325.618 l
463.885 315.858 l
465.861 306.177 l
467.466 297.214 l
468.789 288.547 l
469.764 280.685 l
470.425 273.597 l
470.804 267.237 l
470.929 261.548 l
470.828 256.471 l
470.525 251.944 l
470.043 247.906 l
469.4 244.301 l
468.568 240.915 l
467.595 237.892 l
466.495 235.182 l
465.217 232.622 l
463.758 230.206 l
462.113 227.92 l
460.278 225.749 l
458.165 223.592 l
455.668 221.369 l
452.754 219.076 l
449.187 216.558 l
444.469 213.515 l
437.043 209.023 l
422.382 200.175 l
414.637 195.213 l
407.509 190.383 l
400.52 185.375 l
393.564 180.112 l
386.498 174.482 l
379.135 168.323 l
371.458 161.609 l
362.978 153.89 l
353.057 144.547 l
337.386 129.429 l
323.272 115.922 l
314.674 107.996 l
307.749 101.897 l
301.653 96.808 l
296.116 92.4631 l
290.822 88.596 l
286.191 85.4762 l
281.875 82.8144 l
277.498 80.38 l
273.469 78.3966 l
269.808 76.8242 l
266.118 75.4761 l
262.403 74.3746 l
259.085 73.6202 l
255.756 73.0931 l
252.419 72.8074 l
249.497 72.7663 l
246.575 72.929 l
243.658 73.3031 l
240.749 73.8954 l
237.85 74.7119 l
234.965 75.7573 l
232.099 77.0351 l
229.254 78.5477 l
226.435 80.296 l
223.645 82.2795 l
220.887 84.4964 l
218.165 86.9432 l
215.103 90.0148 l
212.098 93.3706 l
209.155 96.9986 l
206.278 100.885 l
203.127 105.544 l
200.072 110.482 l
197.117 115.671 l
193.958 121.693 l
190.936 127.94 l
187.773 135.019 l
184.784 142.255 l
181.727 150.255 l
178.655 158.964 l
175.833 167.628 l
173.071 176.816 l
170.424 186.4 l
167.944 196.23 l
165.682 206.14 l
163.781 215.435 l
162.135 224.563 l
160.776 233.383 l
159.77 241.377 l
159.084 248.576 l
158.685 255.03 l
158.542 260.795 l
158.628 265.934 l
158.919 270.51 l
159.391 274.585 l
160.025 278.218 l
160.848 281.625 l
161.814 284.661 l
162.906 287.38 l
164.177 289.942 l
165.628 292.357 l
167.265 294.637 l
169.091 296.799 l
171.194 298.943 l
173.678 301.147 l
176.577 303.416 l
180.124 305.904 l
184.813 308.904 l
192.074 313.255 l
207.136 322.25 l
214.84 327.143 l
221.927 331.905 l
228.872 336.842 l
235.78 342.029 l
242.794 347.578 l
250.099 353.649 l
257.712 360.268 l
266.119 367.881 l
275.695 376.862 l
289.467 390.118 l
306.421 406.388 l
314.995 414.312 l
322.254 420.72 l
328.347 425.816 l
333.88 430.169 l
339.172 434.046 l
343.801 437.176 l
348.115 439.848 l
352.491 442.295 l
356.519 444.292 l
360.18 445.877 l
363.869 447.239 l
367.584 448.356 l
370.903 449.124 l
374.233 449.667 l
377.57 449.968 l
380.494 450.023 l
383.416 449.876 l
386.334 449.517 l
389.246 448.94 l
392.146 448.139 l
395.033 447.11 l
397.901 445.848 l
400.749 444.351 l
403.571 442.618 l
406.365 440.65 l
409.126 438.449 l
411.851 436.016 l
414.918 432.961 l
417.927 429.62 l
420.875 426.007 l
423.757 422.134 l
426.914 417.488 l
429.976 412.561 l
432.937 407.382 l
436.103 401.37 l
439.134 395.128 l
442.305 388.054 l
445.302 380.82 l
448.369 372.819 l
451.451 364.106 l
454.283 355.435 l
457.055 346.236 l
459.713 336.638 l
462.203 326.791 l
464.477 316.86 l
466.388 307.544 l
468.043 298.394 l
469.412 289.55 l
470.426 281.534 l
471.12 274.314 l
471.526 267.841 l
471.675 262.059 l
471.594 256.905 l
471.308 252.316 l
470.84 248.229 l
470.21 244.586 l
469.39 241.17 l
468.427 238.126 l
467.337 235.401 l
466.07 232.833 l
464.621 230.413 l
462.986 228.129 l
461.162 225.964 l
459.062 223.818 l
456.581 221.611 l
453.684 219.341 l
450.14 216.853 l
445.455 213.853 l
438.199 209.506 l
423.149 200.523 l
415.452 195.638 l
408.372 190.884 l
401.434 185.957 l
394.533 180.78 l
387.527 175.242 l
380.23 169.184 l
372.627 162.578 l
364.231 154.98 l
354.667 146.016 l
340.915 132.782 l
323.663 116.226 l
315.083 108.301 l
307.819 101.893 l
301.722 96.8004 l
296.185 92.4515 l
290.89 88.58 l
286.259 85.4558 l
281.943 82.7896 l
277.564 80.3503 l
273.535 78.362 l
269.873 76.7849 l
266.182 75.432 l
262.467 74.3254 l
259.148 73.5663 l
255.817 73.0342 l
252.479 72.7436 l
249.556 72.6981 l
246.634 72.8563 l
243.715 73.226 l
240.805 73.8139 l
237.905 74.626 l
235.019 75.667 l
232.151 76.9407 l
229.305 78.4492 l
226.484 80.1935 l
223.692 82.1734 l
220.932 84.3868 l
218.209 86.8303 l
215.145 89.8985 l
212.138 93.2513 l
209.192 96.8768 l
206.314 100.761 l
203.16 105.418 l
200.102 110.355 l
197.145 115.544 l
193.984 121.565 l
190.958 127.813 l
187.792 134.894 l
184.801 142.132 l
181.74 150.136 l
178.664 158.849 l
175.839 167.517 l
173.074 176.712 l
170.424 186.303 l
167.941 196.14 l
165.675 206.059 l
163.771 215.362 l
162.123 224.498 l
160.761 233.326 l
159.753 241.327 l
159.065 248.533 l
158.664 254.993 l
158.519 260.763 l
158.605 265.906 l
158.894 270.485 l
159.365 274.563 l
159.998 278.199 l
160.821 281.608 l
161.786 284.646 l
162.878 287.365 l
164.147 289.929 l
165.598 292.344 l
167.235 294.625 l
169.06 296.787 l
171.162 298.931 l
173.645 301.136 l
176.544 303.404 l
180.09 305.891 l
184.777 308.89 l
192.036 313.238 l
207.093 322.227 l
214.794 327.116 l
221.877 331.874 l
228.819 336.806 l
235.724 341.989 l
242.735 347.532 l
250.036 353.597 l
257.644 360.21 l
266.046 367.816 l
275.616 376.789 l
289.379 390.035 l
306.643 406.6 l
315.23 414.526 l
322.146 420.629 l
328.235 425.727 l
333.766 430.084 l
339.055 433.965 l
343.682 437.1 l
347.994 439.779 l
352.369 442.233 l
356.395 444.236 l
360.055 445.829 l
363.744 447.199 l
367.458 448.324 l
370.776 449.101 l
374.105 449.652 l
377.443 449.963 l
380.366 450.027 l
383.289 449.888 l
386.207 449.539 l
389.119 448.972 l
392.02 448.181 l
394.907 447.161 l
397.777 445.91 l
400.625 444.423 l
403.449 442.701 l
406.244 440.743 l
409.007 438.551 l
411.734 436.129 l
414.802 433.085 l
417.814 429.755 l
420.764 426.151 l
423.649 422.288 l
426.809 417.652 l
429.874 412.734 l
432.839 407.563 l
436.009 401.558 l
439.044 395.323 l
442.22 388.254 l
445.222 381.024 l
448.294 373.024 l
451.154 364.981 l
454.01 356.302 l
456.809 347.086 l
459.495 337.461 l
462.014 327.577 l
464.316 317.601 l
466.254 308.236 l
467.936 299.032 l
469.331 290.131 l
470.368 282.059 l
471.083 274.785 l
471.508 268.263 l
471.673 262.435 l
471.607 257.24 l
471.334 252.614 l
470.878 248.495 l
470.258 244.823 l
469.449 241.38 l
468.495 238.314 l
467.413 235.57 l
467.124 234.929 l
467.124 234.929 l
stroke
grestore
0.500 setlinewidth
[] 0 setdash
0.000 setgray
gsave
467.7 422.6 81.24 50.04 clipbox
/o {
gsave
newpath
translate
0.5 setlinewidth
1 setlinejoin
0 setlinecap
0 -4.5 m
1.19341 -4.5 2.33811 -4.02585 3.18198 -3.18198 c
4.02585 -2.33811 4.5 -1.19341 4.5 0 c
4.5 1.19341 4.02585 2.33811 3.18198 3.18198 c
2.33811 4.02585 1.19341 4.5 0 4.5 c
-1.19341 4.5 -2.33811 4.02585 -3.18198 3.18198 c
-4.02585 2.33811 -4.5 1.19341 -4.5 0 c
-4.5 -1.19341 -4.02585 -2.33811 -3.18198 -3.18198 c
-2.33811 -4.02585 -1.19341 -4.5 0 -4.5 c
cl
gsave
1.000 0.000 0.000 setrgbcolor
fill
grestore
stroke
grestore
} bind def
378.954 301.763 o
grestore
0 setlinejoin
gsave
467.7 422.6 81.24 50.04 clipbox
/o {
gsave
newpath
translate
0.5 setlinewidth
0 setlinejoin
0 setlinecap
0 4.5 m
-4.5 -4.5 l
4.5 -4.5 l
cl
gsave
1.000 0.000 0.000 setrgbcolor
fill
grestore
stroke
grestore
} bind def
467.124 234.929 o
grestore
1.000 setlinewidth
1 setlinejoin
[6 6] 0 setdash
1.000 0.000 0.000 setrgbcolor
gsave
467.7 422.6 81.24 50.04 clipbox
410.882 321.965 m
413.211 317.659 l
415.481 312.977 l
417.552 308.197 l
419.513 303.11 l
421.329 297.757 l
422.897 292.441 l
424.277 286.958 l
425.392 281.604 l
426.251 276.411 l
426.861 271.403 l
427.232 266.594 l
427.374 261.994 l
427.297 257.605 l
427.012 253.424 l
426.528 249.443 l
425.819 245.484 l
424.914 241.718 l
423.822 238.128 l
422.551 234.693 l
421.043 231.255 l
419.281 227.807 l
417.249 224.338 l
414.931 220.829 l
412.211 217.132 l
409.041 213.215 l
405.256 208.907 l
400.638 203.998 l
394.485 197.803 l
384.668 188.278 l
361.071 165.446 l
321.327 126.61 l
313.676 119.599 l
306.95 113.728 l
300.969 108.799 l
295.49 104.569 l
290.576 101.044 l
285.918 97.9664 l
281.542 95.3339 l
277.472 93.1313 l
273.352 91.1626 l
269.567 89.6035 l
266.133 88.4094 l
262.677 87.4324 l
259.204 86.6904 l
256.107 86.2422 l
253.003 86.0052 l
249.898 85.9903 l
246.794 86.2077 l
243.696 86.6665 l
240.608 87.3747 l
237.535 88.3387 l
234.482 89.5637 l
231.452 91.0528 l
228.451 92.8078 l
225.484 94.8281 l
222.555 97.1117 l
219.668 99.6542 l
216.829 102.449 l
214.042 105.489 l
210.973 109.188 l
207.98 113.167 l
205.07 117.405 l
201.938 122.392 l
198.92 127.639 l
196.02 133.112 l
192.972 139.347 l
190.079 145.759 l
187.103 152.897 l
184.094 160.725 l
181.312 168.575 l
178.567 176.972 l
175.912 185.814 l
173.399 194.975 l
171.078 204.312 l
169.1 213.167 l
167.357 221.962 l
165.883 230.561 l
164.756 238.446 l
163.946 245.63 l
163.423 252.139 l
163.161 258.014 l
163.134 263.303 l
163.317 268.055 l
163.69 272.324 l
164.266 276.352 l
165.011 279.956 l
165.907 283.192 l
166.94 286.107 l
168.155 288.871 l
169.493 291.375 l
171.014 293.765 l
172.799 296.146 l
174.788 298.423 l
177.072 300.701 l
179.764 303.067 l
182.999 305.607 l
187.045 308.489 l
192.571 312.133 l
206.33 320.827 l
215.297 326.68 l
222.806 331.843 l
229.917 336.999 l
237.023 342.427 l
244.268 348.248 l
251.633 354.454 l
259.537 361.41 l
268.283 369.417 l
278.521 379.103 l
314.159 413.113 l
321.362 419.509 l
327.771 424.904 l
333.274 429.262 l
338.538 433.152 l
343.531 436.553 l
348.224 439.464 l
352.591 441.898 l
356.609 443.882 l
360.262 445.456 l
363.943 446.808 l
367.649 447.915 l
370.96 448.676 l
374.282 449.211 l
377.611 449.507 l
380.527 449.557 l
383.442 449.406 l
386.354 449.044 l
389.258 448.465 l
392.151 447.663 l
395.03 446.634 l
397.891 445.373 l
400.731 443.878 l
403.546 442.149 l
406.332 440.186 l
409.087 437.99 l
411.805 435.565 l
414.863 432.519 l
417.865 429.189 l
420.806 425.588 l
423.68 421.729 l
426.829 417.099 l
429.884 412.191 l
432.837 407.031 l
435.996 401.041 l
439.02 394.824 l
442.184 387.776 l
445.174 380.569 l
448.235 372.596 l
451.311 363.914 l
454.138 355.273 l
456.906 346.104 l
459.56 336.535 l
462.047 326.716 l
464.318 316.811 l
466.228 307.517 l
467.883 298.386 l
469.251 289.558 l
470.266 281.554 l
470.961 274.341 l
471.368 267.874 l
471.518 262.094 l
471.439 256.941 l
471.155 252.351 l
470.688 248.262 l
470.059 244.616 l
469.24 241.196 l
468.279 238.148 l
467.19 235.419 l
465.923 232.847 l
464.475 230.422 l
462.84 228.133 l
461.016 225.962 l
458.916 223.81 l
456.434 221.597 l
453.536 219.32 l
449.99 216.824 l
445.301 213.815 l
438.039 209.454 l
422.971 200.439 l
415.262 195.536 l
408.171 190.766 l
401.221 185.82 l
394.307 180.623 l
387.287 175.063 l
379.974 168.982 l
372.354 162.351 l
363.938 154.724 l
354.095 145.485 l
339.992 131.901 l
323.591 116.171 l
315.007 108.246 l
308.093 102.143 l
302.006 97.0439 l
296.477 92.6865 l
291.189 88.8035 l
286.563 85.6664 l
282.252 82.9857 l
277.879 80.5292 l
273.853 78.5229 l
270.195 76.9274 l
266.506 75.5542 l
262.793 74.4253 l
259.475 73.6448 l
256.146 73.0898 l
252.809 72.7749 l
249.886 72.707 l
246.963 72.8418 l
244.045 73.1873 l
241.133 73.7503 l
238.232 74.5368 l
235.345 75.5517 l
232.475 76.7988 l
229.626 78.2806 l
226.803 79.9982 l
224.007 81.9513 l
221.244 84.1382 l
218.516 86.5558 l
215.447 89.5949 l
212.435 92.9198 l
209.483 96.5185 l
206.598 100.377 l
203.436 105.008 l
200.37 109.921 l
197.404 115.088 l
194.232 121.089 l
191.196 127.32 l
188.018 134.386 l
185.014 141.614 l
181.939 149.612 l
179.077 157.654 l
176.218 166.333 l
173.417 175.55 l
170.728 185.177 l
168.206 195.064 l
165.901 205.043 l
163.96 214.413 l
162.276 223.622 l
160.879 232.529 l
159.839 240.606 l
159.122 247.886 l
158.695 254.413 l
158.527 260.245 l
158.592 265.445 l
158.863 270.075 l
159.318 274.197 l
159.937 277.872 l
160.701 281.155 l
161.647 284.241 l
162.722 287.002 l
163.976 289.603 l
165.412 292.051 l
167.034 294.36 l
168.846 296.546 l
170.934 298.709 l
173.317 300.857 l
176.196 303.143 l
179.721 305.642 l
184.279 308.58 l
191.151 312.715 l
207.667 322.582 l
215.268 327.426 l
222.385 332.225 l
229.195 337.08 l
236.125 342.298 l
243.164 347.88 l
250.495 353.987 l
258.137 360.647 l
266.576 368.305 l
276.448 377.581 l
291.169 391.768 l
306.722 406.673 l
315.312 414.6 l
322.232 420.703 l
328.324 425.799 l
333.857 430.152 l
339.148 434.03 l
343.777 437.161 l
348.09 439.835 l
352.466 442.284 l
356.494 444.282 l
360.154 445.868 l
363.844 447.232 l
367.558 448.35 l
370.877 449.121 l
374.207 449.665 l
377.545 449.968 l
380.468 450.025 l
383.39 449.879 l
386.309 449.522 l
389.22 448.947 l
392.121 448.149 l
395.008 447.121 l
397.876 445.861 l
400.724 444.367 l
403.547 442.636 l
406.34 440.67 l
409.102 438.47 l
411.828 436.04 l
414.895 432.987 l
417.905 429.649 l
420.853 426.037 l
423.735 422.166 l
426.893 417.522 l
429.956 412.597 l
432.917 407.419 l
436.084 401.408 l
439.116 395.168 l
442.288 388.095 l
445.286 380.862 l
448.354 372.861 l
451.438 364.148 l
454.271 355.476 l
457.044 346.277 l
459.703 336.677 l
462.195 326.828 l
464.47 316.895 l
466.382 307.576 l
468.039 298.424 l
469.409 289.577 l
470.424 281.559 l
471.119 274.336 l
471.526 267.861 l
471.675 262.076 l
471.595 256.92 l
471.31 252.329 l
470.842 248.241 l
470.213 244.597 l
469.393 241.179 l
468.431 238.134 l
467.341 235.409 l
466.074 232.84 l
464.625 230.42 l
462.991 228.135 l
461.168 225.969 l
459.068 223.823 l
456.587 221.616 l
453.69 219.345 l
450.146 216.857 l
445.462 213.858 l
438.206 209.51 l
423.158 200.528 l
415.461 195.644 l
408.382 190.891 l
401.445 185.965 l
394.545 180.789 l
387.539 175.252 l
380.244 169.196 l
372.641 162.591 l
364.246 154.994 l
354.684 146.032 l
340.933 132.8 l
323.684 116.246 l
315.105 108.321 l
307.842 101.913 l
301.746 96.8197 l
296.21 92.4701 l
290.915 88.5976 l
286.284 85.4722 l
281.969 82.8048 l
277.591 80.364 l
273.562 78.3742 l
269.9 76.7956 l
266.209 75.4409 l
262.494 74.3324 l
259.175 73.5716 l
255.845 73.0376 l
252.507 72.745 l
249.583 72.6976 l
246.661 72.8539 l
243.743 73.2215 l
240.832 73.8073 l
237.932 74.6173 l
235.046 75.6562 l
232.178 76.9276 l
229.332 78.4339 l
226.51 80.1761 l
223.718 82.1537 l
220.958 84.3649 l
218.234 86.8064 l
215.17 89.8722 l
212.162 93.2227 l
209.216 96.846 l
206.337 100.728 l
203.183 105.383 l
200.124 110.318 l
197.166 115.505 l
194.004 121.525 l
190.977 127.772 l
187.81 134.851 l
184.818 142.088 l
181.756 150.092 l
178.679 158.805 l
175.853 167.474 l
173.086 176.669 l
170.435 186.262 l
167.95 196.101 l
165.683 206.022 l
163.778 215.328 l
162.128 224.466 l
160.765 233.297 l
159.756 241.301 l
159.067 248.51 l
158.665 254.972 l
158.52 260.744 l
158.604 265.889 l
158.893 270.47 l
159.363 274.55 l
159.996 278.187 l
160.818 281.597 l
161.782 284.636 l
162.874 287.357 l
164.143 289.921 l
165.594 292.337 l
167.23 294.619 l
169.055 296.782 l
171.156 298.926 l
173.639 301.131 l
176.538 303.4 l
180.083 305.887 l
184.77 308.886 l
192.029 313.234 l
207.084 322.222 l
214.785 327.11 l
221.867 331.867 l
228.808 336.798 l
235.712 341.98 l
242.722 347.522 l
250.022 353.585 l
257.63 360.197 l
266.031 367.802 l
275.599 376.773 l
289.36 390.016 l
306.622 406.58 l
315.207 414.506 l
322.123 420.609 l
328.211 425.708 l
333.741 430.065 l
339.03 433.947 l
343.656 437.084 l
347.968 439.763 l
352.343 442.219 l
356.369 444.224 l
360.028 445.818 l
363.717 447.19 l
367.43 448.317 l
370.748 449.096 l
374.078 449.649 l
377.415 449.962 l
380.339 450.028 l
383.261 449.891 l
386.18 449.543 l
389.092 448.978 l
391.993 448.189 l
394.88 447.172 l
397.75 445.922 l
400.599 444.438 l
403.422 442.718 l
406.218 440.762 l
408.981 438.573 l
411.708 436.153 l
414.777 433.111 l
417.789 429.783 l
420.74 426.182 l
423.625 422.321 l
426.786 417.687 l
429.852 412.771 l
432.817 407.601 l
435.989 401.598 l
439.024 395.365 l
442.201 388.296 l
445.205 381.067 l
448.278 373.068 l
451.139 365.025 l
453.997 356.345 l
456.797 347.129 l
459.484 337.502 l
462.004 327.616 l
464.308 317.639 l
466.248 308.271 l
467.931 299.064 l
469.326 290.16 l
470.365 282.085 l
471.081 274.809 l
471.507 268.284 l
471.673 262.454 l
471.608 257.257 l
471.336 252.629 l
470.88 248.508 l
470.851 248.304 l
470.851 248.304 l
stroke
grestore
0.500 setlinewidth
[] 0 setdash
0.000 setgray
gsave
467.7 422.6 81.24 50.04 clipbox
/o {
gsave
newpath
translate
0.5 setlinewidth
1 setlinejoin
0 setlinecap
0 -4.5 m
1.19341 -4.5 2.33811 -4.02585 3.18198 -3.18198 c
4.02585 -2.33811 4.5 -1.19341 4.5 0 c
4.5 1.19341 4.02585 2.33811 3.18198 3.18198 c
2.33811 4.02585 1.19341 4.5 0 4.5 c
-1.19341 4.5 -2.33811 4.02585 -3.18198 3.18198 c
-4.02585 2.33811 -4.5 1.19341 -4.5 0 c
-4.5 -1.19341 -4.02585 -2.33811 -3.18198 -3.18198 c
-2.33811 -4.02585 -1.19341 -4.5 0 -4.5 c
cl
gsave
1.000 0.000 0.000 setrgbcolor
fill
grestore
stroke
grestore
} bind def
410.882 321.965 o
grestore
0 setlinejoin
gsave
467.7 422.6 81.24 50.04 clipbox
/o {
gsave
newpath
translate
0.5 setlinewidth
0 setlinejoin
0 setlinecap
0 4.5 m
-4.5 -4.5 l
4.5 -4.5 l
cl
gsave
1.000 0.000 0.000 setrgbcolor
fill
grestore
stroke
grestore
} bind def
470.851 248.304 o
grestore
1.000 setlinewidth
1 setlinejoin
[6 6] 0 setdash
0.000 0.000 1.000 setrgbcolor
gsave
467.7 422.6 81.24 50.04 clipbox
474.738 362.368 m
477.669 349.626 l
480.384 336.785 l
482.828 324.103 l
484.841 312.516 l
486.553 301.41 l
487.937 290.963 l
488.929 281.785 l
489.58 273.772 l
489.932 266.809 l
490.026 260.776 l
489.897 255.559 l
489.573 251.051 l
489.083 247.152 l
488.448 243.776 l
487.642 240.693 l
486.716 238.026 l
485.684 235.708 l
484.5 233.58 l
483.163 231.63 l
481.67 229.84 l
479.949 228.124 l
477.988 226.482 l
475.615 224.797 l
472.798 223.079 l
469.236 221.181 l
464.386 218.865 l
455.222 214.792 l
444.5 209.945 l
436.963 206.291 l
430.045 202.693 l
423.349 198.958 l
416.8 195.045 l
410.45 190.994 l
404.031 186.638 l
397.553 181.973 l
390.846 176.865 l
383.895 171.282 l
376.685 165.201 l
368.977 158.407 l
360.467 150.609 l
349.974 140.675 l
317.199 109.394 l
309.634 102.633 l
303.2 97.1764 l
297.301 92.4711 l
292.006 88.5341 l
286.983 85.0875 l
282.657 82.3714 l
278.268 79.8778 l
274.228 77.8367 l
270.555 76.2093 l
266.852 74.8037 l
263.123 73.6424 l
259.792 72.8333 l
256.448 72.2503 l
253.096 71.9079 l
250.159 71.8169 l
247.223 71.9295 l
244.29 72.2539 l
241.363 72.7971 l
238.447 73.5654 l
235.545 74.5638 l
232.66 75.7963 l
229.795 77.2655 l
226.956 78.9727 l
224.145 80.9177 l
221.365 83.0991 l
218.621 85.5135 l
215.534 88.5524 l
212.503 91.8805 l
209.533 95.4859 l
206.63 99.3546 l
203.797 103.47 l
200.7 108.373 l
197.703 113.536 l
194.497 119.542 l
191.426 125.786 l
188.496 132.223 l
185.44 139.471 l
182.308 147.506 l
179.392 155.6 l
176.474 164.349 l
173.613 173.655 l
170.863 183.389 l
168.28 193.399 l
166.043 202.935 l
164.026 212.479 l
162.268 221.87 l
160.869 230.505 l
159.749 238.801 l
158.96 246.282 l
158.47 252.994 l
158.246 258.991 l
158.261 264.337 l
158.489 269.095 l
158.905 273.329 l
159.489 277.1 l
160.223 280.464 l
161.14 283.623 l
162.189 286.445 l
163.418 289.098 l
164.764 291.483 l
166.286 293.741 l
168.067 295.974 l
170.042 298.094 l
172.387 300.275 l
175.135 302.515 l
178.417 304.895 l
182.592 307.638 l
188.553 311.265 l
210.415 324.349 l
217.791 329.136 l
224.776 333.935 l
231.582 338.879 l
238.499 344.179 l
245.509 349.831 l
252.8 355.993 l
260.61 362.887 l
269.244 370.808 l
279.614 380.634 l
313.011 412.534 l
320.537 419.261 l
326.937 424.689 l
332.805 429.372 l
338.073 433.292 l
343.071 436.725 l
347.768 439.669 l
352.141 442.136 l
356.165 444.153 l
359.823 445.759 l
363.511 447.144 l
367.224 448.286 l
370.541 449.078 l
373.871 449.646 l
377.208 449.975 l
380.132 450.055 l
383.055 449.933 l
385.974 449.6 l
388.887 449.051 l
391.79 448.278 l
394.678 447.277 l
397.55 446.044 l
400.401 444.576 l
403.227 442.872 l
406.024 440.933 l
408.79 438.759 l
411.521 436.355 l
414.593 433.33 l
417.61 430.019 l
420.565 426.433 l
423.454 422.587 l
426.621 417.968 l
429.692 413.066 l
432.664 407.909 l
435.842 401.917 l
438.885 395.692 l
442.07 388.631 l
445.081 381.406 l
448.164 373.409 l
451.033 365.365 l
453.901 356.681 l
456.712 347.456 l
459.409 337.818 l
461.941 327.917 l
464.255 317.921 l
466.205 308.534 l
467.898 299.306 l
469.239 290.828 l
470.304 282.689 l
471.044 275.351 l
471.492 268.768 l
471.677 262.886 l
471.629 257.641 l
471.372 252.971 l
470.93 248.813 l
470.323 245.107 l
469.569 241.797 l
468.632 238.686 l
467.566 235.903 l
466.321 233.284 l
464.96 230.926 l
463.422 228.69 l
461.627 226.475 l
459.555 224.286 l
457.189 222.119 l
454.419 219.887 l
451.016 217.441 l
446.701 214.625 l
440.347 210.771 l
420.962 199.16 l
413.533 194.374 l
406.473 189.561 l
399.571 184.585 l
392.722 179.375 l
385.785 173.821 l
378.572 167.767 l
370.849 160.994 l
362.316 153.208 l
352.33 143.787 l
335.376 127.421 l
322.351 114.994 l
314.041 107.361 l
307.088 101.267 l
300.968 96.1907 l
295.411 91.8663 l
290.482 88.2935 l
285.843 85.1875 l
281.521 82.5417 l
277.137 80.1264 l
273.103 78.1633 l
269.437 76.6116 l
265.743 75.2867 l
262.439 74.3173 l
259.12 73.5601 l
255.789 73.03 l
252.451 72.7415 l
249.528 72.6979 l
246.606 72.8581 l
243.687 73.2298 l
240.777 73.8198 l
237.877 74.6341 l
234.991 75.6774 l
232.124 76.9532 l
229.278 78.464 l
226.457 80.2107 l
223.665 82.1928 l
220.906 84.4084 l
218.183 86.8542 l
215.119 89.9248 l
212.113 93.28 l
209.168 96.9077 l
206.29 100.794 l
203.137 105.453 l
200.08 110.393 l
197.123 115.583 l
193.963 121.606 l
190.938 127.856 l
187.773 134.937 l
184.783 142.176 l
181.723 150.18 l
178.649 158.893 l
175.825 167.562 l
173.061 176.755 l
170.412 186.345 l
167.931 196.181 l
165.667 206.097 l
163.764 215.398 l
162.117 224.531 l
160.757 233.356 l
159.75 241.354 l
159.063 248.558 l
158.662 255.014 l
158.519 260.782 l
158.605 265.923 l
158.895 270.501 l
159.367 274.577 l
160.001 278.211 l
160.823 281.619 l
161.789 284.656 l
162.881 287.374 l
164.151 289.936 l
165.603 292.351 l
167.239 294.631 l
169.065 296.793 l
171.167 298.936 l
173.651 301.14 l
176.55 303.409 l
180.096 305.895 l
184.784 308.894 l
192.044 313.243 l
207.102 322.233 l
214.804 327.123 l
221.888 331.881 l
228.83 336.814 l
235.736 341.998 l
242.747 347.542 l
250.049 353.608 l
257.659 360.222 l
266.061 367.83 l
275.633 376.805 l
289.398 390.053 l
306.343 406.317 l
314.913 414.24 l
322.169 420.649 l
328.259 425.746 l
333.79 430.102 l
339.08 433.983 l
343.707 437.117 l
348.02 439.794 l
352.395 442.246 l
356.422 444.248 l
360.081 445.839 l
363.77 447.208 l
367.485 448.331 l
370.803 449.106 l
374.133 449.656 l
377.47 449.965 l
380.393 450.027 l
383.316 449.886 l
386.234 449.535 l
389.146 448.965 l
392.047 448.172 l
394.934 447.151 l
397.804 445.897 l
400.652 444.408 l
403.475 442.684 l
406.27 440.724 l
409.032 438.53 l
411.759 436.105 l
414.827 433.059 l
417.838 429.726 l
420.788 426.121 l
423.672 422.255 l
426.832 417.617 l
429.896 412.697 l
432.86 407.525 l
436.029 401.518 l
439.063 395.282 l
442.238 388.211 l
445.239 380.98 l
448.311 372.98 l
451.169 364.937 l
454.024 356.259 l
456.822 347.043 l
459.506 337.419 l
462.024 327.537 l
464.324 317.564 l
466.261 308.201 l
467.942 299 l
469.335 290.102 l
470.371 282.032 l
471.085 274.761 l
471.509 268.242 l
471.673 262.416 l
471.606 257.223 l
471.333 252.599 l
470.876 248.481 l
470.256 244.811 l
469.446 241.37 l
468.492 238.304 l
467.409 235.561 l
466.149 232.977 l
464.706 230.543 l
463.078 228.247 l
461.26 226.071 l
459.166 223.916 l
456.778 221.776 l
453.892 219.495 l
450.361 217.001 l
445.795 214.064 l
438.799 209.859 l
422.642 200.209 l
415.05 195.375 l
407.941 190.586 l
400.973 185.62 l
394.041 180.4 l
387 174.815 l
379.667 168.704 l
372.023 162.042 l
363.58 154.38 l
353.705 145.099 l
338.978 130.906 l
323.742 116.3 l
315.166 108.376 l
307.905 101.968 l
301.811 96.8727 l
296.277 92.521 l
290.984 88.6458 l
286.354 85.5174 l
282.04 82.8466 l
277.663 80.4018 l
273.634 78.4078 l
269.974 76.8249 l
266.283 75.4656 l
262.568 74.352 l
259.25 73.5862 l
255.919 73.047 l
252.582 72.7488 l
249.658 72.6963 l
246.736 72.8472 l
243.817 73.2093 l
240.906 73.7895 l
238.006 74.5937 l
235.12 75.6266 l
232.251 76.8921 l
229.404 78.3923 l
226.582 80.1285 l
223.789 82.1001 l
221.028 84.3053 l
218.303 86.7409 l
215.238 89.8002 l
212.229 93.1445 l
209.282 96.7618 l
206.401 100.638 l
203.245 105.287 l
200.184 110.217 l
197.224 115.399 l
194.059 121.415 l
191.03 127.658 l
187.861 134.734 l
184.865 141.969 l
181.8 149.972 l
178.72 158.684 l
175.89 167.355 l
173.12 176.552 l
170.464 186.149 l
167.976 195.993 l
165.705 205.921 l
163.796 215.233 l
162.143 224.379 l
160.776 233.217 l
159.764 241.229 l
159.072 248.445 l
158.667 254.914 l
158.52 260.693 l
158.602 265.843 l
158.889 270.429 l
159.358 274.514 l
159.989 278.154 l
160.81 281.568 l
161.773 284.611 l
162.864 287.334 l
164.132 289.9 l
165.581 292.319 l
167.217 294.602 l
169.041 296.766 l
171.141 298.912 l
173.623 301.118 l
176.521 303.387 l
180.066 305.875 l
184.751 308.874 l
192.008 313.222 l
207.06 322.207 l
214.758 327.093 l
221.839 331.848 l
228.778 336.776 l
235.68 341.955 l
242.688 347.494 l
249.986 353.554 l
257.591 360.162 l
265.988 367.763 l
275.554 376.73 l
289.309 389.967 l
306.564 406.526 l
315.146 414.451 l
322.059 420.555 l
328.146 425.655 l
333.674 430.014 l
338.961 433.899 l
343.587 437.038 l
347.897 439.721 l
352.271 442.181 l
356.296 444.19 l
359.955 445.788 l
363.643 447.165 l
367.356 448.297 l
370.674 449.08 l
374.003 449.639 l
377.341 449.957 l
380.264 450.028 l
383.186 449.897 l
386.105 449.555 l
389.017 448.995 l
391.919 448.212 l
394.807 447.201 l
397.677 445.957 l
400.526 444.479 l
403.35 442.765 l
406.146 440.815 l
408.91 438.632 l
409.302 438.301 l
409.302 438.301 l
stroke
grestore
0.500 setlinewidth
[] 0 setdash
0.000 setgray
gsave
467.7 422.6 81.24 50.04 clipbox
/o {
gsave
newpath
translate
0.5 setlinewidth
1 setlinejoin
0 setlinecap
0 -4.5 m
1.19341 -4.5 2.33811 -4.02585 3.18198 -3.18198 c
4.02585 -2.33811 4.5 -1.19341 4.5 0 c
4.5 1.19341 4.02585 2.33811 3.18198 3.18198 c
2.33811 4.02585 1.19341 4.5 0 4.5 c
-1.19341 4.5 -2.33811 4.02585 -3.18198 3.18198 c
-4.02585 2.33811 -4.5 1.19341 -4.5 0 c
-4.5 -1.19341 -4.02585 -2.33811 -3.18198 -3.18198 c
-2.33811 -4.02585 -1.19341 -4.5 0 -4.5 c
cl
gsave
0.000 0.000 1.000 setrgbcolor
fill
grestore
stroke
grestore
} bind def
474.738 362.368 o
grestore
0 setlinejoin
gsave
467.7 422.6 81.24 50.04 clipbox
/o {
gsave
newpath
translate
0.5 setlinewidth
0 setlinejoin
0 setlinecap
0 4.5 m
-4.5 -4.5 l
4.5 -4.5 l
cl
gsave
0.000 0.000 1.000 setrgbcolor
fill
grestore
stroke
grestore
} bind def
409.302 438.301 o
grestore
1.000 setlinewidth
1 setlinejoin
[6 6] 0 setdash
0.000 0.000 1.000 setrgbcolor
gsave
467.7 422.6 81.24 50.04 clipbox
506.666 382.569 m
509.87 363.147 l
512.728 344.403 l
515.186 326.779 l
517.209 310.624 l
518.705 296.955 l
519.809 284.835 l
520.498 274.847 l
520.846 266.656 l
520.915 259.96 l
520.756 254.495 l
520.411 250.036 l
519.914 246.393 l
519.293 243.411 l
518.57 240.962 l
517.713 238.833 l
516.78 237.085 l
515.726 235.566 l
514.494 234.19 l
513.141 233.01 l
511.541 231.909 l
509.615 230.863 l
507.211 229.822 l
504.084 228.724 l
499.511 227.374 l
488.693 224.493 l
478.622 221.686 l
470.476 219.186 l
462.882 216.625 l
455.647 213.949 l
448.737 211.158 l
441.992 208.193 l
435.454 205.077 l
429.046 201.778 l
422.668 198.242 l
416.341 194.478 l
410.094 190.506 l
403.797 186.241 l
397.285 181.559 l
390.731 176.572 l
383.956 171.14 l
376.735 165.061 l
369.016 158.265 l
360.495 150.464 l
349.988 140.521 l
317.172 109.207 l
309.597 102.439 l
303.156 96.9774 l
297.25 92.2685 l
291.949 88.3293 l
286.919 84.8817 l
282.589 82.1656 l
278.195 79.673 l
274.15 77.6337 l
270.473 76.0088 l
266.766 74.6066 l
263.034 73.4496 l
259.699 72.6451 l
256.351 72.0674 l
252.996 71.7312 l
250.057 71.6462 l
247.118 71.7656 l
244.182 72.0972 l
241.254 72.6484 l
238.335 73.4251 l
235.431 74.4326 l
232.544 75.6747 l
229.678 77.154 l
226.836 78.8718 l
224.024 80.8278 l
221.243 83.0204 l
218.498 85.4465 l
215.409 88.4989 l
212.378 91.8407 l
209.407 95.4599 l
206.503 99.3424 l
203.671 103.472 l
200.574 108.389 l
197.577 113.567 l
194.372 119.588 l
191.303 125.847 l
188.374 132.298 l
185.32 139.559 l
182.191 147.607 l
179.277 155.711 l
176.363 164.47 l
173.505 173.784 l
170.76 183.524 l
168.182 193.537 l
165.95 203.074 l
163.938 212.616 l
162.185 222.004 l
160.792 230.633 l
159.677 238.921 l
158.893 246.394 l
158.407 253.097 l
158.188 259.085 l
158.206 264.423 l
158.437 269.173 l
158.856 273.399 l
159.443 277.162 l
160.18 280.52 l
161.099 283.673 l
162.15 286.489 l
163.381 289.137 l
164.728 291.516 l
166.253 293.77 l
168.035 295.998 l
170.011 298.114 l
172.357 300.292 l
175.106 302.528 l
178.388 304.904 l
182.565 307.644 l
188.526 311.266 l
210.247 324.252 l
217.611 329.023 l
224.584 333.807 l
231.378 338.733 l
238.281 344.014 l
245.276 349.645 l
252.552 355.784 l
260.345 362.653 l
268.958 370.546 l
279.303 380.34 l
313.288 412.791 l
320.826 419.517 l
327.236 424.939 l
333.113 429.613 l
338.388 433.521 l
343.392 436.94 l
348.095 439.868 l
352.472 442.316 l
356.5 444.314 l
360.161 445.901 l
363.851 447.265 l
367.566 448.383 l
370.885 449.153 l
374.216 449.696 l
377.554 449.999 l
380.478 450.056 l
383.401 449.909 l
386.32 449.552 l
389.232 448.976 l
392.133 448.176 l
395.02 447.148 l
397.889 445.887 l
400.737 444.391 l
403.56 442.659 l
406.354 440.692 l
409.116 438.491 l
411.842 436.059 l
414.909 433.004 l
417.92 429.664 l
420.869 426.05 l
423.751 422.178 l
426.909 417.532 l
429.972 412.604 l
432.934 407.425 l
436.101 401.412 l
439.132 395.17 l
442.305 388.094 l
445.303 380.859 l
448.371 372.855 l
451.454 364.14 l
454.286 355.467 l
457.06 346.266 l
459.718 336.665 l
462.21 326.815 l
464.484 316.881 l
466.396 307.562 l
468.052 298.41 l
469.421 289.564 l
470.436 281.545 l
471.13 274.323 l
471.537 267.849 l
471.686 262.066 l
471.605 256.91 l
471.319 252.32 l
470.852 248.233 l
470.221 244.589 l
469.402 241.173 l
468.439 238.129 l
467.349 235.404 l
466.082 232.836 l
464.633 230.416 l
462.999 228.132 l
461.175 225.967 l
459.075 223.821 l
456.594 221.614 l
453.697 219.344 l
450.153 216.857 l
445.469 213.858 l
438.214 209.512 l
423.166 200.531 l
415.469 195.648 l
408.391 190.896 l
401.454 185.97 l
394.554 180.795 l
387.549 175.26 l
380.254 169.204 l
372.652 162.6 l
364.258 155.005 l
354.697 146.043 l
340.948 132.813 l
323.701 116.26 l
315.122 108.335 l
307.86 101.928 l
301.764 96.8338 l
296.228 92.4835 l
290.934 88.6102 l
286.304 85.484 l
281.988 82.8156 l
277.611 80.3737 l
273.582 78.3827 l
269.921 76.8029 l
266.23 75.4469 l
262.515 74.337 l
259.196 73.5747 l
255.865 73.0393 l
252.527 72.7451 l
249.604 72.6963 l
246.682 72.8511 l
243.763 73.2172 l
240.852 73.8015 l
237.952 74.6098 l
235.066 75.6471 l
232.198 76.9168 l
229.352 78.4215 l
226.53 80.162 l
223.738 82.138 l
220.977 84.3475 l
218.253 86.7874 l
215.188 89.8514 l
212.18 93.2002 l
209.234 96.8219 l
206.355 100.702 l
203.2 105.356 l
200.141 110.29 l
197.182 115.475 l
194.019 121.494 l
190.992 127.74 l
187.824 134.818 l
184.831 142.055 l
181.768 150.058 l
178.69 158.771 l
175.863 167.441 l
173.095 176.636 l
170.442 186.23 l
167.957 196.071 l
165.689 205.994 l
163.783 215.301 l
162.132 224.442 l
160.768 233.275 l
159.758 241.281 l
159.068 248.492 l
158.665 254.956 l
158.519 260.73 l
158.603 265.876 l
158.891 270.459 l
159.361 274.54 l
159.994 278.178 l
160.815 281.589 l
161.779 284.629 l
162.871 287.35 l
164.14 289.915 l
165.59 292.332 l
167.226 294.614 l
169.051 296.777 l
171.152 298.922 l
173.635 301.127 l
176.533 303.396 l
180.078 305.883 l
184.765 308.883 l
192.023 313.23 l
207.077 322.218 l
214.777 327.105 l
221.859 331.861 l
228.799 336.792 l
235.703 341.972 l
242.712 347.514 l
250.012 353.576 l
257.619 360.187 l
266.018 367.79 l
275.586 376.761 l
289.345 390.002 l
306.605 406.564 l
315.19 414.49 l
322.104 420.593 l
328.193 425.692 l
333.722 430.05 l
339.01 433.933 l
343.636 437.07 l
347.948 439.751 l
352.322 442.208 l
356.347 444.214 l
360.007 445.809 l
363.695 447.182 l
367.409 448.311 l
370.727 449.091 l
374.056 449.646 l
377.394 449.96 l
380.317 450.028 l
383.239 449.892 l
386.158 449.547 l
389.07 448.983 l
391.972 448.196 l
394.859 447.18 l
397.729 445.933 l
400.578 444.45 l
403.402 442.732 l
406.197 440.778 l
408.96 438.59 l
411.688 436.172 l
414.757 433.132 l
417.77 429.806 l
420.721 426.206 l
423.607 422.346 l
426.768 417.714 l
429.835 412.8 l
432.801 407.632 l
435.972 401.63 l
439.009 395.398 l
442.187 388.33 l
445.191 381.102 l
448.265 373.103 l
451.127 365.06 l
453.986 356.38 l
456.787 347.162 l
459.475 337.535 l
461.997 327.648 l
464.302 317.668 l
466.242 308.299 l
467.926 299.09 l
469.323 290.183 l
470.363 282.106 l
471.079 274.828 l
471.506 268.301 l
471.673 262.469 l
471.608 257.27 l
471.337 252.641 l
470.882 248.519 l
470.263 244.844 l
469.498 241.562 l
468.552 238.476 l
467.476 235.716 l
466.223 233.115 l
464.787 230.668 l
463.164 228.36 l
461.352 226.174 l
459.264 224.01 l
456.882 221.863 l
454.002 219.577 l
450.477 217.079 l
445.919 214.141 l
439.047 210.006 l
422.532 200.14 l
414.931 195.297 l
407.813 190.498 l
401.004 185.642 l
394.073 180.425 l
387.035 174.843 l
379.704 168.736 l
372.063 162.078 l
363.624 154.42 l
353.752 145.144 l
339.031 130.957 l
323.479 116.053 l
314.889 108.126 l
307.97 102.023 l
301.878 96.9268 l
296.345 92.573 l
291.054 88.695 l
286.425 85.5635 l
282.112 82.8892 l
277.736 80.4404 l
273.709 78.4422 l
270.048 76.855 l
266.359 75.4908 l
262.644 74.372 l
259.326 73.6012 l
255.996 73.0567 l
252.658 72.7528 l
249.735 72.6951 l
246.812 72.8406 l
243.894 73.1971 l
240.982 73.7716 l
238.082 74.5698 l
235.195 75.5967 l
232.326 76.856 l
229.478 78.3501 l
226.656 80.0801 l
223.862 82.0456 l
221.1 84.2448 l
218.374 86.6744 l
215.307 89.727 l
212.297 93.0649 l
209.348 96.6762 l
206.466 100.547 l
203.308 105.19 l
200.245 110.115 l
197.283 115.292 l
194.116 121.302 l
191.085 127.542 l
187.912 134.615 l
184.914 141.848 l
181.845 149.849 l
178.762 158.562 l
175.928 167.234 l
173.154 176.434 l
170.495 186.034 l
168.003 195.883 l
165.728 205.817 l
163.815 215.136 l
162.158 224.289 l
160.788 233.136 l
159.772 241.156 l
159.077 248.379 l
158.67 254.855 l
158.52 260.64 l
158.6 265.796 l
158.885 270.388 l
159.353 274.476 l
159.982 278.121 l
160.801 281.539 l
161.763 284.584 l
162.853 287.31 l
164.12 289.879 l
165.569 292.3 l
167.203 294.584 l
169.027 296.75 l
171.126 298.897 l
173.607 301.104 l
176.504 303.375 l
180.047 305.863 l
184.732 308.862 l
191.987 313.209 l
207.035 322.192 l
214.732 327.076 l
221.811 331.828 l
228.748 336.754 l
235.648 341.93 l
242.653 347.466 l
249.948 353.522 l
257.551 360.127 l
265.945 367.723 l
275.507 376.685 l
279.926 380.908 l
279.926 380.908 l
stroke
grestore
0.500 setlinewidth
[] 0 setdash
0.000 setgray
gsave
467.7 422.6 81.24 50.04 clipbox
/o {
gsave
newpath
translate
0.5 setlinewidth
1 setlinejoin
0 setlinecap
0 -4.5 m
1.19341 -4.5 2.33811 -4.02585 3.18198 -3.18198 c
4.02585 -2.33811 4.5 -1.19341 4.5 0 c
4.5 1.19341 4.02585 2.33811 3.18198 3.18198 c
2.33811 4.02585 1.19341 4.5 0 4.5 c
-1.19341 4.5 -2.33811 4.02585 -3.18198 3.18198 c
-4.02585 2.33811 -4.5 1.19341 -4.5 0 c
-4.5 -1.19341 -4.02585 -2.33811 -3.18198 -3.18198 c
-2.33811 -4.02585 -1.19341 -4.5 0 -4.5 c
cl
gsave
0.000 0.000 1.000 setrgbcolor
fill
grestore
stroke
grestore
} bind def
506.666 382.569 o
grestore
0 setlinejoin
gsave
467.7 422.6 81.24 50.04 clipbox
/o {
gsave
newpath
translate
0.5 setlinewidth
0 setlinejoin
0 setlinecap
0 4.5 m
-4.5 -4.5 l
4.5 -4.5 l
cl
gsave
0.000 0.000 1.000 setrgbcolor
fill
grestore
stroke
grestore
} bind def
279.926 380.908 o
grestore
1.000 setlinewidth
1 setlinejoin
2 setlinecap
gsave
467.7 422.6 81.24 50.04 clipbox
471.006 261.361 m
470.897 256.301 l
470.588 251.791 l
470.099 247.769 l
469.45 244.178 l
468.614 240.805 l
467.636 237.795 l
466.532 235.095 l
465.251 232.546 l
463.788 230.139 l
462.139 227.862 l
460.301 225.697 l
458.186 223.547 l
455.687 221.331 l
452.769 219.044 l
449.101 216.465 l
444.374 213.428 l
436.819 208.869 l
422.657 200.333 l
414.934 195.397 l
407.826 190.594 l
400.858 185.615 l
393.925 180.384 l
386.883 174.788 l
379.546 168.668 l
371.899 161.995 l
363.452 154.322 l
353.572 145.031 l
338.836 130.826 l
323.591 116.214 l
315.01 108.291 l
308.098 102.19 l
302.012 97.0929 l
296.485 92.7365 l
291.198 88.8544 l
286.574 85.7178 l
282.264 83.0373 l
277.892 80.5809 l
273.868 78.5745 l
270.21 76.9787 l
266.523 75.605 l
262.81 74.4754 l
259.494 73.6941 l
256.165 73.1381 l
252.829 72.8221 l
249.907 72.753 l
246.985 72.8865 l
244.067 73.2305 l
241.156 73.7919 l
238.255 74.5766 l
235.369 75.5897 l
232.499 76.8348 l
229.651 78.3144 l
226.828 80.0297 l
224.033 81.9804 l
221.27 84.1649 l
218.543 86.5798 l
215.475 89.616 l
212.462 92.9377 l
209.511 96.5333 l
206.626 100.389 l
203.465 105.016 l
200.399 109.926 l
197.433 115.089 l
194.261 121.086 l
191.224 127.314 l
188.046 134.377 l
185.042 141.601 l
181.967 149.596 l
179.105 157.635 l
176.245 166.311 l
173.442 175.526 l
170.753 185.151 l
168.23 195.037 l
165.924 205.015 l
163.982 214.385 l
162.296 223.595 l
160.898 232.502 l
159.857 240.581 l
159.139 247.862 l
158.711 254.391 l
158.543 260.225 l
158.607 265.426 l
158.877 270.058 l
159.331 274.182 l
159.949 277.859 l
160.758 281.305 l
161.71 284.376 l
162.791 287.123 l
164.05 289.712 l
165.491 292.149 l
167.118 294.449 l
168.934 296.628 l
171.027 298.785 l
173.414 300.928 l
176.298 303.21 l
179.829 305.707 l
184.393 308.645 l
191.388 312.851 l
207.541 322.501 l
215.132 327.334 l
222.24 332.122 l
229.206 337.087 l
236.138 342.306 l
243.177 347.889 l
250.509 353.997 l
258.151 360.658 l
266.592 368.318 l
276.465 377.595 l
291.188 391.785 l
306.742 406.691 l
315.334 414.618 l
322.254 420.721 l
328.347 425.816 l
333.88 430.169 l
339.172 434.046 l
343.801 437.176 l
348.115 439.849 l
352.492 442.296 l
356.519 444.292 l
360.18 445.877 l
363.87 447.239 l
367.584 448.356 l
370.903 449.125 l
374.233 449.667 l
377.571 449.968 l
380.494 450.024 l
383.416 449.876 l
386.335 449.517 l
389.246 448.94 l
392.147 448.139 l
395.033 447.11 l
397.902 445.848 l
400.749 444.351 l
403.571 442.618 l
406.365 440.65 l
409.126 438.448 l
411.852 436.016 l
414.918 432.961 l
417.928 429.62 l
420.876 426.006 l
423.757 422.134 l
426.915 417.488 l
429.976 412.561 l
432.937 407.382 l
436.103 401.369 l
439.134 395.128 l
442.305 388.054 l
445.302 380.82 l
448.369 372.818 l
451.451 364.106 l
454.283 355.434 l
457.055 346.236 l
459.713 336.637 l
462.204 326.79 l
464.477 316.859 l
466.388 307.543 l
468.044 298.393 l
469.412 289.55 l
470.426 281.534 l
471.12 274.313 l
471.526 267.841 l
471.675 262.059 l
471.594 256.905 l
471.308 252.315 l
470.84 248.229 l
470.21 244.586 l
469.39 241.169 l
468.428 238.125 l
467.337 235.401 l
466.07 232.833 l
464.621 230.413 l
462.986 228.129 l
461.162 225.964 l
459.062 223.818 l
456.581 221.611 l
453.684 219.341 l
450.14 216.853 l
445.455 213.853 l
438.199 209.506 l
423.149 200.523 l
415.452 195.638 l
408.372 190.884 l
401.434 185.957 l
394.533 180.78 l
387.527 175.242 l
380.23 169.184 l
372.626 162.578 l
364.231 154.98 l
354.667 146.016 l
340.915 132.782 l
323.663 116.226 l
315.083 108.301 l
307.819 101.893 l
301.722 96.8003 l
296.185 92.4514 l
290.89 88.5799 l
286.259 85.4557 l
281.943 82.7895 l
277.564 80.3502 l
273.535 78.362 l
269.873 76.7849 l
266.182 75.4319 l
262.467 74.3253 l
259.148 73.5663 l
255.817 73.0342 l
252.479 72.7436 l
249.556 72.6981 l
246.634 72.8564 l
243.715 73.226 l
240.804 73.8139 l
237.904 74.626 l
235.019 75.6671 l
232.151 76.9407 l
229.305 78.4492 l
226.484 80.1936 l
223.692 82.1735 l
220.932 84.3869 l
218.209 86.8304 l
215.145 89.8987 l
212.138 93.2515 l
209.192 96.877 l
206.314 100.761 l
203.16 105.418 l
200.102 110.356 l
197.145 115.544 l
193.984 121.565 l
190.958 127.814 l
187.792 134.894 l
184.8 142.132 l
181.74 150.136 l
178.664 158.849 l
175.839 167.518 l
173.074 176.712 l
170.424 186.303 l
167.941 196.141 l
165.675 206.06 l
163.771 215.362 l
162.123 224.498 l
160.761 233.326 l
159.753 241.327 l
159.065 248.533 l
158.664 254.993 l
158.519 260.763 l
158.605 265.906 l
158.894 270.485 l
159.365 274.563 l
159.998 278.199 l
160.821 281.608 l
161.786 284.646 l
162.878 287.365 l
164.147 289.929 l
165.598 292.344 l
167.235 294.625 l
169.06 296.787 l
171.162 298.931 l
173.645 301.136 l
176.544 303.404 l
180.09 305.891 l
184.777 308.89 l
192.036 313.238 l
207.093 322.227 l
214.794 327.116 l
221.877 331.874 l
228.819 336.806 l
235.724 341.989 l
242.735 347.532 l
250.036 353.597 l
257.645 360.21 l
266.046 367.816 l
275.616 376.789 l
289.379 390.035 l
306.643 406.6 l
315.23 414.526 l
322.146 420.629 l
328.235 425.727 l
333.766 430.084 l
339.055 433.965 l
343.682 437.1 l
347.994 439.779 l
352.369 442.233 l
356.395 444.236 l
360.055 445.829 l
363.744 447.199 l
367.458 448.324 l
370.776 449.101 l
374.106 449.652 l
377.443 449.963 l
380.366 450.027 l
383.289 449.888 l
386.207 449.539 l
389.119 448.972 l
392.02 448.181 l
394.907 447.161 l
397.777 445.909 l
400.625 444.423 l
403.449 442.701 l
406.244 440.743 l
409.007 438.551 l
411.734 436.129 l
414.802 433.085 l
417.814 429.755 l
420.765 426.151 l
423.649 422.288 l
426.809 417.652 l
429.874 412.734 l
432.839 407.563 l
436.009 401.558 l
439.044 395.323 l
442.22 388.254 l
445.222 381.023 l
448.294 373.024 l
451.154 364.981 l
454.01 356.302 l
456.809 347.086 l
459.495 337.46 l
462.014 327.577 l
464.316 317.601 l
466.254 308.236 l
467.936 299.032 l
469.331 290.131 l
470.368 282.059 l
471.083 274.785 l
471.508 268.263 l
471.673 262.435 l
471.607 257.24 l
471.334 252.614 l
470.878 248.495 l
470.258 244.823 l
469.449 241.38 l
468.495 238.314 l
467.413 235.57 l
466.153 232.985 l
464.711 230.55 l
463.083 228.253 l
461.265 226.077 l
459.171 223.921 l
456.784 221.781 l
453.899 219.5 l
450.367 217.005 l
445.802 214.068 l
438.806 209.864 l
422.651 200.214 l
415.06 195.381 l
407.951 190.593 l
400.984 185.628 l
394.052 180.409 l
387.013 174.825 l
379.68 168.716 l
372.037 162.054 l
363.596 154.394 l
353.722 145.115 l
338.997 130.924 l
323.441 116.017 l
314.849 108.09 l
307.928 101.987 l
301.835 96.8919 l
296.301 92.5394 l
291.009 88.6632 l
286.379 85.5337 l
282.065 82.8617 l
277.689 80.4155 l
273.661 78.42 l
270 76.8356 l
266.31 75.4745 l
262.595 74.3591 l
259.277 73.5915 l
255.946 73.0504 l
252.609 72.7502 l
249.685 72.6958 l
246.763 72.8449 l
243.845 73.205 l
240.933 73.7831 l
238.033 74.5852 l
235.146 75.616 l
232.278 76.8793 l
229.43 78.3774 l
226.608 80.1113 l
223.815 82.0807 l
221.054 84.2838 l
218.328 86.7173 l
215.262 89.7743 l
212.253 93.1163 l
209.305 96.7315 l
206.424 100.606 l
203.267 105.253 l
200.206 110.181 l
197.245 115.361 l
194.08 121.375 l
191.05 127.617 l
187.879 134.692 l
184.882 141.926 l
181.816 149.928 l
178.735 158.641 l
175.904 167.312 l
173.132 176.51 l
170.475 186.108 l
167.986 195.954 l
165.713 205.884 l
163.803 215.199 l
162.148 224.347 l
160.78 233.189 l
159.767 241.203 l
159.074 248.422 l
158.668 254.893 l
158.52 260.674 l
158.601 265.827 l
158.888 270.415 l
159.356 274.5 l
159.987 278.143 l
160.807 281.558 l
161.77 284.601 l
162.86 287.325 l
164.128 289.893 l
165.577 292.312 l
167.212 294.595 l
169.036 296.761 l
171.136 298.906 l
173.618 301.113 l
176.515 303.383 l
180.059 305.871 l
184.744 308.87 l
192.001 313.217 l
207.051 322.201 l
214.749 327.087 l
221.829 331.841 l
228.767 336.768 l
235.669 341.946 l
242.676 347.484 l
249.973 353.543 l
257.577 360.149 l
265.973 367.749 l
275.537 376.714 l
289.291 389.949 l
306.543 406.506 l
315.125 414.431 l
322.389 420.838 l
328.487 425.931 l
334.024 430.28 l
339.319 434.151 l
343.951 437.274 l
348.267 439.94 l
352.645 442.378 l
356.675 444.366 l
360.336 445.942 l
364.028 447.294 l
367.743 448.4 l
371.062 449.158 l
374.393 449.689 l
377.731 449.978 l
380.654 450.023 l
383.576 449.863 l
386.495 449.493 l
389.406 448.904 l
392.305 448.09 l
395.191 447.048 l
398.059 445.773 l
400.905 444.264 l
403.726 442.518 l
406.518 440.537 l
409.277 438.323 l
412 435.878 l
415.064 432.809 l
418.071 429.454 l
421.016 425.828 l
423.894 421.943 l
427.048 417.284 l
430.105 412.346 l
433.062 407.157 l
436.223 401.135 l
439.248 394.885 l
442.413 387.804 l
445.404 380.566 l
448.465 372.562 l
451.539 363.849 l
454.363 355.18 l
457.128 345.987 l
459.778 336.396 l
462.26 326.56 l
464.525 316.642 l
466.428 307.34 l
468.076 298.206 l
469.437 289.38 l
470.444 281.38 l
471.132 274.175 l
471.532 267.717 l
471.676 261.948 l
471.641 258.366 l
471.641 258.366 l
stroke
grestore
0 setlinejoin
gsave
81.2362 472.681 m
548.959 472.681 l
stroke
grestore
gsave
548.959 50.04 m
548.959 472.681 l
stroke
grestore
gsave
81.2362 50.04 m
548.959 50.04 l
stroke
grestore
gsave
81.2362 50.04 m
81.2362 472.681 l
stroke
grestore
0.500 setlinewidth
1 setlinejoin
0 setlinecap
gsave
/o {
gsave
newpath
translate
0.5 setlinewidth
1 setlinejoin
0 setlinecap
0 0 m
0 4 l
gsave
0.000 setgray
fill
grestore
stroke
grestore
} bind def
81.2362 50.04 o
grestore
gsave
/o {
gsave
newpath
translate
0.5 setlinewidth
1 setlinejoin
0 setlinecap
0 0 m
0 -4 l
gsave
0.000 setgray
fill
grestore
stroke
grestore
} bind def
81.2362 472.681 o
grestore
/BitstreamVeraSans-Roman findfont
12.000 scalefont
setfont
gsave
73.501777 36.915000 translate
0.000000 rotate
0.000000 0.000000 m /minus glyphshow
10.054688 0.000000 m /three glyphshow
grestore
gsave
/o {
gsave
newpath
translate
0.5 setlinewidth
1 setlinejoin
0 setlinecap
0 0 m
0 4 l
gsave
0.000 setgray
fill
grestore
stroke
grestore
} bind def
159.19 50.04 o
grestore
gsave
/o {
gsave
newpath
translate
0.5 setlinewidth
1 setlinejoin
0 setlinecap
0 0 m
0 -4 l
gsave
0.000 setgray
fill
grestore
stroke
grestore
} bind def
159.19 472.681 o
grestore
gsave
151.572847 36.915000 translate
0.000000 rotate
0.000000 0.000000 m /minus glyphshow
10.054688 0.000000 m /two glyphshow
grestore
gsave
/o {
gsave
newpath
translate
0.5 setlinewidth
1 setlinejoin
0 setlinecap
0 0 m
0 4 l
gsave
0.000 setgray
fill
grestore
stroke
grestore
} bind def
237.144 50.04 o
grestore
gsave
/o {
gsave
newpath
translate
0.5 setlinewidth
1 setlinejoin
0 setlinecap
0 0 m
0 -4 l
gsave
0.000 setgray
fill
grestore
stroke
grestore
} bind def
237.144 472.681 o
grestore
gsave
229.479855 36.915000 translate
0.000000 rotate
0.000000 0.000000 m /minus glyphshow
10.054688 0.000000 m /one glyphshow
grestore
gsave
/o {
gsave
newpath
translate
0.5 setlinewidth
1 setlinejoin
0 setlinecap
0 0 m
0 4 l
gsave
0.000 setgray
fill
grestore
stroke
grestore
} bind def
315.098 50.04 o
grestore
gsave
/o {
gsave
newpath
translate
0.5 setlinewidth
1 setlinejoin
0 setlinecap
0 0 m
0 -4 l
gsave
0.000 setgray
fill
grestore
stroke
grestore
} bind def
315.098 472.681 o
grestore
gsave
312.074363 36.915000 translate
0.000000 rotate
0.000000 0.000000 m /zero glyphshow
grestore
gsave
/o {
gsave
newpath
translate
0.5 setlinewidth
1 setlinejoin
0 setlinecap
0 0 m
0 4 l
gsave
0.000 setgray
fill
grestore
stroke
grestore
} bind def
393.052 50.04 o
grestore
gsave
/o {
gsave
newpath
translate
0.5 setlinewidth
1 setlinejoin
0 setlinecap
0 0 m
0 -4 l
gsave
0.000 setgray
fill
grestore
stroke
grestore
} bind def
393.052 472.681 o
grestore
gsave
390.442308 36.915000 translate
0.000000 rotate
0.000000 0.000000 m /one glyphshow
grestore
gsave
/o {
gsave
newpath
translate
0.5 setlinewidth
1 setlinejoin
0 setlinecap
0 0 m
0 4 l
gsave
0.000 setgray
fill
grestore
stroke
grestore
} bind def
471.006 50.04 o
grestore
gsave
/o {
gsave
newpath
translate
0.5 setlinewidth
1 setlinejoin
0 setlinecap
0 0 m
0 -4 l
gsave
0.000 setgray
fill
grestore
stroke
grestore
} bind def
471.006 472.681 o
grestore
gsave
468.224316 36.915000 translate
0.000000 rotate
0.000000 0.000000 m /two glyphshow
grestore
gsave
/o {
gsave
newpath
translate
0.5 setlinewidth
1 setlinejoin
0 setlinecap
0 0 m
0 4 l
gsave
0.000 setgray
fill
grestore
stroke
grestore
} bind def
548.959 50.04 o
grestore
gsave
/o {
gsave
newpath
translate
0.5 setlinewidth
1 setlinejoin
0 setlinecap
0 0 m
0 -4 l
gsave
0.000 setgray
fill
grestore
stroke
grestore
} bind def
548.959 472.681 o
grestore
gsave
546.084449 36.915000 translate
0.000000 rotate
0.000000 0.000000 m /three glyphshow
grestore
gsave
308.097800 11.180625 translate
0.000000 rotate
/Cmmi10 findfont
24.0 scalefont
setfont
0.000000 0.390625 moveto
/x glyphshow


grestore
gsave
/o {
gsave
newpath
translate
0.5 setlinewidth
1 setlinejoin
0 setlinecap
0 0 m
4 0 l
gsave
0.000 setgray
fill
grestore
stroke
grestore
} bind def
81.2362 50.04 o
grestore
gsave
/o {
gsave
newpath
translate
0.5 setlinewidth
1 setlinejoin
0 setlinecap
0 0 m
-4 0 l
gsave
0.000 setgray
fill
grestore
stroke
grestore
} bind def
548.959 50.04 o
grestore
gsave
61.767402 46.727500 translate
0.000000 rotate
0.000000 0.000000 m /minus glyphshow
10.054688 0.000000 m /three glyphshow
grestore
gsave
/o {
gsave
newpath
translate
0.5 setlinewidth
1 setlinejoin
0 setlinecap
0 0 m
4 0 l
gsave
0.000 setgray
fill
grestore
stroke
grestore
} bind def
81.2362 120.48 o
grestore
gsave
/o {
gsave
newpath
translate
0.5 setlinewidth
1 setlinejoin
0 setlinecap
0 0 m
-4 0 l
gsave
0.000 setgray
fill
grestore
stroke
grestore
} bind def
548.959 120.48 o
grestore
gsave
62.001777 117.167675 translate
0.000000 rotate
0.000000 0.000000 m /minus glyphshow
10.054688 0.000000 m /two glyphshow
grestore
gsave
/o {
gsave
newpath
translate
0.5 setlinewidth
1 setlinejoin
0 setlinecap
0 0 m
4 0 l
gsave
0.000 setgray
fill
grestore
stroke
grestore
} bind def
81.2362 190.92 o
grestore
gsave
/o {
gsave
newpath
translate
0.5 setlinewidth
1 setlinejoin
0 setlinecap
0 0 m
-4 0 l
gsave
0.000 setgray
fill
grestore
stroke
grestore
} bind def
548.959 190.92 o
grestore
gsave
61.908027 187.607850 translate
0.000000 rotate
0.000000 0.000000 m /minus glyphshow
10.054688 0.000000 m /one glyphshow
grestore
gsave
/o {
gsave
newpath
translate
0.5 setlinewidth
1 setlinejoin
0 setlinecap
0 0 m
4 0 l
gsave
0.000 setgray
fill
grestore
stroke
grestore
} bind def
81.2362 261.361 o
grestore
gsave
/o {
gsave
newpath
translate
0.5 setlinewidth
1 setlinejoin
0 setlinecap
0 0 m
-4 0 l
gsave
0.000 setgray
fill
grestore
stroke
grestore
} bind def
548.959 261.361 o
grestore
gsave
71.189277 258.048025 translate
0.000000 rotate
0.000000 0.000000 m /zero glyphshow
grestore
gsave
/o {
gsave
newpath
translate
0.5 setlinewidth
1 setlinejoin
0 setlinecap
0 0 m
4 0 l
gsave
0.000 setgray
fill
grestore
stroke
grestore
} bind def
81.2362 331.801 o
grestore
gsave
/o {
gsave
newpath
translate
0.5 setlinewidth
1 setlinejoin
0 setlinecap
0 0 m
-4 0 l
gsave
0.000 setgray
fill
grestore
stroke
grestore
} bind def
548.959 331.801 o
grestore
gsave
72.017402 328.488200 translate
0.000000 rotate
0.000000 0.000000 m /one glyphshow
grestore
gsave
/o {
gsave
newpath
translate
0.5 setlinewidth
1 setlinejoin
0 setlinecap
0 0 m
4 0 l
gsave
0.000 setgray
fill
grestore
stroke
grestore
} bind def
81.2362 402.241 o
grestore
gsave
/o {
gsave
newpath
translate
0.5 setlinewidth
1 setlinejoin
0 setlinecap
0 0 m
-4 0 l
gsave
0.000 setgray
fill
grestore
stroke
grestore
} bind def
548.959 402.241 o
grestore
gsave
71.673652 398.928375 translate
0.000000 rotate
0.000000 0.000000 m /two glyphshow
grestore
gsave
/o {
gsave
newpath
translate
0.5 setlinewidth
1 setlinejoin
0 setlinecap
0 0 m
4 0 l
gsave
0.000 setgray
fill
grestore
stroke
grestore
} bind def
81.2362 472.681 o
grestore
gsave
/o {
gsave
newpath
translate
0.5 setlinewidth
1 setlinejoin
0 setlinecap
0 0 m
-4 0 l
gsave
0.000 setgray
fill
grestore
stroke
grestore
} bind def
548.959 472.681 o
grestore
gsave
71.486152 469.368550 translate
0.000000 rotate
0.000000 0.000000 m /three glyphshow
grestore
gsave
51.767402 255.360525 translate
90.000000 rotate
/Cmmi10 findfont
24.0 scalefont
setfont
0.000000 0.390625 moveto
/y glyphshow


grestore
gsave
642.504 50.04 m
1110.23 50.04 l
1110.23 472.681 l
642.504 472.681 l
cl
1.000 setgray
fill
grestore
1.000 setlinewidth
[6 6] 0 setdash
1.000 0.000 0.000 setrgbcolor
gsave
467.7 422.6 642.5 50.04 clipbox
642.504 319.062 m
644.749 322.723 l
646.761 325.593 l
648.585 327.82 l
650.269 329.533 l
651.813 330.8 l
653.263 331.716 l
654.666 332.346 l
656.023 332.712 l
657.332 332.837 l
658.642 332.738 l
659.952 332.415 l
661.308 331.846 l
662.712 331.009 l
664.162 329.878 l
665.706 328.38 l
667.296 326.521 l
668.98 324.202 l
670.757 321.361 l
672.582 318.017 l
674.5 314.024 l
676.464 309.407 l
678.476 304.1 l
680.534 298.026 l
682.592 291.255 l
684.697 283.558 l
686.849 274.825 l
689.047 264.945 l
691.339 253.578 l
693.772 240.347 l
696.578 223.773 l
705.653 169.014 l
707.477 160.026 l
709.068 153.25 l
710.518 148.005 l
711.874 143.918 l
713.137 140.81 l
714.307 138.504 l
715.429 136.775 l
716.459 135.578 l
717.441 134.756 l
718.423 134.219 l
719.359 133.953 l
720.341 133.907 l
721.37 134.094 l
722.446 134.52 l
723.615 135.225 l
724.925 136.281 l
726.375 137.739 l
728.012 139.709 l
729.837 142.257 l
731.895 145.529 l
734.14 149.529 l
736.573 154.332 l
739.099 159.822 l
741.671 165.945 l
744.291 172.765 l
746.864 180.094 l
749.39 187.976 l
751.822 196.305 l
754.161 205.103 l
756.453 214.596 l
758.698 224.861 l
760.897 235.971 l
763.095 248.259 l
765.294 261.83 l
767.586 277.387 l
770.159 296.428 l
774.181 328.18 l
777.269 351.79 l
779.233 365.177 l
780.87 374.867 l
782.321 382.162 l
783.63 387.668 l
784.847 391.873 l
786.016 395.133 l
787.092 397.502 l
788.121 399.253 l
789.103 400.499 l
790.039 401.337 l
790.928 401.851 l
791.816 402.118 l
792.752 402.161 l
793.734 401.972 l
794.81 401.525 l
795.979 400.79 l
797.336 399.657 l
798.88 398.06 l
800.657 395.878 l
802.669 393.041 l
804.961 389.409 l
807.487 384.981 l
810.246 379.683 l
813.1 373.72 l
816 367.142 l
818.853 360.121 l
821.66 352.619 l
824.373 344.723 l
826.946 336.552 l
829.425 327.941 l
831.811 318.852 l
834.103 309.251 l
836.348 298.884 l
838.547 287.673 l
840.745 275.279 l
842.944 261.59 l
845.236 245.891 l
847.808 226.66 l
851.738 195.303 l
854.918 170.661 l
856.883 157.12 l
858.52 147.329 l
859.97 139.966 l
861.28 134.418 l
862.496 130.187 l
863.619 127.029 l
864.695 124.628 l
865.724 122.855 l
866.706 121.593 l
867.642 120.744 l
868.531 120.223 l
869.419 119.95 l
870.355 119.903 l
871.337 120.089 l
872.413 120.534 l
873.583 121.268 l
874.939 122.399 l
876.483 123.996 l
878.26 126.174 l
880.272 129.005 l
882.564 132.627 l
885.136 137.125 l
887.896 142.408 l
890.796 148.45 l
893.697 155.005 l
896.597 162.116 l
899.403 169.59 l
902.116 177.453 l
904.736 185.738 l
907.215 194.317 l
909.601 203.368 l
911.94 213.132 l
914.185 223.47 l
916.383 234.648 l
918.582 247.006 l
920.781 260.657 l
923.073 276.317 l
925.645 295.512 l
929.481 326.107 l
932.755 351.559 l
934.72 365.166 l
936.357 375.023 l
937.807 382.449 l
939.117 388.054 l
940.333 392.335 l
941.503 395.655 l
942.579 398.069 l
943.608 399.853 l
944.59 401.124 l
945.526 401.981 l
946.414 402.508 l
947.303 402.787 l
948.239 402.839 l
949.221 402.658 l
950.297 402.218 l
951.466 401.488 l
952.776 400.405 l
954.273 398.874 l
956.004 396.778 l
958.015 393.977 l
960.307 390.382 l
962.833 385.997 l
965.593 380.749 l
968.493 374.745 l
971.393 368.228 l
974.293 361.161 l
977.1 353.735 l
979.813 345.926 l
982.433 337.701 l
984.959 329.022 l
987.344 320.03 l
989.683 310.336 l
991.928 300.075 l
994.127 288.983 l
996.325 276.72 l
998.524 263.173 l
1000.82 247.621 l
1003.34 228.89 l
1006.9 200.627 l
1010.59 171.729 l
1012.6 157.752 l
1014.24 147.866 l
1015.69 140.414 l
1017 134.785 l
1018.22 130.482 l
1019.39 127.142 l
1020.46 124.712 l
1021.49 122.913 l
1022.47 121.63 l
1023.41 120.763 l
1024.3 120.226 l
1025.19 119.94 l
1026.08 119.877 l
1027.06 120.04 l
1028.09 120.44 l
1029.26 121.144 l
1030.57 122.202 l
1032.06 123.709 l
1033.79 125.782 l
1035.76 128.493 l
1038 131.981 l
1040.53 136.33 l
1043.24 141.449 l
1046.1 147.308 l
1049 153.768 l
1051.9 160.773 l
1054.7 168.132 l
1057.42 175.865 l
1060.04 184.003 l
1062.56 192.586 l
1064.99 201.651 l
1067.33 211.24 l
1069.58 221.384 l
1071.78 232.345 l
1073.98 244.459 l
1076.17 257.847 l
1078.47 273.232 l
1080.94 291.443 l
1084.22 317.319 l
1088.48 350.766 l
1090.49 364.771 l
1092.12 374.684 l
1093.57 382.163 l
1094.88 387.817 l
1096.1 392.142 l
1097.27 395.501 l
1098.35 397.948 l
1099.38 399.761 l
1100.36 401.057 l
1101.29 401.935 l
1102.18 402.481 l
1103.07 402.776 l
1103.96 402.845 l
1104.89 402.702 l
1105.92 402.318 l
1107.09 401.631 l
1108.4 400.588 l
1109.9 399.097 l
1110.23 398.733 l
1110.23 398.733 l
stroke
grestore
gsave
467.7 422.6 642.5 50.04 clipbox
642.504 347.912 m
644.188 351.965 l
645.732 355.114 l
647.135 357.497 l
648.445 359.309 l
649.708 360.685 l
650.877 361.644 l
652 362.289 l
653.122 362.676 l
654.198 362.815 l
655.321 362.73 l
656.444 362.421 l
657.66 361.848 l
658.923 361.005 l
660.326 359.789 l
661.823 358.187 l
663.46 356.095 l
665.238 353.443 l
667.109 350.241 l
669.12 346.345 l
671.225 341.767 l
673.377 336.548 l
675.575 330.63 l
677.821 323.932 l
680.066 316.513 l
682.265 308.475 l
684.463 299.58 l
686.615 289.946 l
688.767 279.293 l
690.965 267.259 l
693.21 253.702 l
695.643 237.593 l
698.496 217.115 l
705.139 168.804 l
707.01 157.188 l
708.6 148.624 l
710.05 141.993 l
711.36 136.998 l
712.576 133.188 l
713.745 130.239 l
714.821 128.1 l
715.85 126.528 l
716.833 125.42 l
717.768 124.686 l
718.704 124.237 l
719.639 124.042 l
720.575 124.076 l
721.557 124.332 l
722.633 124.84 l
723.849 125.667 l
725.206 126.863 l
726.749 128.526 l
728.527 130.779 l
730.538 133.698 l
732.831 137.434 l
735.356 141.995 l
738.023 147.274 l
740.829 153.333 l
743.636 159.925 l
746.443 167.095 l
749.156 174.643 l
751.775 182.592 l
754.301 190.973 l
756.734 199.822 l
759.072 209.173 l
761.364 219.274 l
763.563 229.97 l
765.762 241.789 l
767.96 254.855 l
770.205 269.571 l
772.638 287.053 l
775.585 309.967 l
781.104 353.212 l
783.022 366.28 l
784.613 375.689 l
786.063 382.976 l
787.373 388.46 l
788.589 392.634 l
789.711 395.745 l
790.787 398.106 l
791.816 399.846 l
792.799 401.079 l
793.734 401.904 l
794.623 402.406 l
795.512 402.66 l
796.447 402.691 l
797.43 402.49 l
798.505 402.031 l
799.675 401.283 l
801.031 400.139 l
802.575 398.53 l
804.353 396.339 l
806.364 393.496 l
808.656 389.862 l
811.229 385.35 l
813.989 380.052 l
816.889 373.994 l
819.789 367.419 l
822.689 360.287 l
825.496 352.787 l
828.209 344.896 l
830.782 336.733 l
833.261 328.132 l
835.646 319.056 l
837.985 309.263 l
840.231 298.893 l
842.429 287.678 l
844.628 275.279 l
846.826 261.585 l
849.118 245.879 l
851.691 226.642 l
855.62 195.276 l
858.801 170.629 l
860.766 157.087 l
862.403 147.297 l
863.853 139.936 l
865.163 134.389 l
866.379 130.16 l
867.502 127.004 l
868.577 124.605 l
869.606 122.833 l
870.589 121.573 l
871.524 120.725 l
872.413 120.205 l
873.302 119.933 l
874.237 119.888 l
875.22 120.074 l
876.296 120.521 l
877.465 121.255 l
878.822 122.387 l
880.365 123.984 l
882.143 126.164 l
884.154 128.995 l
886.446 132.618 l
889.019 137.116 l
891.779 142.399 l
894.679 148.441 l
897.579 154.997 l
900.479 162.107 l
903.286 169.581 l
905.999 177.443 l
908.619 185.727 l
911.098 194.305 l
913.483 203.356 l
915.822 213.118 l
918.067 223.455 l
920.266 234.632 l
922.464 246.989 l
924.663 260.638 l
926.955 276.296 l
929.528 295.489 l
933.317 325.708 l
936.638 351.538 l
938.603 365.148 l
940.24 375.008 l
941.69 382.436 l
943 388.044 l
944.216 392.327 l
945.385 395.648 l
946.461 398.063 l
947.49 399.849 l
948.473 401.121 l
949.408 401.979 l
950.297 402.508 l
951.186 402.787 l
952.121 402.84 l
953.103 402.66 l
954.133 402.243 l
955.302 401.524 l
956.612 400.451 l
958.109 398.93 l
959.839 396.843 l
961.851 394.05 l
964.096 390.542 l
966.622 386.173 l
969.382 380.941 l
972.282 374.953 l
975.182 368.454 l
978.082 361.406 l
980.889 354.001 l
983.602 346.216 l
986.222 338.018 l
988.748 329.369 l
991.18 320.227 l
993.519 310.553 l
995.764 300.314 l
997.963 289.247 l
1000.16 277.012 l
1002.36 263.495 l
1004.65 247.974 l
1007.18 229.273 l
1010.69 201.406 l
1014.43 172.097 l
1016.44 158.075 l
1018.08 148.145 l
1019.53 140.649 l
1020.84 134.98 l
1022.05 130.641 l
1023.22 127.269 l
1024.3 124.812 l
1025.33 122.989 l
1026.31 121.686 l
1027.24 120.801 l
1028.13 120.249 l
1029.02 119.949 l
1029.91 119.875 l
1030.85 120.014 l
1031.88 120.393 l
1033.05 121.077 l
1034.36 122.115 l
1035.85 123.603 l
1037.58 125.658 l
1039.55 128.351 l
1041.79 131.823 l
1044.32 136.156 l
1047.03 141.259 l
1049.89 147.101 l
1052.79 153.544 l
1055.69 160.53 l
1058.49 167.868 l
1061.21 175.578 l
1063.82 183.69 l
1066.35 192.243 l
1068.78 201.275 l
1071.12 210.825 l
1073.37 220.927 l
1075.57 231.84 l
1077.76 243.901 l
1079.96 257.231 l
1082.21 272.227 l
1084.69 290.35 l
1087.87 315.409 l
1092.41 351.088 l
1094.42 365.054 l
1096.05 374.927 l
1097.5 382.368 l
1098.81 387.987 l
1100.03 392.281 l
1101.2 395.612 l
1102.28 398.035 l
1103.3 399.827 l
1104.29 401.105 l
1105.22 401.968 l
1106.11 402.501 l
1107 402.784 l
1107.94 402.841 l
1108.92 402.664 l
1109.95 402.251 l
1110.23 402.102 l
1110.23 402.102 l
stroke
grestore
0.000 0.000 1.000 setrgbcolor
gsave
467.7 422.6 642.5 50.04 clipbox
642.504 405.614 m
643.58 409.78 l
644.609 412.923 l
645.591 415.238 l
646.527 416.892 l
647.416 418.03 l
648.258 418.767 l
649.1 419.215 l
649.942 419.413 l
650.83 419.386 l
651.766 419.134 l
652.842 418.604 l
654.058 417.748 l
655.508 416.437 l
657.192 414.601 l
659.203 412.066 l
661.589 408.69 l
664.396 404.318 l
667.53 399.017 l
670.898 392.878 l
674.312 386.192 l
677.68 379.11 l
680.955 371.7 l
684.042 364.166 l
686.989 356.393 l
689.796 348.363 l
692.462 340.064 l
695.035 331.317 l
697.467 322.257 l
699.806 312.689 l
702.098 302.357 l
704.297 291.417 l
706.495 279.329 l
708.694 265.97 l
710.939 250.938 l
713.418 232.762 l
716.552 207.985 l
721.23 171.048 l
723.194 157.379 l
724.832 147.481 l
726.282 140.028 l
727.591 134.406 l
728.808 130.115 l
729.93 126.909 l
731.006 124.468 l
732.035 122.661 l
733.018 121.373 l
733.953 120.502 l
734.842 119.963 l
735.731 119.675 l
736.619 119.613 l
737.555 119.762 l
738.584 120.152 l
739.754 120.846 l
741.063 121.895 l
742.56 123.393 l
744.291 125.456 l
746.256 128.158 l
748.501 131.634 l
751.027 135.97 l
753.787 141.165 l
756.687 147.113 l
759.634 153.675 l
762.534 160.68 l
765.341 168.037 l
768.054 175.766 l
770.673 183.9 l
773.199 192.476 l
775.631 201.535 l
777.97 211.114 l
780.216 221.248 l
782.414 232.197 l
784.613 244.298 l
786.811 257.672 l
789.103 273.041 l
791.582 291.239 l
794.857 317.107 l
799.16 350.922 l
801.172 364.91 l
802.809 374.805 l
804.259 382.267 l
805.569 387.905 l
806.785 392.216 l
807.954 395.561 l
809.03 397.997 l
810.059 399.801 l
811.042 401.088 l
811.977 401.959 l
812.866 402.498 l
813.755 402.787 l
814.643 402.852 l
815.626 402.691 l
816.655 402.293 l
817.824 401.592 l
819.134 400.535 l
820.631 399.03 l
822.362 396.959 l
824.326 394.25 l
826.572 390.764 l
829.098 386.417 l
831.811 381.299 l
834.664 375.442 l
837.564 368.984 l
840.464 361.981 l
843.271 354.626 l
845.984 346.896 l
848.604 338.76 l
851.13 330.182 l
853.562 321.121 l
855.901 311.537 l
858.146 301.399 l
860.345 290.445 l
862.543 278.337 l
864.742 264.957 l
867.034 249.581 l
869.513 231.377 l
872.787 205.507 l
877.091 171.706 l
879.102 157.731 l
880.739 147.849 l
882.189 140.399 l
883.499 134.772 l
884.715 130.471 l
885.885 127.134 l
886.961 124.706 l
887.99 122.908 l
888.972 121.627 l
889.908 120.76 l
890.796 120.224 l
891.685 119.939 l
892.621 119.88 l
893.603 120.054 l
894.632 120.465 l
895.802 121.179 l
897.111 122.248 l
898.608 123.764 l
900.339 125.846 l
902.304 128.566 l
904.549 132.062 l
907.075 136.419 l
909.835 141.639 l
912.735 147.615 l
915.635 154.101 l
918.535 161.135 l
921.342 168.524 l
924.055 176.292 l
926.674 184.47 l
929.2 193.097 l
931.633 202.213 l
933.972 211.859 l
936.217 222.066 l
938.415 233.098 l
940.614 245.292 l
942.812 258.767 l
945.105 274.242 l
947.631 292.9 l
951.045 319.985 l
954.975 350.789 l
956.986 364.79 l
958.623 374.701 l
960.073 382.177 l
961.383 387.829 l
962.599 392.152 l
963.769 395.508 l
964.844 397.954 l
965.874 399.766 l
966.856 401.06 l
967.791 401.937 l
968.68 402.482 l
969.569 402.776 l
970.458 402.845 l
971.393 402.701 l
972.422 402.317 l
973.592 401.629 l
974.902 400.586 l
976.398 399.094 l
978.129 397.035 l
980.094 394.337 l
982.339 390.862 l
984.865 386.525 l
987.578 381.419 l
990.431 375.572 l
993.332 369.126 l
996.232 362.135 l
999.038 354.792 l
1001.75 347.077 l
1004.37 338.959 l
1006.9 330.4 l
1009.33 321.36 l
1011.67 311.8 l
1013.91 301.689 l
1016.11 290.765 l
1018.31 278.692 l
1020.51 265.348 l
1022.75 250.339 l
1025.23 232.202 l
1028.41 207.133 l
1032.95 171.469 l
1034.92 157.826 l
1036.55 147.93 l
1038 140.468 l
1039.31 134.829 l
1040.53 130.518 l
1041.7 127.171 l
1042.77 124.735 l
1043.8 122.931 l
1044.79 121.643 l
1045.72 120.771 l
1046.61 120.231 l
1047.5 119.942 l
1048.39 119.877 l
1049.37 120.037 l
1050.4 120.435 l
1051.57 121.136 l
1052.88 122.192 l
1054.38 123.696 l
1056.11 125.767 l
1058.07 128.476 l
1060.32 131.962 l
1062.84 136.309 l
1065.56 141.426 l
1068.41 147.283 l
1071.31 153.741 l
1074.21 160.744 l
1077.02 168.1 l
1079.73 175.831 l
1082.35 183.966 l
1084.87 192.545 l
1087.31 201.607 l
1089.65 211.191 l
1091.89 221.33 l
1094.09 232.284 l
1096.29 244.393 l
1098.49 257.774 l
1100.78 273.151 l
1103.26 291.356 l
1106.53 317.227 l
1110.23 346.485 l
1110.23 346.485 l
stroke
grestore
gsave
467.7 422.6 642.5 50.04 clipbox
642.504 434.464 m
643.44 438.716 l
644.328 441.76 l
645.17 443.891 l
645.966 445.342 l
646.761 446.34 l
647.509 446.935 l
648.258 447.255 l
649.053 447.344 l
649.895 447.21 l
650.877 446.814 l
652.047 446.084 l
653.45 444.929 l
655.227 443.159 l
657.52 440.541 l
660.513 436.762 l
664.302 431.608 l
668.699 425.247 l
673.283 418.223 l
677.774 410.935 l
682.031 403.604 l
686.054 396.235 l
689.842 388.836 l
693.444 381.312 l
696.812 373.766 l
699.993 366.098 l
703.034 358.183 l
705.887 350.132 l
708.6 341.81 l
711.173 333.202 l
713.652 324.121 l
716.038 314.521 l
718.33 304.36 l
720.575 293.37 l
722.773 281.472 l
724.972 268.32 l
727.217 253.505 l
729.65 235.898 l
732.597 212.81 l
738.116 169.221 l
740.034 156.06 l
741.625 146.594 l
743.028 139.487 l
744.338 133.947 l
745.554 129.73 l
746.677 126.588 l
747.752 124.205 l
748.781 122.449 l
749.764 121.204 l
750.699 120.371 l
751.588 119.864 l
752.477 119.605 l
753.412 119.571 l
754.395 119.769 l
755.471 120.227 l
756.64 120.973 l
757.997 122.116 l
759.54 123.724 l
761.318 125.912 l
763.329 128.751 l
765.621 132.378 l
768.194 136.878 l
770.954 142.16 l
773.854 148.196 l
776.801 154.852 l
779.701 161.959 l
782.508 169.427 l
785.221 177.281 l
787.84 185.555 l
790.319 194.121 l
792.705 203.158 l
795.044 212.903 l
797.289 223.221 l
799.488 234.376 l
801.686 246.709 l
803.885 260.332 l
806.177 275.964 l
808.703 294.77 l
812.398 324.211 l
815.86 351.208 l
817.824 364.859 l
819.462 374.762 l
820.912 382.231 l
822.221 387.875 l
823.438 392.192 l
824.607 395.543 l
825.683 397.983 l
826.712 399.79 l
827.694 401.08 l
828.63 401.954 l
829.519 402.496 l
830.407 402.787 l
831.296 402.854 l
832.232 402.708 l
833.261 402.321 l
834.43 401.631 l
835.74 400.586 l
837.237 399.092 l
838.968 397.031 l
840.932 394.332 l
843.177 390.855 l
845.703 386.517 l
848.416 381.408 l
851.27 375.561 l
854.17 369.113 l
857.07 362.12 l
859.877 354.777 l
862.59 347.06 l
865.209 338.94 l
867.735 330.379 l
870.168 321.337 l
872.507 311.775 l
874.752 301.661 l
876.95 290.734 l
879.149 278.657 l
881.348 265.31 l
883.593 250.297 l
886.072 232.156 l
889.253 207.084 l
893.79 171.425 l
895.755 157.786 l
897.392 147.896 l
898.842 140.439 l
900.152 134.805 l
901.368 130.498 l
902.537 127.156 l
903.613 124.723 l
904.642 122.921 l
905.625 121.636 l
906.56 120.767 l
907.449 120.228 l
908.338 119.94 l
909.227 119.877 l
910.209 120.038 l
911.238 120.437 l
912.407 121.14 l
913.717 122.197 l
915.214 123.703 l
916.945 125.774 l
918.909 128.484 l
921.155 131.971 l
923.681 136.32 l
926.394 141.438 l
929.247 147.296 l
932.147 153.755 l
935.048 160.759 l
937.854 168.117 l
940.567 175.848 l
943.187 183.986 l
945.713 192.566 l
948.145 201.63 l
950.484 211.217 l
952.729 221.358 l
954.928 232.316 l
957.126 244.427 l
959.325 257.812 l
961.617 273.193 l
964.096 291.401 l
967.37 317.275 l
971.627 350.725 l
973.639 364.735 l
975.276 374.653 l
976.726 382.137 l
978.036 387.795 l
979.252 392.124 l
980.421 395.487 l
981.497 397.937 l
982.526 399.753 l
983.508 401.05 l
984.444 401.931 l
985.333 402.478 l
986.222 402.774 l
987.11 402.845 l
988.046 402.704 l
989.075 402.321 l
990.244 401.635 l
991.554 400.593 l
993.051 399.103 l
994.782 397.046 l
996.746 394.35 l
998.992 390.876 l
1001.52 386.541 l
1004.23 381.435 l
1007.08 375.591 l
1009.98 369.145 l
1012.88 362.156 l
1015.69 354.816 l
1018.4 347.103 l
1021.02 338.987 l
1023.55 330.43 l
1025.98 321.393 l
1028.32 311.837 l
1030.57 301.73 l
1032.76 290.81 l
1034.96 278.741 l
1037.16 265.403 l
1039.41 250.399 l
1041.89 232.267 l
1045.07 207.201 l
1049.6 171.532 l
1051.57 157.881 l
1053.21 147.978 l
1054.66 140.508 l
1055.97 134.863 l
1057.18 130.545 l
1058.35 127.193 l
1059.43 124.752 l
1060.46 122.944 l
1061.44 121.653 l
1062.37 120.778 l
1063.26 120.235 l
1064.15 119.943 l
1065.04 119.876 l
1065.98 120.022 l
1067.01 120.408 l
1068.17 121.097 l
1069.48 122.142 l
1070.98 123.636 l
1072.71 125.696 l
1074.68 128.395 l
1076.92 131.871 l
1079.45 136.209 l
1082.16 141.317 l
1085.01 147.165 l
1087.91 153.613 l
1090.81 160.605 l
1093.62 167.949 l
1096.33 175.666 l
1098.95 183.787 l
1101.48 192.348 l
1103.91 201.391 l
1106.25 210.953 l
1108.5 221.068 l
1110.23 229.578 l
1110.23 229.578 l
stroke
grestore
2 setlinecap
[] 0 setdash
0.000 setgray
gsave
467.7 422.6 642.5 50.04 clipbox
642.504 402.241 m
643.44 402.133 l
644.469 401.783 l
645.591 401.161 l
646.854 400.201 l
648.304 398.81 l
649.988 396.867 l
651.906 394.296 l
654.105 390.958 l
656.537 386.851 l
659.203 381.906 l
662.057 376.134 l
664.957 369.759 l
667.857 362.841 l
670.664 355.574 l
673.424 347.802 l
676.043 339.76 l
678.569 331.285 l
681.002 322.339 l
683.34 312.885 l
685.633 302.673 l
687.831 291.857 l
690.03 279.905 l
692.228 266.693 l
694.473 251.821 l
696.906 234.177 l
699.946 210.365 l
704.998 170.654 l
706.963 157.113 l
708.6 147.323 l
710.05 139.96 l
711.36 134.412 l
712.576 130.182 l
713.699 127.025 l
714.775 124.625 l
715.804 122.851 l
716.786 121.59 l
717.722 120.741 l
718.61 120.22 l
719.499 119.948 l
720.435 119.901 l
721.417 120.087 l
722.493 120.533 l
723.662 121.267 l
725.019 122.398 l
726.562 123.995 l
728.34 126.173 l
730.351 129.004 l
732.643 132.627 l
735.216 137.125 l
737.976 142.408 l
740.876 148.45 l
743.776 155.005 l
746.677 162.116 l
749.483 169.59 l
752.196 177.453 l
754.816 185.738 l
757.295 194.317 l
759.681 203.368 l
762.019 213.132 l
764.265 223.47 l
766.463 234.648 l
768.662 247.006 l
770.86 260.657 l
773.152 276.317 l
775.725 295.512 l
779.561 326.108 l
782.835 351.559 l
784.8 365.166 l
786.437 375.024 l
787.887 382.449 l
789.197 388.054 l
790.413 392.336 l
791.582 395.655 l
792.658 398.069 l
793.687 399.853 l
794.67 401.124 l
795.605 401.981 l
796.494 402.508 l
797.383 402.787 l
798.318 402.839 l
799.301 402.658 l
800.377 402.218 l
801.546 401.488 l
802.856 400.405 l
804.353 398.874 l
806.083 396.778 l
808.095 393.976 l
810.387 390.382 l
812.913 385.997 l
815.673 380.749 l
818.573 374.745 l
821.473 368.228 l
824.373 361.161 l
827.18 353.735 l
829.893 345.926 l
832.512 337.701 l
835.038 329.022 l
837.424 320.03 l
839.763 310.336 l
842.008 300.075 l
844.207 288.982 l
846.405 276.72 l
848.604 263.173 l
850.896 247.621 l
853.422 228.89 l
856.977 200.627 l
860.672 171.729 l
862.683 157.751 l
864.321 147.866 l
865.771 140.414 l
867.081 134.784 l
868.297 130.481 l
869.466 127.142 l
870.542 124.712 l
871.571 122.913 l
872.553 121.63 l
873.489 120.763 l
874.378 120.226 l
875.266 119.94 l
876.155 119.877 l
877.138 120.04 l
878.167 120.44 l
879.336 121.144 l
880.646 122.202 l
882.143 123.709 l
883.873 125.782 l
885.838 128.493 l
888.083 131.981 l
890.609 136.33 l
893.322 141.449 l
896.176 147.308 l
899.076 153.768 l
901.976 160.773 l
904.783 168.132 l
907.496 175.865 l
910.115 184.003 l
912.641 192.586 l
915.074 201.652 l
917.413 211.24 l
919.658 221.384 l
921.856 232.345 l
924.055 244.459 l
926.253 257.847 l
928.546 273.232 l
931.025 291.443 l
934.299 317.319 l
938.556 350.766 l
940.567 364.771 l
942.204 374.684 l
943.654 382.163 l
944.964 387.817 l
946.18 392.142 l
947.35 395.501 l
948.426 397.948 l
949.455 399.761 l
950.437 401.057 l
951.373 401.935 l
952.261 402.481 l
953.15 402.776 l
954.039 402.845 l
954.975 402.702 l
956.004 402.318 l
957.173 401.631 l
958.483 400.588 l
959.98 399.097 l
961.71 397.039 l
963.675 394.342 l
965.92 390.867 l
968.446 386.531 l
971.159 381.425 l
974.013 375.579 l
976.913 369.133 l
979.813 362.142 l
982.62 354.801 l
985.333 347.086 l
987.952 338.969 l
990.478 330.41 l
992.911 321.372 l
995.25 311.813 l
997.495 301.704 l
999.693 290.781 l
1001.89 278.709 l
1004.09 265.368 l
1006.34 250.36 l
1008.81 232.225 l
1012 207.157 l
1016.53 171.492 l
1018.5 157.846 l
1020.13 147.947 l
1021.58 140.482 l
1022.89 134.841 l
1024.11 130.528 l
1025.28 127.179 l
1026.36 124.741 l
1027.39 122.935 l
1028.37 121.646 l
1029.3 120.774 l
1030.19 120.232 l
1031.08 119.942 l
1031.97 119.877 l
1032.91 120.023 l
1033.93 120.41 l
1035.1 121.101 l
1036.41 122.147 l
1037.91 123.642 l
1039.64 125.703 l
1041.61 128.403 l
1043.85 131.88 l
1046.38 136.219 l
1049.09 141.328 l
1051.94 147.177 l
1054.84 153.626 l
1057.74 160.619 l
1060.55 167.964 l
1063.26 175.683 l
1065.88 183.805 l
1068.41 192.368 l
1070.84 201.412 l
1073.18 210.977 l
1075.43 221.094 l
1077.62 232.024 l
1079.82 244.105 l
1082.02 257.456 l
1084.31 272.802 l
1086.79 290.975 l
1090.02 316.448 l
1094.42 351.004 l
1096.43 364.98 l
1098.07 374.864 l
1099.52 382.315 l
1100.83 387.943 l
1102.04 392.245 l
1103.21 395.583 l
1104.29 398.012 l
1105.32 399.81 l
1106.3 401.093 l
1107.23 401.96 l
1108.12 402.496 l
1109.01 402.782 l
1109.95 402.841 l
1110.23 402.815 l
1110.23 402.815 l
stroke
grestore
0 setlinejoin
gsave
642.504 472.681 m
1110.23 472.681 l
stroke
grestore
gsave
1110.23 50.04 m
1110.23 472.681 l
stroke
grestore
gsave
642.504 50.04 m
1110.23 50.04 l
stroke
grestore
gsave
642.504 50.04 m
642.504 472.681 l
stroke
grestore
0.500 setlinewidth
1 setlinejoin
0 setlinecap
gsave
/o {
gsave
newpath
translate
0.5 setlinewidth
1 setlinejoin
0 setlinecap
0 0 m
0 4 l
gsave
0.000 setgray
fill
grestore
stroke
grestore
} bind def
642.504 50.04 o
grestore
gsave
/o {
gsave
newpath
translate
0.5 setlinewidth
1 setlinejoin
0 setlinecap
0 0 m
0 -4 l
gsave
0.000 setgray
fill
grestore
stroke
grestore
} bind def
642.504 472.681 o
grestore
gsave
639.480671 36.915000 translate
0.000000 rotate
0.000000 0.000000 m /zero glyphshow
grestore
gsave
/o {
gsave
newpath
translate
0.5 setlinewidth
1 setlinejoin
0 setlinecap
0 0 m
0 4 l
gsave
0.000 setgray
fill
grestore
stroke
grestore
} bind def
759.435 50.04 o
grestore
gsave
/o {
gsave
newpath
translate
0.5 setlinewidth
1 setlinejoin
0 setlinecap
0 0 m
0 -4 l
gsave
0.000 setgray
fill
grestore
stroke
grestore
} bind def
759.435 472.681 o
grestore
gsave
756.598995 36.915000 translate
0.000000 rotate
0.000000 0.000000 m /five glyphshow
grestore
gsave
/o {
gsave
newpath
translate
0.5 setlinewidth
1 setlinejoin
0 setlinecap
0 0 m
0 4 l
gsave
0.000 setgray
fill
grestore
stroke
grestore
} bind def
876.366 50.04 o
grestore
gsave
/o {
gsave
newpath
translate
0.5 setlinewidth
1 setlinejoin
0 setlinecap
0 0 m
0 -4 l
gsave
0.000 setgray
fill
grestore
stroke
grestore
} bind def
876.366 472.681 o
grestore
gsave
869.779819 36.915000 translate
0.000000 rotate
0.000000 0.000000 m /one glyphshow
7.634766 0.000000 m /zero glyphshow
grestore
gsave
/o {
gsave
newpath
translate
0.5 setlinewidth
1 setlinejoin
0 setlinecap
0 0 m
0 4 l
gsave
0.000 setgray
fill
grestore
stroke
grestore
} bind def
993.297 50.04 o
grestore
gsave
/o {
gsave
newpath
translate
0.5 setlinewidth
1 setlinejoin
0 setlinecap
0 0 m
0 -4 l
gsave
0.000 setgray
fill
grestore
stroke
grestore
} bind def
993.297 472.681 o
grestore
gsave
986.835643 36.915000 translate
0.000000 rotate
0.000000 0.000000 m /one glyphshow
7.634766 0.000000 m /five glyphshow
grestore
gsave
/o {
gsave
newpath
translate
0.5 setlinewidth
1 setlinejoin
0 setlinecap
0 0 m
0 4 l
gsave
0.000 setgray
fill
grestore
stroke
grestore
} bind def
1110.23 50.04 o
grestore
gsave
/o {
gsave
newpath
translate
0.5 setlinewidth
1 setlinejoin
0 setlinecap
0 0 m
0 -4 l
gsave
0.000 setgray
fill
grestore
stroke
grestore
} bind def
1110.23 472.681 o
grestore
gsave
1103.422718 36.915000 translate
0.000000 rotate
0.000000 0.000000 m /two glyphshow
7.634766 0.000000 m /zero glyphshow
grestore
gsave
871.865757 11.180625 translate
0.000000 rotate
/Cmmi10 findfont
24.0 scalefont
setfont
0.000000 0.968750 moveto
/t glyphshow


grestore
gsave
/o {
gsave
newpath
translate
0.5 setlinewidth
1 setlinejoin
0 setlinecap
0 0 m
4 0 l
gsave
0.000 setgray
fill
grestore
stroke
grestore
} bind def
642.504 50.04 o
grestore
gsave
/o {
gsave
newpath
translate
0.5 setlinewidth
1 setlinejoin
0 setlinecap
0 0 m
-4 0 l
gsave
0.000 setgray
fill
grestore
stroke
grestore
} bind def
1110.23 50.04 o
grestore
gsave
623.035358 46.727500 translate
0.000000 rotate
0.000000 0.000000 m /minus glyphshow
10.054688 0.000000 m /three glyphshow
grestore
gsave
/o {
gsave
newpath
translate
0.5 setlinewidth
1 setlinejoin
0 setlinecap
0 0 m
4 0 l
gsave
0.000 setgray
fill
grestore
stroke
grestore
} bind def
642.504 120.48 o
grestore
gsave
/o {
gsave
newpath
translate
0.5 setlinewidth
1 setlinejoin
0 setlinecap
0 0 m
-4 0 l
gsave
0.000 setgray
fill
grestore
stroke
grestore
} bind def
1110.23 120.48 o
grestore
gsave
623.269733 117.167675 translate
0.000000 rotate
0.000000 0.000000 m /minus glyphshow
10.054688 0.000000 m /two glyphshow
grestore
gsave
/o {
gsave
newpath
translate
0.5 setlinewidth
1 setlinejoin
0 setlinecap
0 0 m
4 0 l
gsave
0.000 setgray
fill
grestore
stroke
grestore
} bind def
642.504 190.92 o
grestore
gsave
/o {
gsave
newpath
translate
0.5 setlinewidth
1 setlinejoin
0 setlinecap
0 0 m
-4 0 l
gsave
0.000 setgray
fill
grestore
stroke
grestore
} bind def
1110.23 190.92 o
grestore
gsave
623.175983 187.607850 translate
0.000000 rotate
0.000000 0.000000 m /minus glyphshow
10.054688 0.000000 m /one glyphshow
grestore
gsave
/o {
gsave
newpath
translate
0.5 setlinewidth
1 setlinejoin
0 setlinecap
0 0 m
4 0 l
gsave
0.000 setgray
fill
grestore
stroke
grestore
} bind def
642.504 261.361 o
grestore
gsave
/o {
gsave
newpath
translate
0.5 setlinewidth
1 setlinejoin
0 setlinecap
0 0 m
-4 0 l
gsave
0.000 setgray
fill
grestore
stroke
grestore
} bind def
1110.23 261.361 o
grestore
gsave
632.457233 258.048025 translate
0.000000 rotate
0.000000 0.000000 m /zero glyphshow
grestore
gsave
/o {
gsave
newpath
translate
0.5 setlinewidth
1 setlinejoin
0 setlinecap
0 0 m
4 0 l
gsave
0.000 setgray
fill
grestore
stroke
grestore
} bind def
642.504 331.801 o
grestore
gsave
/o {
gsave
newpath
translate
0.5 setlinewidth
1 setlinejoin
0 setlinecap
0 0 m
-4 0 l
gsave
0.000 setgray
fill
grestore
stroke
grestore
} bind def
1110.23 331.801 o
grestore
gsave
633.285358 328.488200 translate
0.000000 rotate
0.000000 0.000000 m /one glyphshow
grestore
gsave
/o {
gsave
newpath
translate
0.5 setlinewidth
1 setlinejoin
0 setlinecap
0 0 m
4 0 l
gsave
0.000 setgray
fill
grestore
stroke
grestore
} bind def
642.504 402.241 o
grestore
gsave
/o {
gsave
newpath
translate
0.5 setlinewidth
1 setlinejoin
0 setlinecap
0 0 m
-4 0 l
gsave
0.000 setgray
fill
grestore
stroke
grestore
} bind def
1110.23 402.241 o
grestore
gsave
632.941608 398.928375 translate
0.000000 rotate
0.000000 0.000000 m /two glyphshow
grestore
gsave
/o {
gsave
newpath
translate
0.5 setlinewidth
1 setlinejoin
0 setlinecap
0 0 m
4 0 l
gsave
0.000 setgray
fill
grestore
stroke
grestore
} bind def
642.504 472.681 o
grestore
gsave
/o {
gsave
newpath
translate
0.5 setlinewidth
1 setlinejoin
0 setlinecap
0 0 m
-4 0 l
gsave
0.000 setgray
fill
grestore
stroke
grestore
} bind def
1110.23 472.681 o
grestore
gsave
632.754108 469.368550 translate
0.000000 rotate
0.000000 0.000000 m /three glyphshow
grestore
gsave
613.035358 254.360525 translate
90.000000 rotate
/Cmmi10 findfont
24.0 scalefont
setfont
0.000000 0.390625 moveto
/x glyphshow


grestore

end
showpage
