<?xml version="1.0" encoding="utf-8" standalone="no"?>
<!DOCTYPE svg PUBLIC "-//W3C//DTD SVG 1.1//EN"
  "http://www.w3.org/Graphics/SVG/1.1/DTD/svg11.dtd">
<!-- Created with matplotlib (http://matplotlib.org/) -->
<svg height="360pt" version="1.1" viewBox="0 0 720 360" width="720pt" xmlns="http://www.w3.org/2000/svg" xmlns:xlink="http://www.w3.org/1999/xlink">
 <defs>
  <style type="text/css">
*{stroke-linecap:butt;stroke-linejoin:round;}
  </style>
 </defs>
 <g id="figure_1">
  <g id="patch_1">
   <path d="M 0 360 
L 720 360 
L 720 0 
L 0 0 
z
" style="fill:#ffffff;"/>
  </g>
  <g id="axes_1">
   <g id="patch_2">
    <path d="M 41.92 317.32 
L 706.68 317.32 
L 706.68 13.32 
L 41.92 13.32 
z
" style="fill:#ffffff;"/>
   </g>
   <g id="matplotlib.axis_1">
    <g id="xtick_1">
     <g id="line2d_1">
      <defs>
       <path d="M 0 0 
L 0 3.5 
" id="m0227df07ee" style="stroke:#000000;stroke-width:0.8;"/>
      </defs>
      <g>
       <use style="stroke:#000000;stroke-width:0.8;" x="72.136364" xlink:href="#m0227df07ee" y="317.32"/>
      </g>
     </g>
     <g id="text_1">
      <!-- 0 -->
      <defs>
       <path d="M 31.78125 66.40625 
Q 24.171875 66.40625 20.328125 58.90625 
Q 16.5 51.421875 16.5 36.375 
Q 16.5 21.390625 20.328125 13.890625 
Q 24.171875 6.390625 31.78125 6.390625 
Q 39.453125 6.390625 43.28125 13.890625 
Q 47.125 21.390625 47.125 36.375 
Q 47.125 51.421875 43.28125 58.90625 
Q 39.453125 66.40625 31.78125 66.40625 
z
M 31.78125 74.21875 
Q 44.046875 74.21875 50.515625 64.515625 
Q 56.984375 54.828125 56.984375 36.375 
Q 56.984375 17.96875 50.515625 8.265625 
Q 44.046875 -1.421875 31.78125 -1.421875 
Q 19.53125 -1.421875 13.0625 8.265625 
Q 6.59375 17.96875 6.59375 36.375 
Q 6.59375 54.828125 13.0625 64.515625 
Q 19.53125 74.21875 31.78125 74.21875 
z
" id="DejaVuSans-30"/>
      </defs>
      <g transform="translate(68.955114 331.918437)scale(0.1 -0.1)">
       <use xlink:href="#DejaVuSans-30"/>
      </g>
     </g>
    </g>
    <g id="xtick_2">
     <g id="line2d_2">
      <g>
       <use style="stroke:#000000;stroke-width:0.8;" x="193.001818" xlink:href="#m0227df07ee" y="317.32"/>
      </g>
     </g>
     <g id="text_2">
      <!-- 20 -->
      <defs>
       <path d="M 19.1875 8.296875 
L 53.609375 8.296875 
L 53.609375 0 
L 7.328125 0 
L 7.328125 8.296875 
Q 12.9375 14.109375 22.625 23.890625 
Q 32.328125 33.6875 34.8125 36.53125 
Q 39.546875 41.84375 41.421875 45.53125 
Q 43.3125 49.21875 43.3125 52.78125 
Q 43.3125 58.59375 39.234375 62.25 
Q 35.15625 65.921875 28.609375 65.921875 
Q 23.96875 65.921875 18.8125 64.3125 
Q 13.671875 62.703125 7.8125 59.421875 
L 7.8125 69.390625 
Q 13.765625 71.78125 18.9375 73 
Q 24.125 74.21875 28.421875 74.21875 
Q 39.75 74.21875 46.484375 68.546875 
Q 53.21875 62.890625 53.21875 53.421875 
Q 53.21875 48.921875 51.53125 44.890625 
Q 49.859375 40.875 45.40625 35.40625 
Q 44.1875 33.984375 37.640625 27.21875 
Q 31.109375 20.453125 19.1875 8.296875 
z
" id="DejaVuSans-32"/>
      </defs>
      <g transform="translate(186.639318 331.918437)scale(0.1 -0.1)">
       <use xlink:href="#DejaVuSans-32"/>
       <use x="63.623047" xlink:href="#DejaVuSans-30"/>
      </g>
     </g>
    </g>
    <g id="xtick_3">
     <g id="line2d_3">
      <g>
       <use style="stroke:#000000;stroke-width:0.8;" x="313.867273" xlink:href="#m0227df07ee" y="317.32"/>
      </g>
     </g>
     <g id="text_3">
      <!-- 40 -->
      <defs>
       <path d="M 37.796875 64.3125 
L 12.890625 25.390625 
L 37.796875 25.390625 
z
M 35.203125 72.90625 
L 47.609375 72.90625 
L 47.609375 25.390625 
L 58.015625 25.390625 
L 58.015625 17.1875 
L 47.609375 17.1875 
L 47.609375 0 
L 37.796875 0 
L 37.796875 17.1875 
L 4.890625 17.1875 
L 4.890625 26.703125 
z
" id="DejaVuSans-34"/>
      </defs>
      <g transform="translate(307.504773 331.918437)scale(0.1 -0.1)">
       <use xlink:href="#DejaVuSans-34"/>
       <use x="63.623047" xlink:href="#DejaVuSans-30"/>
      </g>
     </g>
    </g>
    <g id="xtick_4">
     <g id="line2d_4">
      <g>
       <use style="stroke:#000000;stroke-width:0.8;" x="434.732727" xlink:href="#m0227df07ee" y="317.32"/>
      </g>
     </g>
     <g id="text_4">
      <!-- 60 -->
      <defs>
       <path d="M 33.015625 40.375 
Q 26.375 40.375 22.484375 35.828125 
Q 18.609375 31.296875 18.609375 23.390625 
Q 18.609375 15.53125 22.484375 10.953125 
Q 26.375 6.390625 33.015625 6.390625 
Q 39.65625 6.390625 43.53125 10.953125 
Q 47.40625 15.53125 47.40625 23.390625 
Q 47.40625 31.296875 43.53125 35.828125 
Q 39.65625 40.375 33.015625 40.375 
z
M 52.59375 71.296875 
L 52.59375 62.3125 
Q 48.875 64.0625 45.09375 64.984375 
Q 41.3125 65.921875 37.59375 65.921875 
Q 27.828125 65.921875 22.671875 59.328125 
Q 17.53125 52.734375 16.796875 39.40625 
Q 19.671875 43.65625 24.015625 45.921875 
Q 28.375 48.1875 33.59375 48.1875 
Q 44.578125 48.1875 50.953125 41.515625 
Q 57.328125 34.859375 57.328125 23.390625 
Q 57.328125 12.15625 50.6875 5.359375 
Q 44.046875 -1.421875 33.015625 -1.421875 
Q 20.359375 -1.421875 13.671875 8.265625 
Q 6.984375 17.96875 6.984375 36.375 
Q 6.984375 53.65625 15.1875 63.9375 
Q 23.390625 74.21875 37.203125 74.21875 
Q 40.921875 74.21875 44.703125 73.484375 
Q 48.484375 72.75 52.59375 71.296875 
z
" id="DejaVuSans-36"/>
      </defs>
      <g transform="translate(428.370227 331.918437)scale(0.1 -0.1)">
       <use xlink:href="#DejaVuSans-36"/>
       <use x="63.623047" xlink:href="#DejaVuSans-30"/>
      </g>
     </g>
    </g>
    <g id="xtick_5">
     <g id="line2d_5">
      <g>
       <use style="stroke:#000000;stroke-width:0.8;" x="555.598182" xlink:href="#m0227df07ee" y="317.32"/>
      </g>
     </g>
     <g id="text_5">
      <!-- 80 -->
      <defs>
       <path d="M 31.78125 34.625 
Q 24.75 34.625 20.71875 30.859375 
Q 16.703125 27.09375 16.703125 20.515625 
Q 16.703125 13.921875 20.71875 10.15625 
Q 24.75 6.390625 31.78125 6.390625 
Q 38.8125 6.390625 42.859375 10.171875 
Q 46.921875 13.96875 46.921875 20.515625 
Q 46.921875 27.09375 42.890625 30.859375 
Q 38.875 34.625 31.78125 34.625 
z
M 21.921875 38.8125 
Q 15.578125 40.375 12.03125 44.71875 
Q 8.5 49.078125 8.5 55.328125 
Q 8.5 64.0625 14.71875 69.140625 
Q 20.953125 74.21875 31.78125 74.21875 
Q 42.671875 74.21875 48.875 69.140625 
Q 55.078125 64.0625 55.078125 55.328125 
Q 55.078125 49.078125 51.53125 44.71875 
Q 48 40.375 41.703125 38.8125 
Q 48.828125 37.15625 52.796875 32.3125 
Q 56.78125 27.484375 56.78125 20.515625 
Q 56.78125 9.90625 50.3125 4.234375 
Q 43.84375 -1.421875 31.78125 -1.421875 
Q 19.734375 -1.421875 13.25 4.234375 
Q 6.78125 9.90625 6.78125 20.515625 
Q 6.78125 27.484375 10.78125 32.3125 
Q 14.796875 37.15625 21.921875 38.8125 
z
M 18.3125 54.390625 
Q 18.3125 48.734375 21.84375 45.5625 
Q 25.390625 42.390625 31.78125 42.390625 
Q 38.140625 42.390625 41.71875 45.5625 
Q 45.3125 48.734375 45.3125 54.390625 
Q 45.3125 60.0625 41.71875 63.234375 
Q 38.140625 66.40625 31.78125 66.40625 
Q 25.390625 66.40625 21.84375 63.234375 
Q 18.3125 60.0625 18.3125 54.390625 
z
" id="DejaVuSans-38"/>
      </defs>
      <g transform="translate(549.235682 331.918437)scale(0.1 -0.1)">
       <use xlink:href="#DejaVuSans-38"/>
       <use x="63.623047" xlink:href="#DejaVuSans-30"/>
      </g>
     </g>
    </g>
    <g id="xtick_6">
     <g id="line2d_6">
      <g>
       <use style="stroke:#000000;stroke-width:0.8;" x="676.463636" xlink:href="#m0227df07ee" y="317.32"/>
      </g>
     </g>
     <g id="text_6">
      <!-- 100 -->
      <defs>
       <path d="M 12.40625 8.296875 
L 28.515625 8.296875 
L 28.515625 63.921875 
L 10.984375 60.40625 
L 10.984375 69.390625 
L 28.421875 72.90625 
L 38.28125 72.90625 
L 38.28125 8.296875 
L 54.390625 8.296875 
L 54.390625 0 
L 12.40625 0 
z
" id="DejaVuSans-31"/>
      </defs>
      <g transform="translate(666.919886 331.918437)scale(0.1 -0.1)">
       <use xlink:href="#DejaVuSans-31"/>
       <use x="63.623047" xlink:href="#DejaVuSans-30"/>
       <use x="127.246094" xlink:href="#DejaVuSans-30"/>
      </g>
     </g>
    </g>
    <g id="text_7">
     <!-- $Vecino$ -->
     <defs>
      <path d="M 20.609375 0 
L 7.8125 72.90625 
L 17.484375 72.90625 
L 28.078125 10.203125 
L 63.484375 72.90625 
L 74.21875 72.90625 
L 32.078125 0 
z
" id="DejaVuSans-Oblique-56"/>
      <path d="M 48.09375 32.234375 
Q 48.25 33.015625 48.3125 33.84375 
Q 48.390625 34.671875 48.390625 35.5 
Q 48.390625 41.453125 44.890625 44.921875 
Q 41.40625 48.390625 35.40625 48.390625 
Q 28.71875 48.390625 23.578125 44.15625 
Q 18.453125 39.9375 15.828125 32.171875 
z
M 55.90625 25.203125 
L 14.109375 25.203125 
Q 13.8125 23.34375 13.71875 22.265625 
Q 13.625 21.1875 13.625 20.40625 
Q 13.625 13.625 17.796875 9.90625 
Q 21.96875 6.203125 29.59375 6.203125 
Q 35.453125 6.203125 40.671875 7.515625 
Q 45.90625 8.84375 50.390625 11.375 
L 48.6875 2.484375 
Q 43.84375 0.53125 38.6875 -0.4375 
Q 33.546875 -1.421875 28.21875 -1.421875 
Q 16.84375 -1.421875 10.71875 4.015625 
Q 4.59375 9.46875 4.59375 19.484375 
Q 4.59375 28.03125 7.640625 35.375 
Q 10.6875 42.71875 16.609375 48.484375 
Q 20.40625 52.09375 25.65625 54.046875 
Q 30.90625 56 36.8125 56 
Q 46.09375 56 51.578125 50.4375 
Q 57.078125 44.875 57.078125 35.5 
Q 57.078125 33.25 56.78125 30.6875 
Q 56.5 28.125 55.90625 25.203125 
z
" id="DejaVuSans-Oblique-65"/>
      <path d="M 53.609375 52.59375 
L 51.8125 43.703125 
Q 48.578125 46.046875 44.9375 47.21875 
Q 41.3125 48.390625 37.40625 48.390625 
Q 33.109375 48.390625 29.21875 46.875 
Q 25.34375 45.359375 22.703125 42.578125 
Q 18.5 38.328125 16.203125 32.609375 
Q 13.921875 26.90625 13.921875 20.796875 
Q 13.921875 13.421875 17.609375 9.8125 
Q 21.296875 6.203125 28.8125 6.203125 
Q 32.515625 6.203125 36.6875 7.328125 
Q 40.875 8.453125 45.40625 10.6875 
L 43.703125 1.8125 
Q 39.796875 0.203125 35.671875 -0.609375 
Q 31.546875 -1.421875 27.203125 -1.421875 
Q 16.3125 -1.421875 10.453125 4.015625 
Q 4.59375 9.46875 4.59375 19.578125 
Q 4.59375 28.078125 7.640625 35.234375 
Q 10.6875 42.390625 16.703125 48.09375 
Q 20.796875 52 26.3125 54 
Q 31.84375 56 38.375 56 
Q 42.1875 56 45.9375 55.140625 
Q 49.703125 54.296875 53.609375 52.59375 
z
" id="DejaVuSans-Oblique-63"/>
      <path d="M 18.3125 75.984375 
L 27.296875 75.984375 
L 25.09375 64.59375 
L 16.109375 64.59375 
z
M 14.203125 54.6875 
L 23.1875 54.6875 
L 12.5 0 
L 3.515625 0 
z
" id="DejaVuSans-Oblique-69"/>
      <path d="M 55.71875 33.015625 
L 49.3125 0 
L 40.28125 0 
L 46.6875 32.671875 
Q 47.125 34.96875 47.359375 36.71875 
Q 47.609375 38.484375 47.609375 39.5 
Q 47.609375 43.609375 45.015625 45.890625 
Q 42.4375 48.1875 37.796875 48.1875 
Q 30.5625 48.1875 25.34375 43.375 
Q 20.125 38.578125 18.5 30.328125 
L 12.5 0 
L 3.515625 0 
L 14.109375 54.6875 
L 23.09375 54.6875 
L 21.296875 46.09375 
Q 25.046875 50.828125 30.3125 53.40625 
Q 35.59375 56 41.40625 56 
Q 48.640625 56 52.609375 52.09375 
Q 56.59375 48.1875 56.59375 41.109375 
Q 56.59375 39.359375 56.375 37.359375 
Q 56.15625 35.359375 55.71875 33.015625 
z
" id="DejaVuSans-Oblique-6e"/>
      <path d="M 25.390625 -1.421875 
Q 15.765625 -1.421875 10.171875 4.515625 
Q 4.59375 10.453125 4.59375 20.703125 
Q 4.59375 26.65625 6.515625 32.828125 
Q 8.453125 39.015625 11.53125 43.21875 
Q 16.359375 49.75 22.3125 52.875 
Q 28.265625 56 35.796875 56 
Q 45.125 56 50.859375 50.1875 
Q 56.59375 44.390625 56.59375 35.015625 
Q 56.59375 28.515625 54.6875 22.0625 
Q 52.78125 15.625 49.703125 11.375 
Q 44.921875 4.828125 38.96875 1.703125 
Q 33.015625 -1.421875 25.390625 -1.421875 
z
M 13.921875 21 
Q 13.921875 13.578125 17.015625 9.890625 
Q 20.125 6.203125 26.421875 6.203125 
Q 35.453125 6.203125 41.375 14.078125 
Q 47.3125 21.96875 47.3125 34.078125 
Q 47.3125 41.15625 44.140625 44.765625 
Q 40.96875 48.390625 34.8125 48.390625 
Q 29.734375 48.390625 25.78125 46.015625 
Q 21.828125 43.65625 18.703125 38.8125 
Q 16.40625 35.203125 15.15625 30.5625 
Q 13.921875 25.921875 13.921875 21 
z
" id="DejaVuSans-Oblique-6f"/>
     </defs>
     <g transform="translate(357.4 345.596563)scale(0.1 -0.1)">
      <use transform="translate(0 0.015625)" xlink:href="#DejaVuSans-Oblique-56"/>
      <use transform="translate(68.408203 0.015625)" xlink:href="#DejaVuSans-Oblique-65"/>
      <use transform="translate(129.931641 0.015625)" xlink:href="#DejaVuSans-Oblique-63"/>
      <use transform="translate(184.912109 0.015625)" xlink:href="#DejaVuSans-Oblique-69"/>
      <use transform="translate(212.695312 0.015625)" xlink:href="#DejaVuSans-Oblique-6e"/>
      <use transform="translate(276.074219 0.015625)" xlink:href="#DejaVuSans-Oblique-6f"/>
     </g>
    </g>
   </g>
   <g id="matplotlib.axis_2">
    <g id="ytick_1">
     <g id="line2d_7">
      <defs>
       <path d="M 0 0 
L -3.5 0 
" id="mb14c3e048d" style="stroke:#000000;stroke-width:0.8;"/>
      </defs>
      <g>
       <use style="stroke:#000000;stroke-width:0.8;" x="41.92" xlink:href="#mb14c3e048d" y="308.233766"/>
      </g>
     </g>
     <g id="text_8">
      <!-- −0.4 -->
      <defs>
       <path d="M 10.59375 35.5 
L 73.1875 35.5 
L 73.1875 27.203125 
L 10.59375 27.203125 
z
" id="DejaVuSans-2212"/>
       <path d="M 10.6875 12.40625 
L 21 12.40625 
L 21 0 
L 10.6875 0 
z
" id="DejaVuSans-2e"/>
      </defs>
      <g transform="translate(10.637188 312.032985)scale(0.1 -0.1)">
       <use xlink:href="#DejaVuSans-2212"/>
       <use x="83.789062" xlink:href="#DejaVuSans-30"/>
       <use x="147.412109" xlink:href="#DejaVuSans-2e"/>
       <use x="179.199219" xlink:href="#DejaVuSans-34"/>
      </g>
     </g>
    </g>
    <g id="ytick_2">
     <g id="line2d_8">
      <g>
       <use style="stroke:#000000;stroke-width:0.8;" x="41.92" xlink:href="#mb14c3e048d" y="268.077254"/>
      </g>
     </g>
     <g id="text_9">
      <!-- −0.2 -->
      <g transform="translate(10.637188 271.876473)scale(0.1 -0.1)">
       <use xlink:href="#DejaVuSans-2212"/>
       <use x="83.789062" xlink:href="#DejaVuSans-30"/>
       <use x="147.412109" xlink:href="#DejaVuSans-2e"/>
       <use x="179.199219" xlink:href="#DejaVuSans-32"/>
      </g>
     </g>
    </g>
    <g id="ytick_3">
     <g id="line2d_9">
      <g>
       <use style="stroke:#000000;stroke-width:0.8;" x="41.92" xlink:href="#mb14c3e048d" y="227.920742"/>
      </g>
     </g>
     <g id="text_10">
      <!-- 0.0 -->
      <g transform="translate(19.016875 231.719961)scale(0.1 -0.1)">
       <use xlink:href="#DejaVuSans-30"/>
       <use x="63.623047" xlink:href="#DejaVuSans-2e"/>
       <use x="95.410156" xlink:href="#DejaVuSans-30"/>
      </g>
     </g>
    </g>
    <g id="ytick_4">
     <g id="line2d_10">
      <g>
       <use style="stroke:#000000;stroke-width:0.8;" x="41.92" xlink:href="#mb14c3e048d" y="187.76423"/>
      </g>
     </g>
     <g id="text_11">
      <!-- 0.2 -->
      <g transform="translate(19.016875 191.563449)scale(0.1 -0.1)">
       <use xlink:href="#DejaVuSans-30"/>
       <use x="63.623047" xlink:href="#DejaVuSans-2e"/>
       <use x="95.410156" xlink:href="#DejaVuSans-32"/>
      </g>
     </g>
    </g>
    <g id="ytick_5">
     <g id="line2d_11">
      <g>
       <use style="stroke:#000000;stroke-width:0.8;" x="41.92" xlink:href="#mb14c3e048d" y="147.607718"/>
      </g>
     </g>
     <g id="text_12">
      <!-- 0.4 -->
      <g transform="translate(19.016875 151.406937)scale(0.1 -0.1)">
       <use xlink:href="#DejaVuSans-30"/>
       <use x="63.623047" xlink:href="#DejaVuSans-2e"/>
       <use x="95.410156" xlink:href="#DejaVuSans-34"/>
      </g>
     </g>
    </g>
    <g id="ytick_6">
     <g id="line2d_12">
      <g>
       <use style="stroke:#000000;stroke-width:0.8;" x="41.92" xlink:href="#mb14c3e048d" y="107.451206"/>
      </g>
     </g>
     <g id="text_13">
      <!-- 0.6 -->
      <g transform="translate(19.016875 111.250425)scale(0.1 -0.1)">
       <use xlink:href="#DejaVuSans-30"/>
       <use x="63.623047" xlink:href="#DejaVuSans-2e"/>
       <use x="95.410156" xlink:href="#DejaVuSans-36"/>
      </g>
     </g>
    </g>
    <g id="ytick_7">
     <g id="line2d_13">
      <g>
       <use style="stroke:#000000;stroke-width:0.8;" x="41.92" xlink:href="#mb14c3e048d" y="67.294694"/>
      </g>
     </g>
     <g id="text_14">
      <!-- 0.8 -->
      <g transform="translate(19.016875 71.093913)scale(0.1 -0.1)">
       <use xlink:href="#DejaVuSans-30"/>
       <use x="63.623047" xlink:href="#DejaVuSans-2e"/>
       <use x="95.410156" xlink:href="#DejaVuSans-38"/>
      </g>
     </g>
    </g>
    <g id="ytick_8">
     <g id="line2d_14">
      <g>
       <use style="stroke:#000000;stroke-width:0.8;" x="41.92" xlink:href="#mb14c3e048d" y="27.138182"/>
      </g>
     </g>
     <g id="text_15">
      <!-- 1.0 -->
      <g transform="translate(19.016875 30.937401)scale(0.1 -0.1)">
       <use xlink:href="#DejaVuSans-31"/>
       <use x="63.623047" xlink:href="#DejaVuSans-2e"/>
       <use x="95.410156" xlink:href="#DejaVuSans-30"/>
      </g>
     </g>
    </g>
   </g>
   <g id="LineCollection_1">
    <path clip-path="url(#pbc9080f35d)" d="M 72.136364 27.138182 
L 72.136364 27.138182 
" style="fill:none;stroke:#1f77b4;stroke-width:1.5;"/>
    <path clip-path="url(#pbc9080f35d)" d="M 78.179636 119.516807 
L 78.179636 116.377065 
" style="fill:none;stroke:#1f77b4;stroke-width:1.5;"/>
    <path clip-path="url(#pbc9080f35d)" d="M 84.222909 162.096364 
L 84.222909 158.564557 
" style="fill:none;stroke:#1f77b4;stroke-width:1.5;"/>
    <path clip-path="url(#pbc9080f35d)" d="M 90.266182 192.366105 
L 90.266182 189.208203 
" style="fill:none;stroke:#1f77b4;stroke-width:1.5;"/>
    <path clip-path="url(#pbc9080f35d)" d="M 96.309455 232.821465 
L 96.309455 230.553513 
" style="fill:none;stroke:#1f77b4;stroke-width:1.5;"/>
    <path clip-path="url(#pbc9080f35d)" d="M 102.352727 264.8571 
L 102.352727 263.032747 
" style="fill:none;stroke:#1f77b4;stroke-width:1.5;"/>
    <path clip-path="url(#pbc9080f35d)" d="M 108.396 281.454368 
L 108.396 279.114132 
" style="fill:none;stroke:#1f77b4;stroke-width:1.5;"/>
    <path clip-path="url(#pbc9080f35d)" d="M 114.439273 296.054929 
L 114.439273 293.292781 
" style="fill:none;stroke:#1f77b4;stroke-width:1.5;"/>
    <path clip-path="url(#pbc9080f35d)" d="M 120.482545 303.501818 
L 120.482545 300.485835 
" style="fill:none;stroke:#1f77b4;stroke-width:1.5;"/>
    <path clip-path="url(#pbc9080f35d)" d="M 126.525818 300.27912 
L 126.525818 297.05511 
" style="fill:none;stroke:#1f77b4;stroke-width:1.5;"/>
    <path clip-path="url(#pbc9080f35d)" d="M 132.569091 298.125216 
L 132.569091 294.911721 
" style="fill:none;stroke:#1f77b4;stroke-width:1.5;"/>
    <path clip-path="url(#pbc9080f35d)" d="M 138.612364 289.322851 
L 138.612364 286.046763 
" style="fill:none;stroke:#1f77b4;stroke-width:1.5;"/>
    <path clip-path="url(#pbc9080f35d)" d="M 144.655636 271.917757 
L 144.655636 268.628138 
" style="fill:none;stroke:#1f77b4;stroke-width:1.5;"/>
    <path clip-path="url(#pbc9080f35d)" d="M 150.698909 253.969786 
L 150.698909 250.825834 
" style="fill:none;stroke:#1f77b4;stroke-width:1.5;"/>
    <path clip-path="url(#pbc9080f35d)" d="M 156.742182 229.779685 
L 156.742182 226.835293 
" style="fill:none;stroke:#1f77b4;stroke-width:1.5;"/>
    <path clip-path="url(#pbc9080f35d)" d="M 162.785455 199.1593 
L 162.785455 196.113345 
" style="fill:none;stroke:#1f77b4;stroke-width:1.5;"/>
    <path clip-path="url(#pbc9080f35d)" d="M 168.828727 173.124048 
L 168.828727 169.743608 
" style="fill:none;stroke:#1f77b4;stroke-width:1.5;"/>
    <path clip-path="url(#pbc9080f35d)" d="M 174.872 153.586409 
L 174.872 149.969195 
" style="fill:none;stroke:#1f77b4;stroke-width:1.5;"/>
    <path clip-path="url(#pbc9080f35d)" d="M 180.915273 135.011019 
L 180.915273 131.196302 
" style="fill:none;stroke:#1f77b4;stroke-width:1.5;"/>
    <path clip-path="url(#pbc9080f35d)" d="M 186.958545 145.660533 
L 186.958545 141.235155 
" style="fill:none;stroke:#1f77b4;stroke-width:1.5;"/>
    <path clip-path="url(#pbc9080f35d)" d="M 193.001818 169.033575 
L 193.001818 164.699936 
" style="fill:none;stroke:#1f77b4;stroke-width:1.5;"/>
    <path clip-path="url(#pbc9080f35d)" d="M 199.045091 192.106202 
L 199.045091 188.160256 
" style="fill:none;stroke:#1f77b4;stroke-width:1.5;"/>
    <path clip-path="url(#pbc9080f35d)" d="M 205.088364 219.959249 
L 205.088364 216.675204 
" style="fill:none;stroke:#1f77b4;stroke-width:1.5;"/>
    <path clip-path="url(#pbc9080f35d)" d="M 211.131636 246.390453 
L 211.131636 243.805439 
" style="fill:none;stroke:#1f77b4;stroke-width:1.5;"/>
    <path clip-path="url(#pbc9080f35d)" d="M 217.174909 266.046895 
L 217.174909 263.451206 
" style="fill:none;stroke:#1f77b4;stroke-width:1.5;"/>
    <path clip-path="url(#pbc9080f35d)" d="M 223.218182 280.584676 
L 223.218182 277.621998 
" style="fill:none;stroke:#1f77b4;stroke-width:1.5;"/>
    <path clip-path="url(#pbc9080f35d)" d="M 229.261455 290.192333 
L 229.261455 286.892931 
" style="fill:none;stroke:#1f77b4;stroke-width:1.5;"/>
    <path clip-path="url(#pbc9080f35d)" d="M 235.304727 292.769728 
L 235.304727 289.280089 
" style="fill:none;stroke:#1f77b4;stroke-width:1.5;"/>
    <path clip-path="url(#pbc9080f35d)" d="M 241.348 291.878359 
L 241.348 288.35482 
" style="fill:none;stroke:#1f77b4;stroke-width:1.5;"/>
    <path clip-path="url(#pbc9080f35d)" d="M 247.391273 285.209494 
L 247.391273 281.54519 
" style="fill:none;stroke:#1f77b4;stroke-width:1.5;"/>
    <path clip-path="url(#pbc9080f35d)" d="M 253.434545 272.036363 
L 253.434545 268.29715 
" style="fill:none;stroke:#1f77b4;stroke-width:1.5;"/>
    <path clip-path="url(#pbc9080f35d)" d="M 259.477818 256.065793 
L 259.477818 252.379199 
" style="fill:none;stroke:#1f77b4;stroke-width:1.5;"/>
    <path clip-path="url(#pbc9080f35d)" d="M 265.521091 234.403442 
L 265.521091 230.833384 
" style="fill:none;stroke:#1f77b4;stroke-width:1.5;"/>
    <path clip-path="url(#pbc9080f35d)" d="M 271.564364 209.552969 
L 271.564364 206.12727 
" style="fill:none;stroke:#1f77b4;stroke-width:1.5;"/>
    <path clip-path="url(#pbc9080f35d)" d="M 277.607636 185.025468 
L 277.607636 181.60318 
" style="fill:none;stroke:#1f77b4;stroke-width:1.5;"/>
    <path clip-path="url(#pbc9080f35d)" d="M 283.650909 165.650068 
L 283.650909 161.965493 
" style="fill:none;stroke:#1f77b4;stroke-width:1.5;"/>
    <path clip-path="url(#pbc9080f35d)" d="M 289.694182 150.501694 
L 289.694182 146.612431 
" style="fill:none;stroke:#1f77b4;stroke-width:1.5;"/>
    <path clip-path="url(#pbc9080f35d)" d="M 295.737455 150.836198 
L 295.737455 146.603379 
" style="fill:none;stroke:#1f77b4;stroke-width:1.5;"/>
    <path clip-path="url(#pbc9080f35d)" d="M 301.780727 166.213761 
L 301.780727 161.77858 
" style="fill:none;stroke:#1f77b4;stroke-width:1.5;"/>
    <path clip-path="url(#pbc9080f35d)" d="M 307.824 186.827182 
L 307.824 182.624749 
" style="fill:none;stroke:#1f77b4;stroke-width:1.5;"/>
    <path clip-path="url(#pbc9080f35d)" d="M 313.867273 212.411963 
L 313.867273 208.664685 
" style="fill:none;stroke:#1f77b4;stroke-width:1.5;"/>
    <path clip-path="url(#pbc9080f35d)" d="M 319.910545 237.759512 
L 319.910545 234.59452 
" style="fill:none;stroke:#1f77b4;stroke-width:1.5;"/>
    <path clip-path="url(#pbc9080f35d)" d="M 325.953818 259.557475 
L 325.953818 256.700526 
" style="fill:none;stroke:#1f77b4;stroke-width:1.5;"/>
    <path clip-path="url(#pbc9080f35d)" d="M 331.997091 274.976407 
L 331.997091 271.874388 
" style="fill:none;stroke:#1f77b4;stroke-width:1.5;"/>
    <path clip-path="url(#pbc9080f35d)" d="M 338.040364 285.349891 
L 338.040364 281.929213 
" style="fill:none;stroke:#1f77b4;stroke-width:1.5;"/>
    <path clip-path="url(#pbc9080f35d)" d="M 344.083636 289.578178 
L 344.083636 285.993431 
" style="fill:none;stroke:#1f77b4;stroke-width:1.5;"/>
    <path clip-path="url(#pbc9080f35d)" d="M 350.126909 288.695009 
L 350.126909 285.008843 
" style="fill:none;stroke:#1f77b4;stroke-width:1.5;"/>
    <path clip-path="url(#pbc9080f35d)" d="M 356.170182 283.787882 
L 356.170182 280.190739 
" style="fill:none;stroke:#1f77b4;stroke-width:1.5;"/>
    <path clip-path="url(#pbc9080f35d)" d="M 362.213455 272.43655 
L 362.213455 268.857257 
" style="fill:none;stroke:#1f77b4;stroke-width:1.5;"/>
    <path clip-path="url(#pbc9080f35d)" d="M 368.256727 256.34844 
L 368.256727 252.559964 
" style="fill:none;stroke:#1f77b4;stroke-width:1.5;"/>
    <path clip-path="url(#pbc9080f35d)" d="M 374.3 237.231083 
L 374.3 233.362707 
" style="fill:none;stroke:#1f77b4;stroke-width:1.5;"/>
    <path clip-path="url(#pbc9080f35d)" d="M 380.343273 214.88895 
L 380.343273 211.059791 
" style="fill:none;stroke:#1f77b4;stroke-width:1.5;"/>
    <path clip-path="url(#pbc9080f35d)" d="M 386.386545 191.681844 
L 386.386545 187.876984 
" style="fill:none;stroke:#1f77b4;stroke-width:1.5;"/>
    <path clip-path="url(#pbc9080f35d)" d="M 392.429818 172.641909 
L 392.429818 168.825007 
" style="fill:none;stroke:#1f77b4;stroke-width:1.5;"/>
    <path clip-path="url(#pbc9080f35d)" d="M 398.473091 159.680541 
L 398.473091 155.739761 
" style="fill:none;stroke:#1f77b4;stroke-width:1.5;"/>
    <path clip-path="url(#pbc9080f35d)" d="M 404.516364 156.923015 
L 404.516364 152.721009 
" style="fill:none;stroke:#1f77b4;stroke-width:1.5;"/>
    <path clip-path="url(#pbc9080f35d)" d="M 410.559636 165.840875 
L 410.559636 161.413481 
" style="fill:none;stroke:#1f77b4;stroke-width:1.5;"/>
    <path clip-path="url(#pbc9080f35d)" d="M 416.602909 184.847442 
L 416.602909 180.526071 
" style="fill:none;stroke:#1f77b4;stroke-width:1.5;"/>
    <path clip-path="url(#pbc9080f35d)" d="M 422.646182 207.605783 
L 422.646182 203.572017 
" style="fill:none;stroke:#1f77b4;stroke-width:1.5;"/>
    <path clip-path="url(#pbc9080f35d)" d="M 428.689455 231.715117 
L 428.689455 228.213074 
" style="fill:none;stroke:#1f77b4;stroke-width:1.5;"/>
    <path clip-path="url(#pbc9080f35d)" d="M 434.732727 253.31503 
L 434.732727 250.229769 
" style="fill:none;stroke:#1f77b4;stroke-width:1.5;"/>
    <path clip-path="url(#pbc9080f35d)" d="M 440.776 269.937821 
L 440.776 266.787479 
" style="fill:none;stroke:#1f77b4;stroke-width:1.5;"/>
    <path clip-path="url(#pbc9080f35d)" d="M 446.819273 281.337154 
L 446.819273 277.834534 
" style="fill:none;stroke:#1f77b4;stroke-width:1.5;"/>
    <path clip-path="url(#pbc9080f35d)" d="M 452.862545 287.733756 
L 452.862545 284.043347 
" style="fill:none;stroke:#1f77b4;stroke-width:1.5;"/>
    <path clip-path="url(#pbc9080f35d)" d="M 458.905818 288.036642 
L 458.905818 284.252286 
" style="fill:none;stroke:#1f77b4;stroke-width:1.5;"/>
    <path clip-path="url(#pbc9080f35d)" d="M 464.949091 283.370903 
L 464.949091 279.708815 
" style="fill:none;stroke:#1f77b4;stroke-width:1.5;"/>
    <path clip-path="url(#pbc9080f35d)" d="M 470.992364 273.384052 
L 470.992364 269.925829 
" style="fill:none;stroke:#1f77b4;stroke-width:1.5;"/>
    <path clip-path="url(#pbc9080f35d)" d="M 477.035636 258.569936 
L 477.035636 255.137387 
" style="fill:none;stroke:#1f77b4;stroke-width:1.5;"/>
    <path clip-path="url(#pbc9080f35d)" d="M 483.078909 239.54004 
L 483.078909 235.88171 
" style="fill:none;stroke:#1f77b4;stroke-width:1.5;"/>
    <path clip-path="url(#pbc9080f35d)" d="M 489.122182 218.663571 
L 489.122182 214.877168 
" style="fill:none;stroke:#1f77b4;stroke-width:1.5;"/>
    <path clip-path="url(#pbc9080f35d)" d="M 495.165455 196.40348 
L 495.165455 192.533243 
" style="fill:none;stroke:#1f77b4;stroke-width:1.5;"/>
    <path clip-path="url(#pbc9080f35d)" d="M 501.208727 176.686514 
L 501.208727 172.788944 
" style="fill:none;stroke:#1f77b4;stroke-width:1.5;"/>
    <path clip-path="url(#pbc9080f35d)" d="M 507.252 164.604032 
L 507.252 160.665443 
" style="fill:none;stroke:#1f77b4;stroke-width:1.5;"/>
    <path clip-path="url(#pbc9080f35d)" d="M 513.295273 159.605577 
L 513.295273 155.503144 
" style="fill:none;stroke:#1f77b4;stroke-width:1.5;"/>
    <path clip-path="url(#pbc9080f35d)" d="M 519.338545 165.505912 
L 519.338545 161.343005 
" style="fill:none;stroke:#1f77b4;stroke-width:1.5;"/>
    <path clip-path="url(#pbc9080f35d)" d="M 525.381818 182.294441 
L 525.381818 178.139878 
" style="fill:none;stroke:#1f77b4;stroke-width:1.5;"/>
    <path clip-path="url(#pbc9080f35d)" d="M 531.425091 203.795079 
L 531.425091 200.10764 
" style="fill:none;stroke:#1f77b4;stroke-width:1.5;"/>
    <path clip-path="url(#pbc9080f35d)" d="M 537.468364 226.452927 
L 537.468364 223.211724 
" style="fill:none;stroke:#1f77b4;stroke-width:1.5;"/>
    <path clip-path="url(#pbc9080f35d)" d="M 543.511636 248.432562 
L 543.511636 245.428168 
" style="fill:none;stroke:#1f77b4;stroke-width:1.5;"/>
    <path clip-path="url(#pbc9080f35d)" d="M 549.554909 266.408538 
L 549.554909 263.208974 
" style="fill:none;stroke:#1f77b4;stroke-width:1.5;"/>
    <path clip-path="url(#pbc9080f35d)" d="M 555.598182 278.551624 
L 555.598182 274.992465 
" style="fill:none;stroke:#1f77b4;stroke-width:1.5;"/>
    <path clip-path="url(#pbc9080f35d)" d="M 561.641455 285.195964 
L 561.641455 281.436316 
" style="fill:none;stroke:#1f77b4;stroke-width:1.5;"/>
    <path clip-path="url(#pbc9080f35d)" d="M 567.684727 287.284283 
L 567.684727 283.406351 
" style="fill:none;stroke:#1f77b4;stroke-width:1.5;"/>
    <path clip-path="url(#pbc9080f35d)" d="M 573.728 283.761427 
L 573.728 280.083529 
" style="fill:none;stroke:#1f77b4;stroke-width:1.5;"/>
    <path clip-path="url(#pbc9080f35d)" d="M 579.771273 274.773175 
L 579.771273 271.44032 
" style="fill:none;stroke:#1f77b4;stroke-width:1.5;"/>
    <path clip-path="url(#pbc9080f35d)" d="M 585.814545 260.337265 
L 585.814545 257.507192 
" style="fill:none;stroke:#1f77b4;stroke-width:1.5;"/>
    <path clip-path="url(#pbc9080f35d)" d="M 591.857818 242.007474 
L 591.857818 239.268637 
" style="fill:none;stroke:#1f77b4;stroke-width:1.5;"/>
    <path clip-path="url(#pbc9080f35d)" d="M 597.901091 220.837114 
L 597.901091 217.712432 
" style="fill:none;stroke:#1f77b4;stroke-width:1.5;"/>
    <path clip-path="url(#pbc9080f35d)" d="M 603.944364 199.023641 
L 603.944364 195.427097 
" style="fill:none;stroke:#1f77b4;stroke-width:1.5;"/>
    <path clip-path="url(#pbc9080f35d)" d="M 609.987636 180.699057 
L 609.987636 176.868344 
" style="fill:none;stroke:#1f77b4;stroke-width:1.5;"/>
    <path clip-path="url(#pbc9080f35d)" d="M 616.030909 167.129151 
L 616.030909 163.034219 
" style="fill:none;stroke:#1f77b4;stroke-width:1.5;"/>
    <path clip-path="url(#pbc9080f35d)" d="M 622.074182 162.498775 
L 622.074182 158.578237 
" style="fill:none;stroke:#1f77b4;stroke-width:1.5;"/>
    <path clip-path="url(#pbc9080f35d)" d="M 628.117455 167.264085 
L 628.117455 163.43023 
" style="fill:none;stroke:#1f77b4;stroke-width:1.5;"/>
    <path clip-path="url(#pbc9080f35d)" d="M 634.160727 180.899343 
L 634.160727 177.35031 
" style="fill:none;stroke:#1f77b4;stroke-width:1.5;"/>
    <path clip-path="url(#pbc9080f35d)" d="M 640.204 200.880144 
L 640.204 197.876921 
" style="fill:none;stroke:#1f77b4;stroke-width:1.5;"/>
    <path clip-path="url(#pbc9080f35d)" d="M 646.247273 223.261014 
L 646.247273 220.964065 
" style="fill:none;stroke:#1f77b4;stroke-width:1.5;"/>
    <path clip-path="url(#pbc9080f35d)" d="M 652.290545 244.289333 
L 652.290545 242.064971 
" style="fill:none;stroke:#1f77b4;stroke-width:1.5;"/>
    <path clip-path="url(#pbc9080f35d)" d="M 658.333818 262.1623 
L 658.333818 259.465759 
" style="fill:none;stroke:#1f77b4;stroke-width:1.5;"/>
    <path clip-path="url(#pbc9080f35d)" d="M 664.377091 275.755782 
L 664.377091 272.471495 
" style="fill:none;stroke:#1f77b4;stroke-width:1.5;"/>
    <path clip-path="url(#pbc9080f35d)" d="M 670.420364 283.9967 
L 670.420364 280.267434 
" style="fill:none;stroke:#1f77b4;stroke-width:1.5;"/>
    <path clip-path="url(#pbc9080f35d)" d="M 676.463636 287.260562 
L 676.463636 283.237981 
" style="fill:none;stroke:#1f77b4;stroke-width:1.5;"/>
   </g>
   <g id="LineCollection_2">
    <path clip-path="url(#pbc9080f35d)" d="M 72.136364 27.138182 
L 72.136364 27.138182 
" style="fill:none;stroke:#ff7f0e;stroke-width:1.5;"/>
    <path clip-path="url(#pbc9080f35d)" d="M 78.179636 125.401927 
L 78.179636 118.767061 
" style="fill:none;stroke:#ff7f0e;stroke-width:1.5;"/>
    <path clip-path="url(#pbc9080f35d)" d="M 84.222909 166.199879 
L 84.222909 159.817546 
" style="fill:none;stroke:#ff7f0e;stroke-width:1.5;"/>
    <path clip-path="url(#pbc9080f35d)" d="M 90.266182 197.381426 
L 90.266182 191.575002 
" style="fill:none;stroke:#ff7f0e;stroke-width:1.5;"/>
    <path clip-path="url(#pbc9080f35d)" d="M 96.309455 237.768179 
L 96.309455 233.668705 
" style="fill:none;stroke:#ff7f0e;stroke-width:1.5;"/>
    <path clip-path="url(#pbc9080f35d)" d="M 102.352727 268.749657 
L 102.352727 265.012095 
" style="fill:none;stroke:#ff7f0e;stroke-width:1.5;"/>
    <path clip-path="url(#pbc9080f35d)" d="M 108.396 283.543766 
L 108.396 280.070072 
" style="fill:none;stroke:#ff7f0e;stroke-width:1.5;"/>
    <path clip-path="url(#pbc9080f35d)" d="M 114.439273 295.482109 
L 114.439273 291.696476 
" style="fill:none;stroke:#ff7f0e;stroke-width:1.5;"/>
    <path clip-path="url(#pbc9080f35d)" d="M 120.482545 301.388347 
L 120.482545 297.252298 
" style="fill:none;stroke:#ff7f0e;stroke-width:1.5;"/>
    <path clip-path="url(#pbc9080f35d)" d="M 126.525818 295.311356 
L 126.525818 290.578321 
" style="fill:none;stroke:#ff7f0e;stroke-width:1.5;"/>
    <path clip-path="url(#pbc9080f35d)" d="M 132.569091 288.39578 
L 132.569091 283.170066 
" style="fill:none;stroke:#ff7f0e;stroke-width:1.5;"/>
    <path clip-path="url(#pbc9080f35d)" d="M 138.612364 276.022263 
L 138.612364 270.242496 
" style="fill:none;stroke:#ff7f0e;stroke-width:1.5;"/>
    <path clip-path="url(#pbc9080f35d)" d="M 144.655636 256.971429 
L 144.655636 250.696709 
" style="fill:none;stroke:#ff7f0e;stroke-width:1.5;"/>
    <path clip-path="url(#pbc9080f35d)" d="M 150.698909 237.580026 
L 150.698909 230.76819 
" style="fill:none;stroke:#ff7f0e;stroke-width:1.5;"/>
    <path clip-path="url(#pbc9080f35d)" d="M 156.742182 215.976168 
L 156.742182 208.9504 
" style="fill:none;stroke:#ff7f0e;stroke-width:1.5;"/>
    <path clip-path="url(#pbc9080f35d)" d="M 162.785455 192.273058 
L 162.785455 185.80194 
" style="fill:none;stroke:#ff7f0e;stroke-width:1.5;"/>
    <path clip-path="url(#pbc9080f35d)" d="M 168.828727 175.263984 
L 168.828727 169.507719 
" style="fill:none;stroke:#ff7f0e;stroke-width:1.5;"/>
    <path clip-path="url(#pbc9080f35d)" d="M 174.872 166.928689 
L 174.872 159.84395 
" style="fill:none;stroke:#ff7f0e;stroke-width:1.5;"/>
    <path clip-path="url(#pbc9080f35d)" d="M 180.915273 160.568953 
L 180.915273 153.140715 
" style="fill:none;stroke:#ff7f0e;stroke-width:1.5;"/>
    <path clip-path="url(#pbc9080f35d)" d="M 186.958545 172.749365 
L 186.958545 165.033675 
" style="fill:none;stroke:#ff7f0e;stroke-width:1.5;"/>
    <path clip-path="url(#pbc9080f35d)" d="M 193.001818 195.456024 
L 193.001818 187.778528 
" style="fill:none;stroke:#ff7f0e;stroke-width:1.5;"/>
    <path clip-path="url(#pbc9080f35d)" d="M 199.045091 216.196524 
L 199.045091 209.477313 
" style="fill:none;stroke:#ff7f0e;stroke-width:1.5;"/>
    <path clip-path="url(#pbc9080f35d)" d="M 205.088364 237.659908 
L 205.088364 232.149039 
" style="fill:none;stroke:#ff7f0e;stroke-width:1.5;"/>
    <path clip-path="url(#pbc9080f35d)" d="M 211.131636 256.50009 
L 211.131636 251.879981 
" style="fill:none;stroke:#ff7f0e;stroke-width:1.5;"/>
    <path clip-path="url(#pbc9080f35d)" d="M 217.174909 270.810956 
L 217.174909 266.320975 
" style="fill:none;stroke:#ff7f0e;stroke-width:1.5;"/>
    <path clip-path="url(#pbc9080f35d)" d="M 223.218182 279.669391 
L 223.218182 275.067634 
" style="fill:none;stroke:#ff7f0e;stroke-width:1.5;"/>
    <path clip-path="url(#pbc9080f35d)" d="M 229.261455 284.797724 
L 229.261455 279.855128 
" style="fill:none;stroke:#ff7f0e;stroke-width:1.5;"/>
    <path clip-path="url(#pbc9080f35d)" d="M 235.304727 283.719534 
L 235.304727 278.761995 
" style="fill:none;stroke:#ff7f0e;stroke-width:1.5;"/>
    <path clip-path="url(#pbc9080f35d)" d="M 241.348 276.09609 
L 241.348 271.137218 
" style="fill:none;stroke:#ff7f0e;stroke-width:1.5;"/>
    <path clip-path="url(#pbc9080f35d)" d="M 247.391273 264.929899 
L 247.391273 259.377319 
" style="fill:none;stroke:#ff7f0e;stroke-width:1.5;"/>
    <path clip-path="url(#pbc9080f35d)" d="M 253.434545 247.492983 
L 253.434545 242.150831 
" style="fill:none;stroke:#ff7f0e;stroke-width:1.5;"/>
    <path clip-path="url(#pbc9080f35d)" d="M 259.477818 226.709813 
L 259.477818 221.301262 
" style="fill:none;stroke:#ff7f0e;stroke-width:1.5;"/>
    <path clip-path="url(#pbc9080f35d)" d="M 265.521091 203.45915 
L 265.521091 197.724518 
" style="fill:none;stroke:#ff7f0e;stroke-width:1.5;"/>
    <path clip-path="url(#pbc9080f35d)" d="M 271.564364 183.908688 
L 271.564364 178.21501 
" style="fill:none;stroke:#ff7f0e;stroke-width:1.5;"/>
    <path clip-path="url(#pbc9080f35d)" d="M 277.607636 173.781213 
L 277.607636 166.891384 
" style="fill:none;stroke:#ff7f0e;stroke-width:1.5;"/>
    <path clip-path="url(#pbc9080f35d)" d="M 283.650909 172.947109 
L 283.650909 164.393602 
" style="fill:none;stroke:#ff7f0e;stroke-width:1.5;"/>
   </g>
   <g id="line2d_15">
    <defs>
     <path d="M 5 0 
L -5 -0 
" id="m61b3d63233" style="stroke:#1f77b4;"/>
    </defs>
    <g clip-path="url(#pbc9080f35d)">
     <use style="fill:#1f77b4;stroke:#1f77b4;" x="72.136364" xlink:href="#m61b3d63233" y="27.138182"/>
     <use style="fill:#1f77b4;stroke:#1f77b4;" x="78.179636" xlink:href="#m61b3d63233" y="119.516807"/>
     <use style="fill:#1f77b4;stroke:#1f77b4;" x="84.222909" xlink:href="#m61b3d63233" y="162.096364"/>
     <use style="fill:#1f77b4;stroke:#1f77b4;" x="90.266182" xlink:href="#m61b3d63233" y="192.366105"/>
     <use style="fill:#1f77b4;stroke:#1f77b4;" x="96.309455" xlink:href="#m61b3d63233" y="232.821465"/>
     <use style="fill:#1f77b4;stroke:#1f77b4;" x="102.352727" xlink:href="#m61b3d63233" y="264.8571"/>
     <use style="fill:#1f77b4;stroke:#1f77b4;" x="108.396" xlink:href="#m61b3d63233" y="281.454368"/>
     <use style="fill:#1f77b4;stroke:#1f77b4;" x="114.439273" xlink:href="#m61b3d63233" y="296.054929"/>
     <use style="fill:#1f77b4;stroke:#1f77b4;" x="120.482545" xlink:href="#m61b3d63233" y="303.501818"/>
     <use style="fill:#1f77b4;stroke:#1f77b4;" x="126.525818" xlink:href="#m61b3d63233" y="300.27912"/>
     <use style="fill:#1f77b4;stroke:#1f77b4;" x="132.569091" xlink:href="#m61b3d63233" y="298.125216"/>
     <use style="fill:#1f77b4;stroke:#1f77b4;" x="138.612364" xlink:href="#m61b3d63233" y="289.322851"/>
     <use style="fill:#1f77b4;stroke:#1f77b4;" x="144.655636" xlink:href="#m61b3d63233" y="271.917757"/>
     <use style="fill:#1f77b4;stroke:#1f77b4;" x="150.698909" xlink:href="#m61b3d63233" y="253.969786"/>
     <use style="fill:#1f77b4;stroke:#1f77b4;" x="156.742182" xlink:href="#m61b3d63233" y="229.779685"/>
     <use style="fill:#1f77b4;stroke:#1f77b4;" x="162.785455" xlink:href="#m61b3d63233" y="199.1593"/>
     <use style="fill:#1f77b4;stroke:#1f77b4;" x="168.828727" xlink:href="#m61b3d63233" y="173.124048"/>
     <use style="fill:#1f77b4;stroke:#1f77b4;" x="174.872" xlink:href="#m61b3d63233" y="153.586409"/>
     <use style="fill:#1f77b4;stroke:#1f77b4;" x="180.915273" xlink:href="#m61b3d63233" y="135.011019"/>
     <use style="fill:#1f77b4;stroke:#1f77b4;" x="186.958545" xlink:href="#m61b3d63233" y="145.660533"/>
     <use style="fill:#1f77b4;stroke:#1f77b4;" x="193.001818" xlink:href="#m61b3d63233" y="169.033575"/>
     <use style="fill:#1f77b4;stroke:#1f77b4;" x="199.045091" xlink:href="#m61b3d63233" y="192.106202"/>
     <use style="fill:#1f77b4;stroke:#1f77b4;" x="205.088364" xlink:href="#m61b3d63233" y="219.959249"/>
     <use style="fill:#1f77b4;stroke:#1f77b4;" x="211.131636" xlink:href="#m61b3d63233" y="246.390453"/>
     <use style="fill:#1f77b4;stroke:#1f77b4;" x="217.174909" xlink:href="#m61b3d63233" y="266.046895"/>
     <use style="fill:#1f77b4;stroke:#1f77b4;" x="223.218182" xlink:href="#m61b3d63233" y="280.584676"/>
     <use style="fill:#1f77b4;stroke:#1f77b4;" x="229.261455" xlink:href="#m61b3d63233" y="290.192333"/>
     <use style="fill:#1f77b4;stroke:#1f77b4;" x="235.304727" xlink:href="#m61b3d63233" y="292.769728"/>
     <use style="fill:#1f77b4;stroke:#1f77b4;" x="241.348" xlink:href="#m61b3d63233" y="291.878359"/>
     <use style="fill:#1f77b4;stroke:#1f77b4;" x="247.391273" xlink:href="#m61b3d63233" y="285.209494"/>
     <use style="fill:#1f77b4;stroke:#1f77b4;" x="253.434545" xlink:href="#m61b3d63233" y="272.036363"/>
     <use style="fill:#1f77b4;stroke:#1f77b4;" x="259.477818" xlink:href="#m61b3d63233" y="256.065793"/>
     <use style="fill:#1f77b4;stroke:#1f77b4;" x="265.521091" xlink:href="#m61b3d63233" y="234.403442"/>
     <use style="fill:#1f77b4;stroke:#1f77b4;" x="271.564364" xlink:href="#m61b3d63233" y="209.552969"/>
     <use style="fill:#1f77b4;stroke:#1f77b4;" x="277.607636" xlink:href="#m61b3d63233" y="185.025468"/>
     <use style="fill:#1f77b4;stroke:#1f77b4;" x="283.650909" xlink:href="#m61b3d63233" y="165.650068"/>
     <use style="fill:#1f77b4;stroke:#1f77b4;" x="289.694182" xlink:href="#m61b3d63233" y="150.501694"/>
     <use style="fill:#1f77b4;stroke:#1f77b4;" x="295.737455" xlink:href="#m61b3d63233" y="150.836198"/>
     <use style="fill:#1f77b4;stroke:#1f77b4;" x="301.780727" xlink:href="#m61b3d63233" y="166.213761"/>
     <use style="fill:#1f77b4;stroke:#1f77b4;" x="307.824" xlink:href="#m61b3d63233" y="186.827182"/>
     <use style="fill:#1f77b4;stroke:#1f77b4;" x="313.867273" xlink:href="#m61b3d63233" y="212.411963"/>
     <use style="fill:#1f77b4;stroke:#1f77b4;" x="319.910545" xlink:href="#m61b3d63233" y="237.759512"/>
     <use style="fill:#1f77b4;stroke:#1f77b4;" x="325.953818" xlink:href="#m61b3d63233" y="259.557475"/>
     <use style="fill:#1f77b4;stroke:#1f77b4;" x="331.997091" xlink:href="#m61b3d63233" y="274.976407"/>
     <use style="fill:#1f77b4;stroke:#1f77b4;" x="338.040364" xlink:href="#m61b3d63233" y="285.349891"/>
     <use style="fill:#1f77b4;stroke:#1f77b4;" x="344.083636" xlink:href="#m61b3d63233" y="289.578178"/>
     <use style="fill:#1f77b4;stroke:#1f77b4;" x="350.126909" xlink:href="#m61b3d63233" y="288.695009"/>
     <use style="fill:#1f77b4;stroke:#1f77b4;" x="356.170182" xlink:href="#m61b3d63233" y="283.787882"/>
     <use style="fill:#1f77b4;stroke:#1f77b4;" x="362.213455" xlink:href="#m61b3d63233" y="272.43655"/>
     <use style="fill:#1f77b4;stroke:#1f77b4;" x="368.256727" xlink:href="#m61b3d63233" y="256.34844"/>
     <use style="fill:#1f77b4;stroke:#1f77b4;" x="374.3" xlink:href="#m61b3d63233" y="237.231083"/>
     <use style="fill:#1f77b4;stroke:#1f77b4;" x="380.343273" xlink:href="#m61b3d63233" y="214.88895"/>
     <use style="fill:#1f77b4;stroke:#1f77b4;" x="386.386545" xlink:href="#m61b3d63233" y="191.681844"/>
     <use style="fill:#1f77b4;stroke:#1f77b4;" x="392.429818" xlink:href="#m61b3d63233" y="172.641909"/>
     <use style="fill:#1f77b4;stroke:#1f77b4;" x="398.473091" xlink:href="#m61b3d63233" y="159.680541"/>
     <use style="fill:#1f77b4;stroke:#1f77b4;" x="404.516364" xlink:href="#m61b3d63233" y="156.923015"/>
     <use style="fill:#1f77b4;stroke:#1f77b4;" x="410.559636" xlink:href="#m61b3d63233" y="165.840875"/>
     <use style="fill:#1f77b4;stroke:#1f77b4;" x="416.602909" xlink:href="#m61b3d63233" y="184.847442"/>
     <use style="fill:#1f77b4;stroke:#1f77b4;" x="422.646182" xlink:href="#m61b3d63233" y="207.605783"/>
     <use style="fill:#1f77b4;stroke:#1f77b4;" x="428.689455" xlink:href="#m61b3d63233" y="231.715117"/>
     <use style="fill:#1f77b4;stroke:#1f77b4;" x="434.732727" xlink:href="#m61b3d63233" y="253.31503"/>
     <use style="fill:#1f77b4;stroke:#1f77b4;" x="440.776" xlink:href="#m61b3d63233" y="269.937821"/>
     <use style="fill:#1f77b4;stroke:#1f77b4;" x="446.819273" xlink:href="#m61b3d63233" y="281.337154"/>
     <use style="fill:#1f77b4;stroke:#1f77b4;" x="452.862545" xlink:href="#m61b3d63233" y="287.733756"/>
     <use style="fill:#1f77b4;stroke:#1f77b4;" x="458.905818" xlink:href="#m61b3d63233" y="288.036642"/>
     <use style="fill:#1f77b4;stroke:#1f77b4;" x="464.949091" xlink:href="#m61b3d63233" y="283.370903"/>
     <use style="fill:#1f77b4;stroke:#1f77b4;" x="470.992364" xlink:href="#m61b3d63233" y="273.384052"/>
     <use style="fill:#1f77b4;stroke:#1f77b4;" x="477.035636" xlink:href="#m61b3d63233" y="258.569936"/>
     <use style="fill:#1f77b4;stroke:#1f77b4;" x="483.078909" xlink:href="#m61b3d63233" y="239.54004"/>
     <use style="fill:#1f77b4;stroke:#1f77b4;" x="489.122182" xlink:href="#m61b3d63233" y="218.663571"/>
     <use style="fill:#1f77b4;stroke:#1f77b4;" x="495.165455" xlink:href="#m61b3d63233" y="196.40348"/>
     <use style="fill:#1f77b4;stroke:#1f77b4;" x="501.208727" xlink:href="#m61b3d63233" y="176.686514"/>
     <use style="fill:#1f77b4;stroke:#1f77b4;" x="507.252" xlink:href="#m61b3d63233" y="164.604032"/>
     <use style="fill:#1f77b4;stroke:#1f77b4;" x="513.295273" xlink:href="#m61b3d63233" y="159.605577"/>
     <use style="fill:#1f77b4;stroke:#1f77b4;" x="519.338545" xlink:href="#m61b3d63233" y="165.505912"/>
     <use style="fill:#1f77b4;stroke:#1f77b4;" x="525.381818" xlink:href="#m61b3d63233" y="182.294441"/>
     <use style="fill:#1f77b4;stroke:#1f77b4;" x="531.425091" xlink:href="#m61b3d63233" y="203.795079"/>
     <use style="fill:#1f77b4;stroke:#1f77b4;" x="537.468364" xlink:href="#m61b3d63233" y="226.452927"/>
     <use style="fill:#1f77b4;stroke:#1f77b4;" x="543.511636" xlink:href="#m61b3d63233" y="248.432562"/>
     <use style="fill:#1f77b4;stroke:#1f77b4;" x="549.554909" xlink:href="#m61b3d63233" y="266.408538"/>
     <use style="fill:#1f77b4;stroke:#1f77b4;" x="555.598182" xlink:href="#m61b3d63233" y="278.551624"/>
     <use style="fill:#1f77b4;stroke:#1f77b4;" x="561.641455" xlink:href="#m61b3d63233" y="285.195964"/>
     <use style="fill:#1f77b4;stroke:#1f77b4;" x="567.684727" xlink:href="#m61b3d63233" y="287.284283"/>
     <use style="fill:#1f77b4;stroke:#1f77b4;" x="573.728" xlink:href="#m61b3d63233" y="283.761427"/>
     <use style="fill:#1f77b4;stroke:#1f77b4;" x="579.771273" xlink:href="#m61b3d63233" y="274.773175"/>
     <use style="fill:#1f77b4;stroke:#1f77b4;" x="585.814545" xlink:href="#m61b3d63233" y="260.337265"/>
     <use style="fill:#1f77b4;stroke:#1f77b4;" x="591.857818" xlink:href="#m61b3d63233" y="242.007474"/>
     <use style="fill:#1f77b4;stroke:#1f77b4;" x="597.901091" xlink:href="#m61b3d63233" y="220.837114"/>
     <use style="fill:#1f77b4;stroke:#1f77b4;" x="603.944364" xlink:href="#m61b3d63233" y="199.023641"/>
     <use style="fill:#1f77b4;stroke:#1f77b4;" x="609.987636" xlink:href="#m61b3d63233" y="180.699057"/>
     <use style="fill:#1f77b4;stroke:#1f77b4;" x="616.030909" xlink:href="#m61b3d63233" y="167.129151"/>
     <use style="fill:#1f77b4;stroke:#1f77b4;" x="622.074182" xlink:href="#m61b3d63233" y="162.498775"/>
     <use style="fill:#1f77b4;stroke:#1f77b4;" x="628.117455" xlink:href="#m61b3d63233" y="167.264085"/>
     <use style="fill:#1f77b4;stroke:#1f77b4;" x="634.160727" xlink:href="#m61b3d63233" y="180.899343"/>
     <use style="fill:#1f77b4;stroke:#1f77b4;" x="640.204" xlink:href="#m61b3d63233" y="200.880144"/>
     <use style="fill:#1f77b4;stroke:#1f77b4;" x="646.247273" xlink:href="#m61b3d63233" y="223.261014"/>
     <use style="fill:#1f77b4;stroke:#1f77b4;" x="652.290545" xlink:href="#m61b3d63233" y="244.289333"/>
     <use style="fill:#1f77b4;stroke:#1f77b4;" x="658.333818" xlink:href="#m61b3d63233" y="262.1623"/>
     <use style="fill:#1f77b4;stroke:#1f77b4;" x="664.377091" xlink:href="#m61b3d63233" y="275.755782"/>
     <use style="fill:#1f77b4;stroke:#1f77b4;" x="670.420364" xlink:href="#m61b3d63233" y="283.9967"/>
     <use style="fill:#1f77b4;stroke:#1f77b4;" x="676.463636" xlink:href="#m61b3d63233" y="287.260562"/>
    </g>
   </g>
   <g id="line2d_16">
    <g clip-path="url(#pbc9080f35d)">
     <use style="fill:#1f77b4;stroke:#1f77b4;" x="72.136364" xlink:href="#m61b3d63233" y="27.138182"/>
     <use style="fill:#1f77b4;stroke:#1f77b4;" x="78.179636" xlink:href="#m61b3d63233" y="116.377065"/>
     <use style="fill:#1f77b4;stroke:#1f77b4;" x="84.222909" xlink:href="#m61b3d63233" y="158.564557"/>
     <use style="fill:#1f77b4;stroke:#1f77b4;" x="90.266182" xlink:href="#m61b3d63233" y="189.208203"/>
     <use style="fill:#1f77b4;stroke:#1f77b4;" x="96.309455" xlink:href="#m61b3d63233" y="230.553513"/>
     <use style="fill:#1f77b4;stroke:#1f77b4;" x="102.352727" xlink:href="#m61b3d63233" y="263.032747"/>
     <use style="fill:#1f77b4;stroke:#1f77b4;" x="108.396" xlink:href="#m61b3d63233" y="279.114132"/>
     <use style="fill:#1f77b4;stroke:#1f77b4;" x="114.439273" xlink:href="#m61b3d63233" y="293.292781"/>
     <use style="fill:#1f77b4;stroke:#1f77b4;" x="120.482545" xlink:href="#m61b3d63233" y="300.485835"/>
     <use style="fill:#1f77b4;stroke:#1f77b4;" x="126.525818" xlink:href="#m61b3d63233" y="297.05511"/>
     <use style="fill:#1f77b4;stroke:#1f77b4;" x="132.569091" xlink:href="#m61b3d63233" y="294.911721"/>
     <use style="fill:#1f77b4;stroke:#1f77b4;" x="138.612364" xlink:href="#m61b3d63233" y="286.046763"/>
     <use style="fill:#1f77b4;stroke:#1f77b4;" x="144.655636" xlink:href="#m61b3d63233" y="268.628138"/>
     <use style="fill:#1f77b4;stroke:#1f77b4;" x="150.698909" xlink:href="#m61b3d63233" y="250.825834"/>
     <use style="fill:#1f77b4;stroke:#1f77b4;" x="156.742182" xlink:href="#m61b3d63233" y="226.835293"/>
     <use style="fill:#1f77b4;stroke:#1f77b4;" x="162.785455" xlink:href="#m61b3d63233" y="196.113345"/>
     <use style="fill:#1f77b4;stroke:#1f77b4;" x="168.828727" xlink:href="#m61b3d63233" y="169.743608"/>
     <use style="fill:#1f77b4;stroke:#1f77b4;" x="174.872" xlink:href="#m61b3d63233" y="149.969195"/>
     <use style="fill:#1f77b4;stroke:#1f77b4;" x="180.915273" xlink:href="#m61b3d63233" y="131.196302"/>
     <use style="fill:#1f77b4;stroke:#1f77b4;" x="186.958545" xlink:href="#m61b3d63233" y="141.235155"/>
     <use style="fill:#1f77b4;stroke:#1f77b4;" x="193.001818" xlink:href="#m61b3d63233" y="164.699936"/>
     <use style="fill:#1f77b4;stroke:#1f77b4;" x="199.045091" xlink:href="#m61b3d63233" y="188.160256"/>
     <use style="fill:#1f77b4;stroke:#1f77b4;" x="205.088364" xlink:href="#m61b3d63233" y="216.675204"/>
     <use style="fill:#1f77b4;stroke:#1f77b4;" x="211.131636" xlink:href="#m61b3d63233" y="243.805439"/>
     <use style="fill:#1f77b4;stroke:#1f77b4;" x="217.174909" xlink:href="#m61b3d63233" y="263.451206"/>
     <use style="fill:#1f77b4;stroke:#1f77b4;" x="223.218182" xlink:href="#m61b3d63233" y="277.621998"/>
     <use style="fill:#1f77b4;stroke:#1f77b4;" x="229.261455" xlink:href="#m61b3d63233" y="286.892931"/>
     <use style="fill:#1f77b4;stroke:#1f77b4;" x="235.304727" xlink:href="#m61b3d63233" y="289.280089"/>
     <use style="fill:#1f77b4;stroke:#1f77b4;" x="241.348" xlink:href="#m61b3d63233" y="288.35482"/>
     <use style="fill:#1f77b4;stroke:#1f77b4;" x="247.391273" xlink:href="#m61b3d63233" y="281.54519"/>
     <use style="fill:#1f77b4;stroke:#1f77b4;" x="253.434545" xlink:href="#m61b3d63233" y="268.29715"/>
     <use style="fill:#1f77b4;stroke:#1f77b4;" x="259.477818" xlink:href="#m61b3d63233" y="252.379199"/>
     <use style="fill:#1f77b4;stroke:#1f77b4;" x="265.521091" xlink:href="#m61b3d63233" y="230.833384"/>
     <use style="fill:#1f77b4;stroke:#1f77b4;" x="271.564364" xlink:href="#m61b3d63233" y="206.12727"/>
     <use style="fill:#1f77b4;stroke:#1f77b4;" x="277.607636" xlink:href="#m61b3d63233" y="181.60318"/>
     <use style="fill:#1f77b4;stroke:#1f77b4;" x="283.650909" xlink:href="#m61b3d63233" y="161.965493"/>
     <use style="fill:#1f77b4;stroke:#1f77b4;" x="289.694182" xlink:href="#m61b3d63233" y="146.612431"/>
     <use style="fill:#1f77b4;stroke:#1f77b4;" x="295.737455" xlink:href="#m61b3d63233" y="146.603379"/>
     <use style="fill:#1f77b4;stroke:#1f77b4;" x="301.780727" xlink:href="#m61b3d63233" y="161.77858"/>
     <use style="fill:#1f77b4;stroke:#1f77b4;" x="307.824" xlink:href="#m61b3d63233" y="182.624749"/>
     <use style="fill:#1f77b4;stroke:#1f77b4;" x="313.867273" xlink:href="#m61b3d63233" y="208.664685"/>
     <use style="fill:#1f77b4;stroke:#1f77b4;" x="319.910545" xlink:href="#m61b3d63233" y="234.59452"/>
     <use style="fill:#1f77b4;stroke:#1f77b4;" x="325.953818" xlink:href="#m61b3d63233" y="256.700526"/>
     <use style="fill:#1f77b4;stroke:#1f77b4;" x="331.997091" xlink:href="#m61b3d63233" y="271.874388"/>
     <use style="fill:#1f77b4;stroke:#1f77b4;" x="338.040364" xlink:href="#m61b3d63233" y="281.929213"/>
     <use style="fill:#1f77b4;stroke:#1f77b4;" x="344.083636" xlink:href="#m61b3d63233" y="285.993431"/>
     <use style="fill:#1f77b4;stroke:#1f77b4;" x="350.126909" xlink:href="#m61b3d63233" y="285.008843"/>
     <use style="fill:#1f77b4;stroke:#1f77b4;" x="356.170182" xlink:href="#m61b3d63233" y="280.190739"/>
     <use style="fill:#1f77b4;stroke:#1f77b4;" x="362.213455" xlink:href="#m61b3d63233" y="268.857257"/>
     <use style="fill:#1f77b4;stroke:#1f77b4;" x="368.256727" xlink:href="#m61b3d63233" y="252.559964"/>
     <use style="fill:#1f77b4;stroke:#1f77b4;" x="374.3" xlink:href="#m61b3d63233" y="233.362707"/>
     <use style="fill:#1f77b4;stroke:#1f77b4;" x="380.343273" xlink:href="#m61b3d63233" y="211.059791"/>
     <use style="fill:#1f77b4;stroke:#1f77b4;" x="386.386545" xlink:href="#m61b3d63233" y="187.876984"/>
     <use style="fill:#1f77b4;stroke:#1f77b4;" x="392.429818" xlink:href="#m61b3d63233" y="168.825007"/>
     <use style="fill:#1f77b4;stroke:#1f77b4;" x="398.473091" xlink:href="#m61b3d63233" y="155.739761"/>
     <use style="fill:#1f77b4;stroke:#1f77b4;" x="404.516364" xlink:href="#m61b3d63233" y="152.721009"/>
     <use style="fill:#1f77b4;stroke:#1f77b4;" x="410.559636" xlink:href="#m61b3d63233" y="161.413481"/>
     <use style="fill:#1f77b4;stroke:#1f77b4;" x="416.602909" xlink:href="#m61b3d63233" y="180.526071"/>
     <use style="fill:#1f77b4;stroke:#1f77b4;" x="422.646182" xlink:href="#m61b3d63233" y="203.572017"/>
     <use style="fill:#1f77b4;stroke:#1f77b4;" x="428.689455" xlink:href="#m61b3d63233" y="228.213074"/>
     <use style="fill:#1f77b4;stroke:#1f77b4;" x="434.732727" xlink:href="#m61b3d63233" y="250.229769"/>
     <use style="fill:#1f77b4;stroke:#1f77b4;" x="440.776" xlink:href="#m61b3d63233" y="266.787479"/>
     <use style="fill:#1f77b4;stroke:#1f77b4;" x="446.819273" xlink:href="#m61b3d63233" y="277.834534"/>
     <use style="fill:#1f77b4;stroke:#1f77b4;" x="452.862545" xlink:href="#m61b3d63233" y="284.043347"/>
     <use style="fill:#1f77b4;stroke:#1f77b4;" x="458.905818" xlink:href="#m61b3d63233" y="284.252286"/>
     <use style="fill:#1f77b4;stroke:#1f77b4;" x="464.949091" xlink:href="#m61b3d63233" y="279.708815"/>
     <use style="fill:#1f77b4;stroke:#1f77b4;" x="470.992364" xlink:href="#m61b3d63233" y="269.925829"/>
     <use style="fill:#1f77b4;stroke:#1f77b4;" x="477.035636" xlink:href="#m61b3d63233" y="255.137387"/>
     <use style="fill:#1f77b4;stroke:#1f77b4;" x="483.078909" xlink:href="#m61b3d63233" y="235.88171"/>
     <use style="fill:#1f77b4;stroke:#1f77b4;" x="489.122182" xlink:href="#m61b3d63233" y="214.877168"/>
     <use style="fill:#1f77b4;stroke:#1f77b4;" x="495.165455" xlink:href="#m61b3d63233" y="192.533243"/>
     <use style="fill:#1f77b4;stroke:#1f77b4;" x="501.208727" xlink:href="#m61b3d63233" y="172.788944"/>
     <use style="fill:#1f77b4;stroke:#1f77b4;" x="507.252" xlink:href="#m61b3d63233" y="160.665443"/>
     <use style="fill:#1f77b4;stroke:#1f77b4;" x="513.295273" xlink:href="#m61b3d63233" y="155.503144"/>
     <use style="fill:#1f77b4;stroke:#1f77b4;" x="519.338545" xlink:href="#m61b3d63233" y="161.343005"/>
     <use style="fill:#1f77b4;stroke:#1f77b4;" x="525.381818" xlink:href="#m61b3d63233" y="178.139878"/>
     <use style="fill:#1f77b4;stroke:#1f77b4;" x="531.425091" xlink:href="#m61b3d63233" y="200.10764"/>
     <use style="fill:#1f77b4;stroke:#1f77b4;" x="537.468364" xlink:href="#m61b3d63233" y="223.211724"/>
     <use style="fill:#1f77b4;stroke:#1f77b4;" x="543.511636" xlink:href="#m61b3d63233" y="245.428168"/>
     <use style="fill:#1f77b4;stroke:#1f77b4;" x="549.554909" xlink:href="#m61b3d63233" y="263.208974"/>
     <use style="fill:#1f77b4;stroke:#1f77b4;" x="555.598182" xlink:href="#m61b3d63233" y="274.992465"/>
     <use style="fill:#1f77b4;stroke:#1f77b4;" x="561.641455" xlink:href="#m61b3d63233" y="281.436316"/>
     <use style="fill:#1f77b4;stroke:#1f77b4;" x="567.684727" xlink:href="#m61b3d63233" y="283.406351"/>
     <use style="fill:#1f77b4;stroke:#1f77b4;" x="573.728" xlink:href="#m61b3d63233" y="280.083529"/>
     <use style="fill:#1f77b4;stroke:#1f77b4;" x="579.771273" xlink:href="#m61b3d63233" y="271.44032"/>
     <use style="fill:#1f77b4;stroke:#1f77b4;" x="585.814545" xlink:href="#m61b3d63233" y="257.507192"/>
     <use style="fill:#1f77b4;stroke:#1f77b4;" x="591.857818" xlink:href="#m61b3d63233" y="239.268637"/>
     <use style="fill:#1f77b4;stroke:#1f77b4;" x="597.901091" xlink:href="#m61b3d63233" y="217.712432"/>
     <use style="fill:#1f77b4;stroke:#1f77b4;" x="603.944364" xlink:href="#m61b3d63233" y="195.427097"/>
     <use style="fill:#1f77b4;stroke:#1f77b4;" x="609.987636" xlink:href="#m61b3d63233" y="176.868344"/>
     <use style="fill:#1f77b4;stroke:#1f77b4;" x="616.030909" xlink:href="#m61b3d63233" y="163.034219"/>
     <use style="fill:#1f77b4;stroke:#1f77b4;" x="622.074182" xlink:href="#m61b3d63233" y="158.578237"/>
     <use style="fill:#1f77b4;stroke:#1f77b4;" x="628.117455" xlink:href="#m61b3d63233" y="163.43023"/>
     <use style="fill:#1f77b4;stroke:#1f77b4;" x="634.160727" xlink:href="#m61b3d63233" y="177.35031"/>
     <use style="fill:#1f77b4;stroke:#1f77b4;" x="640.204" xlink:href="#m61b3d63233" y="197.876921"/>
     <use style="fill:#1f77b4;stroke:#1f77b4;" x="646.247273" xlink:href="#m61b3d63233" y="220.964065"/>
     <use style="fill:#1f77b4;stroke:#1f77b4;" x="652.290545" xlink:href="#m61b3d63233" y="242.064971"/>
     <use style="fill:#1f77b4;stroke:#1f77b4;" x="658.333818" xlink:href="#m61b3d63233" y="259.465759"/>
     <use style="fill:#1f77b4;stroke:#1f77b4;" x="664.377091" xlink:href="#m61b3d63233" y="272.471495"/>
     <use style="fill:#1f77b4;stroke:#1f77b4;" x="670.420364" xlink:href="#m61b3d63233" y="280.267434"/>
     <use style="fill:#1f77b4;stroke:#1f77b4;" x="676.463636" xlink:href="#m61b3d63233" y="283.237981"/>
    </g>
   </g>
   <g id="line2d_17">
    <defs>
     <path d="M 5 0 
L -5 -0 
" id="m1a1f35ae8d" style="stroke:#ff7f0e;"/>
    </defs>
    <g clip-path="url(#pbc9080f35d)">
     <use style="fill:#ff7f0e;stroke:#ff7f0e;" x="72.136364" xlink:href="#m1a1f35ae8d" y="27.138182"/>
     <use style="fill:#ff7f0e;stroke:#ff7f0e;" x="78.179636" xlink:href="#m1a1f35ae8d" y="125.401927"/>
     <use style="fill:#ff7f0e;stroke:#ff7f0e;" x="84.222909" xlink:href="#m1a1f35ae8d" y="166.199879"/>
     <use style="fill:#ff7f0e;stroke:#ff7f0e;" x="90.266182" xlink:href="#m1a1f35ae8d" y="197.381426"/>
     <use style="fill:#ff7f0e;stroke:#ff7f0e;" x="96.309455" xlink:href="#m1a1f35ae8d" y="237.768179"/>
     <use style="fill:#ff7f0e;stroke:#ff7f0e;" x="102.352727" xlink:href="#m1a1f35ae8d" y="268.749657"/>
     <use style="fill:#ff7f0e;stroke:#ff7f0e;" x="108.396" xlink:href="#m1a1f35ae8d" y="283.543766"/>
     <use style="fill:#ff7f0e;stroke:#ff7f0e;" x="114.439273" xlink:href="#m1a1f35ae8d" y="295.482109"/>
     <use style="fill:#ff7f0e;stroke:#ff7f0e;" x="120.482545" xlink:href="#m1a1f35ae8d" y="301.388347"/>
     <use style="fill:#ff7f0e;stroke:#ff7f0e;" x="126.525818" xlink:href="#m1a1f35ae8d" y="295.311356"/>
     <use style="fill:#ff7f0e;stroke:#ff7f0e;" x="132.569091" xlink:href="#m1a1f35ae8d" y="288.39578"/>
     <use style="fill:#ff7f0e;stroke:#ff7f0e;" x="138.612364" xlink:href="#m1a1f35ae8d" y="276.022263"/>
     <use style="fill:#ff7f0e;stroke:#ff7f0e;" x="144.655636" xlink:href="#m1a1f35ae8d" y="256.971429"/>
     <use style="fill:#ff7f0e;stroke:#ff7f0e;" x="150.698909" xlink:href="#m1a1f35ae8d" y="237.580026"/>
     <use style="fill:#ff7f0e;stroke:#ff7f0e;" x="156.742182" xlink:href="#m1a1f35ae8d" y="215.976168"/>
     <use style="fill:#ff7f0e;stroke:#ff7f0e;" x="162.785455" xlink:href="#m1a1f35ae8d" y="192.273058"/>
     <use style="fill:#ff7f0e;stroke:#ff7f0e;" x="168.828727" xlink:href="#m1a1f35ae8d" y="175.263984"/>
     <use style="fill:#ff7f0e;stroke:#ff7f0e;" x="174.872" xlink:href="#m1a1f35ae8d" y="166.928689"/>
     <use style="fill:#ff7f0e;stroke:#ff7f0e;" x="180.915273" xlink:href="#m1a1f35ae8d" y="160.568953"/>
     <use style="fill:#ff7f0e;stroke:#ff7f0e;" x="186.958545" xlink:href="#m1a1f35ae8d" y="172.749365"/>
     <use style="fill:#ff7f0e;stroke:#ff7f0e;" x="193.001818" xlink:href="#m1a1f35ae8d" y="195.456024"/>
     <use style="fill:#ff7f0e;stroke:#ff7f0e;" x="199.045091" xlink:href="#m1a1f35ae8d" y="216.196524"/>
     <use style="fill:#ff7f0e;stroke:#ff7f0e;" x="205.088364" xlink:href="#m1a1f35ae8d" y="237.659908"/>
     <use style="fill:#ff7f0e;stroke:#ff7f0e;" x="211.131636" xlink:href="#m1a1f35ae8d" y="256.50009"/>
     <use style="fill:#ff7f0e;stroke:#ff7f0e;" x="217.174909" xlink:href="#m1a1f35ae8d" y="270.810956"/>
     <use style="fill:#ff7f0e;stroke:#ff7f0e;" x="223.218182" xlink:href="#m1a1f35ae8d" y="279.669391"/>
     <use style="fill:#ff7f0e;stroke:#ff7f0e;" x="229.261455" xlink:href="#m1a1f35ae8d" y="284.797724"/>
     <use style="fill:#ff7f0e;stroke:#ff7f0e;" x="235.304727" xlink:href="#m1a1f35ae8d" y="283.719534"/>
     <use style="fill:#ff7f0e;stroke:#ff7f0e;" x="241.348" xlink:href="#m1a1f35ae8d" y="276.09609"/>
     <use style="fill:#ff7f0e;stroke:#ff7f0e;" x="247.391273" xlink:href="#m1a1f35ae8d" y="264.929899"/>
     <use style="fill:#ff7f0e;stroke:#ff7f0e;" x="253.434545" xlink:href="#m1a1f35ae8d" y="247.492983"/>
     <use style="fill:#ff7f0e;stroke:#ff7f0e;" x="259.477818" xlink:href="#m1a1f35ae8d" y="226.709813"/>
     <use style="fill:#ff7f0e;stroke:#ff7f0e;" x="265.521091" xlink:href="#m1a1f35ae8d" y="203.45915"/>
     <use style="fill:#ff7f0e;stroke:#ff7f0e;" x="271.564364" xlink:href="#m1a1f35ae8d" y="183.908688"/>
     <use style="fill:#ff7f0e;stroke:#ff7f0e;" x="277.607636" xlink:href="#m1a1f35ae8d" y="173.781213"/>
     <use style="fill:#ff7f0e;stroke:#ff7f0e;" x="283.650909" xlink:href="#m1a1f35ae8d" y="172.947109"/>
    </g>
   </g>
   <g id="line2d_18">
    <g clip-path="url(#pbc9080f35d)">
     <use style="fill:#ff7f0e;stroke:#ff7f0e;" x="72.136364" xlink:href="#m1a1f35ae8d" y="27.138182"/>
     <use style="fill:#ff7f0e;stroke:#ff7f0e;" x="78.179636" xlink:href="#m1a1f35ae8d" y="118.767061"/>
     <use style="fill:#ff7f0e;stroke:#ff7f0e;" x="84.222909" xlink:href="#m1a1f35ae8d" y="159.817546"/>
     <use style="fill:#ff7f0e;stroke:#ff7f0e;" x="90.266182" xlink:href="#m1a1f35ae8d" y="191.575002"/>
     <use style="fill:#ff7f0e;stroke:#ff7f0e;" x="96.309455" xlink:href="#m1a1f35ae8d" y="233.668705"/>
     <use style="fill:#ff7f0e;stroke:#ff7f0e;" x="102.352727" xlink:href="#m1a1f35ae8d" y="265.012095"/>
     <use style="fill:#ff7f0e;stroke:#ff7f0e;" x="108.396" xlink:href="#m1a1f35ae8d" y="280.070072"/>
     <use style="fill:#ff7f0e;stroke:#ff7f0e;" x="114.439273" xlink:href="#m1a1f35ae8d" y="291.696476"/>
     <use style="fill:#ff7f0e;stroke:#ff7f0e;" x="120.482545" xlink:href="#m1a1f35ae8d" y="297.252298"/>
     <use style="fill:#ff7f0e;stroke:#ff7f0e;" x="126.525818" xlink:href="#m1a1f35ae8d" y="290.578321"/>
     <use style="fill:#ff7f0e;stroke:#ff7f0e;" x="132.569091" xlink:href="#m1a1f35ae8d" y="283.170066"/>
     <use style="fill:#ff7f0e;stroke:#ff7f0e;" x="138.612364" xlink:href="#m1a1f35ae8d" y="270.242496"/>
     <use style="fill:#ff7f0e;stroke:#ff7f0e;" x="144.655636" xlink:href="#m1a1f35ae8d" y="250.696709"/>
     <use style="fill:#ff7f0e;stroke:#ff7f0e;" x="150.698909" xlink:href="#m1a1f35ae8d" y="230.76819"/>
     <use style="fill:#ff7f0e;stroke:#ff7f0e;" x="156.742182" xlink:href="#m1a1f35ae8d" y="208.9504"/>
     <use style="fill:#ff7f0e;stroke:#ff7f0e;" x="162.785455" xlink:href="#m1a1f35ae8d" y="185.80194"/>
     <use style="fill:#ff7f0e;stroke:#ff7f0e;" x="168.828727" xlink:href="#m1a1f35ae8d" y="169.507719"/>
     <use style="fill:#ff7f0e;stroke:#ff7f0e;" x="174.872" xlink:href="#m1a1f35ae8d" y="159.84395"/>
     <use style="fill:#ff7f0e;stroke:#ff7f0e;" x="180.915273" xlink:href="#m1a1f35ae8d" y="153.140715"/>
     <use style="fill:#ff7f0e;stroke:#ff7f0e;" x="186.958545" xlink:href="#m1a1f35ae8d" y="165.033675"/>
     <use style="fill:#ff7f0e;stroke:#ff7f0e;" x="193.001818" xlink:href="#m1a1f35ae8d" y="187.778528"/>
     <use style="fill:#ff7f0e;stroke:#ff7f0e;" x="199.045091" xlink:href="#m1a1f35ae8d" y="209.477313"/>
     <use style="fill:#ff7f0e;stroke:#ff7f0e;" x="205.088364" xlink:href="#m1a1f35ae8d" y="232.149039"/>
     <use style="fill:#ff7f0e;stroke:#ff7f0e;" x="211.131636" xlink:href="#m1a1f35ae8d" y="251.879981"/>
     <use style="fill:#ff7f0e;stroke:#ff7f0e;" x="217.174909" xlink:href="#m1a1f35ae8d" y="266.320975"/>
     <use style="fill:#ff7f0e;stroke:#ff7f0e;" x="223.218182" xlink:href="#m1a1f35ae8d" y="275.067634"/>
     <use style="fill:#ff7f0e;stroke:#ff7f0e;" x="229.261455" xlink:href="#m1a1f35ae8d" y="279.855128"/>
     <use style="fill:#ff7f0e;stroke:#ff7f0e;" x="235.304727" xlink:href="#m1a1f35ae8d" y="278.761995"/>
     <use style="fill:#ff7f0e;stroke:#ff7f0e;" x="241.348" xlink:href="#m1a1f35ae8d" y="271.137218"/>
     <use style="fill:#ff7f0e;stroke:#ff7f0e;" x="247.391273" xlink:href="#m1a1f35ae8d" y="259.377319"/>
     <use style="fill:#ff7f0e;stroke:#ff7f0e;" x="253.434545" xlink:href="#m1a1f35ae8d" y="242.150831"/>
     <use style="fill:#ff7f0e;stroke:#ff7f0e;" x="259.477818" xlink:href="#m1a1f35ae8d" y="221.301262"/>
     <use style="fill:#ff7f0e;stroke:#ff7f0e;" x="265.521091" xlink:href="#m1a1f35ae8d" y="197.724518"/>
     <use style="fill:#ff7f0e;stroke:#ff7f0e;" x="271.564364" xlink:href="#m1a1f35ae8d" y="178.21501"/>
     <use style="fill:#ff7f0e;stroke:#ff7f0e;" x="277.607636" xlink:href="#m1a1f35ae8d" y="166.891384"/>
     <use style="fill:#ff7f0e;stroke:#ff7f0e;" x="283.650909" xlink:href="#m1a1f35ae8d" y="164.393602"/>
    </g>
   </g>
   <g id="line2d_19">
    <path clip-path="url(#pbc9080f35d)" d="M 72.136364 27.138182 
L 78.179636 117.946936 
L 84.222909 160.33046 
L 90.266182 190.787154 
L 96.309455 231.687489 
L 102.352727 263.944923 
L 108.396 280.28425 
L 114.439273 294.673855 
L 120.482545 301.993827 
L 126.525818 298.667115 
L 132.569091 296.518469 
L 138.612364 287.684807 
L 144.655636 270.272948 
L 150.698909 252.39781 
L 156.742182 228.307489 
L 162.785455 197.636322 
L 168.828727 171.433828 
L 174.872 151.777802 
L 180.915273 133.103661 
L 186.958545 143.447844 
L 193.001818 166.866756 
L 199.045091 190.133229 
L 205.088364 218.317226 
L 211.131636 245.097946 
L 217.174909 264.74905 
L 223.218182 279.103337 
L 229.261455 288.542632 
L 235.304727 291.024908 
L 241.348 290.116589 
L 247.391273 283.377342 
L 253.434545 270.166757 
L 259.477818 254.222496 
L 265.521091 232.618413 
L 271.564364 207.84012 
L 277.607636 183.314324 
L 283.650909 163.807781 
L 289.694182 148.557062 
L 295.737455 148.719788 
L 301.780727 163.996171 
L 307.824 184.725966 
L 313.867273 210.538324 
L 319.910545 236.177016 
L 325.953818 258.129 
L 331.997091 273.425398 
L 338.040364 283.639552 
L 344.083636 287.785805 
L 350.126909 286.851926 
L 356.170182 281.98931 
L 362.213455 270.646904 
L 368.256727 254.454202 
L 374.3 235.296895 
L 380.343273 212.974371 
L 386.386545 189.779414 
L 392.429818 170.733458 
L 398.473091 157.710151 
L 404.516364 154.822012 
L 410.559636 163.627178 
L 416.602909 182.686756 
L 422.646182 205.5889 
L 428.689455 229.964095 
L 434.732727 251.772399 
L 440.776 268.36265 
L 446.819273 279.585844 
L 452.862545 285.888551 
L 458.905818 286.144464 
L 464.949091 281.539859 
L 470.992364 271.65494 
L 477.035636 256.853661 
L 483.078909 237.710875 
L 489.122182 216.77037 
L 495.165455 194.468362 
L 501.208727 174.737729 
L 507.252 162.634738 
L 513.295273 157.55436 
L 519.338545 163.424459 
L 525.381818 180.217159 
L 531.425091 201.951359 
L 537.468364 224.832326 
L 543.511636 246.930365 
L 549.554909 264.808756 
L 555.598182 276.772044 
L 561.641455 283.31614 
L 567.684727 285.345317 
L 573.728 281.922478 
L 579.771273 273.106747 
L 585.814545 258.922229 
L 591.857818 240.638055 
L 597.901091 219.274773 
L 603.944364 197.225369 
L 609.987636 178.7837 
L 616.030909 165.081685 
L 622.074182 160.538506 
L 628.117455 165.347157 
L 634.160727 179.124826 
L 640.204 199.378532 
L 646.247273 222.11254 
L 652.290545 243.177152 
L 658.333818 260.81403 
L 664.377091 274.113639 
L 670.420364 282.132067 
L 676.463636 285.249271 
" style="fill:none;stroke:#1f77b4;stroke-linecap:square;stroke-width:1.5;"/>
    <defs>
     <path d="M 0 3 
C 0.795609 3 1.55874 2.683901 2.12132 2.12132 
C 2.683901 1.55874 3 0.795609 3 0 
C 3 -0.795609 2.683901 -1.55874 2.12132 -2.12132 
C 1.55874 -2.683901 0.795609 -3 0 -3 
C -0.795609 -3 -1.55874 -2.683901 -2.12132 -2.12132 
C -2.683901 -1.55874 -3 -0.795609 -3 0 
C -3 0.795609 -2.683901 1.55874 -2.12132 2.12132 
C -1.55874 2.683901 -0.795609 3 0 3 
z
" id="m6ec0a75503" style="stroke:#1f77b4;"/>
    </defs>
    <g clip-path="url(#pbc9080f35d)">
     <use style="fill:#1f77b4;stroke:#1f77b4;" x="72.136364" xlink:href="#m6ec0a75503" y="27.138182"/>
     <use style="fill:#1f77b4;stroke:#1f77b4;" x="78.179636" xlink:href="#m6ec0a75503" y="117.946936"/>
     <use style="fill:#1f77b4;stroke:#1f77b4;" x="84.222909" xlink:href="#m6ec0a75503" y="160.33046"/>
     <use style="fill:#1f77b4;stroke:#1f77b4;" x="90.266182" xlink:href="#m6ec0a75503" y="190.787154"/>
     <use style="fill:#1f77b4;stroke:#1f77b4;" x="96.309455" xlink:href="#m6ec0a75503" y="231.687489"/>
     <use style="fill:#1f77b4;stroke:#1f77b4;" x="102.352727" xlink:href="#m6ec0a75503" y="263.944923"/>
     <use style="fill:#1f77b4;stroke:#1f77b4;" x="108.396" xlink:href="#m6ec0a75503" y="280.28425"/>
     <use style="fill:#1f77b4;stroke:#1f77b4;" x="114.439273" xlink:href="#m6ec0a75503" y="294.673855"/>
     <use style="fill:#1f77b4;stroke:#1f77b4;" x="120.482545" xlink:href="#m6ec0a75503" y="301.993827"/>
     <use style="fill:#1f77b4;stroke:#1f77b4;" x="126.525818" xlink:href="#m6ec0a75503" y="298.667115"/>
     <use style="fill:#1f77b4;stroke:#1f77b4;" x="132.569091" xlink:href="#m6ec0a75503" y="296.518469"/>
     <use style="fill:#1f77b4;stroke:#1f77b4;" x="138.612364" xlink:href="#m6ec0a75503" y="287.684807"/>
     <use style="fill:#1f77b4;stroke:#1f77b4;" x="144.655636" xlink:href="#m6ec0a75503" y="270.272948"/>
     <use style="fill:#1f77b4;stroke:#1f77b4;" x="150.698909" xlink:href="#m6ec0a75503" y="252.39781"/>
     <use style="fill:#1f77b4;stroke:#1f77b4;" x="156.742182" xlink:href="#m6ec0a75503" y="228.307489"/>
     <use style="fill:#1f77b4;stroke:#1f77b4;" x="162.785455" xlink:href="#m6ec0a75503" y="197.636322"/>
     <use style="fill:#1f77b4;stroke:#1f77b4;" x="168.828727" xlink:href="#m6ec0a75503" y="171.433828"/>
     <use style="fill:#1f77b4;stroke:#1f77b4;" x="174.872" xlink:href="#m6ec0a75503" y="151.777802"/>
     <use style="fill:#1f77b4;stroke:#1f77b4;" x="180.915273" xlink:href="#m6ec0a75503" y="133.103661"/>
     <use style="fill:#1f77b4;stroke:#1f77b4;" x="186.958545" xlink:href="#m6ec0a75503" y="143.447844"/>
     <use style="fill:#1f77b4;stroke:#1f77b4;" x="193.001818" xlink:href="#m6ec0a75503" y="166.866756"/>
     <use style="fill:#1f77b4;stroke:#1f77b4;" x="199.045091" xlink:href="#m6ec0a75503" y="190.133229"/>
     <use style="fill:#1f77b4;stroke:#1f77b4;" x="205.088364" xlink:href="#m6ec0a75503" y="218.317226"/>
     <use style="fill:#1f77b4;stroke:#1f77b4;" x="211.131636" xlink:href="#m6ec0a75503" y="245.097946"/>
     <use style="fill:#1f77b4;stroke:#1f77b4;" x="217.174909" xlink:href="#m6ec0a75503" y="264.74905"/>
     <use style="fill:#1f77b4;stroke:#1f77b4;" x="223.218182" xlink:href="#m6ec0a75503" y="279.103337"/>
     <use style="fill:#1f77b4;stroke:#1f77b4;" x="229.261455" xlink:href="#m6ec0a75503" y="288.542632"/>
     <use style="fill:#1f77b4;stroke:#1f77b4;" x="235.304727" xlink:href="#m6ec0a75503" y="291.024908"/>
     <use style="fill:#1f77b4;stroke:#1f77b4;" x="241.348" xlink:href="#m6ec0a75503" y="290.116589"/>
     <use style="fill:#1f77b4;stroke:#1f77b4;" x="247.391273" xlink:href="#m6ec0a75503" y="283.377342"/>
     <use style="fill:#1f77b4;stroke:#1f77b4;" x="253.434545" xlink:href="#m6ec0a75503" y="270.166757"/>
     <use style="fill:#1f77b4;stroke:#1f77b4;" x="259.477818" xlink:href="#m6ec0a75503" y="254.222496"/>
     <use style="fill:#1f77b4;stroke:#1f77b4;" x="265.521091" xlink:href="#m6ec0a75503" y="232.618413"/>
     <use style="fill:#1f77b4;stroke:#1f77b4;" x="271.564364" xlink:href="#m6ec0a75503" y="207.84012"/>
     <use style="fill:#1f77b4;stroke:#1f77b4;" x="277.607636" xlink:href="#m6ec0a75503" y="183.314324"/>
     <use style="fill:#1f77b4;stroke:#1f77b4;" x="283.650909" xlink:href="#m6ec0a75503" y="163.807781"/>
     <use style="fill:#1f77b4;stroke:#1f77b4;" x="289.694182" xlink:href="#m6ec0a75503" y="148.557062"/>
     <use style="fill:#1f77b4;stroke:#1f77b4;" x="295.737455" xlink:href="#m6ec0a75503" y="148.719788"/>
     <use style="fill:#1f77b4;stroke:#1f77b4;" x="301.780727" xlink:href="#m6ec0a75503" y="163.996171"/>
     <use style="fill:#1f77b4;stroke:#1f77b4;" x="307.824" xlink:href="#m6ec0a75503" y="184.725966"/>
     <use style="fill:#1f77b4;stroke:#1f77b4;" x="313.867273" xlink:href="#m6ec0a75503" y="210.538324"/>
     <use style="fill:#1f77b4;stroke:#1f77b4;" x="319.910545" xlink:href="#m6ec0a75503" y="236.177016"/>
     <use style="fill:#1f77b4;stroke:#1f77b4;" x="325.953818" xlink:href="#m6ec0a75503" y="258.129"/>
     <use style="fill:#1f77b4;stroke:#1f77b4;" x="331.997091" xlink:href="#m6ec0a75503" y="273.425398"/>
     <use style="fill:#1f77b4;stroke:#1f77b4;" x="338.040364" xlink:href="#m6ec0a75503" y="283.639552"/>
     <use style="fill:#1f77b4;stroke:#1f77b4;" x="344.083636" xlink:href="#m6ec0a75503" y="287.785805"/>
     <use style="fill:#1f77b4;stroke:#1f77b4;" x="350.126909" xlink:href="#m6ec0a75503" y="286.851926"/>
     <use style="fill:#1f77b4;stroke:#1f77b4;" x="356.170182" xlink:href="#m6ec0a75503" y="281.98931"/>
     <use style="fill:#1f77b4;stroke:#1f77b4;" x="362.213455" xlink:href="#m6ec0a75503" y="270.646904"/>
     <use style="fill:#1f77b4;stroke:#1f77b4;" x="368.256727" xlink:href="#m6ec0a75503" y="254.454202"/>
     <use style="fill:#1f77b4;stroke:#1f77b4;" x="374.3" xlink:href="#m6ec0a75503" y="235.296895"/>
     <use style="fill:#1f77b4;stroke:#1f77b4;" x="380.343273" xlink:href="#m6ec0a75503" y="212.974371"/>
     <use style="fill:#1f77b4;stroke:#1f77b4;" x="386.386545" xlink:href="#m6ec0a75503" y="189.779414"/>
     <use style="fill:#1f77b4;stroke:#1f77b4;" x="392.429818" xlink:href="#m6ec0a75503" y="170.733458"/>
     <use style="fill:#1f77b4;stroke:#1f77b4;" x="398.473091" xlink:href="#m6ec0a75503" y="157.710151"/>
     <use style="fill:#1f77b4;stroke:#1f77b4;" x="404.516364" xlink:href="#m6ec0a75503" y="154.822012"/>
     <use style="fill:#1f77b4;stroke:#1f77b4;" x="410.559636" xlink:href="#m6ec0a75503" y="163.627178"/>
     <use style="fill:#1f77b4;stroke:#1f77b4;" x="416.602909" xlink:href="#m6ec0a75503" y="182.686756"/>
     <use style="fill:#1f77b4;stroke:#1f77b4;" x="422.646182" xlink:href="#m6ec0a75503" y="205.5889"/>
     <use style="fill:#1f77b4;stroke:#1f77b4;" x="428.689455" xlink:href="#m6ec0a75503" y="229.964095"/>
     <use style="fill:#1f77b4;stroke:#1f77b4;" x="434.732727" xlink:href="#m6ec0a75503" y="251.772399"/>
     <use style="fill:#1f77b4;stroke:#1f77b4;" x="440.776" xlink:href="#m6ec0a75503" y="268.36265"/>
     <use style="fill:#1f77b4;stroke:#1f77b4;" x="446.819273" xlink:href="#m6ec0a75503" y="279.585844"/>
     <use style="fill:#1f77b4;stroke:#1f77b4;" x="452.862545" xlink:href="#m6ec0a75503" y="285.888551"/>
     <use style="fill:#1f77b4;stroke:#1f77b4;" x="458.905818" xlink:href="#m6ec0a75503" y="286.144464"/>
     <use style="fill:#1f77b4;stroke:#1f77b4;" x="464.949091" xlink:href="#m6ec0a75503" y="281.539859"/>
     <use style="fill:#1f77b4;stroke:#1f77b4;" x="470.992364" xlink:href="#m6ec0a75503" y="271.65494"/>
     <use style="fill:#1f77b4;stroke:#1f77b4;" x="477.035636" xlink:href="#m6ec0a75503" y="256.853661"/>
     <use style="fill:#1f77b4;stroke:#1f77b4;" x="483.078909" xlink:href="#m6ec0a75503" y="237.710875"/>
     <use style="fill:#1f77b4;stroke:#1f77b4;" x="489.122182" xlink:href="#m6ec0a75503" y="216.77037"/>
     <use style="fill:#1f77b4;stroke:#1f77b4;" x="495.165455" xlink:href="#m6ec0a75503" y="194.468362"/>
     <use style="fill:#1f77b4;stroke:#1f77b4;" x="501.208727" xlink:href="#m6ec0a75503" y="174.737729"/>
     <use style="fill:#1f77b4;stroke:#1f77b4;" x="507.252" xlink:href="#m6ec0a75503" y="162.634738"/>
     <use style="fill:#1f77b4;stroke:#1f77b4;" x="513.295273" xlink:href="#m6ec0a75503" y="157.55436"/>
     <use style="fill:#1f77b4;stroke:#1f77b4;" x="519.338545" xlink:href="#m6ec0a75503" y="163.424459"/>
     <use style="fill:#1f77b4;stroke:#1f77b4;" x="525.381818" xlink:href="#m6ec0a75503" y="180.217159"/>
     <use style="fill:#1f77b4;stroke:#1f77b4;" x="531.425091" xlink:href="#m6ec0a75503" y="201.951359"/>
     <use style="fill:#1f77b4;stroke:#1f77b4;" x="537.468364" xlink:href="#m6ec0a75503" y="224.832326"/>
     <use style="fill:#1f77b4;stroke:#1f77b4;" x="543.511636" xlink:href="#m6ec0a75503" y="246.930365"/>
     <use style="fill:#1f77b4;stroke:#1f77b4;" x="549.554909" xlink:href="#m6ec0a75503" y="264.808756"/>
     <use style="fill:#1f77b4;stroke:#1f77b4;" x="555.598182" xlink:href="#m6ec0a75503" y="276.772044"/>
     <use style="fill:#1f77b4;stroke:#1f77b4;" x="561.641455" xlink:href="#m6ec0a75503" y="283.31614"/>
     <use style="fill:#1f77b4;stroke:#1f77b4;" x="567.684727" xlink:href="#m6ec0a75503" y="285.345317"/>
     <use style="fill:#1f77b4;stroke:#1f77b4;" x="573.728" xlink:href="#m6ec0a75503" y="281.922478"/>
     <use style="fill:#1f77b4;stroke:#1f77b4;" x="579.771273" xlink:href="#m6ec0a75503" y="273.106747"/>
     <use style="fill:#1f77b4;stroke:#1f77b4;" x="585.814545" xlink:href="#m6ec0a75503" y="258.922229"/>
     <use style="fill:#1f77b4;stroke:#1f77b4;" x="591.857818" xlink:href="#m6ec0a75503" y="240.638055"/>
     <use style="fill:#1f77b4;stroke:#1f77b4;" x="597.901091" xlink:href="#m6ec0a75503" y="219.274773"/>
     <use style="fill:#1f77b4;stroke:#1f77b4;" x="603.944364" xlink:href="#m6ec0a75503" y="197.225369"/>
     <use style="fill:#1f77b4;stroke:#1f77b4;" x="609.987636" xlink:href="#m6ec0a75503" y="178.7837"/>
     <use style="fill:#1f77b4;stroke:#1f77b4;" x="616.030909" xlink:href="#m6ec0a75503" y="165.081685"/>
     <use style="fill:#1f77b4;stroke:#1f77b4;" x="622.074182" xlink:href="#m6ec0a75503" y="160.538506"/>
     <use style="fill:#1f77b4;stroke:#1f77b4;" x="628.117455" xlink:href="#m6ec0a75503" y="165.347157"/>
     <use style="fill:#1f77b4;stroke:#1f77b4;" x="634.160727" xlink:href="#m6ec0a75503" y="179.124826"/>
     <use style="fill:#1f77b4;stroke:#1f77b4;" x="640.204" xlink:href="#m6ec0a75503" y="199.378532"/>
     <use style="fill:#1f77b4;stroke:#1f77b4;" x="646.247273" xlink:href="#m6ec0a75503" y="222.11254"/>
     <use style="fill:#1f77b4;stroke:#1f77b4;" x="652.290545" xlink:href="#m6ec0a75503" y="243.177152"/>
     <use style="fill:#1f77b4;stroke:#1f77b4;" x="658.333818" xlink:href="#m6ec0a75503" y="260.81403"/>
     <use style="fill:#1f77b4;stroke:#1f77b4;" x="664.377091" xlink:href="#m6ec0a75503" y="274.113639"/>
     <use style="fill:#1f77b4;stroke:#1f77b4;" x="670.420364" xlink:href="#m6ec0a75503" y="282.132067"/>
     <use style="fill:#1f77b4;stroke:#1f77b4;" x="676.463636" xlink:href="#m6ec0a75503" y="285.249271"/>
    </g>
   </g>
   <g id="line2d_20">
    <path clip-path="url(#pbc9080f35d)" d="M 72.136364 27.138182 
L 78.179636 122.084494 
L 84.222909 163.008713 
L 90.266182 194.478214 
L 96.309455 235.718442 
L 102.352727 266.880876 
L 108.396 281.806919 
L 114.439273 293.589293 
L 120.482545 299.320323 
L 126.525818 292.944838 
L 132.569091 285.782923 
L 138.612364 273.13238 
L 144.655636 253.834069 
L 150.698909 234.174108 
L 156.742182 212.463284 
L 162.785455 189.037499 
L 168.828727 172.385852 
L 174.872 163.38632 
L 180.915273 156.854834 
L 186.958545 168.89152 
L 193.001818 191.617276 
L 199.045091 212.836919 
L 205.088364 234.904473 
L 211.131636 254.190036 
L 217.174909 268.565966 
L 223.218182 277.368512 
L 229.261455 282.326426 
L 235.304727 281.240765 
L 241.348 273.616654 
L 247.391273 262.153609 
L 253.434545 244.821907 
L 259.477818 224.005538 
L 265.521091 200.591834 
L 271.564364 181.061849 
L 277.607636 170.336299 
L 283.650909 168.670356 
" style="fill:none;stroke:#ff7f0e;stroke-linecap:square;stroke-width:1.5;"/>
    <defs>
     <path d="M 0 3 
C 0.795609 3 1.55874 2.683901 2.12132 2.12132 
C 2.683901 1.55874 3 0.795609 3 0 
C 3 -0.795609 2.683901 -1.55874 2.12132 -2.12132 
C 1.55874 -2.683901 0.795609 -3 0 -3 
C -0.795609 -3 -1.55874 -2.683901 -2.12132 -2.12132 
C -2.683901 -1.55874 -3 -0.795609 -3 0 
C -3 0.795609 -2.683901 1.55874 -2.12132 2.12132 
C -1.55874 2.683901 -0.795609 3 0 3 
z
" id="m0b779147a3" style="stroke:#ff7f0e;"/>
    </defs>
    <g clip-path="url(#pbc9080f35d)">
     <use style="fill:#ff7f0e;stroke:#ff7f0e;" x="72.136364" xlink:href="#m0b779147a3" y="27.138182"/>
     <use style="fill:#ff7f0e;stroke:#ff7f0e;" x="78.179636" xlink:href="#m0b779147a3" y="122.084494"/>
     <use style="fill:#ff7f0e;stroke:#ff7f0e;" x="84.222909" xlink:href="#m0b779147a3" y="163.008713"/>
     <use style="fill:#ff7f0e;stroke:#ff7f0e;" x="90.266182" xlink:href="#m0b779147a3" y="194.478214"/>
     <use style="fill:#ff7f0e;stroke:#ff7f0e;" x="96.309455" xlink:href="#m0b779147a3" y="235.718442"/>
     <use style="fill:#ff7f0e;stroke:#ff7f0e;" x="102.352727" xlink:href="#m0b779147a3" y="266.880876"/>
     <use style="fill:#ff7f0e;stroke:#ff7f0e;" x="108.396" xlink:href="#m0b779147a3" y="281.806919"/>
     <use style="fill:#ff7f0e;stroke:#ff7f0e;" x="114.439273" xlink:href="#m0b779147a3" y="293.589293"/>
     <use style="fill:#ff7f0e;stroke:#ff7f0e;" x="120.482545" xlink:href="#m0b779147a3" y="299.320323"/>
     <use style="fill:#ff7f0e;stroke:#ff7f0e;" x="126.525818" xlink:href="#m0b779147a3" y="292.944838"/>
     <use style="fill:#ff7f0e;stroke:#ff7f0e;" x="132.569091" xlink:href="#m0b779147a3" y="285.782923"/>
     <use style="fill:#ff7f0e;stroke:#ff7f0e;" x="138.612364" xlink:href="#m0b779147a3" y="273.13238"/>
     <use style="fill:#ff7f0e;stroke:#ff7f0e;" x="144.655636" xlink:href="#m0b779147a3" y="253.834069"/>
     <use style="fill:#ff7f0e;stroke:#ff7f0e;" x="150.698909" xlink:href="#m0b779147a3" y="234.174108"/>
     <use style="fill:#ff7f0e;stroke:#ff7f0e;" x="156.742182" xlink:href="#m0b779147a3" y="212.463284"/>
     <use style="fill:#ff7f0e;stroke:#ff7f0e;" x="162.785455" xlink:href="#m0b779147a3" y="189.037499"/>
     <use style="fill:#ff7f0e;stroke:#ff7f0e;" x="168.828727" xlink:href="#m0b779147a3" y="172.385852"/>
     <use style="fill:#ff7f0e;stroke:#ff7f0e;" x="174.872" xlink:href="#m0b779147a3" y="163.38632"/>
     <use style="fill:#ff7f0e;stroke:#ff7f0e;" x="180.915273" xlink:href="#m0b779147a3" y="156.854834"/>
     <use style="fill:#ff7f0e;stroke:#ff7f0e;" x="186.958545" xlink:href="#m0b779147a3" y="168.89152"/>
     <use style="fill:#ff7f0e;stroke:#ff7f0e;" x="193.001818" xlink:href="#m0b779147a3" y="191.617276"/>
     <use style="fill:#ff7f0e;stroke:#ff7f0e;" x="199.045091" xlink:href="#m0b779147a3" y="212.836919"/>
     <use style="fill:#ff7f0e;stroke:#ff7f0e;" x="205.088364" xlink:href="#m0b779147a3" y="234.904473"/>
     <use style="fill:#ff7f0e;stroke:#ff7f0e;" x="211.131636" xlink:href="#m0b779147a3" y="254.190036"/>
     <use style="fill:#ff7f0e;stroke:#ff7f0e;" x="217.174909" xlink:href="#m0b779147a3" y="268.565966"/>
     <use style="fill:#ff7f0e;stroke:#ff7f0e;" x="223.218182" xlink:href="#m0b779147a3" y="277.368512"/>
     <use style="fill:#ff7f0e;stroke:#ff7f0e;" x="229.261455" xlink:href="#m0b779147a3" y="282.326426"/>
     <use style="fill:#ff7f0e;stroke:#ff7f0e;" x="235.304727" xlink:href="#m0b779147a3" y="281.240765"/>
     <use style="fill:#ff7f0e;stroke:#ff7f0e;" x="241.348" xlink:href="#m0b779147a3" y="273.616654"/>
     <use style="fill:#ff7f0e;stroke:#ff7f0e;" x="247.391273" xlink:href="#m0b779147a3" y="262.153609"/>
     <use style="fill:#ff7f0e;stroke:#ff7f0e;" x="253.434545" xlink:href="#m0b779147a3" y="244.821907"/>
     <use style="fill:#ff7f0e;stroke:#ff7f0e;" x="259.477818" xlink:href="#m0b779147a3" y="224.005538"/>
     <use style="fill:#ff7f0e;stroke:#ff7f0e;" x="265.521091" xlink:href="#m0b779147a3" y="200.591834"/>
     <use style="fill:#ff7f0e;stroke:#ff7f0e;" x="271.564364" xlink:href="#m0b779147a3" y="181.061849"/>
     <use style="fill:#ff7f0e;stroke:#ff7f0e;" x="277.607636" xlink:href="#m0b779147a3" y="170.336299"/>
     <use style="fill:#ff7f0e;stroke:#ff7f0e;" x="283.650909" xlink:href="#m0b779147a3" y="168.670356"/>
    </g>
   </g>
   <g id="patch_3">
    <path d="M 41.92 317.32 
L 41.92 13.32 
" style="fill:none;stroke:#000000;stroke-linecap:square;stroke-linejoin:miter;stroke-width:0.8;"/>
   </g>
   <g id="patch_4">
    <path d="M 706.68 317.32 
L 706.68 13.32 
" style="fill:none;stroke:#000000;stroke-linecap:square;stroke-linejoin:miter;stroke-width:0.8;"/>
   </g>
   <g id="patch_5">
    <path d="M 41.92 317.32 
L 706.68 317.32 
" style="fill:none;stroke:#000000;stroke-linecap:square;stroke-linejoin:miter;stroke-width:0.8;"/>
   </g>
   <g id="patch_6">
    <path d="M 41.92 13.32 
L 706.68 13.32 
" style="fill:none;stroke:#000000;stroke-linecap:square;stroke-linejoin:miter;stroke-width:0.8;"/>
   </g>
  </g>
 </g>
 <defs>
  <clipPath id="pbc9080f35d">
   <rect height="304" width="664.76" x="41.92" y="13.32"/>
  </clipPath>
 </defs>
</svg>
