<?xml version="1.0" encoding="utf-8" standalone="no"?>
<!DOCTYPE svg PUBLIC "-//W3C//DTD SVG 1.1//EN"
  "http://www.w3.org/Graphics/SVG/1.1/DTD/svg11.dtd">
<!-- Created with matplotlib (http://matplotlib.org/) -->
<svg height="169pt" version="1.1" viewBox="0 0 169 169" width="169pt" xmlns="http://www.w3.org/2000/svg" xmlns:xlink="http://www.w3.org/1999/xlink">
 <defs>
  <style type="text/css">
*{stroke-linecap:butt;stroke-linejoin:round;}
  </style>
 </defs>
 <g id="figure_1">
  <g id="patch_1">
   <path d="M 0 169.92 
L 169.92 169.92 
L 169.92 0 
L 0 0 
z
" style="fill:#ffffff;"/>
  </g>
  <g id="axes_1">
   <g id="patch_2">
    <path d="M 36.036544 120.546725 
L 156.612432 120.546725 
L 156.612432 13.307568 
L 36.036544 13.307568 
z
" style="fill:#ffffff;"/>
   </g>
   <g id="matplotlib.axis_1">
    <g id="xtick_1">
     <g id="line2d_1">
      <defs>
       <path d="M 0 0 
L 0 3.5 
" id="m11fd2a203b" style="stroke:#000000;stroke-width:0.8;"/>
      </defs>
      <g>
       <use style="stroke:#000000;stroke-width:0.8;" x="59.371938" xlink:href="#m11fd2a203b" y="120.546725"/>
      </g>
     </g>
     <g id="text_1">
      <!-- 27.0 -->
      <defs>
       <path d="M 19.1875 8.296875 
L 53.609375 8.296875 
L 53.609375 0 
L 7.328125 0 
L 7.328125 8.296875 
Q 12.9375 14.109375 22.625 23.890625 
Q 32.328125 33.6875 34.8125 36.53125 
Q 39.546875 41.84375 41.421875 45.53125 
Q 43.3125 49.21875 43.3125 52.78125 
Q 43.3125 58.59375 39.234375 62.25 
Q 35.15625 65.921875 28.609375 65.921875 
Q 23.96875 65.921875 18.8125 64.3125 
Q 13.671875 62.703125 7.8125 59.421875 
L 7.8125 69.390625 
Q 13.765625 71.78125 18.9375 73 
Q 24.125 74.21875 28.421875 74.21875 
Q 39.75 74.21875 46.484375 68.546875 
Q 53.21875 62.890625 53.21875 53.421875 
Q 53.21875 48.921875 51.53125 44.890625 
Q 49.859375 40.875 45.40625 35.40625 
Q 44.1875 33.984375 37.640625 27.21875 
Q 31.109375 20.453125 19.1875 8.296875 
z
" id="DejaVuSans-32"/>
       <path d="M 8.203125 72.90625 
L 55.078125 72.90625 
L 55.078125 68.703125 
L 28.609375 0 
L 18.3125 0 
L 43.21875 64.59375 
L 8.203125 64.59375 
z
" id="DejaVuSans-37"/>
       <path d="M 10.6875 12.40625 
L 21 12.40625 
L 21 0 
L 10.6875 0 
z
" id="DejaVuSans-2e"/>
       <path d="M 31.78125 66.40625 
Q 24.171875 66.40625 20.328125 58.90625 
Q 16.5 51.421875 16.5 36.375 
Q 16.5 21.390625 20.328125 13.890625 
Q 24.171875 6.390625 31.78125 6.390625 
Q 39.453125 6.390625 43.28125 13.890625 
Q 47.125 21.390625 47.125 36.375 
Q 47.125 51.421875 43.28125 58.90625 
Q 39.453125 66.40625 31.78125 66.40625 
z
M 31.78125 74.21875 
Q 44.046875 74.21875 50.515625 64.515625 
Q 56.984375 54.828125 56.984375 36.375 
Q 56.984375 17.96875 50.515625 8.265625 
Q 44.046875 -1.421875 31.78125 -1.421875 
Q 19.53125 -1.421875 13.0625 8.265625 
Q 6.59375 17.96875 6.59375 36.375 
Q 6.59375 54.828125 13.0625 64.515625 
Q 19.53125 74.21875 31.78125 74.21875 
z
" id="DejaVuSans-30"/>
      </defs>
      <g transform="translate(48.239126 135.145162)scale(0.1 -0.1)">
       <use xlink:href="#DejaVuSans-32"/>
       <use x="63.623047" xlink:href="#DejaVuSans-37"/>
       <use x="127.246094" xlink:href="#DejaVuSans-2e"/>
       <use x="159.033203" xlink:href="#DejaVuSans-30"/>
      </g>
     </g>
    </g>
    <g id="xtick_2">
     <g id="line2d_2">
      <g>
       <use style="stroke:#000000;stroke-width:0.8;" x="102.919522" xlink:href="#m11fd2a203b" y="120.546725"/>
      </g>
     </g>
     <g id="text_2">
      <!-- 27.5 -->
      <defs>
       <path d="M 10.796875 72.90625 
L 49.515625 72.90625 
L 49.515625 64.59375 
L 19.828125 64.59375 
L 19.828125 46.734375 
Q 21.96875 47.46875 24.109375 47.828125 
Q 26.265625 48.1875 28.421875 48.1875 
Q 40.625 48.1875 47.75 41.5 
Q 54.890625 34.8125 54.890625 23.390625 
Q 54.890625 11.625 47.5625 5.09375 
Q 40.234375 -1.421875 26.90625 -1.421875 
Q 22.3125 -1.421875 17.546875 -0.640625 
Q 12.796875 0.140625 7.71875 1.703125 
L 7.71875 11.625 
Q 12.109375 9.234375 16.796875 8.0625 
Q 21.484375 6.890625 26.703125 6.890625 
Q 35.15625 6.890625 40.078125 11.328125 
Q 45.015625 15.765625 45.015625 23.390625 
Q 45.015625 31 40.078125 35.4375 
Q 35.15625 39.890625 26.703125 39.890625 
Q 22.75 39.890625 18.8125 39.015625 
Q 14.890625 38.140625 10.796875 36.28125 
z
" id="DejaVuSans-35"/>
      </defs>
      <g transform="translate(91.78671 135.145162)scale(0.1 -0.1)">
       <use xlink:href="#DejaVuSans-32"/>
       <use x="63.623047" xlink:href="#DejaVuSans-37"/>
       <use x="127.246094" xlink:href="#DejaVuSans-2e"/>
       <use x="159.033203" xlink:href="#DejaVuSans-35"/>
      </g>
     </g>
    </g>
    <g id="xtick_3">
     <g id="line2d_3">
      <g>
       <use style="stroke:#000000;stroke-width:0.8;" x="146.467106" xlink:href="#m11fd2a203b" y="120.546725"/>
      </g>
     </g>
     <g id="text_3">
      <!-- 28.0 -->
      <defs>
       <path d="M 31.78125 34.625 
Q 24.75 34.625 20.71875 30.859375 
Q 16.703125 27.09375 16.703125 20.515625 
Q 16.703125 13.921875 20.71875 10.15625 
Q 24.75 6.390625 31.78125 6.390625 
Q 38.8125 6.390625 42.859375 10.171875 
Q 46.921875 13.96875 46.921875 20.515625 
Q 46.921875 27.09375 42.890625 30.859375 
Q 38.875 34.625 31.78125 34.625 
z
M 21.921875 38.8125 
Q 15.578125 40.375 12.03125 44.71875 
Q 8.5 49.078125 8.5 55.328125 
Q 8.5 64.0625 14.71875 69.140625 
Q 20.953125 74.21875 31.78125 74.21875 
Q 42.671875 74.21875 48.875 69.140625 
Q 55.078125 64.0625 55.078125 55.328125 
Q 55.078125 49.078125 51.53125 44.71875 
Q 48 40.375 41.703125 38.8125 
Q 48.828125 37.15625 52.796875 32.3125 
Q 56.78125 27.484375 56.78125 20.515625 
Q 56.78125 9.90625 50.3125 4.234375 
Q 43.84375 -1.421875 31.78125 -1.421875 
Q 19.734375 -1.421875 13.25 4.234375 
Q 6.78125 9.90625 6.78125 20.515625 
Q 6.78125 27.484375 10.78125 32.3125 
Q 14.796875 37.15625 21.921875 38.8125 
z
M 18.3125 54.390625 
Q 18.3125 48.734375 21.84375 45.5625 
Q 25.390625 42.390625 31.78125 42.390625 
Q 38.140625 42.390625 41.71875 45.5625 
Q 45.3125 48.734375 45.3125 54.390625 
Q 45.3125 60.0625 41.71875 63.234375 
Q 38.140625 66.40625 31.78125 66.40625 
Q 25.390625 66.40625 21.84375 63.234375 
Q 18.3125 60.0625 18.3125 54.390625 
z
" id="DejaVuSans-38"/>
      </defs>
      <g transform="translate(135.334294 135.145162)scale(0.1 -0.1)">
       <use xlink:href="#DejaVuSans-32"/>
       <use x="63.623047" xlink:href="#DejaVuSans-38"/>
       <use x="127.246094" xlink:href="#DejaVuSans-2e"/>
       <use x="159.033203" xlink:href="#DejaVuSans-30"/>
      </g>
     </g>
    </g>
    <g id="text_4">
     <!-- $f\;[\frac{10^{-6}}{\Delta t}]$ -->
     <defs>
      <path d="M 47.796875 75.984375 
L 46.390625 68.5 
L 37.796875 68.5 
Q 32.90625 68.5 30.6875 66.578125 
Q 28.46875 64.65625 27.390625 59.515625 
L 26.421875 54.6875 
L 41.21875 54.6875 
L 39.890625 47.703125 
L 25.09375 47.703125 
L 15.828125 0 
L 6.78125 0 
L 16.109375 47.703125 
L 7.515625 47.703125 
L 8.796875 54.6875 
L 17.390625 54.6875 
L 18.109375 58.5 
Q 19.96875 68.171875 24.625 72.078125 
Q 29.296875 75.984375 39.3125 75.984375 
z
" id="DejaVuSans-Oblique-66"/>
      <path d="M 8.59375 75.984375 
L 29.296875 75.984375 
L 29.296875 69 
L 17.578125 69 
L 17.578125 -6.203125 
L 29.296875 -6.203125 
L 29.296875 -13.1875 
L 8.59375 -13.1875 
z
" id="DejaVuSans-5b"/>
      <path d="M 12.40625 8.296875 
L 28.515625 8.296875 
L 28.515625 63.921875 
L 10.984375 60.40625 
L 10.984375 69.390625 
L 28.421875 72.90625 
L 38.28125 72.90625 
L 38.28125 8.296875 
L 54.390625 8.296875 
L 54.390625 0 
L 12.40625 0 
z
" id="DejaVuSans-31"/>
      <path d="M 10.59375 35.5 
L 73.1875 35.5 
L 73.1875 27.203125 
L 10.59375 27.203125 
z
" id="DejaVuSans-2212"/>
      <path d="M 33.015625 40.375 
Q 26.375 40.375 22.484375 35.828125 
Q 18.609375 31.296875 18.609375 23.390625 
Q 18.609375 15.53125 22.484375 10.953125 
Q 26.375 6.390625 33.015625 6.390625 
Q 39.65625 6.390625 43.53125 10.953125 
Q 47.40625 15.53125 47.40625 23.390625 
Q 47.40625 31.296875 43.53125 35.828125 
Q 39.65625 40.375 33.015625 40.375 
z
M 52.59375 71.296875 
L 52.59375 62.3125 
Q 48.875 64.0625 45.09375 64.984375 
Q 41.3125 65.921875 37.59375 65.921875 
Q 27.828125 65.921875 22.671875 59.328125 
Q 17.53125 52.734375 16.796875 39.40625 
Q 19.671875 43.65625 24.015625 45.921875 
Q 28.375 48.1875 33.59375 48.1875 
Q 44.578125 48.1875 50.953125 41.515625 
Q 57.328125 34.859375 57.328125 23.390625 
Q 57.328125 12.15625 50.6875 5.359375 
Q 44.046875 -1.421875 33.015625 -1.421875 
Q 20.359375 -1.421875 13.671875 8.265625 
Q 6.984375 17.96875 6.984375 36.375 
Q 6.984375 53.65625 15.1875 63.9375 
Q 23.390625 74.21875 37.203125 74.21875 
Q 40.921875 74.21875 44.703125 73.484375 
Q 48.484375 72.75 52.59375 71.296875 
z
" id="DejaVuSans-36"/>
      <path d="M 34.1875 63.1875 
L 14.15625 8.203125 
L 54.25 8.203125 
z
M 0.78125 0 
L 28.609375 72.90625 
L 39.796875 72.90625 
L 67.578125 0 
z
" id="DejaVuSans-394"/>
      <path d="M 42.28125 54.6875 
L 40.921875 47.703125 
L 23 47.703125 
L 17.1875 18.015625 
Q 16.890625 16.359375 16.75 15.234375 
Q 16.609375 14.109375 16.609375 13.484375 
Q 16.609375 10.359375 18.484375 8.9375 
Q 20.359375 7.515625 24.515625 7.515625 
L 33.59375 7.515625 
L 32.078125 0 
L 23.484375 0 
Q 15.484375 0 11.546875 3.125 
Q 7.625 6.25 7.625 12.59375 
Q 7.625 13.71875 7.765625 15.0625 
Q 7.90625 16.40625 8.203125 18.015625 
L 14.015625 47.703125 
L 6.390625 47.703125 
L 7.8125 54.6875 
L 15.28125 54.6875 
L 18.3125 70.21875 
L 27.296875 70.21875 
L 24.3125 54.6875 
z
" id="DejaVuSans-Oblique-74"/>
      <path d="M 30.421875 75.984375 
L 30.421875 -13.1875 
L 9.71875 -13.1875 
L 9.71875 -6.203125 
L 21.390625 -6.203125 
L 21.390625 69 
L 9.71875 69 
L 9.71875 75.984375 
z
" id="DejaVuSans-5d"/>
     </defs>
     <g transform="translate(80.474488 152.02485)scale(0.1 -0.1)">
      <use transform="translate(0 0.04375)" xlink:href="#DejaVuSans-Oblique-66"/>
      <use transform="translate(62.264214 0.04375)" xlink:href="#DejaVuSans-5b"/>
      <use transform="translate(101.277886 44.835938)scale(0.7)" xlink:href="#DejaVuSans-31"/>
      <use transform="translate(145.814019 44.835938)scale(0.7)" xlink:href="#DejaVuSans-30"/>
      <use transform="translate(191.020073 71.632813)scale(0.49)" xlink:href="#DejaVuSans-2212"/>
      <use transform="translate(232.076714 71.632813)scale(0.49)" xlink:href="#DejaVuSans-36"/>
      <use transform="translate(145.277886 -38.44375)scale(0.7)" xlink:href="#DejaVuSans-394"/>
      <use transform="translate(193.163628 -38.44375)scale(0.7)" xlink:href="#DejaVuSans-Oblique-74"/>
      <use transform="translate(277.666069 0.04375)" xlink:href="#DejaVuSans-5d"/>
      <path d="M 101.277886 18.840625 
L 101.277886 25.090625 
L 265.166069 25.090625 
L 265.166069 18.840625 
L 101.277886 18.840625 
z
"/>
     </g>
    </g>
   </g>
   <g id="matplotlib.axis_2">
    <g id="ytick_1">
     <g id="line2d_4">
      <defs>
       <path d="M 0 0 
L -3.5 0 
" id="ma53e0809b4" style="stroke:#000000;stroke-width:0.8;"/>
      </defs>
      <g>
       <use style="stroke:#000000;stroke-width:0.8;" x="36.036544" xlink:href="#ma53e0809b4" y="103.50434"/>
      </g>
     </g>
     <g id="text_5">
      <!-- $\mathdefault{10^{7}}$ -->
      <g transform="translate(11.436544 107.303558)scale(0.1 -0.1)">
       <use transform="translate(0 0.684375)" xlink:href="#DejaVuSans-31"/>
       <use transform="translate(63.623047 0.684375)" xlink:href="#DejaVuSans-30"/>
       <use transform="translate(128.203125 38.965625)scale(0.7)" xlink:href="#DejaVuSans-37"/>
      </g>
     </g>
    </g>
    <g id="ytick_2">
     <g id="line2d_5">
      <g>
       <use style="stroke:#000000;stroke-width:0.8;" x="36.036544" xlink:href="#ma53e0809b4" y="75.20559"/>
      </g>
     </g>
     <g id="text_6">
      <!-- $\mathdefault{10^{8}}$ -->
      <g transform="translate(11.436544 79.004808)scale(0.1 -0.1)">
       <use transform="translate(0 0.765625)" xlink:href="#DejaVuSans-31"/>
       <use transform="translate(63.623047 0.765625)" xlink:href="#DejaVuSans-30"/>
       <use transform="translate(128.203125 39.046875)scale(0.7)" xlink:href="#DejaVuSans-38"/>
      </g>
     </g>
    </g>
    <g id="ytick_3">
     <g id="line2d_6">
      <g>
       <use style="stroke:#000000;stroke-width:0.8;" x="36.036544" xlink:href="#ma53e0809b4" y="46.90684"/>
      </g>
     </g>
     <g id="text_7">
      <!-- $\mathdefault{10^{9}}$ -->
      <defs>
       <path d="M 10.984375 1.515625 
L 10.984375 10.5 
Q 14.703125 8.734375 18.5 7.8125 
Q 22.3125 6.890625 25.984375 6.890625 
Q 35.75 6.890625 40.890625 13.453125 
Q 46.046875 20.015625 46.78125 33.40625 
Q 43.953125 29.203125 39.59375 26.953125 
Q 35.25 24.703125 29.984375 24.703125 
Q 19.046875 24.703125 12.671875 31.3125 
Q 6.296875 37.9375 6.296875 49.421875 
Q 6.296875 60.640625 12.9375 67.421875 
Q 19.578125 74.21875 30.609375 74.21875 
Q 43.265625 74.21875 49.921875 64.515625 
Q 56.59375 54.828125 56.59375 36.375 
Q 56.59375 19.140625 48.40625 8.859375 
Q 40.234375 -1.421875 26.421875 -1.421875 
Q 22.703125 -1.421875 18.890625 -0.6875 
Q 15.09375 0.046875 10.984375 1.515625 
z
M 30.609375 32.421875 
Q 37.25 32.421875 41.125 36.953125 
Q 45.015625 41.5 45.015625 49.421875 
Q 45.015625 57.28125 41.125 61.84375 
Q 37.25 66.40625 30.609375 66.40625 
Q 23.96875 66.40625 20.09375 61.84375 
Q 16.21875 57.28125 16.21875 49.421875 
Q 16.21875 41.5 20.09375 36.953125 
Q 23.96875 32.421875 30.609375 32.421875 
z
" id="DejaVuSans-39"/>
      </defs>
      <g transform="translate(11.436544 50.706058)scale(0.1 -0.1)">
       <use transform="translate(0 0.765625)" xlink:href="#DejaVuSans-31"/>
       <use transform="translate(63.623047 0.765625)" xlink:href="#DejaVuSans-30"/>
       <use transform="translate(128.203125 39.046875)scale(0.7)" xlink:href="#DejaVuSans-39"/>
      </g>
     </g>
    </g>
    <g id="ytick_4">
     <g id="line2d_7">
      <g>
       <use style="stroke:#000000;stroke-width:0.8;" x="36.036544" xlink:href="#ma53e0809b4" y="18.60809"/>
      </g>
     </g>
     <g id="text_8">
      <!-- $\mathdefault{10^{10}}$ -->
      <g transform="translate(6.936544 22.407309)scale(0.1 -0.1)">
       <use transform="translate(0 0.765625)" xlink:href="#DejaVuSans-31"/>
       <use transform="translate(63.623047 0.765625)" xlink:href="#DejaVuSans-30"/>
       <use transform="translate(128.203125 39.046875)scale(0.7)" xlink:href="#DejaVuSans-31"/>
       <use transform="translate(172.739258 39.046875)scale(0.7)" xlink:href="#DejaVuSans-30"/>
      </g>
     </g>
    </g>
    <g id="ytick_5">
     <g id="line2d_8">
      <defs>
       <path d="M 0 0 
L -2 0 
" id="ma4f822b9c6" style="stroke:#000000;stroke-width:0.6;"/>
      </defs>
      <g>
       <use style="stroke:#000000;stroke-width:0.6;" x="36.036544" xlink:href="#ma4f822b9c6" y="118.301154"/>
      </g>
     </g>
    </g>
    <g id="ytick_6">
     <g id="line2d_9">
      <g>
       <use style="stroke:#000000;stroke-width:0.6;" x="36.036544" xlink:href="#ma4f822b9c6" y="114.765544"/>
      </g>
     </g>
    </g>
    <g id="ytick_7">
     <g id="line2d_10">
      <g>
       <use style="stroke:#000000;stroke-width:0.6;" x="36.036544" xlink:href="#ma4f822b9c6" y="112.023112"/>
      </g>
     </g>
    </g>
    <g id="ytick_8">
     <g id="line2d_11">
      <g>
       <use style="stroke:#000000;stroke-width:0.6;" x="36.036544" xlink:href="#ma4f822b9c6" y="109.782382"/>
      </g>
     </g>
    </g>
    <g id="ytick_9">
     <g id="line2d_12">
      <g>
       <use style="stroke:#000000;stroke-width:0.6;" x="36.036544" xlink:href="#ma4f822b9c6" y="107.887871"/>
      </g>
     </g>
    </g>
    <g id="ytick_10">
     <g id="line2d_13">
      <g>
       <use style="stroke:#000000;stroke-width:0.6;" x="36.036544" xlink:href="#ma4f822b9c6" y="106.246772"/>
      </g>
     </g>
    </g>
    <g id="ytick_11">
     <g id="line2d_14">
      <g>
       <use style="stroke:#000000;stroke-width:0.6;" x="36.036544" xlink:href="#ma4f822b9c6" y="104.799219"/>
      </g>
     </g>
    </g>
    <g id="ytick_12">
     <g id="line2d_15">
      <g>
       <use style="stroke:#000000;stroke-width:0.6;" x="36.036544" xlink:href="#ma4f822b9c6" y="94.985567"/>
      </g>
     </g>
    </g>
    <g id="ytick_13">
     <g id="line2d_16">
      <g>
       <use style="stroke:#000000;stroke-width:0.6;" x="36.036544" xlink:href="#ma4f822b9c6" y="90.002405"/>
      </g>
     </g>
    </g>
    <g id="ytick_14">
     <g id="line2d_17">
      <g>
       <use style="stroke:#000000;stroke-width:0.6;" x="36.036544" xlink:href="#ma4f822b9c6" y="86.466794"/>
      </g>
     </g>
    </g>
    <g id="ytick_15">
     <g id="line2d_18">
      <g>
       <use style="stroke:#000000;stroke-width:0.6;" x="36.036544" xlink:href="#ma4f822b9c6" y="83.724362"/>
      </g>
     </g>
    </g>
    <g id="ytick_16">
     <g id="line2d_19">
      <g>
       <use style="stroke:#000000;stroke-width:0.6;" x="36.036544" xlink:href="#ma4f822b9c6" y="81.483632"/>
      </g>
     </g>
    </g>
    <g id="ytick_17">
     <g id="line2d_20">
      <g>
       <use style="stroke:#000000;stroke-width:0.6;" x="36.036544" xlink:href="#ma4f822b9c6" y="79.589121"/>
      </g>
     </g>
    </g>
    <g id="ytick_18">
     <g id="line2d_21">
      <g>
       <use style="stroke:#000000;stroke-width:0.6;" x="36.036544" xlink:href="#ma4f822b9c6" y="77.948022"/>
      </g>
     </g>
    </g>
    <g id="ytick_19">
     <g id="line2d_22">
      <g>
       <use style="stroke:#000000;stroke-width:0.6;" x="36.036544" xlink:href="#ma4f822b9c6" y="76.500469"/>
      </g>
     </g>
    </g>
    <g id="ytick_20">
     <g id="line2d_23">
      <g>
       <use style="stroke:#000000;stroke-width:0.6;" x="36.036544" xlink:href="#ma4f822b9c6" y="66.686817"/>
      </g>
     </g>
    </g>
    <g id="ytick_21">
     <g id="line2d_24">
      <g>
       <use style="stroke:#000000;stroke-width:0.6;" x="36.036544" xlink:href="#ma4f822b9c6" y="61.703655"/>
      </g>
     </g>
    </g>
    <g id="ytick_22">
     <g id="line2d_25">
      <g>
       <use style="stroke:#000000;stroke-width:0.6;" x="36.036544" xlink:href="#ma4f822b9c6" y="58.168045"/>
      </g>
     </g>
    </g>
    <g id="ytick_23">
     <g id="line2d_26">
      <g>
       <use style="stroke:#000000;stroke-width:0.6;" x="36.036544" xlink:href="#ma4f822b9c6" y="55.425612"/>
      </g>
     </g>
    </g>
    <g id="ytick_24">
     <g id="line2d_27">
      <g>
       <use style="stroke:#000000;stroke-width:0.6;" x="36.036544" xlink:href="#ma4f822b9c6" y="53.184882"/>
      </g>
     </g>
    </g>
    <g id="ytick_25">
     <g id="line2d_28">
      <g>
       <use style="stroke:#000000;stroke-width:0.6;" x="36.036544" xlink:href="#ma4f822b9c6" y="51.290372"/>
      </g>
     </g>
    </g>
    <g id="ytick_26">
     <g id="line2d_29">
      <g>
       <use style="stroke:#000000;stroke-width:0.6;" x="36.036544" xlink:href="#ma4f822b9c6" y="49.649272"/>
      </g>
     </g>
    </g>
    <g id="ytick_27">
     <g id="line2d_30">
      <g>
       <use style="stroke:#000000;stroke-width:0.6;" x="36.036544" xlink:href="#ma4f822b9c6" y="48.201719"/>
      </g>
     </g>
    </g>
    <g id="ytick_28">
     <g id="line2d_31">
      <g>
       <use style="stroke:#000000;stroke-width:0.6;" x="36.036544" xlink:href="#ma4f822b9c6" y="38.388067"/>
      </g>
     </g>
    </g>
    <g id="ytick_29">
     <g id="line2d_32">
      <g>
       <use style="stroke:#000000;stroke-width:0.6;" x="36.036544" xlink:href="#ma4f822b9c6" y="33.404905"/>
      </g>
     </g>
    </g>
    <g id="ytick_30">
     <g id="line2d_33">
      <g>
       <use style="stroke:#000000;stroke-width:0.6;" x="36.036544" xlink:href="#ma4f822b9c6" y="29.869295"/>
      </g>
     </g>
    </g>
    <g id="ytick_31">
     <g id="line2d_34">
      <g>
       <use style="stroke:#000000;stroke-width:0.6;" x="36.036544" xlink:href="#ma4f822b9c6" y="27.126862"/>
      </g>
     </g>
    </g>
    <g id="ytick_32">
     <g id="line2d_35">
      <g>
       <use style="stroke:#000000;stroke-width:0.6;" x="36.036544" xlink:href="#ma4f822b9c6" y="24.886132"/>
      </g>
     </g>
    </g>
    <g id="ytick_33">
     <g id="line2d_36">
      <g>
       <use style="stroke:#000000;stroke-width:0.6;" x="36.036544" xlink:href="#ma4f822b9c6" y="22.991622"/>
      </g>
     </g>
    </g>
    <g id="ytick_34">
     <g id="line2d_37">
      <g>
       <use style="stroke:#000000;stroke-width:0.6;" x="36.036544" xlink:href="#ma4f822b9c6" y="21.350522"/>
      </g>
     </g>
    </g>
    <g id="ytick_35">
     <g id="line2d_38">
      <g>
       <use style="stroke:#000000;stroke-width:0.6;" x="36.036544" xlink:href="#ma4f822b9c6" y="19.90297"/>
      </g>
     </g>
    </g>
   </g>
   <g id="line2d_39">
    <path clip-path="url(#p71b51d7709)" d="M 35.591908 122.037352 
L 36.052583 119.989669 
L 36.513257 119.548791 
L 37.434607 121.832527 
L 38.355956 118.35024 
L 39.277306 120.705858 
L 39.737981 120.490931 
L 40.198655 119.603865 
L 40.65933 119.214739 
L 41.120005 117.279854 
L 41.58068 118.67832 
L 42.041354 118.390837 
L 42.502029 117.319597 
L 42.962704 118.628215 
L 43.423379 118.665189 
L 43.884053 117.465425 
L 44.344728 117.401765 
L 44.805403 118.890382 
L 45.266078 117.269689 
L 45.726752 118.791382 
L 46.187427 117.717228 
L 46.648102 115.902916 
L 47.108777 117.597917 
L 47.569451 115.663242 
L 48.030126 117.089288 
L 48.490801 116.51638 
L 48.951476 118.256168 
L 49.41215 116.257575 
L 49.872825 115.350246 
L 50.3335 115.394943 
L 50.794175 115.89752 
L 51.254849 114.824127 
L 51.715524 113.44609 
L 52.176199 112.689117 
L 52.636874 113.881155 
L 53.097548 114.043282 
L 53.558223 113.26655 
L 54.479573 110.160553 
L 54.940247 111.906326 
L 55.400922 115.180996 
L 55.861597 110.48517 
L 56.322272 111.907345 
L 57.243621 111.888585 
L 57.704296 112.3342 
L 58.164971 109.660709 
L 58.625645 110.822354 
L 59.08632 110.73989 
L 59.546995 109.746552 
L 60.007669 111.398796 
L 60.468344 108.775766 
L 61.389694 113.032591 
L 61.850368 108.28893 
L 62.311043 109.878919 
L 62.771718 108.737639 
L 63.232393 109.545364 
L 63.693067 109.899268 
L 64.153742 109.951542 
L 64.614417 107.766711 
L 65.075092 107.774795 
L 65.535766 107.487064 
L 65.996441 109.381202 
L 66.457116 107.362851 
L 66.917791 110.91556 
L 67.378465 106.075339 
L 67.83914 106.125713 
L 68.299815 106.655229 
L 68.76049 105.947104 
L 69.221164 105.743126 
L 69.681839 104.30645 
L 70.142514 104.974794 
L 70.603189 105.148092 
L 71.063863 103.1885 
L 71.524538 103.902557 
L 71.985213 104.929704 
L 72.445888 104.175021 
L 72.906562 107.008475 
L 73.367237 104.114698 
L 73.827912 102.111636 
L 74.288587 103.471634 
L 75.209936 101.068936 
L 75.670611 104.018613 
L 76.131286 101.63176 
L 77.052635 100.450131 
L 77.51331 102.117851 
L 77.973985 99.716741 
L 78.434659 101.27731 
L 78.895334 101.519929 
L 79.356009 99.469027 
L 79.816684 100.173363 
L 80.277358 99.808664 
L 80.738033 96.699269 
L 81.198708 98.458918 
L 81.659383 99.596925 
L 82.120057 94.932573 
L 82.580732 97.82203 
L 83.041407 97.822373 
L 83.962756 96.79718 
L 84.423431 96.680678 
L 84.884106 96.421348 
L 85.344781 97.205772 
L 85.805455 95.847455 
L 86.26613 95.91034 
L 86.726805 95.306762 
L 87.18748 94.294364 
L 87.648154 95.632561 
L 88.108829 95.716258 
L 88.569504 93.993986 
L 89.030179 95.07554 
L 89.490853 94.436426 
L 89.951528 93.005675 
L 90.412203 93.815313 
L 90.872878 93.765613 
L 91.333552 92.484021 
L 91.794227 95.448095 
L 92.254902 91.445607 
L 93.176251 93.643527 
L 93.636926 91.938178 
L 94.097601 91.066756 
L 94.558276 90.522073 
L 95.01895 91.461627 
L 96.400975 91.310335 
L 96.861649 90.408358 
L 97.322324 90.502558 
L 97.782999 91.242155 
L 98.243674 87.775048 
L 98.704348 90.045582 
L 99.165023 91.406771 
L 99.625698 89.007321 
L 100.547047 86.894099 
L 101.007722 86.600975 
L 101.468397 86.538783 
L 101.929072 84.890795 
L 102.389746 85.898674 
L 102.850421 87.302719 
L 103.311096 85.226948 
L 103.771771 85.760652 
L 104.232445 84.16014 
L 104.69312 85.306123 
L 105.153795 85.779484 
L 106.075144 84.706828 
L 106.535819 82.871119 
L 106.996494 82.957512 
L 107.457169 84.09865 
L 107.917843 81.565575 
L 108.378518 82.285308 
L 108.839193 81.784782 
L 109.299868 79.815847 
L 109.760542 82.102308 
L 110.221217 80.983199 
L 110.681892 81.350231 
L 111.142567 82.18459 
L 111.603241 81.725159 
L 112.063916 82.349865 
L 112.524591 80.126123 
L 112.985266 81.755953 
L 113.44594 79.574901 
L 113.906615 80.758906 
L 114.36729 80.133373 
L 114.827964 80.197694 
L 115.288639 79.125237 
L 115.749314 78.426714 
L 116.209989 80.295364 
L 116.670663 78.552039 
L 117.131338 79.754033 
L 117.592013 78.145442 
L 118.052688 78.144185 
L 118.974037 79.95491 
L 119.434712 78.227031 
L 119.895387 78.524652 
L 120.356061 78.430505 
L 120.816736 78.545003 
L 121.277411 79.305702 
L 121.738086 78.165266 
L 122.19876 77.979711 
L 122.659435 77.467277 
L 123.12011 81.964853 
L 123.580785 78.54236 
L 124.502134 78.568889 
L 124.962809 79.648255 
L 125.423484 78.807851 
L 125.884158 77.541089 
L 126.344833 79.050977 
L 126.805508 78.031203 
L 127.266183 79.421724 
L 127.726857 80.183255 
L 128.187532 81.205924 
L 128.648207 81.438464 
L 129.108882 82.970147 
L 129.569556 81.209509 
L 130.030231 82.492451 
L 130.490906 81.856533 
L 130.951581 82.024982 
L 131.412255 83.114396 
L 131.87293 83.590877 
L 132.333605 83.040373 
L 132.79428 83.137352 
L 133.254954 83.414011 
L 133.715629 86.981546 
L 134.176304 83.691182 
L 134.636979 86.582258 
L 135.097653 84.682235 
L 136.019003 87.570152 
L 136.479678 85.664373 
L 136.940352 89.219403 
L 137.401027 87.707428 
L 137.861702 86.699795 
L 138.322377 90.251271 
L 138.783051 89.580988 
L 139.243726 92.180925 
L 139.704401 92.32492 
L 140.165076 91.1359 
L 140.62575 92.883648 
L 141.086425 92.2943 
L 141.5471 91.009239 
L 142.007775 91.797797 
L 142.929124 93.841411 
L 143.389799 94.217238 
L 143.850474 93.564158 
L 144.311148 92.074215 
L 144.771823 95.282813 
L 145.232498 96.549393 
L 145.693173 95.863197 
L 146.153847 96.043511 
L 147.075197 97.515482 
L 147.535872 97.489325 
L 147.996546 98.765181 
L 148.457221 100.707092 
L 148.917896 98.620969 
L 149.378571 100.730697 
L 149.839245 100.421573 
L 150.29992 101.09189 
L 150.760595 100.452587 
L 151.22127 102.505177 
L 151.681944 99.50622 
L 152.142619 102.455296 
L 152.603294 102.129957 
L 153.063969 104.493588 
L 153.524643 104.765084 
L 153.985318 104.577092 
L 154.445993 102.734708 
L 155.367342 107.382003 
L 155.828017 107.104021 
L 156.288692 104.10839 
L 156.749367 105.436533 
L 156.749367 105.436533 
" style="fill:none;stroke:#d62728;stroke-linecap:square;stroke-width:1.5;"/>
   </g>
   <g id="patch_3">
    <path d="M 36.036544 120.546725 
L 36.036544 13.307568 
" style="fill:none;stroke:#000000;stroke-linecap:square;stroke-linejoin:miter;stroke-width:0.8;"/>
   </g>
   <g id="patch_4">
    <path d="M 156.612432 120.546725 
L 156.612432 13.307568 
" style="fill:none;stroke:#000000;stroke-linecap:square;stroke-linejoin:miter;stroke-width:0.8;"/>
   </g>
   <g id="patch_5">
    <path d="M 36.036544 120.546725 
L 156.612432 120.546725 
" style="fill:none;stroke:#000000;stroke-linecap:square;stroke-linejoin:miter;stroke-width:0.8;"/>
   </g>
   <g id="patch_6">
    <path d="M 36.036544 13.307568 
L 156.612432 13.307568 
" style="fill:none;stroke:#000000;stroke-linecap:square;stroke-linejoin:miter;stroke-width:0.8;"/>
   </g>
   <g id="line2d_40">
    <path clip-path="url(#p71b51d7709)" d="M 35.859187 136.009205 
L 36.089528 134.965068 
L 36.319869 137.683002 
L 36.55021 132.234396 
L 36.780551 133.935546 
L 37.010892 132.588003 
L 37.241233 134.582283 
L 37.471574 135.191133 
L 37.701915 134.078179 
L 37.932256 133.924952 
L 38.162597 133.611525 
L 38.392938 134.532788 
L 38.623279 136.364314 
L 38.85362 132.334104 
L 39.083961 135.076585 
L 39.314302 135.728866 
L 39.774984 133.508649 
L 40.005325 134.743701 
L 40.235666 134.812332 
L 40.696348 132.807313 
L 40.926689 137.344913 
L 41.15703 136.698524 
L 41.617713 129.13391 
L 41.848054 134.856476 
L 42.078395 129.852556 
L 42.308736 134.534046 
L 42.539077 132.634519 
L 42.769418 133.72302 
L 42.999759 132.768355 
L 43.2301 131.154093 
L 43.460441 134.025081 
L 43.690782 135.175724 
L 43.921123 135.243121 
L 44.151464 131.658084 
L 44.381805 133.533821 
L 44.612146 131.703879 
L 44.842487 136.027937 
L 45.072828 129.365463 
L 45.303169 129.452853 
L 45.53351 132.914021 
L 45.763851 134.176351 
L 45.994192 133.608676 
L 46.224533 129.650802 
L 46.685215 133.212307 
L 46.915556 133.280345 
L 47.145897 133.816613 
L 47.376238 134.731333 
L 47.606579 132.597232 
L 47.83692 134.676978 
L 48.297602 129.284202 
L 48.988625 132.232274 
L 49.218966 132.541832 
L 49.449307 131.372849 
L 49.679649 132.232106 
L 49.90999 129.719206 
L 50.140331 130.160056 
L 50.370672 133.195504 
L 50.601013 133.414384 
L 50.831354 131.561923 
L 51.292036 129.856148 
L 51.522377 132.43844 
L 51.752718 127.328909 
L 51.983059 129.7608 
L 52.2134 134.424654 
L 52.443741 134.398361 
L 52.674082 126.260877 
L 52.904423 132.556992 
L 53.134764 128.283439 
L 53.365105 130.307268 
L 53.595446 129.70937 
L 53.825787 130.375283 
L 54.056128 131.969043 
L 54.286469 130.301126 
L 54.51681 131.09818 
L 54.747151 128.644256 
L 54.977492 133.010765 
L 55.438174 129.941035 
L 55.898856 131.674268 
L 56.129197 129.499267 
L 56.359538 130.629092 
L 56.589879 128.08235 
L 56.82022 130.924271 
L 57.050561 130.183646 
L 57.280902 131.126661 
L 57.741585 127.294738 
L 57.971926 128.72751 
L 58.202267 127.496969 
L 58.432608 128.118628 
L 58.662949 130.903129 
L 58.89329 130.451979 
L 59.123631 131.572724 
L 59.353972 128.909167 
L 59.584313 129.846908 
L 59.814654 128.949175 
L 60.044995 129.201185 
L 60.505677 128.005167 
L 60.736018 128.723936 
L 60.966359 130.873148 
L 61.1967 127.48488 
L 61.427041 127.741724 
L 61.657382 128.945325 
L 61.887723 127.718262 
L 62.118064 125.48184 
L 62.578746 127.56634 
L 62.809087 130.333854 
L 63.039428 130.174879 
L 63.269769 126.341658 
L 63.50011 128.345716 
L 63.730451 128.045476 
L 63.960792 126.956849 
L 64.191133 129.256752 
L 64.421474 129.082158 
L 64.651815 127.382514 
L 64.882156 130.514813 
L 65.112497 128.802173 
L 65.342838 125.834929 
L 65.57318 129.840538 
L 65.803521 129.124612 
L 66.033862 126.537615 
L 66.264203 125.777111 
L 66.494544 129.977134 
L 66.724885 128.622302 
L 66.955226 125.779235 
L 67.185567 126.740077 
L 67.415908 125.53197 
L 67.646249 128.911529 
L 67.87659 123.891441 
L 68.106931 127.27406 
L 68.337272 123.830227 
L 68.567613 124.569305 
L 68.797954 126.424187 
L 69.028295 123.484899 
L 69.258636 128.959175 
L 69.488977 124.657767 
L 69.719318 127.673601 
L 69.949659 128.805498 
L 70.18 128.025487 
L 70.871023 123.605801 
L 71.101364 127.030393 
L 71.331705 125.355029 
L 71.562046 126.095539 
L 71.792387 125.453012 
L 72.022728 123.977942 
L 72.253069 124.650716 
L 72.48341 124.763022 
L 72.713751 125.4387 
L 72.944092 123.571976 
L 73.174433 127.805786 
L 73.404775 124.258769 
L 73.635116 125.765472 
L 73.865457 128.044446 
L 74.095798 122.269778 
L 74.326139 125.564547 
L 74.55648 120.752365 
L 74.786821 125.107504 
L 75.017162 123.060683 
L 75.247503 126.181031 
L 75.477844 125.877755 
L 75.708185 121.939281 
L 75.938526 121.907155 
L 76.168867 124.194991 
L 76.399208 124.476921 
L 76.629549 121.030133 
L 76.85989 124.835163 
L 77.090231 125.419513 
L 77.320572 120.656376 
L 77.550913 121.63304 
L 77.781254 125.839556 
L 78.011595 122.812921 
L 78.241936 127.618013 
L 78.472277 122.748827 
L 78.702618 123.287625 
L 78.932959 122.304793 
L 79.1633 126.389391 
L 79.623982 121.582958 
L 79.854323 122.212749 
L 80.084664 118.236901 
L 80.545346 124.61172 
L 80.775687 118.635767 
L 81.006028 122.693726 
L 81.236369 120.781466 
L 81.466711 121.107489 
L 81.697052 121.090861 
L 81.927393 122.441759 
L 82.157734 119.08192 
L 82.388075 119.395635 
L 82.618416 119.315721 
L 82.848757 121.567972 
L 83.079098 119.087419 
L 83.309439 118.358775 
L 83.53978 121.805519 
L 83.770121 122.078432 
L 84.000462 120.275707 
L 84.230803 116.73166 
L 84.461144 121.642696 
L 84.691485 121.429398 
L 84.921826 119.018633 
L 85.152167 123.379749 
L 85.382508 123.572686 
L 85.612849 119.681321 
L 85.84319 119.450771 
L 86.073531 115.898141 
L 86.303872 120.561504 
L 86.534213 118.375321 
L 86.764554 118.793832 
L 86.994895 120.69181 
L 87.455577 116.682784 
L 87.685918 115.667858 
L 87.916259 115.31121 
L 88.376941 121.311649 
L 88.607282 115.252906 
L 89.067964 116.963861 
L 89.298306 115.321044 
L 89.528647 120.586372 
L 89.989329 117.11195 
L 90.21967 117.961317 
L 90.450011 115.470161 
L 90.680352 116.799617 
L 90.910693 117.098742 
L 91.141034 118.328266 
L 91.371375 115.42733 
L 91.601716 119.200524 
L 91.832057 120.435451 
L 92.062398 111.019497 
L 92.52308 120.635148 
L 92.753421 118.188172 
L 92.983762 114.100843 
L 93.214103 116.201759 
L 93.444444 111.852652 
L 93.674785 118.115913 
L 93.905126 111.670825 
L 94.135467 116.025792 
L 94.365808 114.756774 
L 94.596149 116.199892 
L 94.82649 116.32295 
L 95.056831 114.16309 
L 95.287172 113.745188 
L 95.517513 117.250772 
L 95.747854 111.018848 
L 95.978195 118.06226 
L 96.208536 110.275825 
L 96.438877 110.056694 
L 96.669218 109.564405 
L 96.899559 115.345419 
L 97.129901 118.110265 
L 97.360242 112.79572 
L 97.590583 115.342329 
L 97.820924 107.449311 
L 98.051265 112.009133 
L 98.281606 110.832884 
L 98.511947 112.129011 
L 98.742288 107.248363 
L 98.972629 116.200945 
L 99.433311 113.887734 
L 99.663652 109.95795 
L 99.893993 115.800983 
L 100.354675 109.770166 
L 100.585016 113.297923 
L 100.815357 110.659073 
L 101.045698 114.708153 
L 101.276039 116.360113 
L 101.50638 114.695528 
L 101.967062 110.393632 
L 102.427744 112.324407 
L 102.888426 107.349946 
L 103.118767 106.340207 
L 103.349108 110.615967 
L 103.579449 109.094292 
L 103.80979 109.453744 
L 104.270472 112.585684 
L 104.500813 105.311565 
L 104.731154 111.189364 
L 104.961495 108.848062 
L 105.191837 100.033861 
L 105.422178 109.404325 
L 105.652519 106.412708 
L 105.88286 109.052508 
L 106.113201 107.395648 
L 106.343542 111.453832 
L 106.573883 106.844459 
L 106.804224 110.452393 
L 107.034565 100.261278 
L 107.264906 107.054671 
L 107.495247 104.263704 
L 107.725588 110.028242 
L 107.955929 103.482257 
L 108.18627 104.303964 
L 108.416611 96.236208 
L 108.646952 103.970852 
L 108.877293 96.20007 
L 109.107634 106.553465 
L 109.337975 107.130393 
L 109.568316 98.20611 
L 109.798657 102.561869 
L 110.028998 96.42608 
L 110.259339 99.347408 
L 110.48968 98.766637 
L 110.720021 99.209375 
L 110.950362 103.724892 
L 111.180703 92.051369 
L 111.411044 99.799466 
L 111.641385 94.381172 
L 111.871726 92.832856 
L 112.102067 98.547468 
L 112.332408 99.693928 
L 112.562749 102.763901 
L 112.79309 96.849026 
L 113.023432 101.098066 
L 113.253773 94.959044 
L 113.484114 92.16718 
L 113.714455 96.793924 
L 113.944796 91.409339 
L 114.175137 98.576707 
L 114.86616 90.842729 
L 115.096501 96.226525 
L 115.326842 97.592455 
L 115.557183 97.691872 
L 115.787524 81.203777 
L 116.017865 97.793478 
L 116.248206 95.43874 
L 116.478547 82.968474 
L 116.708888 84.723846 
L 116.939229 88.266781 
L 117.16957 97.346957 
L 117.399911 88.241606 
L 117.630252 88.211326 
L 117.860593 86.564703 
L 118.090934 75.581255 
L 118.321275 84.294204 
L 118.551616 86.997155 
L 119.012298 80.310505 
L 119.242639 85.190254 
L 119.703321 70.449634 
L 119.933662 86.932923 
L 120.164003 81.386638 
L 120.394344 86.513074 
L 120.624685 72.656727 
L 120.855026 83.231501 
L 121.085368 70.14381 
L 121.315709 71.872832 
L 121.54605 65.829999 
L 121.776391 76.93061 
L 122.006732 66.697626 
L 122.237073 68.600175 
L 122.467414 64.21926 
L 122.697755 70.951507 
L 123.158437 58.401971 
L 123.388778 60.173458 
L 123.619119 60.339068 
L 123.84946 58.307476 
L 124.079801 45.207587 
L 124.310142 60.210808 
L 124.540483 60.146964 
L 124.770824 54.169075 
L 125.001165 56.092666 
L 125.231506 51.549799 
L 125.461847 55.369132 
L 125.692188 56.720348 
L 125.922529 69.317142 
L 126.15287 59.031551 
L 126.383211 55.423836 
L 126.613552 55.189334 
L 126.843893 57.858013 
L 127.304575 65.447526 
L 127.534916 62.89347 
L 127.765257 66.420401 
L 127.995598 64.930916 
L 128.45628 70.39378 
L 128.686621 69.90113 
L 128.916963 64.285054 
L 129.147304 71.466948 
L 129.377645 66.903382 
L 129.838327 89.290966 
L 130.068668 78.534203 
L 130.299009 74.358101 
L 130.52935 85.726669 
L 130.759691 76.052938 
L 130.990032 81.433722 
L 131.220373 74.612027 
L 131.450714 79.625632 
L 131.681055 78.370294 
L 131.911396 89.948577 
L 132.141737 82.123632 
L 132.372078 81.539098 
L 132.602419 83.238983 
L 132.83276 96.445029 
L 133.063101 86.840049 
L 133.293442 92.562327 
L 133.523783 88.130866 
L 133.754124 91.209315 
L 133.984465 84.630342 
L 134.214806 86.849123 
L 134.445147 95.332199 
L 134.675488 84.098562 
L 134.905829 86.954315 
L 135.13617 94.551728 
L 135.366511 88.962776 
L 135.596852 90.292108 
L 135.827193 89.587924 
L 136.057534 91.576122 
L 136.287875 92.000983 
L 136.518216 81.879438 
L 136.978899 93.939615 
L 137.20924 93.416395 
L 137.439581 90.37407 
L 137.669922 90.716112 
L 137.900263 90.095618 
L 138.130604 95.442558 
L 138.360945 93.569937 
L 138.591286 93.093986 
L 138.821627 90.742094 
L 139.051968 91.519188 
L 139.282309 87.928844 
L 139.51265 87.521672 
L 139.742991 92.135219 
L 139.973332 86.780482 
L 140.203673 97.410664 
L 140.434014 86.09354 
L 140.894696 90.652472 
L 141.125037 85.285752 
L 141.355378 93.510761 
L 141.585719 91.982733 
L 141.81606 88.72476 
L 142.046401 87.536852 
L 142.276742 78.853598 
L 142.507083 79.899881 
L 142.737424 88.629959 
L 142.967765 86.073918 
L 143.198106 87.172498 
L 143.428447 84.061233 
L 143.658788 90.905764 
L 143.889129 93.106173 
L 144.11947 84.8313 
L 144.349811 94.27635 
L 144.580152 81.777987 
L 144.810494 81.635067 
L 145.040835 82.113591 
L 145.271176 86.816113 
L 145.501517 76.810085 
L 145.731858 79.840432 
L 145.962199 90.954775 
L 146.19254 77.557031 
L 146.422881 84.68702 
L 146.653222 80.400039 
L 146.883563 88.399246 
L 147.113904 80.344701 
L 147.344245 78.321675 
L 147.804927 85.972933 
L 148.035268 76.231157 
L 148.265609 81.925213 
L 148.49595 84.746091 
L 148.726291 81.059997 
L 148.956632 86.170047 
L 149.186973 87.051701 
L 149.647655 80.793507 
L 149.877996 89.643745 
L 150.108337 91.955474 
L 150.338678 86.335912 
L 150.569019 84.39407 
L 150.79936 88.733582 
L 151.029701 90.835204 
L 151.260042 90.009622 
L 151.720724 99.488546 
L 151.951065 90.351756 
L 152.181406 92.787766 
L 152.411747 91.221439 
L 152.642088 100.892329 
L 152.87243 95.704076 
L 153.102771 102.177793 
L 153.333112 94.800466 
L 153.793794 99.146275 
L 154.024135 97.571536 
L 154.254476 94.842927 
L 154.484817 98.175008 
L 154.715158 97.54842 
L 154.945499 100.474842 
L 155.17584 100.330979 
L 155.406181 102.189445 
L 155.636522 102.383319 
L 155.866863 97.354578 
L 156.097204 102.261285 
L 156.327545 103.110358 
L 156.557886 101.026366 
L 156.788227 105.786639 
L 156.788227 105.786639 
" style="fill:none;stroke:#2ca02c;stroke-linecap:square;stroke-width:1.5;"/>
   </g>
   <g id="line2d_41">
    <path clip-path="url(#p71b51d7709)" d="M 35.591908 114.133953 
L 36.513257 106.559063 
L 36.973932 111.921504 
L 37.434607 112.01216 
L 37.895282 107.423735 
L 38.355956 111.693282 
L 38.816631 110.970812 
L 39.277306 110.830662 
L 39.737981 107.58592 
L 40.198655 110.283169 
L 40.65933 105.017754 
L 41.120005 102.790692 
L 41.58068 105.539798 
L 42.041354 107.127208 
L 42.962704 99.782774 
L 43.423379 100.143036 
L 43.884053 100.112552 
L 44.344728 109.151377 
L 44.805403 100.419694 
L 45.266078 103.05197 
L 45.726752 99.244347 
L 46.187427 101.00467 
L 46.648102 92.00406 
L 47.108777 101.048799 
L 47.569451 94.817577 
L 48.030126 99.820114 
L 48.490801 99.200291 
L 48.951476 90.099631 
L 49.41215 89.085946 
L 49.872825 83.048436 
L 50.3335 88.901005 
L 50.794175 90.883532 
L 51.254849 82.546999 
L 51.715524 81.878597 
L 52.176199 86.741273 
L 52.636874 72.173247 
L 53.097548 78.819463 
L 53.558223 78.318785 
L 54.479573 63.110869 
L 54.940247 63.124431 
L 55.861597 51.126407 
L 56.322272 48.002012 
L 56.782946 47.975323 
L 57.243621 57.072091 
L 57.704296 69.250875 
L 58.625645 68.264906 
L 59.08632 77.576464 
L 59.546995 79.629452 
L 60.007669 69.032469 
L 60.468344 71.221803 
L 60.929019 67.003707 
L 61.389694 77.247279 
L 61.850368 68.808277 
L 62.311043 58.320603 
L 62.771718 59.035507 
L 63.232393 66.398762 
L 63.693067 86.346083 
L 64.153742 72.88169 
L 64.614417 82.650903 
L 65.535766 86.170039 
L 65.996441 84.569987 
L 66.457116 89.626953 
L 66.917791 89.328309 
L 67.378465 81.353911 
L 67.83914 93.697632 
L 68.299815 88.048757 
L 68.76049 86.318439 
L 69.221164 97.983113 
L 69.681839 95.299973 
L 70.142514 89.471004 
L 70.603189 91.508441 
L 71.063863 99.032202 
L 71.524538 98.806172 
L 71.985213 100.131847 
L 72.445888 94.857644 
L 72.906562 94.896334 
L 73.367237 96.817579 
L 73.827912 92.461492 
L 74.288587 97.202034 
L 74.749261 98.36565 
L 75.209936 97.971747 
L 75.670611 103.161545 
L 76.131286 100.891616 
L 76.59196 101.73043 
L 77.052635 100.581718 
L 77.51331 101.94669 
L 77.973985 95.070949 
L 78.434659 101.300953 
L 78.895334 104.637879 
L 79.356009 109.545002 
L 79.816684 102.242874 
L 80.277358 103.78947 
L 80.738033 106.462029 
L 81.198708 101.992519 
L 81.659383 111.622772 
L 82.120057 105.011304 
L 82.580732 106.95234 
L 83.041407 109.699535 
L 83.502082 111.310962 
L 83.962756 107.810936 
L 84.423431 107.230594 
L 84.884106 106.858575 
L 85.344781 105.206261 
L 85.805455 106.685238 
L 86.26613 104.848793 
L 86.726805 107.806766 
L 87.18748 109.068172 
L 87.648154 108.31707 
L 88.108829 103.438406 
L 88.569504 107.756259 
L 89.030179 110.339236 
L 89.490853 107.436969 
L 89.951528 111.397867 
L 90.412203 108.735868 
L 90.872878 112.823739 
L 91.333552 107.80919 
L 91.794227 112.0374 
L 92.254902 112.020635 
L 92.715577 106.617235 
L 93.176251 108.446103 
L 93.636926 111.764051 
L 94.097601 108.328547 
L 94.558276 115.193413 
L 95.01895 108.087123 
L 95.9403 115.979764 
L 96.400975 112.647064 
L 96.861649 112.407683 
L 97.322324 109.705769 
L 97.782999 110.483509 
L 98.243674 107.487828 
L 98.704348 115.124544 
L 99.165023 111.152271 
L 99.625698 114.786981 
L 100.086373 110.880736 
L 100.547047 111.472119 
L 101.007722 112.613604 
L 101.468397 111.635129 
L 101.929072 116.286149 
L 102.389746 111.586428 
L 102.850421 115.946339 
L 103.311096 113.503305 
L 103.771771 114.355648 
L 104.232445 117.304711 
L 104.69312 112.708934 
L 105.153795 114.302622 
L 105.61447 115.179724 
L 106.075144 113.661472 
L 106.996494 117.894227 
L 107.457169 109.435719 
L 107.917843 115.901606 
L 108.378518 119.670755 
L 108.839193 107.796336 
L 109.299868 118.334676 
L 109.760542 114.517104 
L 110.221217 112.873166 
L 110.681892 113.353076 
L 111.142567 120.710471 
L 112.063916 106.645431 
L 112.524591 115.120833 
L 113.44594 113.241842 
L 113.906615 114.347476 
L 114.36729 116.587839 
L 114.827964 120.487241 
L 115.288639 116.258472 
L 115.749314 117.709837 
L 116.209989 115.791806 
L 116.670663 114.791002 
L 117.131338 115.199494 
L 117.592013 116.98542 
L 118.052688 119.778694 
L 118.513362 117.58421 
L 118.974037 118.951743 
L 119.895387 115.429162 
L 120.356061 117.029261 
L 120.816736 116.076905 
L 121.277411 118.043156 
L 121.738086 120.563095 
L 122.19876 117.135191 
L 122.659435 115.950601 
L 123.12011 120.139991 
L 123.580785 114.372951 
L 124.041459 116.710358 
L 124.502134 114.411615 
L 124.962809 114.778785 
L 125.423484 118.741679 
L 125.884158 119.003844 
L 126.805508 120.034887 
L 127.266183 120.907922 
L 127.726857 117.946147 
L 128.187532 116.376999 
L 128.648207 119.142598 
L 129.108882 120.459195 
L 129.569556 117.134481 
L 130.030231 119.262282 
L 130.490906 117.543501 
L 130.951581 120.184157 
L 131.412255 121.897816 
L 131.87293 122.391248 
L 132.333605 120.239714 
L 132.79428 119.009304 
L 133.254954 122.464708 
L 133.715629 122.239107 
L 134.176304 122.554616 
L 134.636979 116.789595 
L 135.097653 116.323726 
L 135.558328 123.05629 
L 136.019003 121.651386 
L 136.940352 117.949467 
L 137.401027 118.728719 
L 137.861702 121.727647 
L 138.322377 120.110568 
L 138.783051 121.014586 
L 139.243726 124.983536 
L 139.704401 121.964552 
L 140.165076 121.136993 
L 141.086425 121.730689 
L 141.5471 118.254661 
L 142.007775 123.48288 
L 142.468449 116.989122 
L 142.929124 120.125348 
L 143.389799 121.040842 
L 143.850474 122.999252 
L 144.311148 121.370607 
L 144.771823 120.45987 
L 145.232498 123.360879 
L 145.693173 118.349009 
L 146.153847 122.445692 
L 146.614522 120.96505 
L 147.075197 120.476949 
L 147.535872 120.606033 
L 147.996546 117.461334 
L 148.457221 125.009597 
L 149.378571 121.057434 
L 149.839245 122.950079 
L 150.29992 127.218523 
L 150.760595 121.264241 
L 151.22127 120.800241 
L 151.681944 117.471476 
L 152.142619 120.045124 
L 152.603294 123.284995 
L 153.063969 120.057706 
L 153.524643 126.123459 
L 153.985318 120.105323 
L 154.445993 122.872257 
L 154.906668 124.268278 
L 155.367342 122.063777 
L 155.828017 120.777728 
L 156.288692 122.059446 
L 156.749367 120.379729 
L 156.749367 120.379729 
" style="fill:none;stroke:#ff7f0e;stroke-linecap:square;stroke-width:1.5;"/>
   </g>
   <g id="line2d_42">
    <path clip-path="url(#p71b51d7709)" d="M 35.591908 111.066422 
L 36.052583 112.347488 
L 36.513257 109.707774 
L 36.973932 112.514919 
L 37.434607 109.763694 
L 37.895282 111.891001 
L 38.355956 106.918511 
L 38.816631 109.55418 
L 39.277306 109.171885 
L 39.737981 110.26579 
L 40.198655 107.319104 
L 40.65933 102.305771 
L 41.120005 103.275931 
L 41.58068 104.681999 
L 42.041354 99.976294 
L 42.502029 105.4944 
L 42.962704 101.570086 
L 43.423379 103.307577 
L 43.884053 98.592335 
L 44.344728 102.588142 
L 44.805403 95.010073 
L 45.266078 102.785758 
L 45.726752 97.794402 
L 46.187427 104.901464 
L 46.648102 94.440009 
L 47.108777 95.822064 
L 47.569451 95.604203 
L 48.030126 96.021129 
L 48.490801 92.435773 
L 48.951476 94.531256 
L 49.41215 87.798631 
L 49.872825 91.401046 
L 50.3335 86.675117 
L 50.794175 92.368103 
L 51.254849 80.733627 
L 51.715524 80.679673 
L 52.176199 78.498354 
L 52.636874 74.492261 
L 53.097548 78.207943 
L 53.558223 73.830776 
L 54.479573 56.83195 
L 54.940247 59.055832 
L 55.400922 57.801699 
L 56.322272 47.869972 
L 56.782946 49.645053 
L 57.243621 57.666062 
L 57.704296 55.225735 
L 58.164971 60.728538 
L 59.08632 74.320384 
L 59.546995 72.578223 
L 60.007669 68.084224 
L 60.468344 74.693111 
L 60.929019 74.39801 
L 61.389694 73.53607 
L 61.850368 79.460903 
L 62.311043 73.901559 
L 62.771718 73.208516 
L 63.693067 75.113726 
L 64.153742 84.021994 
L 64.614417 83.070724 
L 65.075092 83.348453 
L 65.996441 83.409659 
L 66.457116 86.85875 
L 66.917791 87.116259 
L 67.378465 93.463178 
L 67.83914 92.140966 
L 68.299815 89.549841 
L 68.76049 95.513964 
L 69.221164 97.218634 
L 69.681839 97.761803 
L 70.142514 97.221413 
L 70.603189 91.673412 
L 71.063863 91.340103 
L 71.985213 99.750874 
L 72.445888 98.485829 
L 72.906562 91.543635 
L 73.367237 98.749515 
L 73.827912 98.708596 
L 74.288587 97.239866 
L 74.749261 97.625756 
L 75.209936 97.09864 
L 75.670611 100.902628 
L 76.131286 98.196191 
L 76.59196 100.92571 
L 77.052635 99.932517 
L 77.973985 104.384392 
L 78.434659 101.760515 
L 78.895334 104.763186 
L 79.356009 100.788442 
L 79.816684 104.082207 
L 80.277358 104.085342 
L 80.738033 104.61397 
L 81.198708 105.317713 
L 81.659383 106.511308 
L 82.120057 103.912132 
L 82.580732 109.19175 
L 83.041407 103.549198 
L 83.502082 109.314783 
L 84.423431 104.911894 
L 84.884106 109.270879 
L 85.344781 103.821207 
L 85.805455 107.964662 
L 86.26613 108.237775 
L 87.18748 105.328141 
L 87.648154 109.036873 
L 88.108829 108.973634 
L 88.569504 106.636366 
L 89.030179 108.643681 
L 89.490853 110.072225 
L 89.951528 109.529672 
L 90.412203 108.631673 
L 90.872878 109.724826 
L 91.333552 107.382208 
L 91.794227 110.117882 
L 92.254902 109.176623 
L 93.176251 108.685639 
L 93.636926 109.757729 
L 94.097601 109.90168 
L 94.558276 108.78049 
L 95.01895 108.78588 
L 95.479625 110.512676 
L 95.9403 111.270108 
L 96.400975 106.688327 
L 96.861649 110.287127 
L 97.322324 110.756513 
L 97.782999 108.736645 
L 98.243674 112.79523 
L 98.704348 111.364329 
L 99.165023 111.466908 
L 99.625698 112.296485 
L 100.086373 111.059046 
L 100.547047 114.909542 
L 101.007722 114.627338 
L 101.468397 111.343072 
L 101.929072 113.629579 
L 102.389746 110.760315 
L 102.850421 114.996653 
L 103.311096 111.924878 
L 103.771771 114.235256 
L 104.232445 109.856219 
L 104.69312 115.443978 
L 105.153795 114.964888 
L 105.61447 115.015249 
L 106.075144 118.041835 
L 106.535819 114.547454 
L 106.996494 114.446902 
L 107.457169 111.173701 
L 107.917843 113.99958 
L 108.378518 112.441475 
L 108.839193 115.066053 
L 109.299868 115.885046 
L 109.760542 116.234451 
L 110.221217 114.820165 
L 110.681892 112.980183 
L 111.142567 115.810041 
L 111.603241 115.748338 
L 112.063916 115.411899 
L 112.524591 114.107698 
L 112.985266 115.542044 
L 113.44594 115.54557 
L 113.906615 114.96302 
L 114.36729 116.097415 
L 114.827964 115.744544 
L 115.288639 120.701605 
L 115.749314 116.02808 
L 116.209989 116.350419 
L 116.670663 116.945016 
L 117.131338 116.512913 
L 117.592013 118.219642 
L 118.052688 116.391309 
L 118.513362 117.702939 
L 118.974037 117.082036 
L 119.434712 116.856416 
L 119.895387 116.251369 
L 120.816736 116.455885 
L 121.277411 114.283653 
L 121.738086 119.147019 
L 122.19876 119.760494 
L 122.659435 115.659489 
L 123.12011 117.517055 
L 123.580785 117.418688 
L 124.041459 116.328671 
L 124.962809 120.203752 
L 125.423484 119.15335 
L 125.884158 117.334286 
L 126.344833 120.507758 
L 126.805508 118.435518 
L 127.266183 119.59693 
L 127.726857 117.384079 
L 128.648207 118.967747 
L 129.108882 121.378705 
L 129.569556 117.30149 
L 130.030231 119.193944 
L 130.490906 120.123462 
L 130.951581 118.26677 
L 131.412255 120.735125 
L 131.87293 118.598917 
L 132.333605 120.096612 
L 132.79428 120.169159 
L 133.254954 118.54502 
L 133.715629 118.13181 
L 134.176304 119.564596 
L 134.636979 118.613658 
L 135.097653 119.601877 
L 135.558328 119.868755 
L 136.019003 118.521378 
L 136.479678 117.81178 
L 136.940352 119.37189 
L 137.401027 121.542281 
L 137.861702 119.530641 
L 138.783051 120.554586 
L 139.243726 121.806859 
L 139.704401 120.949462 
L 140.165076 119.148365 
L 140.62575 121.062093 
L 141.086425 120.08086 
L 141.5471 121.134098 
L 142.007775 121.335109 
L 142.468449 121.780911 
L 142.929124 118.826513 
L 143.389799 120.925619 
L 143.850474 122.489485 
L 144.311148 120.913457 
L 144.771823 121.557279 
L 145.232498 126.065162 
L 145.693173 119.632477 
L 146.153847 122.248806 
L 146.614522 121.912901 
L 147.075197 120.637536 
L 147.535872 121.790305 
L 147.996546 120.965985 
L 148.917896 120.288648 
L 149.378571 121.710996 
L 149.839245 121.200141 
L 150.760595 124.106235 
L 151.22127 119.721027 
L 151.681944 123.223194 
L 152.142619 122.580527 
L 152.603294 120.910371 
L 153.063969 121.65984 
L 153.524643 122.86886 
L 153.985318 122.231997 
L 154.445993 124.182096 
L 154.906668 121.645298 
L 155.828017 124.427018 
L 156.288692 122.427864 
L 156.749367 121.256018 
L 156.749367 121.256018 
" style="fill:none;stroke:#1f77b4;stroke-linecap:square;stroke-width:1.5;"/>
   </g>
  </g>
 </g>
 <defs>
  <clipPath id="p71b51d7709">
   <rect height="107.239157" width="120.575888" x="36.036544" y="13.307568"/>
  </clipPath>
 </defs>
</svg>
