<?xml version="1.0" encoding="utf-8" standalone="no"?>
<!DOCTYPE svg PUBLIC "-//W3C//DTD SVG 1.1//EN"
  "http://www.w3.org/Graphics/SVG/1.1/DTD/svg11.dtd">
<!-- Created with matplotlib (http://matplotlib.org/) -->
<svg height="272pt" version="1.1" viewBox="0 0 272 272" width="272pt" xmlns="http://www.w3.org/2000/svg" xmlns:xlink="http://www.w3.org/1999/xlink">
 <defs>
  <style type="text/css">
*{stroke-linecap:butt;stroke-linejoin:round;}
  </style>
 </defs>
 <g id="figure_1">
  <g id="patch_1">
   <path d="M 0 272.125984 
L 272.125984 272.125984 
L 272.125984 0 
L 0 0 
z
" style="fill:#ffffff;"/>
  </g>
  <g id="axes_1">
   <g id="patch_2">
    <path d="M 32.655118 239.470866 
L 244.913386 239.470866 
L 244.913386 32.655118 
L 32.655118 32.655118 
z
" style="fill:#ffffff;"/>
   </g>
   <g id="matplotlib.axis_1">
    <g id="xtick_1">
     <g id="line2d_1">
      <defs>
       <path d="M 0 0 
L 0 3.5 
" id="mc9506f9f9e" style="stroke:#000000;stroke-width:0.8;"/>
      </defs>
      <g>
       <use style="stroke:#000000;stroke-width:0.8;" x="46.421227" xlink:href="#mc9506f9f9e" y="239.470866"/>
      </g>
     </g>
     <g id="text_1">
      <!-- $-4.0$ -->
      <defs>
       <path d="M 10.59375 35.5 
L 73.1875 35.5 
L 73.1875 27.203125 
L 10.59375 27.203125 
z
" id="DejaVuSans-2212"/>
       <path d="M 37.796875 64.3125 
L 12.890625 25.390625 
L 37.796875 25.390625 
z
M 35.203125 72.90625 
L 47.609375 72.90625 
L 47.609375 25.390625 
L 58.015625 25.390625 
L 58.015625 17.1875 
L 47.609375 17.1875 
L 47.609375 0 
L 37.796875 0 
L 37.796875 17.1875 
L 4.890625 17.1875 
L 4.890625 26.703125 
z
" id="DejaVuSans-34"/>
       <path d="M 10.6875 12.40625 
L 21 12.40625 
L 21 0 
L 10.6875 0 
z
" id="DejaVuSans-2e"/>
       <path d="M 31.78125 66.40625 
Q 24.171875 66.40625 20.328125 58.90625 
Q 16.5 51.421875 16.5 36.375 
Q 16.5 21.390625 20.328125 13.890625 
Q 24.171875 6.390625 31.78125 6.390625 
Q 39.453125 6.390625 43.28125 13.890625 
Q 47.125 21.390625 47.125 36.375 
Q 47.125 51.421875 43.28125 58.90625 
Q 39.453125 66.40625 31.78125 66.40625 
z
M 31.78125 74.21875 
Q 44.046875 74.21875 50.515625 64.515625 
Q 56.984375 54.828125 56.984375 36.375 
Q 56.984375 17.96875 50.515625 8.265625 
Q 44.046875 -1.421875 31.78125 -1.421875 
Q 19.53125 -1.421875 13.0625 8.265625 
Q 6.59375 17.96875 6.59375 36.375 
Q 6.59375 54.828125 13.0625 64.515625 
Q 19.53125 74.21875 31.78125 74.21875 
z
" id="DejaVuSans-30"/>
      </defs>
      <g transform="translate(34.271227 254.069304)scale(0.1 -0.1)">
       <use transform="translate(0 0.78125)" xlink:href="#DejaVuSans-2212"/>
       <use transform="translate(83.789062 0.78125)" xlink:href="#DejaVuSans-34"/>
       <use transform="translate(147.412109 0.78125)" xlink:href="#DejaVuSans-2e"/>
       <use transform="translate(179.199219 0.78125)" xlink:href="#DejaVuSans-30"/>
      </g>
     </g>
    </g>
    <g id="xtick_2">
     <g id="line2d_2">
      <g>
       <use style="stroke:#000000;stroke-width:0.8;" x="89.897165" xlink:href="#mc9506f9f9e" y="239.470866"/>
      </g>
     </g>
     <g id="text_2">
      <!-- $-2.0$ -->
      <defs>
       <path d="M 19.1875 8.296875 
L 53.609375 8.296875 
L 53.609375 0 
L 7.328125 0 
L 7.328125 8.296875 
Q 12.9375 14.109375 22.625 23.890625 
Q 32.328125 33.6875 34.8125 36.53125 
Q 39.546875 41.84375 41.421875 45.53125 
Q 43.3125 49.21875 43.3125 52.78125 
Q 43.3125 58.59375 39.234375 62.25 
Q 35.15625 65.921875 28.609375 65.921875 
Q 23.96875 65.921875 18.8125 64.3125 
Q 13.671875 62.703125 7.8125 59.421875 
L 7.8125 69.390625 
Q 13.765625 71.78125 18.9375 73 
Q 24.125 74.21875 28.421875 74.21875 
Q 39.75 74.21875 46.484375 68.546875 
Q 53.21875 62.890625 53.21875 53.421875 
Q 53.21875 48.921875 51.53125 44.890625 
Q 49.859375 40.875 45.40625 35.40625 
Q 44.1875 33.984375 37.640625 27.21875 
Q 31.109375 20.453125 19.1875 8.296875 
z
" id="DejaVuSans-32"/>
      </defs>
      <g transform="translate(77.747165 254.069304)scale(0.1 -0.1)">
       <use transform="translate(0 0.78125)" xlink:href="#DejaVuSans-2212"/>
       <use transform="translate(83.789062 0.78125)" xlink:href="#DejaVuSans-32"/>
       <use transform="translate(147.412109 0.78125)" xlink:href="#DejaVuSans-2e"/>
       <use transform="translate(179.199219 0.78125)" xlink:href="#DejaVuSans-30"/>
      </g>
     </g>
    </g>
    <g id="xtick_3">
     <g id="line2d_3">
      <g>
       <use style="stroke:#000000;stroke-width:0.8;" x="133.373104" xlink:href="#mc9506f9f9e" y="239.470866"/>
      </g>
     </g>
     <g id="text_3">
      <!-- $0.0$ -->
      <g transform="translate(125.373104 254.069304)scale(0.1 -0.1)">
       <use transform="translate(0 0.78125)" xlink:href="#DejaVuSans-30"/>
       <use transform="translate(63.623047 0.78125)" xlink:href="#DejaVuSans-2e"/>
       <use transform="translate(95.410156 0.78125)" xlink:href="#DejaVuSans-30"/>
      </g>
     </g>
    </g>
    <g id="xtick_4">
     <g id="line2d_4">
      <g>
       <use style="stroke:#000000;stroke-width:0.8;" x="176.849042" xlink:href="#mc9506f9f9e" y="239.470866"/>
      </g>
     </g>
     <g id="text_4">
      <!-- $2.0$ -->
      <g transform="translate(168.849042 254.069304)scale(0.1 -0.1)">
       <use transform="translate(0 0.78125)" xlink:href="#DejaVuSans-32"/>
       <use transform="translate(63.623047 0.78125)" xlink:href="#DejaVuSans-2e"/>
       <use transform="translate(95.410156 0.78125)" xlink:href="#DejaVuSans-30"/>
      </g>
     </g>
    </g>
    <g id="xtick_5">
     <g id="line2d_5">
      <g>
       <use style="stroke:#000000;stroke-width:0.8;" x="220.32498" xlink:href="#mc9506f9f9e" y="239.470866"/>
      </g>
     </g>
     <g id="text_5">
      <!-- $4.0$ -->
      <g transform="translate(212.32498 254.069304)scale(0.1 -0.1)">
       <use transform="translate(0 0.78125)" xlink:href="#DejaVuSans-34"/>
       <use transform="translate(63.623047 0.78125)" xlink:href="#DejaVuSans-2e"/>
       <use transform="translate(95.410156 0.78125)" xlink:href="#DejaVuSans-30"/>
      </g>
     </g>
    </g>
    <g id="text_6">
     <!-- $a/v$ -->
     <defs>
      <path d="M 53.71875 31.203125 
L 47.609375 0 
L 38.625 0 
L 40.28125 8.296875 
Q 36.328125 3.421875 31.265625 1 
Q 26.21875 -1.421875 20.015625 -1.421875 
Q 13.03125 -1.421875 8.5625 2.84375 
Q 4.109375 7.125 4.109375 13.8125 
Q 4.109375 23.390625 11.75 28.953125 
Q 19.390625 34.515625 32.8125 34.515625 
L 45.3125 34.515625 
L 45.796875 36.921875 
Q 45.90625 37.3125 45.953125 37.765625 
Q 46 38.234375 46 39.203125 
Q 46 43.5625 42.453125 45.96875 
Q 38.921875 48.390625 32.515625 48.390625 
Q 28.125 48.390625 23.5 47.265625 
Q 18.890625 46.140625 14.015625 43.890625 
L 15.578125 52.203125 
Q 20.65625 54.109375 25.515625 55.046875 
Q 30.375 56 34.90625 56 
Q 44.578125 56 49.625 51.796875 
Q 54.6875 47.609375 54.6875 39.59375 
Q 54.6875 37.984375 54.4375 35.8125 
Q 54.203125 33.640625 53.71875 31.203125 
z
M 44 27.484375 
L 35.015625 27.484375 
Q 23.96875 27.484375 18.671875 24.53125 
Q 13.375 21.578125 13.375 15.375 
Q 13.375 11.078125 16.078125 8.640625 
Q 18.796875 6.203125 23.578125 6.203125 
Q 30.90625 6.203125 36.375 11.453125 
Q 41.84375 16.703125 43.609375 25.484375 
z
" id="DejaVuSans-Oblique-61"/>
      <path d="M 25.390625 72.90625 
L 33.6875 72.90625 
L 8.296875 -9.28125 
L 0 -9.28125 
z
" id="DejaVuSans-2f"/>
      <path d="M 7.171875 54.6875 
L 16.703125 54.6875 
L 24.703125 8.203125 
L 50.875 54.6875 
L 60.40625 54.6875 
L 29.296875 0 
L 17.1875 0 
z
" id="DejaVuSans-Oblique-76"/>
     </defs>
     <g transform="translate(131.034252 267.747429)scale(0.1 -0.1)">
      <use transform="translate(0 0.09375)" xlink:href="#DejaVuSans-Oblique-61"/>
      <use transform="translate(61.279297 0.09375)" xlink:href="#DejaVuSans-2f"/>
      <use transform="translate(94.970703 0.09375)" xlink:href="#DejaVuSans-Oblique-76"/>
     </g>
    </g>
   </g>
   <g id="matplotlib.axis_2">
    <g id="ytick_1">
     <g id="line2d_6">
      <defs>
       <path d="M 0 0 
L -3.5 0 
" id="m4c2ddc416d" style="stroke:#000000;stroke-width:0.8;"/>
      </defs>
      <g>
       <use style="stroke:#000000;stroke-width:0.8;" x="32.655118" xlink:href="#m4c2ddc416d" y="230.07015"/>
      </g>
     </g>
     <g id="text_7">
      <!-- 0 -->
      <g transform="translate(19.292618 233.869369)scale(0.1 -0.1)">
       <use xlink:href="#DejaVuSans-30"/>
      </g>
     </g>
    </g>
    <g id="ytick_2">
     <g id="line2d_7">
      <g>
       <use style="stroke:#000000;stroke-width:0.8;" x="32.655118" xlink:href="#m4c2ddc416d" y="197.985796"/>
      </g>
     </g>
     <g id="text_8">
      <!-- 200 -->
      <g transform="translate(6.567618 201.785015)scale(0.1 -0.1)">
       <use xlink:href="#DejaVuSans-32"/>
       <use x="63.623047" xlink:href="#DejaVuSans-30"/>
       <use x="127.246094" xlink:href="#DejaVuSans-30"/>
      </g>
     </g>
    </g>
    <g id="ytick_3">
     <g id="line2d_8">
      <g>
       <use style="stroke:#000000;stroke-width:0.8;" x="32.655118" xlink:href="#m4c2ddc416d" y="165.901442"/>
      </g>
     </g>
     <g id="text_9">
      <!-- 400 -->
      <g transform="translate(6.567618 169.70066)scale(0.1 -0.1)">
       <use xlink:href="#DejaVuSans-34"/>
       <use x="63.623047" xlink:href="#DejaVuSans-30"/>
       <use x="127.246094" xlink:href="#DejaVuSans-30"/>
      </g>
     </g>
    </g>
    <g id="ytick_4">
     <g id="line2d_9">
      <g>
       <use style="stroke:#000000;stroke-width:0.8;" x="32.655118" xlink:href="#m4c2ddc416d" y="133.817087"/>
      </g>
     </g>
     <g id="text_10">
      <!-- 600 -->
      <defs>
       <path d="M 33.015625 40.375 
Q 26.375 40.375 22.484375 35.828125 
Q 18.609375 31.296875 18.609375 23.390625 
Q 18.609375 15.53125 22.484375 10.953125 
Q 26.375 6.390625 33.015625 6.390625 
Q 39.65625 6.390625 43.53125 10.953125 
Q 47.40625 15.53125 47.40625 23.390625 
Q 47.40625 31.296875 43.53125 35.828125 
Q 39.65625 40.375 33.015625 40.375 
z
M 52.59375 71.296875 
L 52.59375 62.3125 
Q 48.875 64.0625 45.09375 64.984375 
Q 41.3125 65.921875 37.59375 65.921875 
Q 27.828125 65.921875 22.671875 59.328125 
Q 17.53125 52.734375 16.796875 39.40625 
Q 19.671875 43.65625 24.015625 45.921875 
Q 28.375 48.1875 33.59375 48.1875 
Q 44.578125 48.1875 50.953125 41.515625 
Q 57.328125 34.859375 57.328125 23.390625 
Q 57.328125 12.15625 50.6875 5.359375 
Q 44.046875 -1.421875 33.015625 -1.421875 
Q 20.359375 -1.421875 13.671875 8.265625 
Q 6.984375 17.96875 6.984375 36.375 
Q 6.984375 53.65625 15.1875 63.9375 
Q 23.390625 74.21875 37.203125 74.21875 
Q 40.921875 74.21875 44.703125 73.484375 
Q 48.484375 72.75 52.59375 71.296875 
z
" id="DejaVuSans-36"/>
      </defs>
      <g transform="translate(6.567618 137.616306)scale(0.1 -0.1)">
       <use xlink:href="#DejaVuSans-36"/>
       <use x="63.623047" xlink:href="#DejaVuSans-30"/>
       <use x="127.246094" xlink:href="#DejaVuSans-30"/>
      </g>
     </g>
    </g>
    <g id="ytick_5">
     <g id="line2d_10">
      <g>
       <use style="stroke:#000000;stroke-width:0.8;" x="32.655118" xlink:href="#m4c2ddc416d" y="101.732733"/>
      </g>
     </g>
     <g id="text_11">
      <!-- 800 -->
      <defs>
       <path d="M 31.78125 34.625 
Q 24.75 34.625 20.71875 30.859375 
Q 16.703125 27.09375 16.703125 20.515625 
Q 16.703125 13.921875 20.71875 10.15625 
Q 24.75 6.390625 31.78125 6.390625 
Q 38.8125 6.390625 42.859375 10.171875 
Q 46.921875 13.96875 46.921875 20.515625 
Q 46.921875 27.09375 42.890625 30.859375 
Q 38.875 34.625 31.78125 34.625 
z
M 21.921875 38.8125 
Q 15.578125 40.375 12.03125 44.71875 
Q 8.5 49.078125 8.5 55.328125 
Q 8.5 64.0625 14.71875 69.140625 
Q 20.953125 74.21875 31.78125 74.21875 
Q 42.671875 74.21875 48.875 69.140625 
Q 55.078125 64.0625 55.078125 55.328125 
Q 55.078125 49.078125 51.53125 44.71875 
Q 48 40.375 41.703125 38.8125 
Q 48.828125 37.15625 52.796875 32.3125 
Q 56.78125 27.484375 56.78125 20.515625 
Q 56.78125 9.90625 50.3125 4.234375 
Q 43.84375 -1.421875 31.78125 -1.421875 
Q 19.734375 -1.421875 13.25 4.234375 
Q 6.78125 9.90625 6.78125 20.515625 
Q 6.78125 27.484375 10.78125 32.3125 
Q 14.796875 37.15625 21.921875 38.8125 
z
M 18.3125 54.390625 
Q 18.3125 48.734375 21.84375 45.5625 
Q 25.390625 42.390625 31.78125 42.390625 
Q 38.140625 42.390625 41.71875 45.5625 
Q 45.3125 48.734375 45.3125 54.390625 
Q 45.3125 60.0625 41.71875 63.234375 
Q 38.140625 66.40625 31.78125 66.40625 
Q 25.390625 66.40625 21.84375 63.234375 
Q 18.3125 60.0625 18.3125 54.390625 
z
" id="DejaVuSans-38"/>
      </defs>
      <g transform="translate(6.567618 105.531952)scale(0.1 -0.1)">
       <use xlink:href="#DejaVuSans-38"/>
       <use x="63.623047" xlink:href="#DejaVuSans-30"/>
       <use x="127.246094" xlink:href="#DejaVuSans-30"/>
      </g>
     </g>
    </g>
    <g id="ytick_6">
     <g id="line2d_11">
      <g>
       <use style="stroke:#000000;stroke-width:0.8;" x="32.655118" xlink:href="#m4c2ddc416d" y="69.648379"/>
      </g>
     </g>
     <g id="text_12">
      <!-- 1000 -->
      <defs>
       <path d="M 12.40625 8.296875 
L 28.515625 8.296875 
L 28.515625 63.921875 
L 10.984375 60.40625 
L 10.984375 69.390625 
L 28.421875 72.90625 
L 38.28125 72.90625 
L 38.28125 8.296875 
L 54.390625 8.296875 
L 54.390625 0 
L 12.40625 0 
z
" id="DejaVuSans-31"/>
      </defs>
      <g transform="translate(0.205118 73.447597)scale(0.1 -0.1)">
       <use xlink:href="#DejaVuSans-31"/>
       <use x="63.623047" xlink:href="#DejaVuSans-30"/>
       <use x="127.246094" xlink:href="#DejaVuSans-30"/>
       <use x="190.869141" xlink:href="#DejaVuSans-30"/>
      </g>
     </g>
    </g>
    <g id="ytick_7">
     <g id="line2d_12">
      <g>
       <use style="stroke:#000000;stroke-width:0.8;" x="32.655118" xlink:href="#m4c2ddc416d" y="37.564024"/>
      </g>
     </g>
     <g id="text_13">
      <!-- 1200 -->
      <g transform="translate(0.205118 41.363243)scale(0.1 -0.1)">
       <use xlink:href="#DejaVuSans-31"/>
       <use x="63.623047" xlink:href="#DejaVuSans-32"/>
       <use x="127.246094" xlink:href="#DejaVuSans-30"/>
       <use x="190.869141" xlink:href="#DejaVuSans-30"/>
      </g>
     </g>
    </g>
   </g>
   <g id="line2d_13">
    <path clip-path="url(#pf862df0515)" d="M 61.034936 228.947198 
L 69.961066 228.305511 
L 78.887197 225.097075 
L 87.813327 220.444844 
L 96.739457 212.584177 
L 105.665588 200.873388 
L 114.591718 178.574762 
L 123.517849 166.222285 
L 132.443979 154.511496 
L 141.37011 162.051319 
L 150.29624 179.537292 
L 159.222371 195.739891 
L 168.148501 207.771524 
L 177.074631 222.530327 
L 186.000762 226.540871 
L 194.926892 229.268041 
L 203.853023 229.588885 
L 212.779153 230.07015 
L 221.705284 229.909729 
L 230.631414 229.909729 
" style="fill:none;stroke:#1f77b4;stroke-linecap:square;stroke-width:1.5;"/>
   </g>
   <g id="line2d_14">
    <path clip-path="url(#pf862df0515)" d="M 59.216118 228.947198 
L 67.829569 228.626354 
L 76.44302 227.022137 
L 85.05647 224.455388 
L 93.669921 216.755143 
L 102.283371 201.835919 
L 110.896822 185.312476 
L 119.510273 171.516204 
L 128.123723 159.324149 
L 136.737174 162.051319 
L 145.350624 176.6497 
L 153.964075 188.36049 
L 162.577526 203.119293 
L 171.190976 213.546708 
L 179.804427 221.728218 
L 188.417878 227.182558 
L 197.031328 228.465933 
L 205.644779 229.588885 
L 214.258229 229.749307 
L 222.87168 229.749307 
" style="fill:none;stroke:#ff7f0e;stroke-linecap:square;stroke-width:1.5;"/>
   </g>
   <g id="line2d_15">
    <path clip-path="url(#pf862df0515)" d="M 57.590241 229.749307 
L 66.802756 229.268041 
L 76.015271 227.503402 
L 85.227786 219.963579 
L 94.440301 210.659116 
L 103.652816 195.900313 
L 112.865331 178.895605 
L 122.077846 164.778489 
L 131.290361 166.382707 
L 140.502876 169.751564 
L 149.715391 171.997469 
L 158.927906 196.060735 
L 168.140421 211.461225 
L 177.352936 220.605266 
L 186.565451 226.38045 
L 195.777966 228.145089 
L 204.990481 229.749307 
L 214.202996 229.909729 
L 223.415511 229.909729 
L 232.628026 229.749307 
" style="fill:none;stroke:#2ca02c;stroke-linecap:square;stroke-width:1.5;"/>
   </g>
   <g id="line2d_16">
    <path clip-path="url(#pf862df0515)" d="M 44.612941 229.909729 
L 53.170383 230.07015 
L 61.727825 229.588885 
L 70.285267 228.305511 
L 78.842709 226.38045 
L 87.400151 223.653279 
L 95.957593 216.4343 
L 104.515034 197.985796 
L 113.072476 184.349945 
L 121.629918 165.901442 
L 130.18736 169.270299 
L 138.744802 168.307768 
L 147.302244 180.178979 
L 155.859686 187.718803 
L 164.417127 206.006885 
L 172.974569 219.16147 
L 181.532011 223.974123 
L 190.089453 227.663824 
L 198.646895 228.947198 
L 207.204337 228.786776 
" style="fill:none;stroke:#d62728;stroke-linecap:square;stroke-width:1.5;"/>
   </g>
   <g id="line2d_17">
    <path clip-path="url(#pf862df0515)" d="M 56.30103 229.588885 
L 65.11103 229.749307 
L 73.921031 229.428463 
L 82.731032 226.220028 
L 91.541032 216.915565 
L 100.351033 211.140381 
L 109.161033 192.852299 
L 117.971034 176.168435 
L 126.781035 166.382707 
L 135.591035 154.190652 
L 144.401036 166.703551 
L 153.211036 183.387415 
L 162.021037 199.910857 
L 170.831037 216.594722 
L 179.641038 224.134545 
L 188.451039 226.861715 
L 197.261039 228.786776 
L 206.07104 229.909729 
L 214.88104 229.588885 
L 223.691041 229.588885 
" style="fill:none;stroke:#9467bd;stroke-linecap:square;stroke-width:1.5;"/>
   </g>
   <g id="line2d_18">
    <path clip-path="url(#pf862df0515)" d="M 48.907627 229.588885 
L 57.31745 229.268041 
L 65.727274 229.10762 
L 74.137097 227.984667 
L 82.546921 225.097075 
L 90.956744 220.124 
L 99.366567 212.263334 
L 107.776391 197.985796 
L 116.186214 182.585306 
L 124.596037 170.393251 
L 133.005861 167.345238 
L 141.415684 163.815959 
L 149.825508 174.564217 
L 158.235331 190.927238 
L 166.645154 210.498694 
L 175.054978 222.369905 
L 183.464801 225.417919 
L 191.874624 228.786776 
L 200.284448 229.588885 
L 208.694271 229.268041 
" style="fill:none;stroke:#8c564b;stroke-linecap:square;stroke-width:1.5;"/>
   </g>
   <g id="line2d_19">
    <path clip-path="url(#pf862df0515)" d="M 42.303221 229.909729 
L 46.241222 229.909729 
L 50.179224 229.588885 
L 54.117225 229.588885 
L 58.055226 228.305511 
L 61.993227 228.305511 
L 65.931229 226.701293 
L 69.86923 227.022137 
L 73.807231 224.134545 
L 77.745232 221.407375 
L 81.683234 219.642735 
L 85.621235 210.017429 
L 89.559236 204.883932 
L 93.497238 192.05019 
L 97.435239 176.970544 
L 101.37324 166.863972 
L 105.311241 144.725768 
L 109.249243 124.99389 
L 113.187244 106.86623 
L 117.125245 81.680012 
L 121.063246 66.279521 
L 125.001248 54.087467 
L 128.939249 54.729154 
L 132.87725 42.055834 
L 136.815251 49.916501 
L 140.753253 55.531263 
L 144.691254 63.873195 
L 148.629255 82.000855 
L 152.567256 104.299481 
L 156.505258 119.53955 
L 160.443259 144.404924 
L 164.38126 163.97638 
L 168.319261 179.697714 
L 172.257263 194.296095 
L 176.195264 206.808993 
L 180.133265 213.225864 
L 184.071266 216.594722 
L 188.009268 224.294967 
L 191.947269 224.134545 
L 195.88527 226.701293 
L 199.823271 227.503402 
L 203.761273 228.465933 
L 207.699274 228.786776 
L 211.637275 229.10762 
L 215.575276 229.588885 
L 219.513278 229.428463 
L 223.451279 229.909729 
L 227.38928 229.588885 
L 231.327281 230.07015 
L 235.265283 229.588885 
" style="fill:none;stroke:#000000;stroke-linecap:square;stroke-width:2;"/>
   </g>
   <g id="patch_3">
    <path d="M 32.655118 239.470866 
L 32.655118 32.655118 
" style="fill:none;stroke:#000000;stroke-linecap:square;stroke-linejoin:miter;stroke-width:0.8;"/>
   </g>
   <g id="patch_4">
    <path d="M 244.913386 239.470866 
L 244.913386 32.655118 
" style="fill:none;stroke:#000000;stroke-linecap:square;stroke-linejoin:miter;stroke-width:0.8;"/>
   </g>
   <g id="patch_5">
    <path d="M 32.655118 239.470866 
L 244.913386 239.470866 
" style="fill:none;stroke:#000000;stroke-linecap:square;stroke-linejoin:miter;stroke-width:0.8;"/>
   </g>
   <g id="patch_6">
    <path d="M 32.655118 32.655118 
L 244.913386 32.655118 
" style="fill:none;stroke:#000000;stroke-linecap:square;stroke-linejoin:miter;stroke-width:0.8;"/>
   </g>
   <g id="text_14">
    <!-- $\times 10^{-3}$ -->
    <defs>
     <path d="M 70.125 53.71875 
L 47.796875 31.296875 
L 70.125 8.984375 
L 64.3125 3.078125 
L 41.890625 25.484375 
L 19.484375 3.078125 
L 13.71875 8.984375 
L 35.984375 31.296875 
L 13.71875 53.71875 
L 19.484375 59.625 
L 41.890625 37.203125 
L 64.3125 59.625 
z
" id="DejaVuSans-d7"/>
     <path d="M 40.578125 39.3125 
Q 47.65625 37.796875 51.625 33 
Q 55.609375 28.21875 55.609375 21.1875 
Q 55.609375 10.40625 48.1875 4.484375 
Q 40.765625 -1.421875 27.09375 -1.421875 
Q 22.515625 -1.421875 17.65625 -0.515625 
Q 12.796875 0.390625 7.625 2.203125 
L 7.625 11.71875 
Q 11.71875 9.328125 16.59375 8.109375 
Q 21.484375 6.890625 26.8125 6.890625 
Q 36.078125 6.890625 40.9375 10.546875 
Q 45.796875 14.203125 45.796875 21.1875 
Q 45.796875 27.640625 41.28125 31.265625 
Q 36.765625 34.90625 28.71875 34.90625 
L 20.21875 34.90625 
L 20.21875 43.015625 
L 29.109375 43.015625 
Q 36.375 43.015625 40.234375 45.921875 
Q 44.09375 48.828125 44.09375 54.296875 
Q 44.09375 59.90625 40.109375 62.90625 
Q 36.140625 65.921875 28.71875 65.921875 
Q 24.65625 65.921875 20.015625 65.03125 
Q 15.375 64.15625 9.8125 62.3125 
L 9.8125 71.09375 
Q 15.4375 72.65625 20.34375 73.4375 
Q 25.25 74.21875 29.59375 74.21875 
Q 40.828125 74.21875 47.359375 69.109375 
Q 53.90625 64.015625 53.90625 55.328125 
Q 53.90625 49.265625 50.4375 45.09375 
Q 46.96875 40.921875 40.578125 39.3125 
z
" id="DejaVuSans-33"/>
    </defs>
    <g transform="translate(227.932724 264.288756)scale(0.09 -0.09)">
     <use transform="translate(0 0.765625)" xlink:href="#DejaVuSans-d7"/>
     <use transform="translate(83.789062 0.765625)" xlink:href="#DejaVuSans-31"/>
     <use transform="translate(147.412109 0.765625)" xlink:href="#DejaVuSans-30"/>
     <use transform="translate(211.992188 39.046875)scale(0.7)" xlink:href="#DejaVuSans-2212"/>
     <use transform="translate(270.644531 39.046875)scale(0.7)" xlink:href="#DejaVuSans-33"/>
    </g>
   </g>
   <g id="legend_1">
    <g id="patch_7">
     <path d="M 181.423386 113.629806 
L 240.013386 113.629806 
Q 241.413386 113.629806 241.413386 112.229806 
L 241.413386 37.555118 
Q 241.413386 36.155118 240.013386 36.155118 
L 181.423386 36.155118 
Q 180.023386 36.155118 180.023386 37.555118 
L 180.023386 112.229806 
Q 180.023386 113.629806 181.423386 113.629806 
z
" style="fill:#ffffff;opacity:0.8;stroke:#cccccc;stroke-linejoin:miter;"/>
    </g>
    <g id="line2d_20">
     <path d="M 182.823386 42.399337 
L 196.823386 42.399337 
" style="fill:none;stroke:#1f77b4;stroke-linecap:square;stroke-width:1.5;"/>
    </g>
    <g id="line2d_21"/>
    <g id="text_15">
     <!-- $\left\langle r^{2}\right\rangle=0.05$ -->
     <defs>
      <path d="M 8.9375 31.34375 
L 22.703125 75.875 
L 31 75.875 
L 17.234375 31.34375 
L 31 -13.1875 
L 22.703125 -13.1875 
z
" id="DejaVuSans-27e8"/>
      <path d="M 44.578125 46.390625 
Q 43.21875 47.125 41.453125 47.515625 
Q 39.703125 47.90625 37.703125 47.90625 
Q 30.515625 47.90625 25.140625 42.453125 
Q 19.78125 37.015625 18.015625 27.875 
L 12.5 0 
L 3.515625 0 
L 14.203125 54.6875 
L 23.1875 54.6875 
L 21.484375 46.1875 
Q 25.046875 50.921875 30 53.453125 
Q 34.96875 56 40.578125 56 
Q 42.046875 56 43.453125 55.828125 
Q 44.875 55.671875 46.296875 55.28125 
z
" id="DejaVuSans-Oblique-72"/>
      <path d="M 30.078125 31.34375 
L 16.3125 -13.1875 
L 8.015625 -13.1875 
L 21.78125 31.34375 
L 8.015625 75.875 
L 16.3125 75.875 
z
" id="DejaVuSans-27e9"/>
      <path d="M 10.59375 45.40625 
L 73.1875 45.40625 
L 73.1875 37.203125 
L 10.59375 37.203125 
z
M 10.59375 25.484375 
L 73.1875 25.484375 
L 73.1875 17.1875 
L 10.59375 17.1875 
z
" id="DejaVuSans-3d"/>
      <path d="M 10.796875 72.90625 
L 49.515625 72.90625 
L 49.515625 64.59375 
L 19.828125 64.59375 
L 19.828125 46.734375 
Q 21.96875 47.46875 24.109375 47.828125 
Q 26.265625 48.1875 28.421875 48.1875 
Q 40.625 48.1875 47.75 41.5 
Q 54.890625 34.8125 54.890625 23.390625 
Q 54.890625 11.625 47.5625 5.09375 
Q 40.234375 -1.421875 26.90625 -1.421875 
Q 22.3125 -1.421875 17.546875 -0.640625 
Q 12.796875 0.140625 7.71875 1.703125 
L 7.71875 11.625 
Q 12.109375 9.234375 16.796875 8.0625 
Q 21.484375 6.890625 26.703125 6.890625 
Q 35.15625 6.890625 40.078125 11.328125 
Q 45.015625 15.765625 45.015625 23.390625 
Q 45.015625 31 40.078125 35.4375 
Q 35.15625 39.890625 26.703125 39.890625 
Q 22.75 39.890625 18.8125 39.015625 
Q 14.890625 38.140625 10.796875 36.28125 
z
" id="DejaVuSans-35"/>
     </defs>
     <g transform="translate(202.423386 44.849337)scale(0.07 -0.07)">
      <use transform="translate(0 0.765625)" xlink:href="#DejaVuSans-27e8"/>
      <use transform="translate(39.013672 0.765625)" xlink:href="#DejaVuSans-Oblique-72"/>
      <use transform="translate(84.776849 39.046875)scale(0.7)" xlink:href="#DejaVuSans-32"/>
      <use transform="translate(132.047357 0.765625)" xlink:href="#DejaVuSans-27e9"/>
      <use transform="translate(190.543451 0.765625)" xlink:href="#DejaVuSans-3d"/>
      <use transform="translate(293.814935 0.765625)" xlink:href="#DejaVuSans-30"/>
      <use transform="translate(357.437982 0.765625)" xlink:href="#DejaVuSans-2e"/>
      <use transform="translate(389.225091 0.765625)" xlink:href="#DejaVuSans-30"/>
      <use transform="translate(452.848138 0.765625)" xlink:href="#DejaVuSans-35"/>
     </g>
    </g>
    <g id="line2d_22">
     <path d="M 182.823386 53.249337 
L 196.823386 53.249337 
" style="fill:none;stroke:#ff7f0e;stroke-linecap:square;stroke-width:1.5;"/>
    </g>
    <g id="line2d_23"/>
    <g id="text_16">
     <!-- $\left\langle r^{2}\right\rangle=0.05$ -->
     <g transform="translate(202.423386 55.699337)scale(0.07 -0.07)">
      <use transform="translate(0 0.765625)" xlink:href="#DejaVuSans-27e8"/>
      <use transform="translate(39.013672 0.765625)" xlink:href="#DejaVuSans-Oblique-72"/>
      <use transform="translate(84.776849 39.046875)scale(0.7)" xlink:href="#DejaVuSans-32"/>
      <use transform="translate(132.047357 0.765625)" xlink:href="#DejaVuSans-27e9"/>
      <use transform="translate(190.543451 0.765625)" xlink:href="#DejaVuSans-3d"/>
      <use transform="translate(293.814935 0.765625)" xlink:href="#DejaVuSans-30"/>
      <use transform="translate(357.437982 0.765625)" xlink:href="#DejaVuSans-2e"/>
      <use transform="translate(389.225091 0.765625)" xlink:href="#DejaVuSans-30"/>
      <use transform="translate(452.848138 0.765625)" xlink:href="#DejaVuSans-35"/>
     </g>
    </g>
    <g id="line2d_24">
     <path d="M 182.823386 64.099337 
L 196.823386 64.099337 
" style="fill:none;stroke:#2ca02c;stroke-linecap:square;stroke-width:1.5;"/>
    </g>
    <g id="line2d_25"/>
    <g id="text_17">
     <!-- $\left\langle r^{2}\right\rangle=0.05$ -->
     <g transform="translate(202.423386 66.549337)scale(0.07 -0.07)">
      <use transform="translate(0 0.765625)" xlink:href="#DejaVuSans-27e8"/>
      <use transform="translate(39.013672 0.765625)" xlink:href="#DejaVuSans-Oblique-72"/>
      <use transform="translate(84.776849 39.046875)scale(0.7)" xlink:href="#DejaVuSans-32"/>
      <use transform="translate(132.047357 0.765625)" xlink:href="#DejaVuSans-27e9"/>
      <use transform="translate(190.543451 0.765625)" xlink:href="#DejaVuSans-3d"/>
      <use transform="translate(293.814935 0.765625)" xlink:href="#DejaVuSans-30"/>
      <use transform="translate(357.437982 0.765625)" xlink:href="#DejaVuSans-2e"/>
      <use transform="translate(389.225091 0.765625)" xlink:href="#DejaVuSans-30"/>
      <use transform="translate(452.848138 0.765625)" xlink:href="#DejaVuSans-35"/>
     </g>
    </g>
    <g id="line2d_26">
     <path d="M 182.823386 74.949337 
L 196.823386 74.949337 
" style="fill:none;stroke:#d62728;stroke-linecap:square;stroke-width:1.5;"/>
    </g>
    <g id="line2d_27"/>
    <g id="text_18">
     <!-- $\left\langle r^{2}\right\rangle=0.05$ -->
     <g transform="translate(202.423386 77.399337)scale(0.07 -0.07)">
      <use transform="translate(0 0.765625)" xlink:href="#DejaVuSans-27e8"/>
      <use transform="translate(39.013672 0.765625)" xlink:href="#DejaVuSans-Oblique-72"/>
      <use transform="translate(84.776849 39.046875)scale(0.7)" xlink:href="#DejaVuSans-32"/>
      <use transform="translate(132.047357 0.765625)" xlink:href="#DejaVuSans-27e9"/>
      <use transform="translate(190.543451 0.765625)" xlink:href="#DejaVuSans-3d"/>
      <use transform="translate(293.814935 0.765625)" xlink:href="#DejaVuSans-30"/>
      <use transform="translate(357.437982 0.765625)" xlink:href="#DejaVuSans-2e"/>
      <use transform="translate(389.225091 0.765625)" xlink:href="#DejaVuSans-30"/>
      <use transform="translate(452.848138 0.765625)" xlink:href="#DejaVuSans-35"/>
     </g>
    </g>
    <g id="line2d_28">
     <path d="M 182.823386 85.799337 
L 196.823386 85.799337 
" style="fill:none;stroke:#9467bd;stroke-linecap:square;stroke-width:1.5;"/>
    </g>
    <g id="line2d_29"/>
    <g id="text_19">
     <!-- $\left\langle r^{2}\right\rangle=0.05$ -->
     <g transform="translate(202.423386 88.249337)scale(0.07 -0.07)">
      <use transform="translate(0 0.765625)" xlink:href="#DejaVuSans-27e8"/>
      <use transform="translate(39.013672 0.765625)" xlink:href="#DejaVuSans-Oblique-72"/>
      <use transform="translate(84.776849 39.046875)scale(0.7)" xlink:href="#DejaVuSans-32"/>
      <use transform="translate(132.047357 0.765625)" xlink:href="#DejaVuSans-27e9"/>
      <use transform="translate(190.543451 0.765625)" xlink:href="#DejaVuSans-3d"/>
      <use transform="translate(293.814935 0.765625)" xlink:href="#DejaVuSans-30"/>
      <use transform="translate(357.437982 0.765625)" xlink:href="#DejaVuSans-2e"/>
      <use transform="translate(389.225091 0.765625)" xlink:href="#DejaVuSans-30"/>
      <use transform="translate(452.848138 0.765625)" xlink:href="#DejaVuSans-35"/>
     </g>
    </g>
    <g id="line2d_30">
     <path d="M 182.823386 96.649337 
L 196.823386 96.649337 
" style="fill:none;stroke:#8c564b;stroke-linecap:square;stroke-width:1.5;"/>
    </g>
    <g id="line2d_31"/>
    <g id="text_20">
     <!-- $\left\langle r^{2}\right\rangle=0.05$ -->
     <g transform="translate(202.423386 99.099337)scale(0.07 -0.07)">
      <use transform="translate(0 0.765625)" xlink:href="#DejaVuSans-27e8"/>
      <use transform="translate(39.013672 0.765625)" xlink:href="#DejaVuSans-Oblique-72"/>
      <use transform="translate(84.776849 39.046875)scale(0.7)" xlink:href="#DejaVuSans-32"/>
      <use transform="translate(132.047357 0.765625)" xlink:href="#DejaVuSans-27e9"/>
      <use transform="translate(190.543451 0.765625)" xlink:href="#DejaVuSans-3d"/>
      <use transform="translate(293.814935 0.765625)" xlink:href="#DejaVuSans-30"/>
      <use transform="translate(357.437982 0.765625)" xlink:href="#DejaVuSans-2e"/>
      <use transform="translate(389.225091 0.765625)" xlink:href="#DejaVuSans-30"/>
      <use transform="translate(452.848138 0.765625)" xlink:href="#DejaVuSans-35"/>
     </g>
    </g>
    <g id="line2d_32">
     <path d="M 182.823386 106.924024 
L 196.823386 106.924024 
" style="fill:none;stroke:#000000;stroke-linecap:square;stroke-width:2;"/>
    </g>
    <g id="line2d_33"/>
    <g id="text_21">
     <!-- Todas -->
     <defs>
      <path d="M -0.296875 72.90625 
L 61.375 72.90625 
L 61.375 64.59375 
L 35.5 64.59375 
L 35.5 0 
L 25.59375 0 
L 25.59375 64.59375 
L -0.296875 64.59375 
z
" id="DejaVuSans-54"/>
      <path d="M 30.609375 48.390625 
Q 23.390625 48.390625 19.1875 42.75 
Q 14.984375 37.109375 14.984375 27.296875 
Q 14.984375 17.484375 19.15625 11.84375 
Q 23.34375 6.203125 30.609375 6.203125 
Q 37.796875 6.203125 41.984375 11.859375 
Q 46.1875 17.53125 46.1875 27.296875 
Q 46.1875 37.015625 41.984375 42.703125 
Q 37.796875 48.390625 30.609375 48.390625 
z
M 30.609375 56 
Q 42.328125 56 49.015625 48.375 
Q 55.71875 40.765625 55.71875 27.296875 
Q 55.71875 13.875 49.015625 6.21875 
Q 42.328125 -1.421875 30.609375 -1.421875 
Q 18.84375 -1.421875 12.171875 6.21875 
Q 5.515625 13.875 5.515625 27.296875 
Q 5.515625 40.765625 12.171875 48.375 
Q 18.84375 56 30.609375 56 
z
" id="DejaVuSans-6f"/>
      <path d="M 45.40625 46.390625 
L 45.40625 75.984375 
L 54.390625 75.984375 
L 54.390625 0 
L 45.40625 0 
L 45.40625 8.203125 
Q 42.578125 3.328125 38.25 0.953125 
Q 33.9375 -1.421875 27.875 -1.421875 
Q 17.96875 -1.421875 11.734375 6.484375 
Q 5.515625 14.40625 5.515625 27.296875 
Q 5.515625 40.1875 11.734375 48.09375 
Q 17.96875 56 27.875 56 
Q 33.9375 56 38.25 53.625 
Q 42.578125 51.265625 45.40625 46.390625 
z
M 14.796875 27.296875 
Q 14.796875 17.390625 18.875 11.75 
Q 22.953125 6.109375 30.078125 6.109375 
Q 37.203125 6.109375 41.296875 11.75 
Q 45.40625 17.390625 45.40625 27.296875 
Q 45.40625 37.203125 41.296875 42.84375 
Q 37.203125 48.484375 30.078125 48.484375 
Q 22.953125 48.484375 18.875 42.84375 
Q 14.796875 37.203125 14.796875 27.296875 
z
" id="DejaVuSans-64"/>
      <path d="M 34.28125 27.484375 
Q 23.390625 27.484375 19.1875 25 
Q 14.984375 22.515625 14.984375 16.5 
Q 14.984375 11.71875 18.140625 8.90625 
Q 21.296875 6.109375 26.703125 6.109375 
Q 34.1875 6.109375 38.703125 11.40625 
Q 43.21875 16.703125 43.21875 25.484375 
L 43.21875 27.484375 
z
M 52.203125 31.203125 
L 52.203125 0 
L 43.21875 0 
L 43.21875 8.296875 
Q 40.140625 3.328125 35.546875 0.953125 
Q 30.953125 -1.421875 24.3125 -1.421875 
Q 15.921875 -1.421875 10.953125 3.296875 
Q 6 8.015625 6 15.921875 
Q 6 25.140625 12.171875 29.828125 
Q 18.359375 34.515625 30.609375 34.515625 
L 43.21875 34.515625 
L 43.21875 35.40625 
Q 43.21875 41.609375 39.140625 45 
Q 35.0625 48.390625 27.6875 48.390625 
Q 23 48.390625 18.546875 47.265625 
Q 14.109375 46.140625 10.015625 43.890625 
L 10.015625 52.203125 
Q 14.9375 54.109375 19.578125 55.046875 
Q 24.21875 56 28.609375 56 
Q 40.484375 56 46.34375 49.84375 
Q 52.203125 43.703125 52.203125 31.203125 
z
" id="DejaVuSans-61"/>
      <path d="M 44.28125 53.078125 
L 44.28125 44.578125 
Q 40.484375 46.53125 36.375 47.5 
Q 32.28125 48.484375 27.875 48.484375 
Q 21.1875 48.484375 17.84375 46.4375 
Q 14.5 44.390625 14.5 40.28125 
Q 14.5 37.15625 16.890625 35.375 
Q 19.28125 33.59375 26.515625 31.984375 
L 29.59375 31.296875 
Q 39.15625 29.25 43.1875 25.515625 
Q 47.21875 21.78125 47.21875 15.09375 
Q 47.21875 7.46875 41.1875 3.015625 
Q 35.15625 -1.421875 24.609375 -1.421875 
Q 20.21875 -1.421875 15.453125 -0.5625 
Q 10.6875 0.296875 5.421875 2 
L 5.421875 11.28125 
Q 10.40625 8.6875 15.234375 7.390625 
Q 20.0625 6.109375 24.8125 6.109375 
Q 31.15625 6.109375 34.5625 8.28125 
Q 37.984375 10.453125 37.984375 14.40625 
Q 37.984375 18.0625 35.515625 20.015625 
Q 33.0625 21.96875 24.703125 23.78125 
L 21.578125 24.515625 
Q 13.234375 26.265625 9.515625 29.90625 
Q 5.8125 33.546875 5.8125 39.890625 
Q 5.8125 47.609375 11.28125 51.796875 
Q 16.75 56 26.8125 56 
Q 31.78125 56 36.171875 55.265625 
Q 40.578125 54.546875 44.28125 53.078125 
z
" id="DejaVuSans-73"/>
     </defs>
     <g transform="translate(202.423386 109.374024)scale(0.07 -0.07)">
      <use xlink:href="#DejaVuSans-54"/>
      <use x="60.818359" xlink:href="#DejaVuSans-6f"/>
      <use x="122" xlink:href="#DejaVuSans-64"/>
      <use x="185.476562" xlink:href="#DejaVuSans-61"/>
      <use x="246.755859" xlink:href="#DejaVuSans-73"/>
     </g>
    </g>
   </g>
  </g>
  <g id="text_22">
   <!-- $\rho = 0.12$ -->
   <defs>
    <path d="M 18.796875 44.921875 
Q 22.703125 49.90625 30.953125 54.296875 
Q 34.1875 56 43.0625 56 
Q 53.03125 56 57.71875 48.09375 
Q 62.40625 40.1875 59.90625 27.296875 
Q 57.375 14.40625 49.609375 6.484375 
Q 41.84375 -1.421875 31.890625 -1.421875 
Q 25.875 -1.421875 22.015625 0.984375 
Q 18.171875 3.328125 16.3125 8.203125 
L 10.640625 -20.796875 
L 1.609375 -20.796875 
L 10.890625 26.8125 
Q 13.09375 38.09375 18.796875 44.921875 
z
M 50.59375 27.296875 
Q 52.484375 37.203125 49.515625 42.875 
Q 46.53125 48.484375 39.40625 48.484375 
Q 32.28125 48.484375 27.09375 42.875 
Q 21.921875 37.203125 20.015625 27.296875 
Q 18.0625 17.390625 21.046875 11.71875 
Q 24.03125 6.109375 31.15625 6.109375 
Q 38.28125 6.109375 43.453125 11.71875 
Q 48.640625 17.390625 50.59375 27.296875 
z
" id="DejaVuSans-Oblique-3c1"/>
   </defs>
   <g transform="translate(111.522992 14.53627)scale(0.12 -0.12)">
    <use transform="translate(0 0.78125)" xlink:href="#DejaVuSans-Oblique-3c1"/>
    <use transform="translate(82.958984 0.78125)" xlink:href="#DejaVuSans-3d"/>
    <use transform="translate(186.230469 0.78125)" xlink:href="#DejaVuSans-30"/>
    <use transform="translate(249.853516 0.78125)" xlink:href="#DejaVuSans-2e"/>
    <use transform="translate(281.640625 0.78125)" xlink:href="#DejaVuSans-31"/>
    <use transform="translate(345.263672 0.78125)" xlink:href="#DejaVuSans-32"/>
   </g>
  </g>
 </g>
 <defs>
  <clipPath id="pf862df0515">
   <rect height="206.815748" width="212.258268" x="32.655118" y="32.655118"/>
  </clipPath>
 </defs>
</svg>
