<?xml version="1.0" encoding="utf-8" standalone="no"?>
<!DOCTYPE svg PUBLIC "-//W3C//DTD SVG 1.1//EN"
  "http://www.w3.org/Graphics/SVG/1.1/DTD/svg11.dtd">
<!-- Created with matplotlib (http://matplotlib.org/) -->
<svg height="288pt" version="1.1" viewBox="0 0 288 288" width="288pt" xmlns="http://www.w3.org/2000/svg" xmlns:xlink="http://www.w3.org/1999/xlink">
 <defs>
  <style type="text/css">
*{stroke-linecap:butt;stroke-linejoin:round;}
  </style>
 </defs>
 <g id="figure_1">
  <g id="patch_1">
   <path d="M 0 288 
L 288 288 
L 288 0 
L 0 0 
z
" style="fill:#ffffff;"/>
  </g>
  <g id="axes_1">
   <g id="patch_2">
    <path d="M 43.09 260.12 
L 274.68 260.12 
L 274.68 13.32 
L 43.09 13.32 
z
" style="fill:#ffffff;"/>
   </g>
   <g id="line2d_1">
    <path clip-path="url(#p0d8f3355be)" d="M 53.616818 248.901818 
L 59.015186 248.901818 
L 64.413555 248.901818 
L 69.811923 245.89275 
L 75.210291 245.89275 
L 80.60866 247.585351 
L 86.007028 248.713751 
L 91.405396 246.45695 
L 96.803765 245.89275 
L 102.202133 244.388216 
L 107.600501 189.660791 
L 112.998869 163.895646 
L 118.397238 167.280847 
L 123.795606 89.045078 
L 129.193974 145.088971 
L 134.592343 149.038372 
L 139.990711 154.868442 
L 145.389079 141.139569 
L 150.787448 24.538182 
L 156.185816 71.178737 
L 161.584184 119.323825 
L 166.982552 166.716647 
L 172.380921 188.720457 
L 177.779289 179.31712 
L 183.177657 203.577731 
L 188.576026 200.192529 
L 193.974394 228.214475 
L 199.372762 227.462208 
L 204.771131 238.93428 
L 210.169499 232.351944 
L 215.567867 235.925212 
L 220.966235 237.053613 
L 226.364604 245.516617 
L 231.762972 245.516617 
L 237.16134 246.080817 
L 242.559709 247.021151 
L 247.958077 247.209217 
L 253.356445 248.149551 
L 258.754814 247.961484 
L 264.153182 247.961484 
" style="fill:none;stroke:#1f77b4;stroke-linecap:square;stroke-width:1.5;"/>
    <defs>
     <path d="M 0 1.5 
C 0.397805 1.5 0.77937 1.341951 1.06066 1.06066 
C 1.341951 0.77937 1.5 0.397805 1.5 0 
C 1.5 -0.397805 1.341951 -0.77937 1.06066 -1.06066 
C 0.77937 -1.341951 0.397805 -1.5 0 -1.5 
C -0.397805 -1.5 -0.77937 -1.341951 -1.06066 -1.06066 
C -1.341951 -0.77937 -1.5 -0.397805 -1.5 0 
C -1.5 0.397805 -1.341951 0.77937 -1.06066 1.06066 
C -0.77937 1.341951 -0.397805 1.5 0 1.5 
z
" id="m25a6bfbc92" style="stroke:#1f77b4;"/>
    </defs>
    <g clip-path="url(#p0d8f3355be)">
     <use style="fill:#1f77b4;stroke:#1f77b4;" x="53.616818" xlink:href="#m25a6bfbc92" y="248.901818"/>
     <use style="fill:#1f77b4;stroke:#1f77b4;" x="59.015186" xlink:href="#m25a6bfbc92" y="248.901818"/>
     <use style="fill:#1f77b4;stroke:#1f77b4;" x="64.413555" xlink:href="#m25a6bfbc92" y="248.901818"/>
     <use style="fill:#1f77b4;stroke:#1f77b4;" x="69.811923" xlink:href="#m25a6bfbc92" y="245.89275"/>
     <use style="fill:#1f77b4;stroke:#1f77b4;" x="75.210291" xlink:href="#m25a6bfbc92" y="245.89275"/>
     <use style="fill:#1f77b4;stroke:#1f77b4;" x="80.60866" xlink:href="#m25a6bfbc92" y="247.585351"/>
     <use style="fill:#1f77b4;stroke:#1f77b4;" x="86.007028" xlink:href="#m25a6bfbc92" y="248.713751"/>
     <use style="fill:#1f77b4;stroke:#1f77b4;" x="91.405396" xlink:href="#m25a6bfbc92" y="246.45695"/>
     <use style="fill:#1f77b4;stroke:#1f77b4;" x="96.803765" xlink:href="#m25a6bfbc92" y="245.89275"/>
     <use style="fill:#1f77b4;stroke:#1f77b4;" x="102.202133" xlink:href="#m25a6bfbc92" y="244.388216"/>
     <use style="fill:#1f77b4;stroke:#1f77b4;" x="107.600501" xlink:href="#m25a6bfbc92" y="189.660791"/>
     <use style="fill:#1f77b4;stroke:#1f77b4;" x="112.998869" xlink:href="#m25a6bfbc92" y="163.895646"/>
     <use style="fill:#1f77b4;stroke:#1f77b4;" x="118.397238" xlink:href="#m25a6bfbc92" y="167.280847"/>
     <use style="fill:#1f77b4;stroke:#1f77b4;" x="123.795606" xlink:href="#m25a6bfbc92" y="89.045078"/>
     <use style="fill:#1f77b4;stroke:#1f77b4;" x="129.193974" xlink:href="#m25a6bfbc92" y="145.088971"/>
     <use style="fill:#1f77b4;stroke:#1f77b4;" x="134.592343" xlink:href="#m25a6bfbc92" y="149.038372"/>
     <use style="fill:#1f77b4;stroke:#1f77b4;" x="139.990711" xlink:href="#m25a6bfbc92" y="154.868442"/>
     <use style="fill:#1f77b4;stroke:#1f77b4;" x="145.389079" xlink:href="#m25a6bfbc92" y="141.139569"/>
     <use style="fill:#1f77b4;stroke:#1f77b4;" x="150.787448" xlink:href="#m25a6bfbc92" y="24.538182"/>
     <use style="fill:#1f77b4;stroke:#1f77b4;" x="156.185816" xlink:href="#m25a6bfbc92" y="71.178737"/>
     <use style="fill:#1f77b4;stroke:#1f77b4;" x="161.584184" xlink:href="#m25a6bfbc92" y="119.323825"/>
     <use style="fill:#1f77b4;stroke:#1f77b4;" x="166.982552" xlink:href="#m25a6bfbc92" y="166.716647"/>
     <use style="fill:#1f77b4;stroke:#1f77b4;" x="172.380921" xlink:href="#m25a6bfbc92" y="188.720457"/>
     <use style="fill:#1f77b4;stroke:#1f77b4;" x="177.779289" xlink:href="#m25a6bfbc92" y="179.31712"/>
     <use style="fill:#1f77b4;stroke:#1f77b4;" x="183.177657" xlink:href="#m25a6bfbc92" y="203.577731"/>
     <use style="fill:#1f77b4;stroke:#1f77b4;" x="188.576026" xlink:href="#m25a6bfbc92" y="200.192529"/>
     <use style="fill:#1f77b4;stroke:#1f77b4;" x="193.974394" xlink:href="#m25a6bfbc92" y="228.214475"/>
     <use style="fill:#1f77b4;stroke:#1f77b4;" x="199.372762" xlink:href="#m25a6bfbc92" y="227.462208"/>
     <use style="fill:#1f77b4;stroke:#1f77b4;" x="204.771131" xlink:href="#m25a6bfbc92" y="238.93428"/>
     <use style="fill:#1f77b4;stroke:#1f77b4;" x="210.169499" xlink:href="#m25a6bfbc92" y="232.351944"/>
     <use style="fill:#1f77b4;stroke:#1f77b4;" x="215.567867" xlink:href="#m25a6bfbc92" y="235.925212"/>
     <use style="fill:#1f77b4;stroke:#1f77b4;" x="220.966235" xlink:href="#m25a6bfbc92" y="237.053613"/>
     <use style="fill:#1f77b4;stroke:#1f77b4;" x="226.364604" xlink:href="#m25a6bfbc92" y="245.516617"/>
     <use style="fill:#1f77b4;stroke:#1f77b4;" x="231.762972" xlink:href="#m25a6bfbc92" y="245.516617"/>
     <use style="fill:#1f77b4;stroke:#1f77b4;" x="237.16134" xlink:href="#m25a6bfbc92" y="246.080817"/>
     <use style="fill:#1f77b4;stroke:#1f77b4;" x="242.559709" xlink:href="#m25a6bfbc92" y="247.021151"/>
     <use style="fill:#1f77b4;stroke:#1f77b4;" x="247.958077" xlink:href="#m25a6bfbc92" y="247.209217"/>
     <use style="fill:#1f77b4;stroke:#1f77b4;" x="253.356445" xlink:href="#m25a6bfbc92" y="248.149551"/>
     <use style="fill:#1f77b4;stroke:#1f77b4;" x="258.754814" xlink:href="#m25a6bfbc92" y="247.961484"/>
     <use style="fill:#1f77b4;stroke:#1f77b4;" x="264.153182" xlink:href="#m25a6bfbc92" y="247.961484"/>
    </g>
   </g>
   <g id="matplotlib.axis_1">
    <g id="xtick_1">
     <g id="line2d_2">
      <defs>
       <path d="M 0 0 
L 0 3.5 
" id="mf9a0a5e789" style="stroke:#000000;stroke-width:0.8;"/>
      </defs>
      <g>
       <use style="stroke:#000000;stroke-width:0.8;" x="82.367173" xlink:href="#mf9a0a5e789" y="260.12"/>
      </g>
     </g>
     <g id="text_1">
      <!-- 0 -->
      <defs>
       <path d="M 31.78125 66.40625 
Q 24.171875 66.40625 20.328125 58.90625 
Q 16.5 51.421875 16.5 36.375 
Q 16.5 21.390625 20.328125 13.890625 
Q 24.171875 6.390625 31.78125 6.390625 
Q 39.453125 6.390625 43.28125 13.890625 
Q 47.125 21.390625 47.125 36.375 
Q 47.125 51.421875 43.28125 58.90625 
Q 39.453125 66.40625 31.78125 66.40625 
z
M 31.78125 74.21875 
Q 44.046875 74.21875 50.515625 64.515625 
Q 56.984375 54.828125 56.984375 36.375 
Q 56.984375 17.96875 50.515625 8.265625 
Q 44.046875 -1.421875 31.78125 -1.421875 
Q 19.53125 -1.421875 13.0625 8.265625 
Q 6.59375 17.96875 6.59375 36.375 
Q 6.59375 54.828125 13.0625 64.515625 
Q 19.53125 74.21875 31.78125 74.21875 
z
" id="DejaVuSans-30"/>
      </defs>
      <g transform="translate(79.185923 274.718437)scale(0.1 -0.1)">
       <use xlink:href="#DejaVuSans-30"/>
      </g>
     </g>
    </g>
    <g id="xtick_2">
     <g id="line2d_3">
      <g>
       <use style="stroke:#000000;stroke-width:0.8;" x="135.001263" xlink:href="#mf9a0a5e789" y="260.12"/>
      </g>
     </g>
     <g id="text_2">
      <!-- 0.00042 -->
      <defs>
       <path d="M 10.6875 12.40625 
L 21 12.40625 
L 21 0 
L 10.6875 0 
z
" id="DejaVuSans-2e"/>
       <path d="M 37.796875 64.3125 
L 12.890625 25.390625 
L 37.796875 25.390625 
z
M 35.203125 72.90625 
L 47.609375 72.90625 
L 47.609375 25.390625 
L 58.015625 25.390625 
L 58.015625 17.1875 
L 47.609375 17.1875 
L 47.609375 0 
L 37.796875 0 
L 37.796875 17.1875 
L 4.890625 17.1875 
L 4.890625 26.703125 
z
" id="DejaVuSans-34"/>
       <path d="M 19.1875 8.296875 
L 53.609375 8.296875 
L 53.609375 0 
L 7.328125 0 
L 7.328125 8.296875 
Q 12.9375 14.109375 22.625 23.890625 
Q 32.328125 33.6875 34.8125 36.53125 
Q 39.546875 41.84375 41.421875 45.53125 
Q 43.3125 49.21875 43.3125 52.78125 
Q 43.3125 58.59375 39.234375 62.25 
Q 35.15625 65.921875 28.609375 65.921875 
Q 23.96875 65.921875 18.8125 64.3125 
Q 13.671875 62.703125 7.8125 59.421875 
L 7.8125 69.390625 
Q 13.765625 71.78125 18.9375 73 
Q 24.125 74.21875 28.421875 74.21875 
Q 39.75 74.21875 46.484375 68.546875 
Q 53.21875 62.890625 53.21875 53.421875 
Q 53.21875 48.921875 51.53125 44.890625 
Q 49.859375 40.875 45.40625 35.40625 
Q 44.1875 33.984375 37.640625 27.21875 
Q 31.109375 20.453125 19.1875 8.296875 
z
" id="DejaVuSans-32"/>
      </defs>
      <g transform="translate(114.324701 274.718437)scale(0.1 -0.1)">
       <use xlink:href="#DejaVuSans-30"/>
       <use x="63.623047" xlink:href="#DejaVuSans-2e"/>
       <use x="95.410156" xlink:href="#DejaVuSans-30"/>
       <use x="159.033203" xlink:href="#DejaVuSans-30"/>
       <use x="222.65625" xlink:href="#DejaVuSans-30"/>
       <use x="286.279297" xlink:href="#DejaVuSans-34"/>
       <use x="349.902344" xlink:href="#DejaVuSans-32"/>
      </g>
     </g>
    </g>
    <g id="xtick_3">
     <g id="line2d_4">
      <g>
       <use style="stroke:#000000;stroke-width:0.8;" x="187.635354" xlink:href="#mf9a0a5e789" y="260.12"/>
      </g>
     </g>
     <g id="text_3">
      <!-- 0.00083 -->
      <defs>
       <path d="M 31.78125 34.625 
Q 24.75 34.625 20.71875 30.859375 
Q 16.703125 27.09375 16.703125 20.515625 
Q 16.703125 13.921875 20.71875 10.15625 
Q 24.75 6.390625 31.78125 6.390625 
Q 38.8125 6.390625 42.859375 10.171875 
Q 46.921875 13.96875 46.921875 20.515625 
Q 46.921875 27.09375 42.890625 30.859375 
Q 38.875 34.625 31.78125 34.625 
z
M 21.921875 38.8125 
Q 15.578125 40.375 12.03125 44.71875 
Q 8.5 49.078125 8.5 55.328125 
Q 8.5 64.0625 14.71875 69.140625 
Q 20.953125 74.21875 31.78125 74.21875 
Q 42.671875 74.21875 48.875 69.140625 
Q 55.078125 64.0625 55.078125 55.328125 
Q 55.078125 49.078125 51.53125 44.71875 
Q 48 40.375 41.703125 38.8125 
Q 48.828125 37.15625 52.796875 32.3125 
Q 56.78125 27.484375 56.78125 20.515625 
Q 56.78125 9.90625 50.3125 4.234375 
Q 43.84375 -1.421875 31.78125 -1.421875 
Q 19.734375 -1.421875 13.25 4.234375 
Q 6.78125 9.90625 6.78125 20.515625 
Q 6.78125 27.484375 10.78125 32.3125 
Q 14.796875 37.15625 21.921875 38.8125 
z
M 18.3125 54.390625 
Q 18.3125 48.734375 21.84375 45.5625 
Q 25.390625 42.390625 31.78125 42.390625 
Q 38.140625 42.390625 41.71875 45.5625 
Q 45.3125 48.734375 45.3125 54.390625 
Q 45.3125 60.0625 41.71875 63.234375 
Q 38.140625 66.40625 31.78125 66.40625 
Q 25.390625 66.40625 21.84375 63.234375 
Q 18.3125 60.0625 18.3125 54.390625 
z
" id="DejaVuSans-38"/>
       <path d="M 40.578125 39.3125 
Q 47.65625 37.796875 51.625 33 
Q 55.609375 28.21875 55.609375 21.1875 
Q 55.609375 10.40625 48.1875 4.484375 
Q 40.765625 -1.421875 27.09375 -1.421875 
Q 22.515625 -1.421875 17.65625 -0.515625 
Q 12.796875 0.390625 7.625 2.203125 
L 7.625 11.71875 
Q 11.71875 9.328125 16.59375 8.109375 
Q 21.484375 6.890625 26.8125 6.890625 
Q 36.078125 6.890625 40.9375 10.546875 
Q 45.796875 14.203125 45.796875 21.1875 
Q 45.796875 27.640625 41.28125 31.265625 
Q 36.765625 34.90625 28.71875 34.90625 
L 20.21875 34.90625 
L 20.21875 43.015625 
L 29.109375 43.015625 
Q 36.375 43.015625 40.234375 45.921875 
Q 44.09375 48.828125 44.09375 54.296875 
Q 44.09375 59.90625 40.109375 62.90625 
Q 36.140625 65.921875 28.71875 65.921875 
Q 24.65625 65.921875 20.015625 65.03125 
Q 15.375 64.15625 9.8125 62.3125 
L 9.8125 71.09375 
Q 15.4375 72.65625 20.34375 73.4375 
Q 25.25 74.21875 29.59375 74.21875 
Q 40.828125 74.21875 47.359375 69.109375 
Q 53.90625 64.015625 53.90625 55.328125 
Q 53.90625 49.265625 50.4375 45.09375 
Q 46.96875 40.921875 40.578125 39.3125 
z
" id="DejaVuSans-33"/>
      </defs>
      <g transform="translate(166.958792 274.718437)scale(0.1 -0.1)">
       <use xlink:href="#DejaVuSans-30"/>
       <use x="63.623047" xlink:href="#DejaVuSans-2e"/>
       <use x="95.410156" xlink:href="#DejaVuSans-30"/>
       <use x="159.033203" xlink:href="#DejaVuSans-30"/>
       <use x="222.65625" xlink:href="#DejaVuSans-30"/>
       <use x="286.279297" xlink:href="#DejaVuSans-38"/>
       <use x="349.902344" xlink:href="#DejaVuSans-33"/>
      </g>
     </g>
    </g>
    <g id="xtick_4">
     <g id="line2d_5">
      <g>
       <use style="stroke:#000000;stroke-width:0.8;" x="240.269445" xlink:href="#mf9a0a5e789" y="260.12"/>
      </g>
     </g>
     <g id="text_4">
      <!-- 0.0012 -->
      <defs>
       <path d="M 12.40625 8.296875 
L 28.515625 8.296875 
L 28.515625 63.921875 
L 10.984375 60.40625 
L 10.984375 69.390625 
L 28.421875 72.90625 
L 38.28125 72.90625 
L 38.28125 8.296875 
L 54.390625 8.296875 
L 54.390625 0 
L 12.40625 0 
z
" id="DejaVuSans-31"/>
      </defs>
      <g transform="translate(222.774133 274.718437)scale(0.1 -0.1)">
       <use xlink:href="#DejaVuSans-30"/>
       <use x="63.623047" xlink:href="#DejaVuSans-2e"/>
       <use x="95.410156" xlink:href="#DejaVuSans-30"/>
       <use x="159.033203" xlink:href="#DejaVuSans-30"/>
       <use x="222.65625" xlink:href="#DejaVuSans-31"/>
       <use x="286.279297" xlink:href="#DejaVuSans-32"/>
      </g>
     </g>
    </g>
   </g>
   <g id="matplotlib.axis_2">
    <g id="ytick_1">
     <g id="line2d_6">
      <defs>
       <path d="M 0 0 
L -3.5 0 
" id="m6e82ecb51f" style="stroke:#000000;stroke-width:0.8;"/>
      </defs>
      <g>
       <use style="stroke:#000000;stroke-width:0.8;" x="43.09" xlink:href="#m6e82ecb51f" y="249.089885"/>
      </g>
     </g>
     <g id="text_5">
      <!-- 0 -->
      <g transform="translate(29.7275 252.889104)scale(0.1 -0.1)">
       <use xlink:href="#DejaVuSans-30"/>
      </g>
     </g>
    </g>
    <g id="ytick_2">
     <g id="line2d_7">
      <g>
       <use style="stroke:#000000;stroke-width:0.8;" x="43.09" xlink:href="#m6e82ecb51f" y="211.476534"/>
      </g>
     </g>
     <g id="text_6">
      <!-- 200 -->
      <g transform="translate(17.0025 215.275753)scale(0.1 -0.1)">
       <use xlink:href="#DejaVuSans-32"/>
       <use x="63.623047" xlink:href="#DejaVuSans-30"/>
       <use x="127.246094" xlink:href="#DejaVuSans-30"/>
      </g>
     </g>
    </g>
    <g id="ytick_3">
     <g id="line2d_8">
      <g>
       <use style="stroke:#000000;stroke-width:0.8;" x="43.09" xlink:href="#m6e82ecb51f" y="173.863184"/>
      </g>
     </g>
     <g id="text_7">
      <!-- 400 -->
      <g transform="translate(17.0025 177.662402)scale(0.1 -0.1)">
       <use xlink:href="#DejaVuSans-34"/>
       <use x="63.623047" xlink:href="#DejaVuSans-30"/>
       <use x="127.246094" xlink:href="#DejaVuSans-30"/>
      </g>
     </g>
    </g>
    <g id="ytick_4">
     <g id="line2d_9">
      <g>
       <use style="stroke:#000000;stroke-width:0.8;" x="43.09" xlink:href="#m6e82ecb51f" y="136.249833"/>
      </g>
     </g>
     <g id="text_8">
      <!-- 600 -->
      <defs>
       <path d="M 33.015625 40.375 
Q 26.375 40.375 22.484375 35.828125 
Q 18.609375 31.296875 18.609375 23.390625 
Q 18.609375 15.53125 22.484375 10.953125 
Q 26.375 6.390625 33.015625 6.390625 
Q 39.65625 6.390625 43.53125 10.953125 
Q 47.40625 15.53125 47.40625 23.390625 
Q 47.40625 31.296875 43.53125 35.828125 
Q 39.65625 40.375 33.015625 40.375 
z
M 52.59375 71.296875 
L 52.59375 62.3125 
Q 48.875 64.0625 45.09375 64.984375 
Q 41.3125 65.921875 37.59375 65.921875 
Q 27.828125 65.921875 22.671875 59.328125 
Q 17.53125 52.734375 16.796875 39.40625 
Q 19.671875 43.65625 24.015625 45.921875 
Q 28.375 48.1875 33.59375 48.1875 
Q 44.578125 48.1875 50.953125 41.515625 
Q 57.328125 34.859375 57.328125 23.390625 
Q 57.328125 12.15625 50.6875 5.359375 
Q 44.046875 -1.421875 33.015625 -1.421875 
Q 20.359375 -1.421875 13.671875 8.265625 
Q 6.984375 17.96875 6.984375 36.375 
Q 6.984375 53.65625 15.1875 63.9375 
Q 23.390625 74.21875 37.203125 74.21875 
Q 40.921875 74.21875 44.703125 73.484375 
Q 48.484375 72.75 52.59375 71.296875 
z
" id="DejaVuSans-36"/>
      </defs>
      <g transform="translate(17.0025 140.049052)scale(0.1 -0.1)">
       <use xlink:href="#DejaVuSans-36"/>
       <use x="63.623047" xlink:href="#DejaVuSans-30"/>
       <use x="127.246094" xlink:href="#DejaVuSans-30"/>
      </g>
     </g>
    </g>
    <g id="ytick_5">
     <g id="line2d_10">
      <g>
       <use style="stroke:#000000;stroke-width:0.8;" x="43.09" xlink:href="#m6e82ecb51f" y="98.636483"/>
      </g>
     </g>
     <g id="text_9">
      <!-- 800 -->
      <g transform="translate(17.0025 102.435701)scale(0.1 -0.1)">
       <use xlink:href="#DejaVuSans-38"/>
       <use x="63.623047" xlink:href="#DejaVuSans-30"/>
       <use x="127.246094" xlink:href="#DejaVuSans-30"/>
      </g>
     </g>
    </g>
    <g id="ytick_6">
     <g id="line2d_11">
      <g>
       <use style="stroke:#000000;stroke-width:0.8;" x="43.09" xlink:href="#m6e82ecb51f" y="61.023132"/>
      </g>
     </g>
     <g id="text_10">
      <!-- 1000 -->
      <g transform="translate(10.64 64.822351)scale(0.1 -0.1)">
       <use xlink:href="#DejaVuSans-31"/>
       <use x="63.623047" xlink:href="#DejaVuSans-30"/>
       <use x="127.246094" xlink:href="#DejaVuSans-30"/>
       <use x="190.869141" xlink:href="#DejaVuSans-30"/>
      </g>
     </g>
    </g>
    <g id="ytick_7">
     <g id="line2d_12">
      <g>
       <use style="stroke:#000000;stroke-width:0.8;" x="43.09" xlink:href="#m6e82ecb51f" y="23.409781"/>
      </g>
     </g>
     <g id="text_11">
      <!-- 1200 -->
      <g transform="translate(10.64 27.209)scale(0.1 -0.1)">
       <use xlink:href="#DejaVuSans-31"/>
       <use x="63.623047" xlink:href="#DejaVuSans-32"/>
       <use x="127.246094" xlink:href="#DejaVuSans-30"/>
       <use x="190.869141" xlink:href="#DejaVuSans-30"/>
      </g>
     </g>
    </g>
   </g>
   <g id="patch_3">
    <path d="M 43.09 260.12 
L 43.09 13.32 
" style="fill:none;stroke:#000000;stroke-linecap:square;stroke-linejoin:miter;stroke-width:0.8;"/>
   </g>
   <g id="patch_4">
    <path d="M 274.68 260.12 
L 274.68 13.32 
" style="fill:none;stroke:#000000;stroke-linecap:square;stroke-linejoin:miter;stroke-width:0.8;"/>
   </g>
   <g id="patch_5">
    <path d="M 43.09 260.12 
L 274.68 260.12 
" style="fill:none;stroke:#000000;stroke-linecap:square;stroke-linejoin:miter;stroke-width:0.8;"/>
   </g>
   <g id="patch_6">
    <path d="M 43.09 13.32 
L 274.68 13.32 
" style="fill:none;stroke:#000000;stroke-linecap:square;stroke-linejoin:miter;stroke-width:0.8;"/>
   </g>
  </g>
 </g>
 <defs>
  <clipPath id="p0d8f3355be">
   <rect height="246.8" width="231.59" x="43.09" y="13.32"/>
  </clipPath>
 </defs>
</svg>
