<?xml version="1.0" encoding="utf-8" standalone="no"?>
<!DOCTYPE svg PUBLIC "-//W3C//DTD SVG 1.1//EN"
  "http://www.w3.org/Graphics/SVG/1.1/DTD/svg11.dtd">
<!-- Created with matplotlib (http://matplotlib.org/) -->
<svg height="226pt" version="1.1" viewBox="0 0 452 226" width="452pt" xmlns="http://www.w3.org/2000/svg" xmlns:xlink="http://www.w3.org/1999/xlink">
 <defs>
  <style type="text/css">
*{stroke-linecap:butt;stroke-linejoin:round;}
  </style>
 </defs>
 <g id="figure_1">
  <g id="patch_1">
   <path d="M 0 226.08 
L 452.88 226.08 
L 452.88 0 
L 0 0 
z
" style="fill:#ffffff;"/>
  </g>
  <g id="axes_1">
   <g id="patch_2">
    <path d="M 48.91104 54.766109 
L 439.74648 54.766109 
L 439.74648 13.33872 
L 48.91104 13.33872 
z
" style="fill:#ffffff;"/>
   </g>
   <g id="matplotlib.axis_1">
    <g id="xtick_1">
     <g id="line2d_1">
      <defs>
       <path d="M 0 0 
L 0 3.5 
" id="m8c58c3ee56" style="stroke:#000000;stroke-width:0.8;"/>
      </defs>
      <g>
       <use style="stroke:#000000;stroke-width:0.8;" x="69.240018" xlink:href="#m8c58c3ee56" y="54.766109"/>
      </g>
     </g>
     <g id="text_1">
      <!-- 79.00 -->
      <defs>
       <path d="M 8.203125 72.90625 
L 55.078125 72.90625 
L 55.078125 68.703125 
L 28.609375 0 
L 18.3125 0 
L 43.21875 64.59375 
L 8.203125 64.59375 
z
" id="DejaVuSans-37"/>
       <path d="M 10.984375 1.515625 
L 10.984375 10.5 
Q 14.703125 8.734375 18.5 7.8125 
Q 22.3125 6.890625 25.984375 6.890625 
Q 35.75 6.890625 40.890625 13.453125 
Q 46.046875 20.015625 46.78125 33.40625 
Q 43.953125 29.203125 39.59375 26.953125 
Q 35.25 24.703125 29.984375 24.703125 
Q 19.046875 24.703125 12.671875 31.3125 
Q 6.296875 37.9375 6.296875 49.421875 
Q 6.296875 60.640625 12.9375 67.421875 
Q 19.578125 74.21875 30.609375 74.21875 
Q 43.265625 74.21875 49.921875 64.515625 
Q 56.59375 54.828125 56.59375 36.375 
Q 56.59375 19.140625 48.40625 8.859375 
Q 40.234375 -1.421875 26.421875 -1.421875 
Q 22.703125 -1.421875 18.890625 -0.6875 
Q 15.09375 0.046875 10.984375 1.515625 
z
M 30.609375 32.421875 
Q 37.25 32.421875 41.125 36.953125 
Q 45.015625 41.5 45.015625 49.421875 
Q 45.015625 57.28125 41.125 61.84375 
Q 37.25 66.40625 30.609375 66.40625 
Q 23.96875 66.40625 20.09375 61.84375 
Q 16.21875 57.28125 16.21875 49.421875 
Q 16.21875 41.5 20.09375 36.953125 
Q 23.96875 32.421875 30.609375 32.421875 
z
" id="DejaVuSans-39"/>
       <path d="M 10.6875 12.40625 
L 21 12.40625 
L 21 0 
L 10.6875 0 
z
" id="DejaVuSans-2e"/>
       <path d="M 31.78125 66.40625 
Q 24.171875 66.40625 20.328125 58.90625 
Q 16.5 51.421875 16.5 36.375 
Q 16.5 21.390625 20.328125 13.890625 
Q 24.171875 6.390625 31.78125 6.390625 
Q 39.453125 6.390625 43.28125 13.890625 
Q 47.125 21.390625 47.125 36.375 
Q 47.125 51.421875 43.28125 58.90625 
Q 39.453125 66.40625 31.78125 66.40625 
z
M 31.78125 74.21875 
Q 44.046875 74.21875 50.515625 64.515625 
Q 56.984375 54.828125 56.984375 36.375 
Q 56.984375 17.96875 50.515625 8.265625 
Q 44.046875 -1.421875 31.78125 -1.421875 
Q 19.53125 -1.421875 13.0625 8.265625 
Q 6.59375 17.96875 6.59375 36.375 
Q 6.59375 54.828125 13.0625 64.515625 
Q 19.53125 74.21875 31.78125 74.21875 
z
" id="DejaVuSans-30"/>
      </defs>
      <g transform="translate(54.925955 69.364547)scale(0.1 -0.1)">
       <use xlink:href="#DejaVuSans-37"/>
       <use x="63.623047" xlink:href="#DejaVuSans-39"/>
       <use x="127.246094" xlink:href="#DejaVuSans-2e"/>
       <use x="159.033203" xlink:href="#DejaVuSans-30"/>
       <use x="222.65625" xlink:href="#DejaVuSans-30"/>
      </g>
     </g>
    </g>
    <g id="xtick_2">
     <g id="line2d_2">
      <g>
       <use style="stroke:#000000;stroke-width:0.8;" x="127.772091" xlink:href="#m8c58c3ee56" y="54.766109"/>
      </g>
     </g>
     <g id="text_2">
      <!-- 79.05 -->
      <defs>
       <path d="M 10.796875 72.90625 
L 49.515625 72.90625 
L 49.515625 64.59375 
L 19.828125 64.59375 
L 19.828125 46.734375 
Q 21.96875 47.46875 24.109375 47.828125 
Q 26.265625 48.1875 28.421875 48.1875 
Q 40.625 48.1875 47.75 41.5 
Q 54.890625 34.8125 54.890625 23.390625 
Q 54.890625 11.625 47.5625 5.09375 
Q 40.234375 -1.421875 26.90625 -1.421875 
Q 22.3125 -1.421875 17.546875 -0.640625 
Q 12.796875 0.140625 7.71875 1.703125 
L 7.71875 11.625 
Q 12.109375 9.234375 16.796875 8.0625 
Q 21.484375 6.890625 26.703125 6.890625 
Q 35.15625 6.890625 40.078125 11.328125 
Q 45.015625 15.765625 45.015625 23.390625 
Q 45.015625 31 40.078125 35.4375 
Q 35.15625 39.890625 26.703125 39.890625 
Q 22.75 39.890625 18.8125 39.015625 
Q 14.890625 38.140625 10.796875 36.28125 
z
" id="DejaVuSans-35"/>
      </defs>
      <g transform="translate(113.458029 69.364547)scale(0.1 -0.1)">
       <use xlink:href="#DejaVuSans-37"/>
       <use x="63.623047" xlink:href="#DejaVuSans-39"/>
       <use x="127.246094" xlink:href="#DejaVuSans-2e"/>
       <use x="159.033203" xlink:href="#DejaVuSans-30"/>
       <use x="222.65625" xlink:href="#DejaVuSans-35"/>
      </g>
     </g>
    </g>
    <g id="xtick_3">
     <g id="line2d_3">
      <g>
       <use style="stroke:#000000;stroke-width:0.8;" x="186.304165" xlink:href="#m8c58c3ee56" y="54.766109"/>
      </g>
     </g>
     <g id="text_3">
      <!-- 79.10 -->
      <defs>
       <path d="M 12.40625 8.296875 
L 28.515625 8.296875 
L 28.515625 63.921875 
L 10.984375 60.40625 
L 10.984375 69.390625 
L 28.421875 72.90625 
L 38.28125 72.90625 
L 38.28125 8.296875 
L 54.390625 8.296875 
L 54.390625 0 
L 12.40625 0 
z
" id="DejaVuSans-31"/>
      </defs>
      <g transform="translate(171.990102 69.364547)scale(0.1 -0.1)">
       <use xlink:href="#DejaVuSans-37"/>
       <use x="63.623047" xlink:href="#DejaVuSans-39"/>
       <use x="127.246094" xlink:href="#DejaVuSans-2e"/>
       <use x="159.033203" xlink:href="#DejaVuSans-31"/>
       <use x="222.65625" xlink:href="#DejaVuSans-30"/>
      </g>
     </g>
    </g>
    <g id="xtick_4">
     <g id="line2d_4">
      <g>
       <use style="stroke:#000000;stroke-width:0.8;" x="244.836238" xlink:href="#m8c58c3ee56" y="54.766109"/>
      </g>
     </g>
     <g id="text_4">
      <!-- 79.15 -->
      <g transform="translate(230.522176 69.364547)scale(0.1 -0.1)">
       <use xlink:href="#DejaVuSans-37"/>
       <use x="63.623047" xlink:href="#DejaVuSans-39"/>
       <use x="127.246094" xlink:href="#DejaVuSans-2e"/>
       <use x="159.033203" xlink:href="#DejaVuSans-31"/>
       <use x="222.65625" xlink:href="#DejaVuSans-35"/>
      </g>
     </g>
    </g>
    <g id="xtick_5">
     <g id="line2d_5">
      <g>
       <use style="stroke:#000000;stroke-width:0.8;" x="303.368312" xlink:href="#m8c58c3ee56" y="54.766109"/>
      </g>
     </g>
     <g id="text_5">
      <!-- 79.20 -->
      <defs>
       <path d="M 19.1875 8.296875 
L 53.609375 8.296875 
L 53.609375 0 
L 7.328125 0 
L 7.328125 8.296875 
Q 12.9375 14.109375 22.625 23.890625 
Q 32.328125 33.6875 34.8125 36.53125 
Q 39.546875 41.84375 41.421875 45.53125 
Q 43.3125 49.21875 43.3125 52.78125 
Q 43.3125 58.59375 39.234375 62.25 
Q 35.15625 65.921875 28.609375 65.921875 
Q 23.96875 65.921875 18.8125 64.3125 
Q 13.671875 62.703125 7.8125 59.421875 
L 7.8125 69.390625 
Q 13.765625 71.78125 18.9375 73 
Q 24.125 74.21875 28.421875 74.21875 
Q 39.75 74.21875 46.484375 68.546875 
Q 53.21875 62.890625 53.21875 53.421875 
Q 53.21875 48.921875 51.53125 44.890625 
Q 49.859375 40.875 45.40625 35.40625 
Q 44.1875 33.984375 37.640625 27.21875 
Q 31.109375 20.453125 19.1875 8.296875 
z
" id="DejaVuSans-32"/>
      </defs>
      <g transform="translate(289.054249 69.364547)scale(0.1 -0.1)">
       <use xlink:href="#DejaVuSans-37"/>
       <use x="63.623047" xlink:href="#DejaVuSans-39"/>
       <use x="127.246094" xlink:href="#DejaVuSans-2e"/>
       <use x="159.033203" xlink:href="#DejaVuSans-32"/>
       <use x="222.65625" xlink:href="#DejaVuSans-30"/>
      </g>
     </g>
    </g>
    <g id="xtick_6">
     <g id="line2d_6">
      <g>
       <use style="stroke:#000000;stroke-width:0.8;" x="361.900385" xlink:href="#m8c58c3ee56" y="54.766109"/>
      </g>
     </g>
     <g id="text_6">
      <!-- 79.25 -->
      <g transform="translate(347.586323 69.364547)scale(0.1 -0.1)">
       <use xlink:href="#DejaVuSans-37"/>
       <use x="63.623047" xlink:href="#DejaVuSans-39"/>
       <use x="127.246094" xlink:href="#DejaVuSans-2e"/>
       <use x="159.033203" xlink:href="#DejaVuSans-32"/>
       <use x="222.65625" xlink:href="#DejaVuSans-35"/>
      </g>
     </g>
    </g>
    <g id="xtick_7">
     <g id="line2d_7">
      <g>
       <use style="stroke:#000000;stroke-width:0.8;" x="420.432459" xlink:href="#m8c58c3ee56" y="54.766109"/>
      </g>
     </g>
     <g id="text_7">
      <!-- 79.30 -->
      <defs>
       <path d="M 40.578125 39.3125 
Q 47.65625 37.796875 51.625 33 
Q 55.609375 28.21875 55.609375 21.1875 
Q 55.609375 10.40625 48.1875 4.484375 
Q 40.765625 -1.421875 27.09375 -1.421875 
Q 22.515625 -1.421875 17.65625 -0.515625 
Q 12.796875 0.390625 7.625 2.203125 
L 7.625 11.71875 
Q 11.71875 9.328125 16.59375 8.109375 
Q 21.484375 6.890625 26.8125 6.890625 
Q 36.078125 6.890625 40.9375 10.546875 
Q 45.796875 14.203125 45.796875 21.1875 
Q 45.796875 27.640625 41.28125 31.265625 
Q 36.765625 34.90625 28.71875 34.90625 
L 20.21875 34.90625 
L 20.21875 43.015625 
L 29.109375 43.015625 
Q 36.375 43.015625 40.234375 45.921875 
Q 44.09375 48.828125 44.09375 54.296875 
Q 44.09375 59.90625 40.109375 62.90625 
Q 36.140625 65.921875 28.71875 65.921875 
Q 24.65625 65.921875 20.015625 65.03125 
Q 15.375 64.15625 9.8125 62.3125 
L 9.8125 71.09375 
Q 15.4375 72.65625 20.34375 73.4375 
Q 25.25 74.21875 29.59375 74.21875 
Q 40.828125 74.21875 47.359375 69.109375 
Q 53.90625 64.015625 53.90625 55.328125 
Q 53.90625 49.265625 50.4375 45.09375 
Q 46.96875 40.921875 40.578125 39.3125 
z
" id="DejaVuSans-33"/>
      </defs>
      <g transform="translate(406.118396 69.364547)scale(0.1 -0.1)">
       <use xlink:href="#DejaVuSans-37"/>
       <use x="63.623047" xlink:href="#DejaVuSans-39"/>
       <use x="127.246094" xlink:href="#DejaVuSans-2e"/>
       <use x="159.033203" xlink:href="#DejaVuSans-33"/>
       <use x="222.65625" xlink:href="#DejaVuSans-30"/>
      </g>
     </g>
    </g>
   </g>
   <g id="matplotlib.axis_2">
    <g id="ytick_1">
     <g id="line2d_8">
      <defs>
       <path d="M 0 0 
L -3.5 0 
" id="mbb6c9032de" style="stroke:#000000;stroke-width:0.8;"/>
      </defs>
      <g>
       <use style="stroke:#000000;stroke-width:0.8;" x="48.91104" xlink:href="#mbb6c9032de" y="45.58385"/>
      </g>
     </g>
     <g id="text_8">
      <!-- −1 -->
      <defs>
       <path d="M 10.59375 35.5 
L 73.1875 35.5 
L 73.1875 27.203125 
L 10.59375 27.203125 
z
" id="DejaVuSans-2212"/>
      </defs>
      <g transform="translate(27.168852 49.383069)scale(0.1 -0.1)">
       <use xlink:href="#DejaVuSans-2212"/>
       <use x="83.789062" xlink:href="#DejaVuSans-31"/>
      </g>
     </g>
    </g>
    <g id="ytick_2">
     <g id="line2d_9">
      <g>
       <use style="stroke:#000000;stroke-width:0.8;" x="48.91104" xlink:href="#mbb6c9032de" y="34.447789"/>
      </g>
     </g>
     <g id="text_9">
      <!-- 0 -->
      <g transform="translate(35.54854 38.247007)scale(0.1 -0.1)">
       <use xlink:href="#DejaVuSans-30"/>
      </g>
     </g>
    </g>
    <g id="ytick_3">
     <g id="line2d_10">
      <g>
       <use style="stroke:#000000;stroke-width:0.8;" x="48.91104" xlink:href="#mbb6c9032de" y="23.311727"/>
      </g>
     </g>
     <g id="text_10">
      <!-- 1 -->
      <g transform="translate(35.54854 27.110946)scale(0.1 -0.1)">
       <use xlink:href="#DejaVuSans-31"/>
      </g>
     </g>
    </g>
    <g id="text_11">
     <!-- $x\;[\sigma]$ -->
     <defs>
      <path d="M 60.015625 54.6875 
L 34.90625 27.875 
L 50.296875 0 
L 39.984375 0 
L 28.421875 21.6875 
L 8.296875 0 
L -2.59375 0 
L 24.3125 28.8125 
L 10.015625 54.6875 
L 20.3125 54.6875 
L 30.8125 34.90625 
L 49.125 54.6875 
z
" id="DejaVuSans-Oblique-78"/>
      <path d="M 8.59375 75.984375 
L 29.296875 75.984375 
L 29.296875 69 
L 17.578125 69 
L 17.578125 -6.203125 
L 29.296875 -6.203125 
L 29.296875 -13.1875 
L 8.59375 -13.1875 
z
" id="DejaVuSans-5b"/>
      <path d="M 34.671875 47.5625 
Q 27.25 47.5625 22.21875 42.1875 
Q 16.890625 36.578125 15.140625 27.296875 
Q 13.1875 17.484375 16.3125 11.8125 
Q 19.390625 6.203125 26.65625 6.203125 
Q 33.84375 6.203125 39.109375 11.859375 
Q 44.4375 17.53125 46.34375 27.296875 
Q 48.046875 36.234375 45.015625 42.1875 
Q 42.1875 47.5625 34.671875 47.5625 
z
M 36.078125 54.734375 
L 65.921875 54.6875 
L 64.15625 45.703125 
L 54.109375 45.703125 
Q 57.90625 38.09375 55.859375 27.296875 
Q 53.21875 13.875 45.0625 6.25 
Q 36.859375 -1.421875 25.140625 -1.421875 
Q 13.375 -1.421875 8.203125 6.25 
Q 3.03125 13.875 5.671875 27.296875 
Q 8.25 40.765625 16.40625 48.390625 
Q 23.1875 54.734375 36.078125 54.734375 
z
" id="DejaVuSans-Oblique-3c3"/>
      <path d="M 30.421875 75.984375 
L 30.421875 -13.1875 
L 9.71875 -13.1875 
L 9.71875 -6.203125 
L 21.390625 -6.203125 
L 21.390625 69 
L 9.71875 69 
L 9.71875 75.984375 
z
" id="DejaVuSans-5d"/>
     </defs>
     <g transform="translate(20.881196 46.592415)rotate(-90)scale(0.11 -0.11)">
      <use transform="translate(0 0.015625)" xlink:href="#DejaVuSans-Oblique-78"/>
      <use transform="translate(86.238823 0.015625)" xlink:href="#DejaVuSans-5b"/>
      <use transform="translate(125.252495 0.015625)" xlink:href="#DejaVuSans-Oblique-3c3"/>
      <use transform="translate(188.631401 0.015625)" xlink:href="#DejaVuSans-5d"/>
     </g>
    </g>
   </g>
   <g id="line2d_11">
    <path clip-path="url(#p9adc6a323c)" d="M 66.676287 52.883046 
L 69.0293 49.511989 
L 71.382313 45.15795 
L 73.735326 39.219233 
L 76.088339 31.827127 
L 80.794365 21.740211 
L 83.147377 16.37541 
L 85.50039 15.579865 
L 87.853403 18.428671 
L 90.206416 19.239431 
L 92.559429 22.177784 
L 94.912442 29.943654 
L 99.618468 40.996191 
L 101.971481 47.15827 
L 104.324493 48.848858 
L 106.677506 51.098883 
L 109.030519 51.886762 
L 111.383532 47.373768 
L 113.736545 44.152605 
L 116.089558 39.146389 
L 118.442571 31.099044 
L 120.795584 26.584058 
L 125.501609 16.818351 
L 127.854622 15.830591 
L 130.207635 18.16942 
L 132.560648 20.138379 
L 134.913661 24.131439 
L 137.266674 31.307031 
L 139.619687 37.757296 
L 141.9727 43.878517 
L 144.325712 49.153882 
L 146.678725 51.132017 
L 149.031738 52.47594 
L 151.384751 52.308435 
L 153.737764 47.830926 
L 158.44379 37.996306 
L 160.796803 30.663992 
L 163.149816 24.395981 
L 165.502828 20.677921 
L 167.855841 16.707477 
L 170.208854 15.221783 
L 172.561867 18.389513 
L 174.91488 20.537342 
L 177.267893 24.660486 
L 179.620906 32.422006 
L 181.973919 37.511493 
L 184.326931 43.808482 
L 186.679944 49.611844 
L 191.38597 52.004175 
L 193.738983 51.929113 
L 196.091996 48.259589 
L 198.445009 43.348719 
L 203.151035 30.095663 
L 205.504047 25.12281 
L 207.85706 19.788566 
L 210.210073 15.268136 
L 212.563086 15.87096 
L 214.916099 18.547311 
L 217.269112 19.926336 
L 219.622125 25.003598 
L 221.975138 32.428744 
L 224.32815 37.750526 
L 226.681163 44.16769 
L 229.034176 48.849574 
L 231.387189 49.603958 
L 233.740202 51.241494 
L 236.093215 50.761565 
L 240.799241 41.632405 
L 243.152254 36.295669 
L 245.505266 30.305305 
L 247.858279 25.049339 
L 250.211292 20.823587 
L 252.564305 17.237879 
L 254.917318 17.125155 
L 257.270331 19.296138 
L 259.623344 20.892941 
L 261.976357 25.746264 
L 264.32937 31.898258 
L 266.682382 36.463889 
L 269.035395 43.330047 
L 271.388408 48.330671 
L 273.741421 49.979574 
L 276.094434 51.038838 
L 278.447447 50.400049 
L 280.80046 47.373391 
L 283.153473 43.14406 
L 290.212511 25.909084 
L 292.565524 20.958607 
L 294.918537 17.752408 
L 297.27155 17.318769 
L 299.624563 19.031218 
L 301.977576 21.374975 
L 304.330589 26.241374 
L 306.683601 32.979927 
L 309.036614 38.830701 
L 311.389627 44.36439 
L 313.74264 48.464468 
L 316.095653 50.484571 
L 318.448666 51.255257 
L 320.801679 49.5173 
L 323.154692 45.514673 
L 325.507704 40.518266 
L 330.21373 28.187577 
L 332.566743 23.171173 
L 334.919756 19.534594 
L 337.272769 16.746296 
L 339.625782 16.936481 
L 341.978795 19.056528 
L 344.331808 22.195778 
L 349.037833 33.864843 
L 351.390846 39.210714 
L 353.743859 45.732445 
L 356.096872 49.247876 
L 358.449885 50.554193 
L 360.802898 50.815451 
L 363.155911 48.96805 
L 365.508924 45.31265 
L 374.920975 22.707949 
L 377.273988 18.943705 
L 379.627001 16.939854 
L 381.980014 17.962258 
L 384.333027 20.349651 
L 386.686039 23.738739 
L 391.392065 36.746376 
L 396.098091 47.730749 
L 398.451104 50.469832 
L 400.804117 51.346831 
L 403.15713 50.751408 
L 405.510143 47.816686 
L 407.863155 44.38499 
L 410.216168 38.839333 
L 412.569181 32.353434 
L 414.922194 27.354718 
L 417.275207 22.919294 
L 419.62822 19.675937 
L 421.981233 18.459559 
L 421.981233 18.459559 
" style="fill:none;stroke:#1f77b4;stroke-linecap:square;stroke-width:1.5;"/>
   </g>
   <g id="patch_3">
    <path d="M 48.91104 54.766109 
L 48.91104 13.33872 
" style="fill:none;stroke:#000000;stroke-linecap:square;stroke-linejoin:miter;stroke-width:0.8;"/>
   </g>
   <g id="patch_4">
    <path d="M 439.74648 54.766109 
L 439.74648 13.33872 
" style="fill:none;stroke:#000000;stroke-linecap:square;stroke-linejoin:miter;stroke-width:0.8;"/>
   </g>
   <g id="patch_5">
    <path d="M 48.91104 54.766109 
L 439.74648 54.766109 
" style="fill:none;stroke:#000000;stroke-linecap:square;stroke-linejoin:miter;stroke-width:0.8;"/>
   </g>
   <g id="patch_6">
    <path d="M 48.91104 13.33872 
L 439.74648 13.33872 
" style="fill:none;stroke:#000000;stroke-linecap:square;stroke-linejoin:miter;stroke-width:0.8;"/>
   </g>
  </g>
  <g id="axes_2">
   <g id="patch_7">
    <path d="M 48.91104 117.362895 
L 439.74648 117.362895 
L 439.74648 75.935505 
L 48.91104 75.935505 
z
" style="fill:#ffffff;"/>
   </g>
   <g id="matplotlib.axis_3">
    <g id="xtick_8">
     <g id="line2d_12">
      <g>
       <use style="stroke:#000000;stroke-width:0.8;" x="69.240018" xlink:href="#m8c58c3ee56" y="117.362895"/>
      </g>
     </g>
     <g id="text_12">
      <!-- 79.00 -->
      <g transform="translate(54.925955 131.961332)scale(0.1 -0.1)">
       <use xlink:href="#DejaVuSans-37"/>
       <use x="63.623047" xlink:href="#DejaVuSans-39"/>
       <use x="127.246094" xlink:href="#DejaVuSans-2e"/>
       <use x="159.033203" xlink:href="#DejaVuSans-30"/>
       <use x="222.65625" xlink:href="#DejaVuSans-30"/>
      </g>
     </g>
    </g>
    <g id="xtick_9">
     <g id="line2d_13">
      <g>
       <use style="stroke:#000000;stroke-width:0.8;" x="127.772091" xlink:href="#m8c58c3ee56" y="117.362895"/>
      </g>
     </g>
     <g id="text_13">
      <!-- 79.05 -->
      <g transform="translate(113.458029 131.961332)scale(0.1 -0.1)">
       <use xlink:href="#DejaVuSans-37"/>
       <use x="63.623047" xlink:href="#DejaVuSans-39"/>
       <use x="127.246094" xlink:href="#DejaVuSans-2e"/>
       <use x="159.033203" xlink:href="#DejaVuSans-30"/>
       <use x="222.65625" xlink:href="#DejaVuSans-35"/>
      </g>
     </g>
    </g>
    <g id="xtick_10">
     <g id="line2d_14">
      <g>
       <use style="stroke:#000000;stroke-width:0.8;" x="186.304165" xlink:href="#m8c58c3ee56" y="117.362895"/>
      </g>
     </g>
     <g id="text_14">
      <!-- 79.10 -->
      <g transform="translate(171.990102 131.961332)scale(0.1 -0.1)">
       <use xlink:href="#DejaVuSans-37"/>
       <use x="63.623047" xlink:href="#DejaVuSans-39"/>
       <use x="127.246094" xlink:href="#DejaVuSans-2e"/>
       <use x="159.033203" xlink:href="#DejaVuSans-31"/>
       <use x="222.65625" xlink:href="#DejaVuSans-30"/>
      </g>
     </g>
    </g>
    <g id="xtick_11">
     <g id="line2d_15">
      <g>
       <use style="stroke:#000000;stroke-width:0.8;" x="244.836238" xlink:href="#m8c58c3ee56" y="117.362895"/>
      </g>
     </g>
     <g id="text_15">
      <!-- 79.15 -->
      <g transform="translate(230.522176 131.961332)scale(0.1 -0.1)">
       <use xlink:href="#DejaVuSans-37"/>
       <use x="63.623047" xlink:href="#DejaVuSans-39"/>
       <use x="127.246094" xlink:href="#DejaVuSans-2e"/>
       <use x="159.033203" xlink:href="#DejaVuSans-31"/>
       <use x="222.65625" xlink:href="#DejaVuSans-35"/>
      </g>
     </g>
    </g>
    <g id="xtick_12">
     <g id="line2d_16">
      <g>
       <use style="stroke:#000000;stroke-width:0.8;" x="303.368312" xlink:href="#m8c58c3ee56" y="117.362895"/>
      </g>
     </g>
     <g id="text_16">
      <!-- 79.20 -->
      <g transform="translate(289.054249 131.961332)scale(0.1 -0.1)">
       <use xlink:href="#DejaVuSans-37"/>
       <use x="63.623047" xlink:href="#DejaVuSans-39"/>
       <use x="127.246094" xlink:href="#DejaVuSans-2e"/>
       <use x="159.033203" xlink:href="#DejaVuSans-32"/>
       <use x="222.65625" xlink:href="#DejaVuSans-30"/>
      </g>
     </g>
    </g>
    <g id="xtick_13">
     <g id="line2d_17">
      <g>
       <use style="stroke:#000000;stroke-width:0.8;" x="361.900385" xlink:href="#m8c58c3ee56" y="117.362895"/>
      </g>
     </g>
     <g id="text_17">
      <!-- 79.25 -->
      <g transform="translate(347.586323 131.961332)scale(0.1 -0.1)">
       <use xlink:href="#DejaVuSans-37"/>
       <use x="63.623047" xlink:href="#DejaVuSans-39"/>
       <use x="127.246094" xlink:href="#DejaVuSans-2e"/>
       <use x="159.033203" xlink:href="#DejaVuSans-32"/>
       <use x="222.65625" xlink:href="#DejaVuSans-35"/>
      </g>
     </g>
    </g>
    <g id="xtick_14">
     <g id="line2d_18">
      <g>
       <use style="stroke:#000000;stroke-width:0.8;" x="420.432459" xlink:href="#m8c58c3ee56" y="117.362895"/>
      </g>
     </g>
     <g id="text_18">
      <!-- 79.30 -->
      <g transform="translate(406.118396 131.961332)scale(0.1 -0.1)">
       <use xlink:href="#DejaVuSans-37"/>
       <use x="63.623047" xlink:href="#DejaVuSans-39"/>
       <use x="127.246094" xlink:href="#DejaVuSans-2e"/>
       <use x="159.033203" xlink:href="#DejaVuSans-33"/>
       <use x="222.65625" xlink:href="#DejaVuSans-30"/>
      </g>
     </g>
    </g>
   </g>
   <g id="matplotlib.axis_4">
    <g id="ytick_4">
     <g id="line2d_19">
      <g>
       <use style="stroke:#000000;stroke-width:0.8;" x="48.91104" xlink:href="#mbb6c9032de" y="115.595624"/>
      </g>
     </g>
     <g id="text_19">
      <!-- −2 -->
      <g transform="translate(27.168852 119.394843)scale(0.1 -0.1)">
       <use xlink:href="#DejaVuSans-2212"/>
       <use x="83.789062" xlink:href="#DejaVuSans-32"/>
      </g>
     </g>
    </g>
    <g id="ytick_5">
     <g id="line2d_20">
      <g>
       <use style="stroke:#000000;stroke-width:0.8;" x="48.91104" xlink:href="#mbb6c9032de" y="96.047471"/>
      </g>
     </g>
     <g id="text_20">
      <!-- 0 -->
      <g transform="translate(35.54854 99.84669)scale(0.1 -0.1)">
       <use xlink:href="#DejaVuSans-30"/>
      </g>
     </g>
    </g>
    <g id="ytick_6">
     <g id="line2d_21">
      <g>
       <use style="stroke:#000000;stroke-width:0.8;" x="48.91104" xlink:href="#mbb6c9032de" y="76.499318"/>
      </g>
     </g>
     <g id="text_21">
      <!-- 2 -->
      <g transform="translate(35.54854 80.298536)scale(0.1 -0.1)">
       <use xlink:href="#DejaVuSans-32"/>
      </g>
     </g>
    </g>
    <g id="text_22">
     <!-- $v\;[\sigma/\tau]$ -->
     <defs>
      <path d="M 7.171875 54.6875 
L 16.703125 54.6875 
L 24.703125 8.203125 
L 50.875 54.6875 
L 60.40625 54.6875 
L 29.296875 0 
L 17.1875 0 
z
" id="DejaVuSans-Oblique-76"/>
      <path d="M 25.390625 72.90625 
L 33.6875 72.90625 
L 8.296875 -9.28125 
L 0 -9.28125 
z
" id="DejaVuSans-2f"/>
      <path d="M 32.859375 9.96875 
Q 34.1875 7.625 39.453125 7.625 
L 43.75 7.625 
L 42.28125 0 
L 36.921875 0 
Q 28.125 0 25 4.6875 
Q 21.921875 9.46875 23.96875 19.828125 
L 29 45.703125 
L 8.453125 45.703125 
L 10.203125 54.6875 
L 60.640625 54.6875 
L 58.890625 45.703125 
L 38.1875 45.703125 
L 33.015625 19.28125 
Q 31.640625 12.203125 32.859375 9.96875 
z
" id="DejaVuSans-Oblique-3c4"/>
     </defs>
     <g transform="translate(20.881196 114.3592)rotate(-90)scale(0.11 -0.11)">
      <use transform="translate(0 0.015625)" xlink:href="#DejaVuSans-Oblique-76"/>
      <use transform="translate(86.238823 0.015625)" xlink:href="#DejaVuSans-5b"/>
      <use transform="translate(125.252495 0.015625)" xlink:href="#DejaVuSans-Oblique-3c3"/>
      <use transform="translate(188.631401 0.015625)" xlink:href="#DejaVuSans-2f"/>
      <use transform="translate(222.322808 0.015625)" xlink:href="#DejaVuSans-Oblique-3c4"/>
      <use transform="translate(282.527886 0.015625)" xlink:href="#DejaVuSans-5d"/>
     </g>
    </g>
   </g>
   <g id="line2d_22">
    <path clip-path="url(#p70f920286e)" d="M 66.676287 93.247976 
L 69.0293 85.953453 
L 71.382313 88.375383 
L 73.735326 81.89518 
L 76.088339 82.176347 
L 78.441352 84.763754 
L 80.794365 84.084536 
L 83.147377 88.319958 
L 85.50039 100.961354 
L 90.206416 96.382586 
L 92.559429 111.467611 
L 94.912442 115.479832 
L 97.265455 108.091883 
L 99.618468 111.627783 
L 101.971481 104.91284 
L 104.324493 100.819567 
L 106.677506 104.256605 
L 109.030519 90.844777 
L 111.383532 85.005613 
L 113.736545 91.295594 
L 116.089558 77.818568 
L 118.442571 81.569003 
L 120.795584 87.216552 
L 123.148596 83.00946 
L 125.501609 88.310776 
L 127.854622 98.73266 
L 130.207635 101.833307 
L 132.560648 100.369353 
L 134.913661 108.159668 
L 137.266674 113.031997 
L 139.619687 112.01808 
L 141.9727 113.247812 
L 146.678725 97.983538 
L 149.031738 98.687652 
L 151.384751 90.600401 
L 153.737764 85.431247 
L 156.090777 89.364158 
L 158.44379 84.900313 
L 160.796803 81.779469 
L 163.149816 87.482594 
L 165.502828 90.414887 
L 167.855841 86.016325 
L 170.208854 98.072647 
L 172.561867 99.647718 
L 174.91488 99.404857 
L 177.267893 112.87673 
L 179.620906 111.076969 
L 181.973919 105.80231 
L 184.326931 109.544958 
L 186.679944 99.707604 
L 189.032957 95.992692 
L 191.38597 98.33865 
L 193.738983 88.451864 
L 196.091996 81.40048 
L 198.445009 83.051177 
L 200.798022 80.724383 
L 203.151035 85.091097 
L 205.504047 84.667038 
L 207.85706 83.374677 
L 210.210073 92.851272 
L 212.563086 105.381293 
L 214.916099 103.173433 
L 217.269112 101.236636 
L 219.622125 110.925712 
L 221.975138 108.783581 
L 224.32815 109.048041 
L 226.681163 111.817402 
L 229.034176 98.57991 
L 231.387189 96.217694 
L 233.740202 99.731478 
L 236.093215 90.441024 
L 238.446228 86.031099 
L 240.799241 85.649921 
L 243.152254 79.310994 
L 245.505266 83.025728 
L 247.858279 87.348905 
L 250.211292 89.653818 
L 252.564305 89.521006 
L 254.917318 97.024326 
L 257.270331 96.724047 
L 259.623344 101.987989 
L 261.976357 111.986183 
L 264.32937 106.16806 
L 266.682382 106.478378 
L 269.035395 109.766161 
L 271.388408 102.162922 
L 273.741421 101.536421 
L 276.094434 100.44779 
L 278.447447 91.909609 
L 280.80046 88.452688 
L 283.153473 86.415612 
L 285.506485 85.2242 
L 287.859498 85.396137 
L 290.212511 83.385964 
L 292.565524 85.094114 
L 294.918537 91.242069 
L 297.27155 98.555104 
L 299.624563 101.424135 
L 301.977576 103.696454 
L 304.330589 108.40994 
L 309.036614 108.123539 
L 311.389627 109.908032 
L 316.095653 97.518555 
L 318.448666 93.575693 
L 320.801679 88.316651 
L 323.154692 87.406797 
L 325.507704 85.257327 
L 327.860717 82.485684 
L 330.21373 82.121628 
L 332.566743 87.309434 
L 334.919756 89.87483 
L 337.272769 91.163776 
L 339.625782 98.803609 
L 341.978795 99.679953 
L 344.331808 107.421757 
L 346.68482 114.230907 
L 349.037833 109.261093 
L 351.390846 110.109903 
L 353.743859 106.637431 
L 356.096872 98.041932 
L 358.449885 97.393335 
L 360.802898 94.461004 
L 363.155911 89.333506 
L 365.508924 82.596035 
L 367.861936 80.02715 
L 370.214949 83.222451 
L 372.567962 83.726757 
L 374.920975 86.250424 
L 377.273988 87.051874 
L 379.627001 91.737035 
L 381.980014 100.176948 
L 384.333027 104.456509 
L 386.686039 110.089911 
L 389.039052 114.3558 
L 391.392065 108.379196 
L 393.745078 107.70633 
L 396.098091 106.23974 
L 398.451104 99.466115 
L 400.804117 98.096669 
L 403.15713 91.67929 
L 405.510143 87.215667 
L 407.863155 87.568225 
L 410.216168 83.006034 
L 412.569181 87.119684 
L 414.922194 85.582801 
L 417.275207 84.932577 
L 419.62822 89.900662 
L 421.981233 98.134493 
L 421.981233 98.134493 
" style="fill:none;stroke:#ff7f0e;stroke-linecap:square;stroke-width:1.5;"/>
   </g>
   <g id="patch_8">
    <path d="M 48.91104 117.362895 
L 48.91104 75.935505 
" style="fill:none;stroke:#000000;stroke-linecap:square;stroke-linejoin:miter;stroke-width:0.8;"/>
   </g>
   <g id="patch_9">
    <path d="M 439.74648 117.362895 
L 439.74648 75.935505 
" style="fill:none;stroke:#000000;stroke-linecap:square;stroke-linejoin:miter;stroke-width:0.8;"/>
   </g>
   <g id="patch_10">
    <path d="M 48.91104 117.362895 
L 439.74648 117.362895 
" style="fill:none;stroke:#000000;stroke-linecap:square;stroke-linejoin:miter;stroke-width:0.8;"/>
   </g>
   <g id="patch_11">
    <path d="M 48.91104 75.935505 
L 439.74648 75.935505 
" style="fill:none;stroke:#000000;stroke-linecap:square;stroke-linejoin:miter;stroke-width:0.8;"/>
   </g>
  </g>
  <g id="axes_3">
   <g id="patch_12">
    <path d="M 48.91104 179.95968 
L 439.74648 179.95968 
L 439.74648 138.532291 
L 48.91104 138.532291 
z
" style="fill:#ffffff;"/>
   </g>
   <g id="matplotlib.axis_5">
    <g id="xtick_15">
     <g id="line2d_23">
      <g>
       <use style="stroke:#000000;stroke-width:0.8;" x="69.240018" xlink:href="#m8c58c3ee56" y="179.95968"/>
      </g>
     </g>
     <g id="text_23">
      <!-- 79.00 -->
      <g transform="translate(54.925955 194.558117)scale(0.1 -0.1)">
       <use xlink:href="#DejaVuSans-37"/>
       <use x="63.623047" xlink:href="#DejaVuSans-39"/>
       <use x="127.246094" xlink:href="#DejaVuSans-2e"/>
       <use x="159.033203" xlink:href="#DejaVuSans-30"/>
       <use x="222.65625" xlink:href="#DejaVuSans-30"/>
      </g>
     </g>
    </g>
    <g id="xtick_16">
     <g id="line2d_24">
      <g>
       <use style="stroke:#000000;stroke-width:0.8;" x="127.772091" xlink:href="#m8c58c3ee56" y="179.95968"/>
      </g>
     </g>
     <g id="text_24">
      <!-- 79.05 -->
      <g transform="translate(113.458029 194.558117)scale(0.1 -0.1)">
       <use xlink:href="#DejaVuSans-37"/>
       <use x="63.623047" xlink:href="#DejaVuSans-39"/>
       <use x="127.246094" xlink:href="#DejaVuSans-2e"/>
       <use x="159.033203" xlink:href="#DejaVuSans-30"/>
       <use x="222.65625" xlink:href="#DejaVuSans-35"/>
      </g>
     </g>
    </g>
    <g id="xtick_17">
     <g id="line2d_25">
      <g>
       <use style="stroke:#000000;stroke-width:0.8;" x="186.304165" xlink:href="#m8c58c3ee56" y="179.95968"/>
      </g>
     </g>
     <g id="text_25">
      <!-- 79.10 -->
      <g transform="translate(171.990102 194.558117)scale(0.1 -0.1)">
       <use xlink:href="#DejaVuSans-37"/>
       <use x="63.623047" xlink:href="#DejaVuSans-39"/>
       <use x="127.246094" xlink:href="#DejaVuSans-2e"/>
       <use x="159.033203" xlink:href="#DejaVuSans-31"/>
       <use x="222.65625" xlink:href="#DejaVuSans-30"/>
      </g>
     </g>
    </g>
    <g id="xtick_18">
     <g id="line2d_26">
      <g>
       <use style="stroke:#000000;stroke-width:0.8;" x="244.836238" xlink:href="#m8c58c3ee56" y="179.95968"/>
      </g>
     </g>
     <g id="text_26">
      <!-- 79.15 -->
      <g transform="translate(230.522176 194.558117)scale(0.1 -0.1)">
       <use xlink:href="#DejaVuSans-37"/>
       <use x="63.623047" xlink:href="#DejaVuSans-39"/>
       <use x="127.246094" xlink:href="#DejaVuSans-2e"/>
       <use x="159.033203" xlink:href="#DejaVuSans-31"/>
       <use x="222.65625" xlink:href="#DejaVuSans-35"/>
      </g>
     </g>
    </g>
    <g id="xtick_19">
     <g id="line2d_27">
      <g>
       <use style="stroke:#000000;stroke-width:0.8;" x="303.368312" xlink:href="#m8c58c3ee56" y="179.95968"/>
      </g>
     </g>
     <g id="text_27">
      <!-- 79.20 -->
      <g transform="translate(289.054249 194.558117)scale(0.1 -0.1)">
       <use xlink:href="#DejaVuSans-37"/>
       <use x="63.623047" xlink:href="#DejaVuSans-39"/>
       <use x="127.246094" xlink:href="#DejaVuSans-2e"/>
       <use x="159.033203" xlink:href="#DejaVuSans-32"/>
       <use x="222.65625" xlink:href="#DejaVuSans-30"/>
      </g>
     </g>
    </g>
    <g id="xtick_20">
     <g id="line2d_28">
      <g>
       <use style="stroke:#000000;stroke-width:0.8;" x="361.900385" xlink:href="#m8c58c3ee56" y="179.95968"/>
      </g>
     </g>
     <g id="text_28">
      <!-- 79.25 -->
      <g transform="translate(347.586323 194.558117)scale(0.1 -0.1)">
       <use xlink:href="#DejaVuSans-37"/>
       <use x="63.623047" xlink:href="#DejaVuSans-39"/>
       <use x="127.246094" xlink:href="#DejaVuSans-2e"/>
       <use x="159.033203" xlink:href="#DejaVuSans-32"/>
       <use x="222.65625" xlink:href="#DejaVuSans-35"/>
      </g>
     </g>
    </g>
    <g id="xtick_21">
     <g id="line2d_29">
      <g>
       <use style="stroke:#000000;stroke-width:0.8;" x="420.432459" xlink:href="#m8c58c3ee56" y="179.95968"/>
      </g>
     </g>
     <g id="text_29">
      <!-- 79.30 -->
      <g transform="translate(406.118396 194.558117)scale(0.1 -0.1)">
       <use xlink:href="#DejaVuSans-37"/>
       <use x="63.623047" xlink:href="#DejaVuSans-39"/>
       <use x="127.246094" xlink:href="#DejaVuSans-2e"/>
       <use x="159.033203" xlink:href="#DejaVuSans-33"/>
       <use x="222.65625" xlink:href="#DejaVuSans-30"/>
      </g>
     </g>
    </g>
    <g id="text_30">
     <!-- $Nº\;Corrida\;[10^6 \Delta t]$ -->
     <defs>
      <path d="M 16.890625 72.90625 
L 30.171875 72.90625 
L 50.296875 10.40625 
L 62.5 72.90625 
L 72.125 72.90625 
L 57.90625 0 
L 44.578125 0 
L 24.515625 62.890625 
L 12.3125 0 
L 2.6875 0 
z
" id="DejaVuSans-Oblique-4e"/>
      <path d="M 38.484375 57.625 
Q 38.484375 62.984375 36.0625 65.796875 
Q 33.640625 68.609375 28.90625 68.609375 
Q 23.25 68.609375 19.109375 63.375 
Q 14.984375 58.15625 14.984375 50.78125 
Q 14.984375 45.453125 17.40625 42.578125 
Q 19.828125 39.703125 24.3125 39.703125 
Q 30.28125 39.703125 34.375 44.84375 
Q 38.484375 50 38.484375 57.625 
z
M 30.328125 74.21875 
Q 37.546875 74.21875 41.859375 70.015625 
Q 46.1875 65.828125 46.1875 58.796875 
Q 46.1875 48.046875 39.6875 41.0625 
Q 33.203125 34.078125 23.296875 34.078125 
Q 15.96875 34.078125 11.6875 38.46875 
Q 7.421875 42.875 7.421875 50.390625 
Q 7.421875 53.71875 8.34375 56.953125 
Q 9.28125 60.203125 11.078125 63.28125 
Q 14.109375 68.453125 19.1875 71.328125 
Q 24.265625 74.21875 30.328125 74.21875 
z
M 5.078125 28.90625 
L 38.71875 28.90625 
L 37.59375 22.90625 
L 4 22.90625 
z
" id="DejaVuSans-Oblique-ba"/>
      <path d="M 69.484375 67.28125 
L 67.484375 56.890625 
Q 62.796875 61.625 57.546875 63.921875 
Q 52.296875 66.21875 46.1875 66.21875 
Q 37.84375 66.21875 31.515625 62.203125 
Q 25.203125 58.203125 20.609375 50 
Q 17.671875 44.734375 16.125 38.84375 
Q 14.59375 32.953125 14.59375 27 
Q 14.59375 17.046875 19.75 11.8125 
Q 24.90625 6.59375 34.71875 6.59375 
Q 41.5 6.59375 47.75 8.765625 
Q 54 10.9375 59.90625 15.28125 
L 57.625 3.609375 
Q 51.8125 1.125 45.875 -0.140625 
Q 39.9375 -1.421875 33.984375 -1.421875 
Q 19.96875 -1.421875 12.078125 6.1875 
Q 4.203125 13.8125 4.203125 27.390625 
Q 4.203125 36.078125 7.203125 44.46875 
Q 10.203125 52.875 15.828125 59.8125 
Q 21.78125 67.1875 29.421875 70.703125 
Q 37.0625 74.21875 47.21875 74.21875 
Q 53.46875 74.21875 59.0625 72.484375 
Q 64.65625 70.75 69.484375 67.28125 
z
" id="DejaVuSans-Oblique-43"/>
      <path d="M 25.390625 -1.421875 
Q 15.765625 -1.421875 10.171875 4.515625 
Q 4.59375 10.453125 4.59375 20.703125 
Q 4.59375 26.65625 6.515625 32.828125 
Q 8.453125 39.015625 11.53125 43.21875 
Q 16.359375 49.75 22.3125 52.875 
Q 28.265625 56 35.796875 56 
Q 45.125 56 50.859375 50.1875 
Q 56.59375 44.390625 56.59375 35.015625 
Q 56.59375 28.515625 54.6875 22.0625 
Q 52.78125 15.625 49.703125 11.375 
Q 44.921875 4.828125 38.96875 1.703125 
Q 33.015625 -1.421875 25.390625 -1.421875 
z
M 13.921875 21 
Q 13.921875 13.578125 17.015625 9.890625 
Q 20.125 6.203125 26.421875 6.203125 
Q 35.453125 6.203125 41.375 14.078125 
Q 47.3125 21.96875 47.3125 34.078125 
Q 47.3125 41.15625 44.140625 44.765625 
Q 40.96875 48.390625 34.8125 48.390625 
Q 29.734375 48.390625 25.78125 46.015625 
Q 21.828125 43.65625 18.703125 38.8125 
Q 16.40625 35.203125 15.15625 30.5625 
Q 13.921875 25.921875 13.921875 21 
z
" id="DejaVuSans-Oblique-6f"/>
      <path d="M 44.578125 46.390625 
Q 43.21875 47.125 41.453125 47.515625 
Q 39.703125 47.90625 37.703125 47.90625 
Q 30.515625 47.90625 25.140625 42.453125 
Q 19.78125 37.015625 18.015625 27.875 
L 12.5 0 
L 3.515625 0 
L 14.203125 54.6875 
L 23.1875 54.6875 
L 21.484375 46.1875 
Q 25.046875 50.921875 30 53.453125 
Q 34.96875 56 40.578125 56 
Q 42.046875 56 43.453125 55.828125 
Q 44.875 55.671875 46.296875 55.28125 
z
" id="DejaVuSans-Oblique-72"/>
      <path d="M 18.3125 75.984375 
L 27.296875 75.984375 
L 25.09375 64.59375 
L 16.109375 64.59375 
z
M 14.203125 54.6875 
L 23.1875 54.6875 
L 12.5 0 
L 3.515625 0 
z
" id="DejaVuSans-Oblique-69"/>
      <path d="M 41.796875 8.203125 
Q 38.1875 3.46875 33.25 1.015625 
Q 28.328125 -1.421875 22.3125 -1.421875 
Q 14.109375 -1.421875 9.34375 4.171875 
Q 4.59375 9.765625 4.59375 19.484375 
Q 4.59375 27.59375 7.46875 34.9375 
Q 10.359375 42.28125 15.828125 48.09375 
Q 19.4375 51.953125 23.96875 53.96875 
Q 28.515625 56 33.5 56 
Q 38.765625 56 42.796875 53.453125 
Q 46.828125 50.921875 49.03125 46.1875 
L 54.890625 75.984375 
L 63.921875 75.984375 
L 49.125 0 
L 40.09375 0 
z
M 13.921875 21.09375 
Q 13.921875 14.015625 17.109375 10.0625 
Q 20.3125 6.109375 25.984375 6.109375 
Q 30.171875 6.109375 33.765625 8.125 
Q 37.359375 10.15625 40.09375 14.109375 
Q 42.96875 18.21875 44.625 23.578125 
Q 46.296875 28.953125 46.296875 34.1875 
Q 46.296875 40.96875 43.09375 44.765625 
Q 39.890625 48.578125 34.28125 48.578125 
Q 30.03125 48.578125 26.359375 46.578125 
Q 22.703125 44.578125 20.125 40.828125 
Q 17.28125 36.765625 15.59375 31.390625 
Q 13.921875 26.03125 13.921875 21.09375 
z
" id="DejaVuSans-Oblique-64"/>
      <path d="M 53.71875 31.203125 
L 47.609375 0 
L 38.625 0 
L 40.28125 8.296875 
Q 36.328125 3.421875 31.265625 1 
Q 26.21875 -1.421875 20.015625 -1.421875 
Q 13.03125 -1.421875 8.5625 2.84375 
Q 4.109375 7.125 4.109375 13.8125 
Q 4.109375 23.390625 11.75 28.953125 
Q 19.390625 34.515625 32.8125 34.515625 
L 45.3125 34.515625 
L 45.796875 36.921875 
Q 45.90625 37.3125 45.953125 37.765625 
Q 46 38.234375 46 39.203125 
Q 46 43.5625 42.453125 45.96875 
Q 38.921875 48.390625 32.515625 48.390625 
Q 28.125 48.390625 23.5 47.265625 
Q 18.890625 46.140625 14.015625 43.890625 
L 15.578125 52.203125 
Q 20.65625 54.109375 25.515625 55.046875 
Q 30.375 56 34.90625 56 
Q 44.578125 56 49.625 51.796875 
Q 54.6875 47.609375 54.6875 39.59375 
Q 54.6875 37.984375 54.4375 35.8125 
Q 54.203125 33.640625 53.71875 31.203125 
z
M 44 27.484375 
L 35.015625 27.484375 
Q 23.96875 27.484375 18.671875 24.53125 
Q 13.375 21.578125 13.375 15.375 
Q 13.375 11.078125 16.078125 8.640625 
Q 18.796875 6.203125 23.578125 6.203125 
Q 30.90625 6.203125 36.375 11.453125 
Q 41.84375 16.703125 43.609375 25.484375 
z
" id="DejaVuSans-Oblique-61"/>
      <path d="M 33.015625 40.375 
Q 26.375 40.375 22.484375 35.828125 
Q 18.609375 31.296875 18.609375 23.390625 
Q 18.609375 15.53125 22.484375 10.953125 
Q 26.375 6.390625 33.015625 6.390625 
Q 39.65625 6.390625 43.53125 10.953125 
Q 47.40625 15.53125 47.40625 23.390625 
Q 47.40625 31.296875 43.53125 35.828125 
Q 39.65625 40.375 33.015625 40.375 
z
M 52.59375 71.296875 
L 52.59375 62.3125 
Q 48.875 64.0625 45.09375 64.984375 
Q 41.3125 65.921875 37.59375 65.921875 
Q 27.828125 65.921875 22.671875 59.328125 
Q 17.53125 52.734375 16.796875 39.40625 
Q 19.671875 43.65625 24.015625 45.921875 
Q 28.375 48.1875 33.59375 48.1875 
Q 44.578125 48.1875 50.953125 41.515625 
Q 57.328125 34.859375 57.328125 23.390625 
Q 57.328125 12.15625 50.6875 5.359375 
Q 44.046875 -1.421875 33.015625 -1.421875 
Q 20.359375 -1.421875 13.671875 8.265625 
Q 6.984375 17.96875 6.984375 36.375 
Q 6.984375 53.65625 15.1875 63.9375 
Q 23.390625 74.21875 37.203125 74.21875 
Q 40.921875 74.21875 44.703125 73.484375 
Q 48.484375 72.75 52.59375 71.296875 
z
" id="DejaVuSans-36"/>
      <path d="M 34.1875 63.1875 
L 14.15625 8.203125 
L 54.25 8.203125 
z
M 0.78125 0 
L 28.609375 72.90625 
L 39.796875 72.90625 
L 67.578125 0 
z
" id="DejaVuSans-394"/>
      <path d="M 42.28125 54.6875 
L 40.921875 47.703125 
L 23 47.703125 
L 17.1875 18.015625 
Q 16.890625 16.359375 16.75 15.234375 
Q 16.609375 14.109375 16.609375 13.484375 
Q 16.609375 10.359375 18.484375 8.9375 
Q 20.359375 7.515625 24.515625 7.515625 
L 33.59375 7.515625 
L 32.078125 0 
L 23.484375 0 
Q 15.484375 0 11.546875 3.125 
Q 7.625 6.25 7.625 12.59375 
Q 7.625 13.71875 7.765625 15.0625 
Q 7.90625 16.40625 8.203125 18.015625 
L 14.015625 47.703125 
L 6.390625 47.703125 
L 7.8125 54.6875 
L 15.28125 54.6875 
L 18.3125 70.21875 
L 27.296875 70.21875 
L 24.3125 54.6875 
z
" id="DejaVuSans-Oblique-74"/>
     </defs>
     <g transform="translate(194.66376 209.900149)scale(0.11 -0.11)">
      <use transform="translate(0 0.765625)" xlink:href="#DejaVuSans-Oblique-4e"/>
      <use transform="translate(74.804688 0.765625)" xlink:href="#DejaVuSans-Oblique-ba"/>
      <use transform="translate(148.982964 0.765625)" xlink:href="#DejaVuSans-Oblique-43"/>
      <use transform="translate(218.807183 0.765625)" xlink:href="#DejaVuSans-Oblique-6f"/>
      <use transform="translate(279.988823 0.765625)" xlink:href="#DejaVuSans-Oblique-72"/>
      <use transform="translate(321.102104 0.765625)" xlink:href="#DejaVuSans-Oblique-72"/>
      <use transform="translate(362.215386 0.765625)" xlink:href="#DejaVuSans-Oblique-69"/>
      <use transform="translate(389.998589 0.765625)" xlink:href="#DejaVuSans-Oblique-64"/>
      <use transform="translate(453.475151 0.765625)" xlink:href="#DejaVuSans-Oblique-61"/>
      <use transform="translate(541.813584 0.765625)" xlink:href="#DejaVuSans-5b"/>
      <use transform="translate(580.827256 0.765625)" xlink:href="#DejaVuSans-31"/>
      <use transform="translate(644.450303 0.765625)" xlink:href="#DejaVuSans-30"/>
      <use transform="translate(709.030381 39.046875)scale(0.7)" xlink:href="#DejaVuSans-36"/>
      <use transform="translate(756.300889 0.765625)" xlink:href="#DejaVuSans-394"/>
      <use transform="translate(824.709092 0.765625)" xlink:href="#DejaVuSans-Oblique-74"/>
      <use transform="translate(863.918076 0.765625)" xlink:href="#DejaVuSans-5d"/>
     </g>
    </g>
   </g>
   <g id="matplotlib.axis_6">
    <g id="ytick_7">
     <g id="line2d_30">
      <g>
       <use style="stroke:#000000;stroke-width:0.8;" x="48.91104" xlink:href="#mbb6c9032de" y="179.2407"/>
      </g>
     </g>
     <g id="text_31">
      <!-- 0 -->
      <g transform="translate(35.54854 183.039918)scale(0.1 -0.1)">
       <use xlink:href="#DejaVuSans-30"/>
      </g>
     </g>
    </g>
    <g id="ytick_8">
     <g id="line2d_31">
      <g>
       <use style="stroke:#000000;stroke-width:0.8;" x="48.91104" xlink:href="#mbb6c9032de" y="148.220551"/>
      </g>
     </g>
     <g id="text_32">
      <!-- 5 -->
      <g transform="translate(35.54854 152.01977)scale(0.1 -0.1)">
       <use xlink:href="#DejaVuSans-35"/>
      </g>
     </g>
    </g>
    <g id="text_33">
     <!-- $\varphi\;[rad]$ -->
     <defs>
      <path d="M 46.390625 47.40625 
Q 43.21875 47.40625 41.796875 40.328125 
L 35.296875 6.84375 
Q 39.890625 6.84375 45.5625 11.921875 
Q 50.6875 16.453125 52.734375 27.34375 
Q 54.640625 37.5 51.5625 42.96875 
Q 49.03125 47.40625 46.390625 47.40625 
z
M 47.859375 55.078125 
Q 54.890625 55.078125 59.671875 48.640625 
Q 64.796875 41.75 62.203125 27.34375 
Q 59.8125 14.109375 51.421875 6.25 
Q 43.5 -1.171875 33.734375 -1.171875 
L 29.9375 -20.796875 
L 21 -20.796875 
L 24.8125 -1.21875 
Q 15.046875 -1.21875 10.015625 6.25 
Q 4.828125 13.875 7.421875 27.296875 
Q 10.109375 41.265625 18.21875 48.390625 
Q 24.3125 53.71875 32.5625 55.078125 
L 31 47.125 
Q 27.59375 46 24.03125 42.1875 
Q 18.65625 36.578125 16.890625 27.296875 
Q 15.046875 17.4375 18.0625 11.8125 
Q 20.84375 6.78125 26.375 6.78125 
L 32.859375 40.328125 
Q 35.75 55.078125 47.859375 55.078125 
z
" id="DejaVuSans-Oblique-3c6"/>
     </defs>
     <g transform="translate(29.23854 177.780985)rotate(-90)scale(0.11 -0.11)">
      <use transform="translate(0 0.015625)" xlink:href="#DejaVuSans-Oblique-3c6"/>
      <use transform="translate(93.025933 0.015625)" xlink:href="#DejaVuSans-5b"/>
      <use transform="translate(132.039604 0.015625)" xlink:href="#DejaVuSans-Oblique-72"/>
      <use transform="translate(173.152886 0.015625)" xlink:href="#DejaVuSans-Oblique-61"/>
      <use transform="translate(234.432183 0.015625)" xlink:href="#DejaVuSans-Oblique-64"/>
      <use transform="translate(297.908745 0.015625)" xlink:href="#DejaVuSans-5d"/>
     </g>
    </g>
   </g>
   <g id="line2d_32">
    <path clip-path="url(#p3fe5b0cabb)" d="M 66.676287 160.81304 
L 69.0293 163.79548 
L 71.382313 163.996918 
L 73.735326 167.710502 
L 76.088339 170.514923 
L 78.441352 172.812137 
L 80.794365 174.150887 
L 83.147377 176.428222 
L 85.50039 142.049191 
L 87.853403 141.406749 
L 90.206416 140.415354 
L 92.559429 146.222629 
L 94.912442 148.759761 
L 99.618468 152.197453 
L 101.971481 155.584241 
L 104.324493 157.510503 
L 106.677506 156.575021 
L 109.030519 161.782961 
L 111.383532 164.538773 
L 113.736545 162.907186 
L 116.089558 168.115124 
L 118.442571 170.737987 
L 120.795584 173.611189 
L 123.148596 173.865682 
L 125.501609 176.364199 
L 127.854622 141.270108 
L 130.207635 142.646781 
L 132.560648 142.315802 
L 134.913661 146.02229 
L 137.266674 149.006674 
L 139.619687 151.121089 
L 141.9727 152.787523 
L 144.325712 155.764106 
L 146.678725 158.934649 
L 149.031738 158.724443 
L 151.384751 161.824931 
L 153.737764 164.309542 
L 156.090777 164.260886 
L 158.44379 167.805129 
L 160.796803 170.914222 
L 163.149816 174.459958 
L 165.502828 176.534987 
L 167.855841 175.690054 
L 170.208854 141.000654 
L 172.561867 141.811212 
L 174.91488 141.924523 
L 177.267893 147.076831 
L 179.620906 149.274344 
L 181.973919 151.673646 
L 184.326931 153.397187 
L 186.679944 158.085196 
L 189.032957 159.773904 
L 191.38597 158.834402 
L 193.738983 162.602004 
L 196.091996 165.206128 
L 198.445009 166.137555 
L 200.798022 168.637993 
L 203.151035 171.57666 
L 205.504047 173.363508 
L 207.85706 174.415082 
L 210.210073 178.076617 
L 212.563086 143.485243 
L 214.916099 143.188551 
L 217.269112 142.658395 
L 219.622125 146.851381 
L 224.32815 151.365976 
L 226.681163 153.081395 
L 229.034176 158.52346 
L 231.387189 159.670781 
L 233.740202 158.230681 
L 236.093215 162.065523 
L 238.446228 164.519483 
L 240.799241 166.113177 
L 243.152254 168.896092 
L 245.505266 171.184659 
L 247.858279 174.203524 
L 250.211292 176.194489 
L 252.564305 176.710419 
L 254.917318 140.657693 
L 257.270331 140.574996 
L 259.623344 143.132777 
L 261.976357 147.232677 
L 264.32937 148.654877 
L 266.682382 151.047439 
L 269.035395 153.210905 
L 271.388408 156.86433 
L 276.094434 157.929557 
L 278.447447 161.53293 
L 283.153473 165.33802 
L 285.506485 168.006736 
L 287.859498 170.971993 
L 292.565524 174.60912 
L 294.918537 177.274734 
L 297.27155 141.285003 
L 301.977576 143.907497 
L 304.330589 146.731969 
L 309.036614 151.918157 
L 311.389627 153.483616 
L 316.095653 159.104101 
L 318.448666 160.780127 
L 320.801679 163.031739 
L 323.154692 164.260621 
L 325.507704 166.649861 
L 327.860717 169.559755 
L 330.21373 171.826949 
L 332.566743 174.753552 
L 334.919756 176.506863 
L 337.272769 177.351219 
L 339.625782 141.360463 
L 341.978795 141.889325 
L 344.331808 145.306259 
L 346.68482 148.178991 
L 349.037833 149.76479 
L 351.390846 151.79758 
L 353.743859 154.670108 
L 356.096872 158.804989 
L 358.449885 159.161288 
L 360.802898 160.432532 
L 363.155911 162.75832 
L 365.508924 165.669469 
L 370.214949 169.816365 
L 374.920975 174.524503 
L 377.273988 175.616865 
L 379.627001 177.544035 
L 381.980014 141.984386 
L 384.333027 143.96275 
L 391.392065 151.010961 
L 393.745078 153.279437 
L 396.098091 155.293186 
L 398.451104 158.270643 
L 400.804117 158.898418 
L 403.15713 161.588278 
L 405.510143 163.753088 
L 407.863155 164.535306 
L 412.569181 170.75522 
L 414.922194 172.82495 
L 417.275207 174.077155 
L 419.62822 176.494086 
L 421.981233 141.175609 
L 421.981233 141.175609 
" style="fill:none;stroke:#2ca02c;stroke-linecap:square;stroke-width:1.5;"/>
   </g>
   <g id="patch_13">
    <path d="M 48.91104 179.95968 
L 48.91104 138.532291 
" style="fill:none;stroke:#000000;stroke-linecap:square;stroke-linejoin:miter;stroke-width:0.8;"/>
   </g>
   <g id="patch_14">
    <path d="M 439.74648 179.95968 
L 439.74648 138.532291 
" style="fill:none;stroke:#000000;stroke-linecap:square;stroke-linejoin:miter;stroke-width:0.8;"/>
   </g>
   <g id="patch_15">
    <path d="M 48.91104 179.95968 
L 439.74648 179.95968 
" style="fill:none;stroke:#000000;stroke-linecap:square;stroke-linejoin:miter;stroke-width:0.8;"/>
   </g>
   <g id="patch_16">
    <path d="M 48.91104 138.532291 
L 439.74648 138.532291 
" style="fill:none;stroke:#000000;stroke-linecap:square;stroke-linejoin:miter;stroke-width:0.8;"/>
   </g>
  </g>
 </g>
 <defs>
  <clipPath id="p9adc6a323c">
   <rect height="41.427389" width="390.83544" x="48.91104" y="13.33872"/>
  </clipPath>
  <clipPath id="p70f920286e">
   <rect height="41.427389" width="390.83544" x="48.91104" y="75.935505"/>
  </clipPath>
  <clipPath id="p3fe5b0cabb">
   <rect height="41.427389" width="390.83544" x="48.91104" y="138.532291"/>
  </clipPath>
 </defs>
</svg>
