<?xml version="1.0" encoding="utf-8" standalone="no"?>
<!DOCTYPE svg PUBLIC "-//W3C//DTD SVG 1.1//EN"
  "http://www.w3.org/Graphics/SVG/1.1/DTD/svg11.dtd">
<!-- Created with matplotlib (http://matplotlib.org/) -->
<svg height="216pt" version="1.1" viewBox="0 0 720 216" width="720pt" xmlns="http://www.w3.org/2000/svg" xmlns:xlink="http://www.w3.org/1999/xlink">
 <defs>
  <style type="text/css">
*{stroke-linecap:butt;stroke-linejoin:round;}
  </style>
 </defs>
 <g id="figure_1">
  <g id="patch_1">
   <path d="M 0 216 
L 720 216 
L 720 0 
L 0 0 
z
" style="fill:#ffffff;"/>
  </g>
  <g id="axes_1">
   <g id="patch_2">
    <path d="M 33.64 173.32 
L 229.62 173.32 
L 229.62 26.16 
L 33.64 26.16 
z
" style="fill:#ffffff;"/>
   </g>
   <g id="matplotlib.axis_1">
    <g id="xtick_1">
     <g id="line2d_1">
      <defs>
       <path d="M 0 0 
L 0 3.5 
" id="m4fb7a82cbe" style="stroke:#000000;stroke-width:0.8;"/>
      </defs>
      <g>
       <use style="stroke:#000000;stroke-width:0.8;" x="85.839536" xlink:href="#m4fb7a82cbe" y="173.32"/>
      </g>
     </g>
     <g id="text_1">
      <!-- 32 -->
      <defs>
       <path d="M 40.578125 39.3125 
Q 47.65625 37.796875 51.625 33 
Q 55.609375 28.21875 55.609375 21.1875 
Q 55.609375 10.40625 48.1875 4.484375 
Q 40.765625 -1.421875 27.09375 -1.421875 
Q 22.515625 -1.421875 17.65625 -0.515625 
Q 12.796875 0.390625 7.625 2.203125 
L 7.625 11.71875 
Q 11.71875 9.328125 16.59375 8.109375 
Q 21.484375 6.890625 26.8125 6.890625 
Q 36.078125 6.890625 40.9375 10.546875 
Q 45.796875 14.203125 45.796875 21.1875 
Q 45.796875 27.640625 41.28125 31.265625 
Q 36.765625 34.90625 28.71875 34.90625 
L 20.21875 34.90625 
L 20.21875 43.015625 
L 29.109375 43.015625 
Q 36.375 43.015625 40.234375 45.921875 
Q 44.09375 48.828125 44.09375 54.296875 
Q 44.09375 59.90625 40.109375 62.90625 
Q 36.140625 65.921875 28.71875 65.921875 
Q 24.65625 65.921875 20.015625 65.03125 
Q 15.375 64.15625 9.8125 62.3125 
L 9.8125 71.09375 
Q 15.4375 72.65625 20.34375 73.4375 
Q 25.25 74.21875 29.59375 74.21875 
Q 40.828125 74.21875 47.359375 69.109375 
Q 53.90625 64.015625 53.90625 55.328125 
Q 53.90625 49.265625 50.4375 45.09375 
Q 46.96875 40.921875 40.578125 39.3125 
z
" id="DejaVuSans-33"/>
       <path d="M 19.1875 8.296875 
L 53.609375 8.296875 
L 53.609375 0 
L 7.328125 0 
L 7.328125 8.296875 
Q 12.9375 14.109375 22.625 23.890625 
Q 32.328125 33.6875 34.8125 36.53125 
Q 39.546875 41.84375 41.421875 45.53125 
Q 43.3125 49.21875 43.3125 52.78125 
Q 43.3125 58.59375 39.234375 62.25 
Q 35.15625 65.921875 28.609375 65.921875 
Q 23.96875 65.921875 18.8125 64.3125 
Q 13.671875 62.703125 7.8125 59.421875 
L 7.8125 69.390625 
Q 13.765625 71.78125 18.9375 73 
Q 24.125 74.21875 28.421875 74.21875 
Q 39.75 74.21875 46.484375 68.546875 
Q 53.21875 62.890625 53.21875 53.421875 
Q 53.21875 48.921875 51.53125 44.890625 
Q 49.859375 40.875 45.40625 35.40625 
Q 44.1875 33.984375 37.640625 27.21875 
Q 31.109375 20.453125 19.1875 8.296875 
z
" id="DejaVuSans-32"/>
      </defs>
      <g transform="translate(79.477036 187.918437)scale(0.1 -0.1)">
       <use xlink:href="#DejaVuSans-33"/>
       <use x="63.623047" xlink:href="#DejaVuSans-32"/>
      </g>
     </g>
    </g>
    <g id="xtick_2">
     <g id="line2d_2">
      <g>
       <use style="stroke:#000000;stroke-width:0.8;" x="151.114526" xlink:href="#m4fb7a82cbe" y="173.32"/>
      </g>
     </g>
     <g id="text_2">
      <!-- 33 -->
      <g transform="translate(144.752026 187.918437)scale(0.1 -0.1)">
       <use xlink:href="#DejaVuSans-33"/>
       <use x="63.623047" xlink:href="#DejaVuSans-33"/>
      </g>
     </g>
    </g>
    <g id="xtick_3">
     <g id="line2d_3">
      <g>
       <use style="stroke:#000000;stroke-width:0.8;" x="216.389516" xlink:href="#m4fb7a82cbe" y="173.32"/>
      </g>
     </g>
     <g id="text_3">
      <!-- 34 -->
      <defs>
       <path d="M 37.796875 64.3125 
L 12.890625 25.390625 
L 37.796875 25.390625 
z
M 35.203125 72.90625 
L 47.609375 72.90625 
L 47.609375 25.390625 
L 58.015625 25.390625 
L 58.015625 17.1875 
L 47.609375 17.1875 
L 47.609375 0 
L 37.796875 0 
L 37.796875 17.1875 
L 4.890625 17.1875 
L 4.890625 26.703125 
z
" id="DejaVuSans-34"/>
      </defs>
      <g transform="translate(210.027016 187.918437)scale(0.1 -0.1)">
       <use xlink:href="#DejaVuSans-33"/>
       <use x="63.623047" xlink:href="#DejaVuSans-34"/>
      </g>
     </g>
    </g>
    <g id="text_4">
     <!-- $E/\epsilon$ -->
     <defs>
      <path d="M 16.890625 72.90625 
L 62.984375 72.90625 
L 61.375 64.59375 
L 25.09375 64.59375 
L 20.90625 43.015625 
L 55.71875 43.015625 
L 54.109375 34.71875 
L 19.28125 34.71875 
L 14.203125 8.296875 
L 51.3125 8.296875 
L 49.703125 0 
L 2.6875 0 
z
" id="DejaVuSans-Oblique-45"/>
      <path d="M 25.390625 72.90625 
L 33.6875 72.90625 
L 8.296875 -9.28125 
L 0 -9.28125 
z
" id="DejaVuSans-2f"/>
      <path d="M 19.734375 29.5 
Q 14.453125 30.671875 12.15625 33.84375 
Q 10.453125 36.078125 10.453125 39.109375 
Q 10.453125 47.40625 18.359375 52.25 
Q 24.609375 56.0625 34.1875 56.0625 
Q 37.890625 56.0625 41.9375 55.46875 
Q 46 54.890625 50.53125 53.71875 
L 48.96875 45.5625 
Q 44.484375 46.96875 40.71875 47.609375 
Q 36.859375 48.25 33.40625 48.25 
Q 27.59375 48.25 23.78125 46 
Q 19.1875 43.3125 19.1875 39.40625 
Q 19.1875 36.8125 21.578125 35.015625 
Q 24.421875 32.859375 30.078125 32.859375 
L 37.640625 32.859375 
L 36.234375 25.4375 
L 29 25.4375 
Q 22.265625 25.4375 18.3125 22.953125 
Q 12.9375 19.578125 12.9375 14.3125 
Q 12.9375 10.984375 15.828125 8.796875 
Q 19.4375 6.0625 26.8125 6.0625 
Q 31.34375 6.0625 35.6875 6.9375 
Q 40.046875 7.859375 43.84375 9.671875 
L 42.1875 1.3125 
Q 37.546875 -0.046875 33.296875 -0.734375 
Q 29.046875 -1.421875 25.140625 -1.421875 
Q 13.53125 -1.421875 8.0625 3.03125 
Q 3.90625 6.453125 3.90625 12.203125 
Q 3.90625 19.96875 9.375 24.75 
Q 13.421875 28.328125 19.734375 29.5 
z
" id="DejaVuSans-Oblique-3b5"/>
     </defs>
     <g transform="translate(124.08 201.596562)scale(0.1 -0.1)">
      <use transform="translate(0 0.09375)" xlink:href="#DejaVuSans-Oblique-45"/>
      <use transform="translate(63.183594 0.09375)" xlink:href="#DejaVuSans-2f"/>
      <use transform="translate(96.875 0.09375)" xlink:href="#DejaVuSans-Oblique-3b5"/>
     </g>
    </g>
   </g>
   <g id="matplotlib.axis_2">
    <g id="ytick_1">
     <g id="line2d_4">
      <defs>
       <path d="M 0 0 
L -3.5 0 
" id="m71dacbfd2d" style="stroke:#000000;stroke-width:0.8;"/>
      </defs>
      <g>
       <use style="stroke:#000000;stroke-width:0.8;" x="33.64" xlink:href="#m71dacbfd2d" y="166.697758"/>
      </g>
     </g>
     <g id="text_5">
      <!-- 0.0 -->
      <defs>
       <path d="M 31.78125 66.40625 
Q 24.171875 66.40625 20.328125 58.90625 
Q 16.5 51.421875 16.5 36.375 
Q 16.5 21.390625 20.328125 13.890625 
Q 24.171875 6.390625 31.78125 6.390625 
Q 39.453125 6.390625 43.28125 13.890625 
Q 47.125 21.390625 47.125 36.375 
Q 47.125 51.421875 43.28125 58.90625 
Q 39.453125 66.40625 31.78125 66.40625 
z
M 31.78125 74.21875 
Q 44.046875 74.21875 50.515625 64.515625 
Q 56.984375 54.828125 56.984375 36.375 
Q 56.984375 17.96875 50.515625 8.265625 
Q 44.046875 -1.421875 31.78125 -1.421875 
Q 19.53125 -1.421875 13.0625 8.265625 
Q 6.59375 17.96875 6.59375 36.375 
Q 6.59375 54.828125 13.0625 64.515625 
Q 19.53125 74.21875 31.78125 74.21875 
z
" id="DejaVuSans-30"/>
       <path d="M 10.6875 12.40625 
L 21 12.40625 
L 21 0 
L 10.6875 0 
z
" id="DejaVuSans-2e"/>
      </defs>
      <g transform="translate(10.736875 170.496976)scale(0.1 -0.1)">
       <use xlink:href="#DejaVuSans-30"/>
       <use x="63.623047" xlink:href="#DejaVuSans-2e"/>
       <use x="95.410156" xlink:href="#DejaVuSans-30"/>
      </g>
     </g>
    </g>
    <g id="ytick_2">
     <g id="line2d_5">
      <g>
       <use style="stroke:#000000;stroke-width:0.8;" x="33.64" xlink:href="#m71dacbfd2d" y="140.265198"/>
      </g>
     </g>
     <g id="text_6">
      <!-- 0.2 -->
      <g transform="translate(10.736875 144.064417)scale(0.1 -0.1)">
       <use xlink:href="#DejaVuSans-30"/>
       <use x="63.623047" xlink:href="#DejaVuSans-2e"/>
       <use x="95.410156" xlink:href="#DejaVuSans-32"/>
      </g>
     </g>
    </g>
    <g id="ytick_3">
     <g id="line2d_6">
      <g>
       <use style="stroke:#000000;stroke-width:0.8;" x="33.64" xlink:href="#m71dacbfd2d" y="113.832639"/>
      </g>
     </g>
     <g id="text_7">
      <!-- 0.4 -->
      <g transform="translate(10.736875 117.631858)scale(0.1 -0.1)">
       <use xlink:href="#DejaVuSans-30"/>
       <use x="63.623047" xlink:href="#DejaVuSans-2e"/>
       <use x="95.410156" xlink:href="#DejaVuSans-34"/>
      </g>
     </g>
    </g>
    <g id="ytick_4">
     <g id="line2d_7">
      <g>
       <use style="stroke:#000000;stroke-width:0.8;" x="33.64" xlink:href="#m71dacbfd2d" y="87.400079"/>
      </g>
     </g>
     <g id="text_8">
      <!-- 0.6 -->
      <defs>
       <path d="M 33.015625 40.375 
Q 26.375 40.375 22.484375 35.828125 
Q 18.609375 31.296875 18.609375 23.390625 
Q 18.609375 15.53125 22.484375 10.953125 
Q 26.375 6.390625 33.015625 6.390625 
Q 39.65625 6.390625 43.53125 10.953125 
Q 47.40625 15.53125 47.40625 23.390625 
Q 47.40625 31.296875 43.53125 35.828125 
Q 39.65625 40.375 33.015625 40.375 
z
M 52.59375 71.296875 
L 52.59375 62.3125 
Q 48.875 64.0625 45.09375 64.984375 
Q 41.3125 65.921875 37.59375 65.921875 
Q 27.828125 65.921875 22.671875 59.328125 
Q 17.53125 52.734375 16.796875 39.40625 
Q 19.671875 43.65625 24.015625 45.921875 
Q 28.375 48.1875 33.59375 48.1875 
Q 44.578125 48.1875 50.953125 41.515625 
Q 57.328125 34.859375 57.328125 23.390625 
Q 57.328125 12.15625 50.6875 5.359375 
Q 44.046875 -1.421875 33.015625 -1.421875 
Q 20.359375 -1.421875 13.671875 8.265625 
Q 6.984375 17.96875 6.984375 36.375 
Q 6.984375 53.65625 15.1875 63.9375 
Q 23.390625 74.21875 37.203125 74.21875 
Q 40.921875 74.21875 44.703125 73.484375 
Q 48.484375 72.75 52.59375 71.296875 
z
" id="DejaVuSans-36"/>
      </defs>
      <g transform="translate(10.736875 91.199298)scale(0.1 -0.1)">
       <use xlink:href="#DejaVuSans-30"/>
       <use x="63.623047" xlink:href="#DejaVuSans-2e"/>
       <use x="95.410156" xlink:href="#DejaVuSans-36"/>
      </g>
     </g>
    </g>
    <g id="ytick_5">
     <g id="line2d_8">
      <g>
       <use style="stroke:#000000;stroke-width:0.8;" x="33.64" xlink:href="#m71dacbfd2d" y="60.96752"/>
      </g>
     </g>
     <g id="text_9">
      <!-- 0.8 -->
      <defs>
       <path d="M 31.78125 34.625 
Q 24.75 34.625 20.71875 30.859375 
Q 16.703125 27.09375 16.703125 20.515625 
Q 16.703125 13.921875 20.71875 10.15625 
Q 24.75 6.390625 31.78125 6.390625 
Q 38.8125 6.390625 42.859375 10.171875 
Q 46.921875 13.96875 46.921875 20.515625 
Q 46.921875 27.09375 42.890625 30.859375 
Q 38.875 34.625 31.78125 34.625 
z
M 21.921875 38.8125 
Q 15.578125 40.375 12.03125 44.71875 
Q 8.5 49.078125 8.5 55.328125 
Q 8.5 64.0625 14.71875 69.140625 
Q 20.953125 74.21875 31.78125 74.21875 
Q 42.671875 74.21875 48.875 69.140625 
Q 55.078125 64.0625 55.078125 55.328125 
Q 55.078125 49.078125 51.53125 44.71875 
Q 48 40.375 41.703125 38.8125 
Q 48.828125 37.15625 52.796875 32.3125 
Q 56.78125 27.484375 56.78125 20.515625 
Q 56.78125 9.90625 50.3125 4.234375 
Q 43.84375 -1.421875 31.78125 -1.421875 
Q 19.734375 -1.421875 13.25 4.234375 
Q 6.78125 9.90625 6.78125 20.515625 
Q 6.78125 27.484375 10.78125 32.3125 
Q 14.796875 37.15625 21.921875 38.8125 
z
M 18.3125 54.390625 
Q 18.3125 48.734375 21.84375 45.5625 
Q 25.390625 42.390625 31.78125 42.390625 
Q 38.140625 42.390625 41.71875 45.5625 
Q 45.3125 48.734375 45.3125 54.390625 
Q 45.3125 60.0625 41.71875 63.234375 
Q 38.140625 66.40625 31.78125 66.40625 
Q 25.390625 66.40625 21.84375 63.234375 
Q 18.3125 60.0625 18.3125 54.390625 
z
" id="DejaVuSans-38"/>
      </defs>
      <g transform="translate(10.736875 64.766739)scale(0.1 -0.1)">
       <use xlink:href="#DejaVuSans-30"/>
       <use x="63.623047" xlink:href="#DejaVuSans-2e"/>
       <use x="95.410156" xlink:href="#DejaVuSans-38"/>
      </g>
     </g>
    </g>
    <g id="ytick_6">
     <g id="line2d_9">
      <g>
       <use style="stroke:#000000;stroke-width:0.8;" x="33.64" xlink:href="#m71dacbfd2d" y="34.534961"/>
      </g>
     </g>
     <g id="text_10">
      <!-- 1.0 -->
      <defs>
       <path d="M 12.40625 8.296875 
L 28.515625 8.296875 
L 28.515625 63.921875 
L 10.984375 60.40625 
L 10.984375 69.390625 
L 28.421875 72.90625 
L 38.28125 72.90625 
L 38.28125 8.296875 
L 54.390625 8.296875 
L 54.390625 0 
L 12.40625 0 
z
" id="DejaVuSans-31"/>
      </defs>
      <g transform="translate(10.736875 38.334179)scale(0.1 -0.1)">
       <use xlink:href="#DejaVuSans-31"/>
       <use x="63.623047" xlink:href="#DejaVuSans-2e"/>
       <use x="95.410156" xlink:href="#DejaVuSans-30"/>
      </g>
     </g>
    </g>
   </g>
   <g id="line2d_10">
    <defs>
     <path d="M 0 3 
C 0.795609 3 1.55874 2.683901 2.12132 2.12132 
C 2.683901 1.55874 3 0.795609 3 0 
C 3 -0.795609 2.683901 -1.55874 2.12132 -2.12132 
C 1.55874 -2.683901 0.795609 -3 0 -3 
C -0.795609 -3 -1.55874 -2.683901 -2.12132 -2.12132 
C -2.683901 -1.55874 -3 -0.795609 -3 0 
C -3 0.795609 -2.683901 1.55874 -2.12132 2.12132 
C -1.55874 2.683901 -0.795609 3 0 3 
z
" id="mc3f055c708" style="stroke:#1f77b4;"/>
    </defs>
    <g clip-path="url(#p6bd7556d57)">
     <use style="fill:#1f77b4;stroke:#1f77b4;" x="42.548182" xlink:href="#mc3f055c708" y="166.299981"/>
     <use style="fill:#1f77b4;stroke:#1f77b4;" x="44.347815" xlink:href="#mc3f055c708" y="165.444252"/>
     <use style="fill:#1f77b4;stroke:#1f77b4;" x="46.147447" xlink:href="#mc3f055c708" y="164.798631"/>
     <use style="fill:#1f77b4;stroke:#1f77b4;" x="47.94708" xlink:href="#mc3f055c708" y="161.27882"/>
     <use style="fill:#1f77b4;stroke:#1f77b4;" x="49.746713" xlink:href="#mc3f055c708" y="159.94678"/>
     <use style="fill:#1f77b4;stroke:#1f77b4;" x="51.546345" xlink:href="#mc3f055c708" y="158.616779"/>
     <use style="fill:#1f77b4;stroke:#1f77b4;" x="53.345978" xlink:href="#mc3f055c708" y="157.799808"/>
     <use style="fill:#1f77b4;stroke:#1f77b4;" x="55.145611" xlink:href="#mc3f055c708" y="157.791648"/>
     <use style="fill:#1f77b4;stroke:#1f77b4;" x="56.945243" xlink:href="#mc3f055c708" y="155.944538"/>
     <use style="fill:#1f77b4;stroke:#1f77b4;" x="58.744876" xlink:href="#mc3f055c708" y="154.470726"/>
     <use style="fill:#1f77b4;stroke:#1f77b4;" x="60.544509" xlink:href="#mc3f055c708" y="151.955556"/>
     <use style="fill:#1f77b4;stroke:#1f77b4;" x="62.344141" xlink:href="#mc3f055c708" y="149.664772"/>
     <use style="fill:#1f77b4;stroke:#1f77b4;" x="64.143774" xlink:href="#mc3f055c708" y="145.945054"/>
     <use style="fill:#1f77b4;stroke:#1f77b4;" x="65.943407" xlink:href="#mc3f055c708" y="145.111763"/>
     <use style="fill:#1f77b4;stroke:#1f77b4;" x="67.743039" xlink:href="#mc3f055c708" y="140.836178"/>
     <use style="fill:#1f77b4;stroke:#1f77b4;" x="69.542672" xlink:href="#mc3f055c708" y="137.396943"/>
     <use style="fill:#1f77b4;stroke:#1f77b4;" x="71.342305" xlink:href="#mc3f055c708" y="134.297348"/>
     <use style="fill:#1f77b4;stroke:#1f77b4;" x="73.141938" xlink:href="#mc3f055c708" y="130.503174"/>
     <use style="fill:#1f77b4;stroke:#1f77b4;" x="74.94157" xlink:href="#mc3f055c708" y="130.324684"/>
     <use style="fill:#1f77b4;stroke:#1f77b4;" x="76.741203" xlink:href="#mc3f055c708" y="130.715321"/>
     <use style="fill:#1f77b4;stroke:#1f77b4;" x="78.540836" xlink:href="#mc3f055c708" y="129.706601"/>
     <use style="fill:#1f77b4;stroke:#1f77b4;" x="80.340468" xlink:href="#mc3f055c708" y="122.359979"/>
     <use style="fill:#1f77b4;stroke:#1f77b4;" x="82.140101" xlink:href="#mc3f055c708" y="111.364014"/>
     <use style="fill:#1f77b4;stroke:#1f77b4;" x="83.939734" xlink:href="#mc3f055c708" y="106.321434"/>
     <use style="fill:#1f77b4;stroke:#1f77b4;" x="85.739366" xlink:href="#mc3f055c708" y="100.073286"/>
     <use style="fill:#1f77b4;stroke:#1f77b4;" x="87.538999" xlink:href="#mc3f055c708" y="98.813661"/>
     <use style="fill:#1f77b4;stroke:#1f77b4;" x="89.338632" xlink:href="#mc3f055c708" y="90.912192"/>
     <use style="fill:#1f77b4;stroke:#1f77b4;" x="91.138264" xlink:href="#mc3f055c708" y="90.229853"/>
     <use style="fill:#1f77b4;stroke:#1f77b4;" x="92.937897" xlink:href="#mc3f055c708" y="82.696582"/>
     <use style="fill:#1f77b4;stroke:#1f77b4;" x="94.73753" xlink:href="#mc3f055c708" y="69.924902"/>
     <use style="fill:#1f77b4;stroke:#1f77b4;" x="96.537163" xlink:href="#mc3f055c708" y="63.378932"/>
     <use style="fill:#1f77b4;stroke:#1f77b4;" x="98.336795" xlink:href="#mc3f055c708" y="50.767384"/>
     <use style="fill:#1f77b4;stroke:#1f77b4;" x="100.136428" xlink:href="#mc3f055c708" y="52.312591"/>
     <use style="fill:#1f77b4;stroke:#1f77b4;" x="101.936061" xlink:href="#mc3f055c708" y="47.382205"/>
     <use style="fill:#1f77b4;stroke:#1f77b4;" x="103.735693" xlink:href="#mc3f055c708" y="53.253995"/>
     <use style="fill:#1f77b4;stroke:#1f77b4;" x="105.535326" xlink:href="#mc3f055c708" y="46.63561"/>
     <use style="fill:#1f77b4;stroke:#1f77b4;" x="107.334959" xlink:href="#mc3f055c708" y="44.662027"/>
     <use style="fill:#1f77b4;stroke:#1f77b4;" x="109.134591" xlink:href="#mc3f055c708" y="54.034249"/>
     <use style="fill:#1f77b4;stroke:#1f77b4;" x="110.934224" xlink:href="#mc3f055c708" y="48.81012"/>
     <use style="fill:#1f77b4;stroke:#1f77b4;" x="112.733857" xlink:href="#mc3f055c708" y="47.30265"/>
     <use style="fill:#1f77b4;stroke:#1f77b4;" x="114.533489" xlink:href="#mc3f055c708" y="44.803799"/>
     <use style="fill:#1f77b4;stroke:#1f77b4;" x="116.333122" xlink:href="#mc3f055c708" y="44.94761"/>
     <use style="fill:#1f77b4;stroke:#1f77b4;" x="118.132755" xlink:href="#mc3f055c708" y="39.490935"/>
     <use style="fill:#1f77b4;stroke:#1f77b4;" x="119.932388" xlink:href="#mc3f055c708" y="34.143394"/>
     <use style="fill:#1f77b4;stroke:#1f77b4;" x="121.73202" xlink:href="#mc3f055c708" y="36.344423"/>
     <use style="fill:#1f77b4;stroke:#1f77b4;" x="123.531653" xlink:href="#mc3f055c708" y="32.849091"/>
     <use style="fill:#1f77b4;stroke:#1f77b4;" x="125.331286" xlink:href="#mc3f055c708" y="40.382362"/>
     <use style="fill:#1f77b4;stroke:#1f77b4;" x="127.130918" xlink:href="#mc3f055c708" y="37.487775"/>
     <use style="fill:#1f77b4;stroke:#1f77b4;" x="128.930551" xlink:href="#mc3f055c708" y="49.429223"/>
     <use style="fill:#1f77b4;stroke:#1f77b4;" x="130.730184" xlink:href="#mc3f055c708" y="54.424886"/>
     <use style="fill:#1f77b4;stroke:#1f77b4;" x="132.529816" xlink:href="#mc3f055c708" y="61.884721"/>
     <use style="fill:#1f77b4;stroke:#1f77b4;" x="134.329449" xlink:href="#mc3f055c708" y="69.516927"/>
     <use style="fill:#1f77b4;stroke:#1f77b4;" x="136.129082" xlink:href="#mc3f055c708" y="74.755335"/>
     <use style="fill:#1f77b4;stroke:#1f77b4;" x="137.928714" xlink:href="#mc3f055c708" y="81.002462"/>
     <use style="fill:#1f77b4;stroke:#1f77b4;" x="139.728347" xlink:href="#mc3f055c708" y="86.508094"/>
     <use style="fill:#1f77b4;stroke:#1f77b4;" x="141.52798" xlink:href="#mc3f055c708" y="89.895313"/>
     <use style="fill:#1f77b4;stroke:#1f77b4;" x="143.327612" xlink:href="#mc3f055c708" y="89.062022"/>
     <use style="fill:#1f77b4;stroke:#1f77b4;" x="145.127245" xlink:href="#mc3f055c708" y="93.578313"/>
     <use style="fill:#1f77b4;stroke:#1f77b4;" x="146.926878" xlink:href="#mc3f055c708" y="99.951914"/>
     <use style="fill:#1f77b4;stroke:#1f77b4;" x="148.726511" xlink:href="#mc3f055c708" y="103.075988"/>
     <use style="fill:#1f77b4;stroke:#1f77b4;" x="150.526143" xlink:href="#mc3f055c708" y="107.602478"/>
     <use style="fill:#1f77b4;stroke:#1f77b4;" x="152.325776" xlink:href="#mc3f055c708" y="115.047014"/>
     <use style="fill:#1f77b4;stroke:#1f77b4;" x="154.125409" xlink:href="#mc3f055c708" y="121.764334"/>
     <use style="fill:#1f77b4;stroke:#1f77b4;" x="155.925041" xlink:href="#mc3f055c708" y="125.069957"/>
     <use style="fill:#1f77b4;stroke:#1f77b4;" x="157.724674" xlink:href="#mc3f055c708" y="127.623885"/>
     <use style="fill:#1f77b4;stroke:#1f77b4;" x="159.524307" xlink:href="#mc3f055c708" y="133.318206"/>
     <use style="fill:#1f77b4;stroke:#1f77b4;" x="161.323939" xlink:href="#mc3f055c708" y="138.831998"/>
     <use style="fill:#1f77b4;stroke:#1f77b4;" x="163.123572" xlink:href="#mc3f055c708" y="141.758203"/>
     <use style="fill:#1f77b4;stroke:#1f77b4;" x="164.923205" xlink:href="#mc3f055c708" y="144.215237"/>
     <use style="fill:#1f77b4;stroke:#1f77b4;" x="166.722837" xlink:href="#mc3f055c708" y="146.34079"/>
     <use style="fill:#1f77b4;stroke:#1f77b4;" x="168.52247" xlink:href="#mc3f055c708" y="143.99289"/>
     <use style="fill:#1f77b4;stroke:#1f77b4;" x="170.322103" xlink:href="#mc3f055c708" y="142.534377"/>
     <use style="fill:#1f77b4;stroke:#1f77b4;" x="172.121736" xlink:href="#mc3f055c708" y="146.232677"/>
     <use style="fill:#1f77b4;stroke:#1f77b4;" x="173.921368" xlink:href="#mc3f055c708" y="146.566197"/>
     <use style="fill:#1f77b4;stroke:#1f77b4;" x="175.721001" xlink:href="#mc3f055c708" y="149.716789"/>
     <use style="fill:#1f77b4;stroke:#1f77b4;" x="177.520634" xlink:href="#mc3f055c708" y="148.85596"/>
     <use style="fill:#1f77b4;stroke:#1f77b4;" x="179.320266" xlink:href="#mc3f055c708" y="153.118287"/>
     <use style="fill:#1f77b4;stroke:#1f77b4;" x="181.119899" xlink:href="#mc3f055c708" y="155.533503"/>
     <use style="fill:#1f77b4;stroke:#1f77b4;" x="182.919532" xlink:href="#mc3f055c708" y="156.493265"/>
     <use style="fill:#1f77b4;stroke:#1f77b4;" x="184.719164" xlink:href="#mc3f055c708" y="159.9478"/>
     <use style="fill:#1f77b4;stroke:#1f77b4;" x="186.518797" xlink:href="#mc3f055c708" y="162.139649"/>
     <use style="fill:#1f77b4;stroke:#1f77b4;" x="188.31843" xlink:href="#mc3f055c708" y="161.631719"/>
     <use style="fill:#1f77b4;stroke:#1f77b4;" x="190.118062" xlink:href="#mc3f055c708" y="163.333998"/>
     <use style="fill:#1f77b4;stroke:#1f77b4;" x="191.917695" xlink:href="#mc3f055c708" y="163.816429"/>
     <use style="fill:#1f77b4;stroke:#1f77b4;" x="193.717328" xlink:href="#mc3f055c708" y="163.878646"/>
     <use style="fill:#1f77b4;stroke:#1f77b4;" x="195.516961" xlink:href="#mc3f055c708" y="163.602242"/>
     <use style="fill:#1f77b4;stroke:#1f77b4;" x="197.316593" xlink:href="#mc3f055c708" y="164.63748"/>
     <use style="fill:#1f77b4;stroke:#1f77b4;" x="199.116226" xlink:href="#mc3f055c708" y="164.798631"/>
     <use style="fill:#1f77b4;stroke:#1f77b4;" x="200.915859" xlink:href="#mc3f055c708" y="165.013838"/>
     <use style="fill:#1f77b4;stroke:#1f77b4;" x="202.715491" xlink:href="#mc3f055c708" y="164.717036"/>
     <use style="fill:#1f77b4;stroke:#1f77b4;" x="204.515124" xlink:href="#mc3f055c708" y="165.429973"/>
     <use style="fill:#1f77b4;stroke:#1f77b4;" x="206.314757" xlink:href="#mc3f055c708" y="165.31166"/>
     <use style="fill:#1f77b4;stroke:#1f77b4;" x="208.114389" xlink:href="#mc3f055c708" y="165.82061"/>
     <use style="fill:#1f77b4;stroke:#1f77b4;" x="209.914022" xlink:href="#mc3f055c708" y="166.144951"/>
     <use style="fill:#1f77b4;stroke:#1f77b4;" x="211.713655" xlink:href="#mc3f055c708" y="166.245925"/>
     <use style="fill:#1f77b4;stroke:#1f77b4;" x="213.513287" xlink:href="#mc3f055c708" y="166.522328"/>
     <use style="fill:#1f77b4;stroke:#1f77b4;" x="215.31292" xlink:href="#mc3f055c708" y="166.400955"/>
     <use style="fill:#1f77b4;stroke:#1f77b4;" x="217.112553" xlink:href="#mc3f055c708" y="166.030717"/>
     <use style="fill:#1f77b4;stroke:#1f77b4;" x="218.912185" xlink:href="#mc3f055c708" y="165.98584"/>
     <use style="fill:#1f77b4;stroke:#1f77b4;" x="220.711818" xlink:href="#mc3f055c708" y="166.415234"/>
    </g>
   </g>
   <g id="line2d_11">
    <path clip-path="url(#p6bd7556d57)" d="M 42.548182 163.828913 
L 44.347815 163.253382 
L 46.147447 162.580984 
L 47.94708 161.799446 
L 49.746713 160.895744 
L 51.546345 159.856214 
L 53.345978 158.666706 
L 55.145611 157.31277 
L 56.945243 155.779887 
L 58.744876 154.053738 
L 60.544509 152.120516 
L 62.344141 149.967273 
L 64.143774 147.582302 
L 65.943407 144.955545 
L 67.743039 142.079019 
L 69.542672 138.947256 
L 71.342305 135.557741 
L 73.141938 131.911332 
L 74.94157 128.012656 
L 76.741203 123.870462 
L 78.540836 119.497917 
L 80.340468 114.91283 
L 82.140101 110.137786 
L 83.939734 105.200186 
L 85.739366 100.132178 
L 87.538999 94.970465 
L 89.338632 89.755996 
L 91.138264 84.533529 
L 92.937897 79.351077 
L 94.73753 74.259234 
L 96.537163 69.310404 
L 98.336795 64.557936 
L 100.136428 60.05519 
L 101.936061 55.854556 
L 103.735693 52.006451 
L 105.535326 48.558318 
L 107.334959 45.553654 
L 109.134591 43.0311 
L 110.934224 41.023614 
L 112.733857 39.557755 
L 114.533489 38.653099 
L 116.333122 38.321804 
L 118.132755 38.568335 
L 119.932388 39.389368 
L 121.73202 40.773863 
L 123.531653 42.703309 
L 125.331286 45.152141 
L 127.130918 48.088297 
L 128.930551 51.473921 
L 130.730184 55.266175 
L 132.529816 59.418136 
L 134.329449 63.879761 
L 136.129082 68.598886 
L 137.928714 73.522231 
L 139.728347 78.596387 
L 141.52798 83.768755 
L 143.327612 88.988423 
L 145.127245 94.206955 
L 146.926878 99.379077 
L 148.726511 104.463251 
L 150.526143 109.422128 
L 152.325776 114.222877 
L 154.125409 118.837391 
L 155.925041 123.242378 
L 157.724674 127.419334 
L 159.524307 131.354424 
L 161.323939 135.038265 
L 163.123572 138.465647 
L 164.923205 141.635181 
L 166.722837 144.548914 
L 168.52247 147.211907 
L 170.322103 149.6318 
L 172.121736 151.818375 
L 173.921368 153.783123 
L 175.721001 155.538834 
L 177.520634 157.099212 
L 179.320266 158.478519 
L 181.119899 159.691265 
L 182.919532 160.751924 
L 184.719164 161.674705 
L 186.518797 162.473351 
L 188.31843 163.160989 
L 190.118062 163.750008 
L 191.917695 164.251977 
L 193.717328 164.67759 
L 195.516961 165.03664 
L 197.316593 165.338017 
L 199.116226 165.589719 
L 200.915859 165.798888 
L 202.715491 165.97185 
L 204.515124 166.114166 
L 206.314757 166.23069 
L 208.114389 166.325629 
L 209.914022 166.402603 
L 211.713655 166.464707 
L 213.513287 166.514572 
L 215.31292 166.554414 
L 217.112553 166.586095 
L 218.912185 166.611166 
L 220.711818 166.630909 
" style="fill:none;stroke:#ff0000;stroke-linecap:square;"/>
   </g>
   <g id="patch_3">
    <path d="M 33.64 173.32 
L 33.64 26.16 
" style="fill:none;stroke:#000000;stroke-linecap:square;stroke-linejoin:miter;stroke-width:0.8;"/>
   </g>
   <g id="patch_4">
    <path d="M 229.62 173.32 
L 229.62 26.16 
" style="fill:none;stroke:#000000;stroke-linecap:square;stroke-linejoin:miter;stroke-width:0.8;"/>
   </g>
   <g id="patch_5">
    <path d="M 33.64 173.32 
L 229.62 173.32 
" style="fill:none;stroke:#000000;stroke-linecap:square;stroke-linejoin:miter;stroke-width:0.8;"/>
   </g>
   <g id="patch_6">
    <path d="M 33.64 26.16 
L 229.62 26.16 
" style="fill:none;stroke:#000000;stroke-linecap:square;stroke-linejoin:miter;stroke-width:0.8;"/>
   </g>
   <g id="text_11">
    <!-- Energía total -->
    <defs>
     <path d="M 9.8125 72.90625 
L 55.90625 72.90625 
L 55.90625 64.59375 
L 19.671875 64.59375 
L 19.671875 43.015625 
L 54.390625 43.015625 
L 54.390625 34.71875 
L 19.671875 34.71875 
L 19.671875 8.296875 
L 56.78125 8.296875 
L 56.78125 0 
L 9.8125 0 
z
" id="DejaVuSans-45"/>
     <path d="M 54.890625 33.015625 
L 54.890625 0 
L 45.90625 0 
L 45.90625 32.71875 
Q 45.90625 40.484375 42.875 44.328125 
Q 39.84375 48.1875 33.796875 48.1875 
Q 26.515625 48.1875 22.3125 43.546875 
Q 18.109375 38.921875 18.109375 30.90625 
L 18.109375 0 
L 9.078125 0 
L 9.078125 54.6875 
L 18.109375 54.6875 
L 18.109375 46.1875 
Q 21.34375 51.125 25.703125 53.5625 
Q 30.078125 56 35.796875 56 
Q 45.21875 56 50.046875 50.171875 
Q 54.890625 44.34375 54.890625 33.015625 
z
" id="DejaVuSans-6e"/>
     <path d="M 56.203125 29.59375 
L 56.203125 25.203125 
L 14.890625 25.203125 
Q 15.484375 15.921875 20.484375 11.0625 
Q 25.484375 6.203125 34.421875 6.203125 
Q 39.59375 6.203125 44.453125 7.46875 
Q 49.3125 8.734375 54.109375 11.28125 
L 54.109375 2.78125 
Q 49.265625 0.734375 44.1875 -0.34375 
Q 39.109375 -1.421875 33.890625 -1.421875 
Q 20.796875 -1.421875 13.15625 6.1875 
Q 5.515625 13.8125 5.515625 26.8125 
Q 5.515625 40.234375 12.765625 48.109375 
Q 20.015625 56 32.328125 56 
Q 43.359375 56 49.78125 48.890625 
Q 56.203125 41.796875 56.203125 29.59375 
z
M 47.21875 32.234375 
Q 47.125 39.59375 43.09375 43.984375 
Q 39.0625 48.390625 32.421875 48.390625 
Q 24.90625 48.390625 20.390625 44.140625 
Q 15.875 39.890625 15.1875 32.171875 
z
" id="DejaVuSans-65"/>
     <path d="M 41.109375 46.296875 
Q 39.59375 47.171875 37.8125 47.578125 
Q 36.03125 48 33.890625 48 
Q 26.265625 48 22.1875 43.046875 
Q 18.109375 38.09375 18.109375 28.8125 
L 18.109375 0 
L 9.078125 0 
L 9.078125 54.6875 
L 18.109375 54.6875 
L 18.109375 46.1875 
Q 20.953125 51.171875 25.484375 53.578125 
Q 30.03125 56 36.53125 56 
Q 37.453125 56 38.578125 55.875 
Q 39.703125 55.765625 41.0625 55.515625 
z
" id="DejaVuSans-72"/>
     <path d="M 45.40625 27.984375 
Q 45.40625 37.75 41.375 43.109375 
Q 37.359375 48.484375 30.078125 48.484375 
Q 22.859375 48.484375 18.828125 43.109375 
Q 14.796875 37.75 14.796875 27.984375 
Q 14.796875 18.265625 18.828125 12.890625 
Q 22.859375 7.515625 30.078125 7.515625 
Q 37.359375 7.515625 41.375 12.890625 
Q 45.40625 18.265625 45.40625 27.984375 
z
M 54.390625 6.78125 
Q 54.390625 -7.171875 48.1875 -13.984375 
Q 42 -20.796875 29.203125 -20.796875 
Q 24.46875 -20.796875 20.265625 -20.09375 
Q 16.0625 -19.390625 12.109375 -17.921875 
L 12.109375 -9.1875 
Q 16.0625 -11.328125 19.921875 -12.34375 
Q 23.78125 -13.375 27.78125 -13.375 
Q 36.625 -13.375 41.015625 -8.765625 
Q 45.40625 -4.15625 45.40625 5.171875 
L 45.40625 9.625 
Q 42.625 4.78125 38.28125 2.390625 
Q 33.9375 0 27.875 0 
Q 17.828125 0 11.671875 7.65625 
Q 5.515625 15.328125 5.515625 27.984375 
Q 5.515625 40.671875 11.671875 48.328125 
Q 17.828125 56 27.875 56 
Q 33.9375 56 38.28125 53.609375 
Q 42.625 51.21875 45.40625 46.390625 
L 45.40625 54.6875 
L 54.390625 54.6875 
z
" id="DejaVuSans-67"/>
     <path d="M 20.65625 79.984375 
L 30.375 79.984375 
L 14.46875 61.625 
L 6.984375 61.625 
z
M 9.421875 54.6875 
L 18.40625 54.6875 
L 18.40625 0 
L 9.421875 0 
z
M 13.921875 56 
z
" id="DejaVuSans-ed"/>
     <path d="M 34.28125 27.484375 
Q 23.390625 27.484375 19.1875 25 
Q 14.984375 22.515625 14.984375 16.5 
Q 14.984375 11.71875 18.140625 8.90625 
Q 21.296875 6.109375 26.703125 6.109375 
Q 34.1875 6.109375 38.703125 11.40625 
Q 43.21875 16.703125 43.21875 25.484375 
L 43.21875 27.484375 
z
M 52.203125 31.203125 
L 52.203125 0 
L 43.21875 0 
L 43.21875 8.296875 
Q 40.140625 3.328125 35.546875 0.953125 
Q 30.953125 -1.421875 24.3125 -1.421875 
Q 15.921875 -1.421875 10.953125 3.296875 
Q 6 8.015625 6 15.921875 
Q 6 25.140625 12.171875 29.828125 
Q 18.359375 34.515625 30.609375 34.515625 
L 43.21875 34.515625 
L 43.21875 35.40625 
Q 43.21875 41.609375 39.140625 45 
Q 35.0625 48.390625 27.6875 48.390625 
Q 23 48.390625 18.546875 47.265625 
Q 14.109375 46.140625 10.015625 43.890625 
L 10.015625 52.203125 
Q 14.9375 54.109375 19.578125 55.046875 
Q 24.21875 56 28.609375 56 
Q 40.484375 56 46.34375 49.84375 
Q 52.203125 43.703125 52.203125 31.203125 
z
" id="DejaVuSans-61"/>
     <path id="DejaVuSans-20"/>
     <path d="M 18.3125 70.21875 
L 18.3125 54.6875 
L 36.8125 54.6875 
L 36.8125 47.703125 
L 18.3125 47.703125 
L 18.3125 18.015625 
Q 18.3125 11.328125 20.140625 9.421875 
Q 21.96875 7.515625 27.59375 7.515625 
L 36.8125 7.515625 
L 36.8125 0 
L 27.59375 0 
Q 17.1875 0 13.234375 3.875 
Q 9.28125 7.765625 9.28125 18.015625 
L 9.28125 47.703125 
L 2.6875 47.703125 
L 2.6875 54.6875 
L 9.28125 54.6875 
L 9.28125 70.21875 
z
" id="DejaVuSans-74"/>
     <path d="M 30.609375 48.390625 
Q 23.390625 48.390625 19.1875 42.75 
Q 14.984375 37.109375 14.984375 27.296875 
Q 14.984375 17.484375 19.15625 11.84375 
Q 23.34375 6.203125 30.609375 6.203125 
Q 37.796875 6.203125 41.984375 11.859375 
Q 46.1875 17.53125 46.1875 27.296875 
Q 46.1875 37.015625 41.984375 42.703125 
Q 37.796875 48.390625 30.609375 48.390625 
z
M 30.609375 56 
Q 42.328125 56 49.015625 48.375 
Q 55.71875 40.765625 55.71875 27.296875 
Q 55.71875 13.875 49.015625 6.21875 
Q 42.328125 -1.421875 30.609375 -1.421875 
Q 18.84375 -1.421875 12.171875 6.21875 
Q 5.515625 13.875 5.515625 27.296875 
Q 5.515625 40.765625 12.171875 48.375 
Q 18.84375 56 30.609375 56 
z
" id="DejaVuSans-6f"/>
     <path d="M 9.421875 75.984375 
L 18.40625 75.984375 
L 18.40625 0 
L 9.421875 0 
z
" id="DejaVuSans-6c"/>
    </defs>
    <g transform="translate(93.099687 20.16)scale(0.12 -0.12)">
     <use xlink:href="#DejaVuSans-45"/>
     <use x="63.183594" xlink:href="#DejaVuSans-6e"/>
     <use x="126.5625" xlink:href="#DejaVuSans-65"/>
     <use x="188.085938" xlink:href="#DejaVuSans-72"/>
     <use x="229.183594" xlink:href="#DejaVuSans-67"/>
     <use x="292.660156" xlink:href="#DejaVuSans-ed"/>
     <use x="320.443359" xlink:href="#DejaVuSans-61"/>
     <use x="381.722656" xlink:href="#DejaVuSans-20"/>
     <use x="413.509766" xlink:href="#DejaVuSans-74"/>
     <use x="452.71875" xlink:href="#DejaVuSans-6f"/>
     <use x="513.900391" xlink:href="#DejaVuSans-74"/>
     <use x="553.109375" xlink:href="#DejaVuSans-61"/>
     <use x="614.388672" xlink:href="#DejaVuSans-6c"/>
    </g>
   </g>
  </g>
  <g id="axes_2">
   <g id="patch_7">
    <path d="M 272.17 173.32 
L 468.15 173.32 
L 468.15 26.16 
L 272.17 26.16 
z
" style="fill:#ffffff;"/>
   </g>
   <g id="matplotlib.axis_3">
    <g id="xtick_4">
     <g id="line2d_12">
      <g>
       <use style="stroke:#000000;stroke-width:0.8;" x="305.705725" xlink:href="#m4fb7a82cbe" y="173.32"/>
      </g>
     </g>
     <g id="text_12">
      <!-- 26.0 -->
      <g transform="translate(294.572913 187.918437)scale(0.1 -0.1)">
       <use xlink:href="#DejaVuSans-32"/>
       <use x="63.623047" xlink:href="#DejaVuSans-36"/>
       <use x="127.246094" xlink:href="#DejaVuSans-2e"/>
       <use x="159.033203" xlink:href="#DejaVuSans-30"/>
      </g>
     </g>
    </g>
    <g id="xtick_5">
     <g id="line2d_13">
      <g>
       <use style="stroke:#000000;stroke-width:0.8;" x="348.109894" xlink:href="#m4fb7a82cbe" y="173.32"/>
      </g>
     </g>
     <g id="text_13">
      <!-- 26.5 -->
      <defs>
       <path d="M 10.796875 72.90625 
L 49.515625 72.90625 
L 49.515625 64.59375 
L 19.828125 64.59375 
L 19.828125 46.734375 
Q 21.96875 47.46875 24.109375 47.828125 
Q 26.265625 48.1875 28.421875 48.1875 
Q 40.625 48.1875 47.75 41.5 
Q 54.890625 34.8125 54.890625 23.390625 
Q 54.890625 11.625 47.5625 5.09375 
Q 40.234375 -1.421875 26.90625 -1.421875 
Q 22.3125 -1.421875 17.546875 -0.640625 
Q 12.796875 0.140625 7.71875 1.703125 
L 7.71875 11.625 
Q 12.109375 9.234375 16.796875 8.0625 
Q 21.484375 6.890625 26.703125 6.890625 
Q 35.15625 6.890625 40.078125 11.328125 
Q 45.015625 15.765625 45.015625 23.390625 
Q 45.015625 31 40.078125 35.4375 
Q 35.15625 39.890625 26.703125 39.890625 
Q 22.75 39.890625 18.8125 39.015625 
Q 14.890625 38.140625 10.796875 36.28125 
z
" id="DejaVuSans-35"/>
      </defs>
      <g transform="translate(336.977081 187.918437)scale(0.1 -0.1)">
       <use xlink:href="#DejaVuSans-32"/>
       <use x="63.623047" xlink:href="#DejaVuSans-36"/>
       <use x="127.246094" xlink:href="#DejaVuSans-2e"/>
       <use x="159.033203" xlink:href="#DejaVuSans-35"/>
      </g>
     </g>
    </g>
    <g id="xtick_6">
     <g id="line2d_14">
      <g>
       <use style="stroke:#000000;stroke-width:0.8;" x="390.514062" xlink:href="#m4fb7a82cbe" y="173.32"/>
      </g>
     </g>
     <g id="text_14">
      <!-- 27.0 -->
      <defs>
       <path d="M 8.203125 72.90625 
L 55.078125 72.90625 
L 55.078125 68.703125 
L 28.609375 0 
L 18.3125 0 
L 43.21875 64.59375 
L 8.203125 64.59375 
z
" id="DejaVuSans-37"/>
      </defs>
      <g transform="translate(379.38125 187.918437)scale(0.1 -0.1)">
       <use xlink:href="#DejaVuSans-32"/>
       <use x="63.623047" xlink:href="#DejaVuSans-37"/>
       <use x="127.246094" xlink:href="#DejaVuSans-2e"/>
       <use x="159.033203" xlink:href="#DejaVuSans-30"/>
      </g>
     </g>
    </g>
    <g id="xtick_7">
     <g id="line2d_15">
      <g>
       <use style="stroke:#000000;stroke-width:0.8;" x="432.918231" xlink:href="#m4fb7a82cbe" y="173.32"/>
      </g>
     </g>
     <g id="text_15">
      <!-- 27.5 -->
      <g transform="translate(421.785418 187.918437)scale(0.1 -0.1)">
       <use xlink:href="#DejaVuSans-32"/>
       <use x="63.623047" xlink:href="#DejaVuSans-37"/>
       <use x="127.246094" xlink:href="#DejaVuSans-2e"/>
       <use x="159.033203" xlink:href="#DejaVuSans-35"/>
      </g>
     </g>
    </g>
    <g id="text_16">
     <!-- $E/\epsilon$ -->
     <g transform="translate(362.61 201.596562)scale(0.1 -0.1)">
      <use transform="translate(0 0.09375)" xlink:href="#DejaVuSans-Oblique-45"/>
      <use transform="translate(63.183594 0.09375)" xlink:href="#DejaVuSans-2f"/>
      <use transform="translate(96.875 0.09375)" xlink:href="#DejaVuSans-Oblique-3b5"/>
     </g>
    </g>
   </g>
   <g id="matplotlib.axis_4">
    <g id="ytick_7">
     <g id="line2d_16">
      <g>
       <use style="stroke:#000000;stroke-width:0.8;" x="272.17" xlink:href="#m71dacbfd2d" y="166.630909"/>
      </g>
     </g>
     <g id="text_17">
      <!-- 0.0 -->
      <g transform="translate(249.266875 170.430128)scale(0.1 -0.1)">
       <use xlink:href="#DejaVuSans-30"/>
       <use x="63.623047" xlink:href="#DejaVuSans-2e"/>
       <use x="95.410156" xlink:href="#DejaVuSans-30"/>
      </g>
     </g>
    </g>
    <g id="ytick_8">
     <g id="line2d_17">
      <g>
       <use style="stroke:#000000;stroke-width:0.8;" x="272.17" xlink:href="#m71dacbfd2d" y="125.331774"/>
      </g>
     </g>
     <g id="text_18">
      <!-- 0.5 -->
      <g transform="translate(249.266875 129.130993)scale(0.1 -0.1)">
       <use xlink:href="#DejaVuSans-30"/>
       <use x="63.623047" xlink:href="#DejaVuSans-2e"/>
       <use x="95.410156" xlink:href="#DejaVuSans-35"/>
      </g>
     </g>
    </g>
    <g id="ytick_9">
     <g id="line2d_18">
      <g>
       <use style="stroke:#000000;stroke-width:0.8;" x="272.17" xlink:href="#m71dacbfd2d" y="84.032639"/>
      </g>
     </g>
     <g id="text_19">
      <!-- 1.0 -->
      <g transform="translate(249.266875 87.831857)scale(0.1 -0.1)">
       <use xlink:href="#DejaVuSans-31"/>
       <use x="63.623047" xlink:href="#DejaVuSans-2e"/>
       <use x="95.410156" xlink:href="#DejaVuSans-30"/>
      </g>
     </g>
    </g>
    <g id="ytick_10">
     <g id="line2d_19">
      <g>
       <use style="stroke:#000000;stroke-width:0.8;" x="272.17" xlink:href="#m71dacbfd2d" y="42.733503"/>
      </g>
     </g>
     <g id="text_20">
      <!-- 1.5 -->
      <g transform="translate(249.266875 46.532722)scale(0.1 -0.1)">
       <use xlink:href="#DejaVuSans-31"/>
       <use x="63.623047" xlink:href="#DejaVuSans-2e"/>
       <use x="95.410156" xlink:href="#DejaVuSans-35"/>
      </g>
     </g>
    </g>
   </g>
   <g id="line2d_20">
    <defs>
     <path d="M 0 3 
C 0.795609 3 1.55874 2.683901 2.12132 2.12132 
C 2.683901 1.55874 3 0.795609 3 0 
C 3 -0.795609 2.683901 -1.55874 2.12132 -2.12132 
C 1.55874 -2.683901 0.795609 -3 0 -3 
C -0.795609 -3 -1.55874 -2.683901 -2.12132 -2.12132 
C -2.683901 -1.55874 -3 -0.795609 -3 0 
C -3 0.795609 -2.683901 1.55874 -2.12132 2.12132 
C -1.55874 2.683901 -0.795609 3 0 3 
z
" id="mcfa5107c77" style="stroke:#ff7f0e;"/>
    </defs>
    <g clip-path="url(#p1fb76ef85c)">
     <use style="fill:#ff7f0e;stroke:#ff7f0e;" x="281.078182" xlink:href="#mcfa5107c77" y="166.62594"/>
     <use style="fill:#ff7f0e;stroke:#ff7f0e;" x="282.877815" xlink:href="#mcfa5107c77" y="166.617658"/>
     <use style="fill:#ff7f0e;stroke:#ff7f0e;" x="284.677447" xlink:href="#mcfa5107c77" y="166.611861"/>
     <use style="fill:#ff7f0e;stroke:#ff7f0e;" x="286.47708" xlink:href="#mcfa5107c77" y="166.597782"/>
     <use style="fill:#ff7f0e;stroke:#ff7f0e;" x="288.276713" xlink:href="#mcfa5107c77" y="166.551403"/>
     <use style="fill:#ff7f0e;stroke:#ff7f0e;" x="290.076345" xlink:href="#mcfa5107c77" y="166.522417"/>
     <use style="fill:#ff7f0e;stroke:#ff7f0e;" x="291.875978" xlink:href="#mcfa5107c77" y="166.417237"/>
     <use style="fill:#ff7f0e;stroke:#ff7f0e;" x="293.675611" xlink:href="#mcfa5107c77" y="166.235864"/>
     <use style="fill:#ff7f0e;stroke:#ff7f0e;" x="295.475243" xlink:href="#mcfa5107c77" y="166.015567"/>
     <use style="fill:#ff7f0e;stroke:#ff7f0e;" x="297.274876" xlink:href="#mcfa5107c77" y="165.700028"/>
     <use style="fill:#ff7f0e;stroke:#ff7f0e;" x="299.074509" xlink:href="#mcfa5107c77" y="165.329001"/>
     <use style="fill:#ff7f0e;stroke:#ff7f0e;" x="300.874141" xlink:href="#mcfa5107c77" y="164.755896"/>
     <use style="fill:#ff7f0e;stroke:#ff7f0e;" x="302.673774" xlink:href="#mcfa5107c77" y="163.985684"/>
     <use style="fill:#ff7f0e;stroke:#ff7f0e;" x="304.473407" xlink:href="#mcfa5107c77" y="162.844444"/>
     <use style="fill:#ff7f0e;stroke:#ff7f0e;" x="306.273039" xlink:href="#mcfa5107c77" y="161.694094"/>
     <use style="fill:#ff7f0e;stroke:#ff7f0e;" x="308.072672" xlink:href="#mcfa5107c77" y="160.2075"/>
     <use style="fill:#ff7f0e;stroke:#ff7f0e;" x="309.872305" xlink:href="#mcfa5107c77" y="158.545331"/>
     <use style="fill:#ff7f0e;stroke:#ff7f0e;" x="311.671938" xlink:href="#mcfa5107c77" y="156.40944"/>
     <use style="fill:#ff7f0e;stroke:#ff7f0e;" x="313.47157" xlink:href="#mcfa5107c77" y="153.193595"/>
     <use style="fill:#ff7f0e;stroke:#ff7f0e;" x="315.271203" xlink:href="#mcfa5107c77" y="151.258125"/>
     <use style="fill:#ff7f0e;stroke:#ff7f0e;" x="317.070836" xlink:href="#mcfa5107c77" y="148.423245"/>
     <use style="fill:#ff7f0e;stroke:#ff7f0e;" x="318.870468" xlink:href="#mcfa5107c77" y="144.769289"/>
     <use style="fill:#ff7f0e;stroke:#ff7f0e;" x="320.670101" xlink:href="#mcfa5107c77" y="139.815082"/>
     <use style="fill:#ff7f0e;stroke:#ff7f0e;" x="322.469734" xlink:href="#mcfa5107c77" y="136.797173"/>
     <use style="fill:#ff7f0e;stroke:#ff7f0e;" x="324.269366" xlink:href="#mcfa5107c77" y="132.155191"/>
     <use style="fill:#ff7f0e;stroke:#ff7f0e;" x="326.068999" xlink:href="#mcfa5107c77" y="127.742618"/>
     <use style="fill:#ff7f0e;stroke:#ff7f0e;" x="327.868632" xlink:href="#mcfa5107c77" y="122.390881"/>
     <use style="fill:#ff7f0e;stroke:#ff7f0e;" x="329.668264" xlink:href="#mcfa5107c77" y="113.777749"/>
     <use style="fill:#ff7f0e;stroke:#ff7f0e;" x="331.467897" xlink:href="#mcfa5107c77" y="109.917575"/>
     <use style="fill:#ff7f0e;stroke:#ff7f0e;" x="333.26753" xlink:href="#mcfa5107c77" y="103.060197"/>
     <use style="fill:#ff7f0e;stroke:#ff7f0e;" x="335.067163" xlink:href="#mcfa5107c77" y="95.898874"/>
     <use style="fill:#ff7f0e;stroke:#ff7f0e;" x="336.866795" xlink:href="#mcfa5107c77" y="85.146538"/>
     <use style="fill:#ff7f0e;stroke:#ff7f0e;" x="338.666428" xlink:href="#mcfa5107c77" y="82.338989"/>
     <use style="fill:#ff7f0e;stroke:#ff7f0e;" x="340.466061" xlink:href="#mcfa5107c77" y="75.138741"/>
     <use style="fill:#ff7f0e;stroke:#ff7f0e;" x="342.265693" xlink:href="#mcfa5107c77" y="68.030423"/>
     <use style="fill:#ff7f0e;stroke:#ff7f0e;" x="344.065326" xlink:href="#mcfa5107c77" y="62.494001"/>
     <use style="fill:#ff7f0e;stroke:#ff7f0e;" x="345.864959" xlink:href="#mcfa5107c77" y="51.009549"/>
     <use style="fill:#ff7f0e;stroke:#ff7f0e;" x="347.664591" xlink:href="#mcfa5107c77" y="50.227741"/>
     <use style="fill:#ff7f0e;stroke:#ff7f0e;" x="349.464224" xlink:href="#mcfa5107c77" y="46.380818"/>
     <use style="fill:#ff7f0e;stroke:#ff7f0e;" x="351.263857" xlink:href="#mcfa5107c77" y="42.721065"/>
     <use style="fill:#ff7f0e;stroke:#ff7f0e;" x="353.063489" xlink:href="#mcfa5107c77" y="32.849091"/>
     <use style="fill:#ff7f0e;stroke:#ff7f0e;" x="354.863122" xlink:href="#mcfa5107c77" y="37.481134"/>
     <use style="fill:#ff7f0e;stroke:#ff7f0e;" x="356.662755" xlink:href="#mcfa5107c77" y="36.115456"/>
     <use style="fill:#ff7f0e;stroke:#ff7f0e;" x="358.462388" xlink:href="#mcfa5107c77" y="35.724552"/>
     <use style="fill:#ff7f0e;stroke:#ff7f0e;" x="360.26202" xlink:href="#mcfa5107c77" y="36.79374"/>
     <use style="fill:#ff7f0e;stroke:#ff7f0e;" x="362.061653" xlink:href="#mcfa5107c77" y="32.970006"/>
     <use style="fill:#ff7f0e;stroke:#ff7f0e;" x="363.861286" xlink:href="#mcfa5107c77" y="40.763234"/>
     <use style="fill:#ff7f0e;stroke:#ff7f0e;" x="365.660918" xlink:href="#mcfa5107c77" y="43.685902"/>
     <use style="fill:#ff7f0e;stroke:#ff7f0e;" x="367.460551" xlink:href="#mcfa5107c77" y="48.409045"/>
     <use style="fill:#ff7f0e;stroke:#ff7f0e;" x="369.260184" xlink:href="#mcfa5107c77" y="52.246858"/>
     <use style="fill:#ff7f0e;stroke:#ff7f0e;" x="371.059816" xlink:href="#mcfa5107c77" y="53.089123"/>
     <use style="fill:#ff7f0e;stroke:#ff7f0e;" x="372.859449" xlink:href="#mcfa5107c77" y="64.041052"/>
     <use style="fill:#ff7f0e;stroke:#ff7f0e;" x="374.659082" xlink:href="#mcfa5107c77" y="70.307106"/>
     <use style="fill:#ff7f0e;stroke:#ff7f0e;" x="376.458714" xlink:href="#mcfa5107c77" y="76.357831"/>
     <use style="fill:#ff7f0e;stroke:#ff7f0e;" x="378.258347" xlink:href="#mcfa5107c77" y="79.131425"/>
     <use style="fill:#ff7f0e;stroke:#ff7f0e;" x="380.05798" xlink:href="#mcfa5107c77" y="90.108199"/>
     <use style="fill:#ff7f0e;stroke:#ff7f0e;" x="381.857612" xlink:href="#mcfa5107c77" y="96.698902"/>
     <use style="fill:#ff7f0e;stroke:#ff7f0e;" x="383.657245" xlink:href="#mcfa5107c77" y="103.280494"/>
     <use style="fill:#ff7f0e;stroke:#ff7f0e;" x="385.456878" xlink:href="#mcfa5107c77" y="109.483606"/>
     <use style="fill:#ff7f0e;stroke:#ff7f0e;" x="387.256511" xlink:href="#mcfa5107c77" y="112.906498"/>
     <use style="fill:#ff7f0e;stroke:#ff7f0e;" x="389.056143" xlink:href="#mcfa5107c77" y="121.532881"/>
     <use style="fill:#ff7f0e;stroke:#ff7f0e;" x="390.855776" xlink:href="#mcfa5107c77" y="126.414208"/>
     <use style="fill:#ff7f0e;stroke:#ff7f0e;" x="392.655409" xlink:href="#mcfa5107c77" y="130.585779"/>
     <use style="fill:#ff7f0e;stroke:#ff7f0e;" x="394.455041" xlink:href="#mcfa5107c77" y="133.478632"/>
     <use style="fill:#ff7f0e;stroke:#ff7f0e;" x="396.254674" xlink:href="#mcfa5107c77" y="138.606759"/>
     <use style="fill:#ff7f0e;stroke:#ff7f0e;" x="398.054307" xlink:href="#mcfa5107c77" y="142.363409"/>
     <use style="fill:#ff7f0e;stroke:#ff7f0e;" x="399.853939" xlink:href="#mcfa5107c77" y="145.363926"/>
     <use style="fill:#ff7f0e;stroke:#ff7f0e;" x="401.653572" xlink:href="#mcfa5107c77" y="147.831092"/>
     <use style="fill:#ff7f0e;stroke:#ff7f0e;" x="403.453205" xlink:href="#mcfa5107c77" y="149.759108"/>
     <use style="fill:#ff7f0e;stroke:#ff7f0e;" x="405.252837" xlink:href="#mcfa5107c77" y="153.007253"/>
     <use style="fill:#ff7f0e;stroke:#ff7f0e;" x="407.05247" xlink:href="#mcfa5107c77" y="154.942723"/>
     <use style="fill:#ff7f0e;stroke:#ff7f0e;" x="408.852103" xlink:href="#mcfa5107c77" y="156.518761"/>
     <use style="fill:#ff7f0e;stroke:#ff7f0e;" x="410.651736" xlink:href="#mcfa5107c77" y="157.695613"/>
     <use style="fill:#ff7f0e;stroke:#ff7f0e;" x="412.451368" xlink:href="#mcfa5107c77" y="159.273307"/>
     <use style="fill:#ff7f0e;stroke:#ff7f0e;" x="414.251001" xlink:href="#mcfa5107c77" y="160.479145"/>
     <use style="fill:#ff7f0e;stroke:#ff7f0e;" x="416.050634" xlink:href="#mcfa5107c77" y="161.402572"/>
     <use style="fill:#ff7f0e;stroke:#ff7f0e;" x="417.850266" xlink:href="#mcfa5107c77" y="162.386457"/>
     <use style="fill:#ff7f0e;stroke:#ff7f0e;" x="419.649899" xlink:href="#mcfa5107c77" y="162.973641"/>
     <use style="fill:#ff7f0e;stroke:#ff7f0e;" x="421.449532" xlink:href="#mcfa5107c77" y="163.757104"/>
     <use style="fill:#ff7f0e;stroke:#ff7f0e;" x="423.249164" xlink:href="#mcfa5107c77" y="164.29791"/>
     <use style="fill:#ff7f0e;stroke:#ff7f0e;" x="425.048797" xlink:href="#mcfa5107c77" y="164.857763"/>
     <use style="fill:#ff7f0e;stroke:#ff7f0e;" x="426.84843" xlink:href="#mcfa5107c77" y="165.190694"/>
     <use style="fill:#ff7f0e;stroke:#ff7f0e;" x="428.648062" xlink:href="#mcfa5107c77" y="165.522797"/>
     <use style="fill:#ff7f0e;stroke:#ff7f0e;" x="430.447695" xlink:href="#mcfa5107c77" y="165.811833"/>
     <use style="fill:#ff7f0e;stroke:#ff7f0e;" x="432.247328" xlink:href="#mcfa5107c77" y="166.013911"/>
     <use style="fill:#ff7f0e;stroke:#ff7f0e;" x="434.046961" xlink:href="#mcfa5107c77" y="166.15553"/>
     <use style="fill:#ff7f0e;stroke:#ff7f0e;" x="435.846593" xlink:href="#mcfa5107c77" y="166.286384"/>
     <use style="fill:#ff7f0e;stroke:#ff7f0e;" x="437.646226" xlink:href="#mcfa5107c77" y="166.384938"/>
     <use style="fill:#ff7f0e;stroke:#ff7f0e;" x="439.445859" xlink:href="#mcfa5107c77" y="166.473554"/>
     <use style="fill:#ff7f0e;stroke:#ff7f0e;" x="441.245491" xlink:href="#mcfa5107c77" y="166.478523"/>
     <use style="fill:#ff7f0e;stroke:#ff7f0e;" x="443.045124" xlink:href="#mcfa5107c77" y="166.500884"/>
     <use style="fill:#ff7f0e;stroke:#ff7f0e;" x="444.844757" xlink:href="#mcfa5107c77" y="166.549747"/>
     <use style="fill:#ff7f0e;stroke:#ff7f0e;" x="446.644389" xlink:href="#mcfa5107c77" y="166.583703"/>
     <use style="fill:#ff7f0e;stroke:#ff7f0e;" x="448.444022" xlink:href="#mcfa5107c77" y="166.601094"/>
     <use style="fill:#ff7f0e;stroke:#ff7f0e;" x="450.243655" xlink:href="#mcfa5107c77" y="166.606064"/>
     <use style="fill:#ff7f0e;stroke:#ff7f0e;" x="452.043287" xlink:href="#mcfa5107c77" y="166.623455"/>
     <use style="fill:#ff7f0e;stroke:#ff7f0e;" x="453.84292" xlink:href="#mcfa5107c77" y="166.621799"/>
     <use style="fill:#ff7f0e;stroke:#ff7f0e;" x="455.642553" xlink:href="#mcfa5107c77" y="166.630909"/>
     <use style="fill:#ff7f0e;stroke:#ff7f0e;" x="457.442185" xlink:href="#mcfa5107c77" y="166.627596"/>
     <use style="fill:#ff7f0e;stroke:#ff7f0e;" x="459.241818" xlink:href="#mcfa5107c77" y="166.628425"/>
    </g>
   </g>
   <g id="line2d_21">
    <path clip-path="url(#p1fb76ef85c)" d="M 281.078182 166.46602 
L 282.877815 166.406727 
L 284.677447 166.328308 
L 286.47708 166.225397 
L 288.276713 166.091399 
L 290.076345 165.91829 
L 291.875978 165.696411 
L 293.675611 165.414272 
L 295.475243 165.058352 
L 297.274876 164.612941 
L 299.074509 164.060013 
L 300.874141 163.379158 
L 302.673774 162.547598 
L 304.473407 161.540296 
L 306.273039 160.330189 
L 308.072672 158.888561 
L 309.872305 157.185567 
L 311.671938 155.190933 
L 313.47157 152.87482 
L 315.271203 150.208861 
L 317.070836 147.167358 
L 318.870468 143.728598 
L 320.670101 139.876276 
L 322.469734 135.600956 
L 324.269366 130.901511 
L 326.068999 125.78649 
L 327.868632 120.27531 
L 329.668264 114.399213 
L 331.467897 108.201902 
L 333.26753 101.73978 
L 335.067163 95.081737 
L 336.866795 88.308445 
L 338.666428 81.511123 
L 340.466061 74.789793 
L 342.265693 68.251042 
L 344.065326 62.005357 
L 345.864959 56.164117 
L 347.664591 50.836344 
L 349.464224 46.125357 
L 351.263857 42.125451 
L 353.063489 38.918772 
L 354.863122 36.57251 
L 356.662755 35.136561 
L 358.462388 34.641762 
L 360.26202 35.098794 
L 362.061653 36.49779 
L 363.861286 38.808699 
L 365.660918 41.982351 
L 367.460551 45.952203 
L 369.260184 50.636654 
L 371.059816 55.941832 
L 372.859449 61.764716 
L 374.659082 67.996445 
L 376.458714 74.525672 
L 378.258347 81.241814 
L 380.05798 88.038075 
L 381.857612 94.814127 
L 383.657245 101.478365 
L 385.456878 107.949671 
L 387.256511 114.158669 
L 389.056143 120.048452 
L 390.855776 125.574815 
L 392.655409 130.706029 
L 394.455041 135.422224 
L 396.254674 139.714442 
L 398.054307 143.583448 
L 399.853939 147.038376 
L 401.653572 150.095287 
L 403.453205 152.775705 
L 405.252837 155.105197 
L 407.05247 157.112046 
L 408.852103 158.826055 
L 410.651736 160.277497 
L 412.451368 161.49625 
L 414.251001 162.511084 
L 416.050634 163.349138 
L 417.850266 164.035533 
L 419.649899 164.593141 
L 421.449532 165.042466 
L 423.249164 165.401629 
L 425.048797 165.686429 
L 426.84843 165.91047 
L 428.648062 166.085322 
L 430.447695 166.220712 
L 432.247328 166.324724 
L 434.046961 166.404007 
L 435.846593 166.463971 
L 437.646226 166.508973 
L 439.445859 166.542484 
L 441.245491 166.567247 
L 443.045124 166.585406 
L 444.844757 166.598619 
L 446.644389 166.60816 
L 448.444022 166.614997 
L 450.243655 166.61986 
L 452.043287 166.623292 
L 453.84292 166.625695 
L 455.642553 166.627366 
L 457.442185 166.628519 
L 459.241818 166.629308 
" style="fill:none;stroke:#ff0000;stroke-linecap:square;"/>
   </g>
   <g id="patch_8">
    <path d="M 272.17 173.32 
L 272.17 26.16 
" style="fill:none;stroke:#000000;stroke-linecap:square;stroke-linejoin:miter;stroke-width:0.8;"/>
   </g>
   <g id="patch_9">
    <path d="M 468.15 173.32 
L 468.15 26.16 
" style="fill:none;stroke:#000000;stroke-linecap:square;stroke-linejoin:miter;stroke-width:0.8;"/>
   </g>
   <g id="patch_10">
    <path d="M 272.17 173.32 
L 468.15 173.32 
" style="fill:none;stroke:#000000;stroke-linecap:square;stroke-linejoin:miter;stroke-width:0.8;"/>
   </g>
   <g id="patch_11">
    <path d="M 272.17 26.16 
L 468.15 26.16 
" style="fill:none;stroke:#000000;stroke-linecap:square;stroke-linejoin:miter;stroke-width:0.8;"/>
   </g>
   <g id="text_21">
    <!-- Energía potencial -->
    <defs>
     <path d="M 18.109375 8.203125 
L 18.109375 -20.796875 
L 9.078125 -20.796875 
L 9.078125 54.6875 
L 18.109375 54.6875 
L 18.109375 46.390625 
Q 20.953125 51.265625 25.265625 53.625 
Q 29.59375 56 35.59375 56 
Q 45.5625 56 51.78125 48.09375 
Q 58.015625 40.1875 58.015625 27.296875 
Q 58.015625 14.40625 51.78125 6.484375 
Q 45.5625 -1.421875 35.59375 -1.421875 
Q 29.59375 -1.421875 25.265625 0.953125 
Q 20.953125 3.328125 18.109375 8.203125 
z
M 48.6875 27.296875 
Q 48.6875 37.203125 44.609375 42.84375 
Q 40.53125 48.484375 33.40625 48.484375 
Q 26.265625 48.484375 22.1875 42.84375 
Q 18.109375 37.203125 18.109375 27.296875 
Q 18.109375 17.390625 22.1875 11.75 
Q 26.265625 6.109375 33.40625 6.109375 
Q 40.53125 6.109375 44.609375 11.75 
Q 48.6875 17.390625 48.6875 27.296875 
z
" id="DejaVuSans-70"/>
     <path d="M 48.78125 52.59375 
L 48.78125 44.1875 
Q 44.96875 46.296875 41.140625 47.34375 
Q 37.3125 48.390625 33.40625 48.390625 
Q 24.65625 48.390625 19.8125 42.84375 
Q 14.984375 37.3125 14.984375 27.296875 
Q 14.984375 17.28125 19.8125 11.734375 
Q 24.65625 6.203125 33.40625 6.203125 
Q 37.3125 6.203125 41.140625 7.25 
Q 44.96875 8.296875 48.78125 10.40625 
L 48.78125 2.09375 
Q 45.015625 0.34375 40.984375 -0.53125 
Q 36.96875 -1.421875 32.421875 -1.421875 
Q 20.0625 -1.421875 12.78125 6.34375 
Q 5.515625 14.109375 5.515625 27.296875 
Q 5.515625 40.671875 12.859375 48.328125 
Q 20.21875 56 33.015625 56 
Q 37.15625 56 41.109375 55.140625 
Q 45.0625 54.296875 48.78125 52.59375 
z
" id="DejaVuSans-63"/>
     <path d="M 9.421875 54.6875 
L 18.40625 54.6875 
L 18.40625 0 
L 9.421875 0 
z
M 9.421875 75.984375 
L 18.40625 75.984375 
L 18.40625 64.59375 
L 9.421875 64.59375 
z
" id="DejaVuSans-69"/>
    </defs>
    <g transform="translate(317.7125 20.16)scale(0.12 -0.12)">
     <use xlink:href="#DejaVuSans-45"/>
     <use x="63.183594" xlink:href="#DejaVuSans-6e"/>
     <use x="126.5625" xlink:href="#DejaVuSans-65"/>
     <use x="188.085938" xlink:href="#DejaVuSans-72"/>
     <use x="229.183594" xlink:href="#DejaVuSans-67"/>
     <use x="292.660156" xlink:href="#DejaVuSans-ed"/>
     <use x="320.443359" xlink:href="#DejaVuSans-61"/>
     <use x="381.722656" xlink:href="#DejaVuSans-20"/>
     <use x="413.509766" xlink:href="#DejaVuSans-70"/>
     <use x="476.986328" xlink:href="#DejaVuSans-6f"/>
     <use x="538.167969" xlink:href="#DejaVuSans-74"/>
     <use x="577.376953" xlink:href="#DejaVuSans-65"/>
     <use x="638.900391" xlink:href="#DejaVuSans-6e"/>
     <use x="702.279297" xlink:href="#DejaVuSans-63"/>
     <use x="757.259766" xlink:href="#DejaVuSans-69"/>
     <use x="785.042969" xlink:href="#DejaVuSans-61"/>
     <use x="846.322266" xlink:href="#DejaVuSans-6c"/>
    </g>
   </g>
  </g>
  <g id="axes_3">
   <g id="patch_12">
    <path d="M 510.7 173.32 
L 706.68 173.32 
L 706.68 26.16 
L 510.7 26.16 
z
" style="fill:#ffffff;"/>
   </g>
   <g id="matplotlib.axis_5">
    <g id="xtick_8">
     <g id="line2d_22">
      <g>
       <use style="stroke:#000000;stroke-width:0.8;" x="522.903652" xlink:href="#m4fb7a82cbe" y="173.32"/>
      </g>
     </g>
     <g id="text_22">
      <!-- 5.0 -->
      <g transform="translate(514.952089 187.918437)scale(0.1 -0.1)">
       <use xlink:href="#DejaVuSans-35"/>
       <use x="63.623047" xlink:href="#DejaVuSans-2e"/>
       <use x="95.410156" xlink:href="#DejaVuSans-30"/>
      </g>
     </g>
    </g>
    <g id="xtick_9">
     <g id="line2d_23">
      <g>
       <use style="stroke:#000000;stroke-width:0.8;" x="565.882788" xlink:href="#m4fb7a82cbe" y="173.32"/>
      </g>
     </g>
     <g id="text_23">
      <!-- 5.5 -->
      <g transform="translate(557.931226 187.918437)scale(0.1 -0.1)">
       <use xlink:href="#DejaVuSans-35"/>
       <use x="63.623047" xlink:href="#DejaVuSans-2e"/>
       <use x="95.410156" xlink:href="#DejaVuSans-35"/>
      </g>
     </g>
    </g>
    <g id="xtick_10">
     <g id="line2d_24">
      <g>
       <use style="stroke:#000000;stroke-width:0.8;" x="608.861925" xlink:href="#m4fb7a82cbe" y="173.32"/>
      </g>
     </g>
     <g id="text_24">
      <!-- 6.0 -->
      <g transform="translate(600.910362 187.918437)scale(0.1 -0.1)">
       <use xlink:href="#DejaVuSans-36"/>
       <use x="63.623047" xlink:href="#DejaVuSans-2e"/>
       <use x="95.410156" xlink:href="#DejaVuSans-30"/>
      </g>
     </g>
    </g>
    <g id="xtick_11">
     <g id="line2d_25">
      <g>
       <use style="stroke:#000000;stroke-width:0.8;" x="651.841061" xlink:href="#m4fb7a82cbe" y="173.32"/>
      </g>
     </g>
     <g id="text_25">
      <!-- 6.5 -->
      <g transform="translate(643.889498 187.918437)scale(0.1 -0.1)">
       <use xlink:href="#DejaVuSans-36"/>
       <use x="63.623047" xlink:href="#DejaVuSans-2e"/>
       <use x="95.410156" xlink:href="#DejaVuSans-35"/>
      </g>
     </g>
    </g>
    <g id="xtick_12">
     <g id="line2d_26">
      <g>
       <use style="stroke:#000000;stroke-width:0.8;" x="694.820197" xlink:href="#m4fb7a82cbe" y="173.32"/>
      </g>
     </g>
     <g id="text_26">
      <!-- 7.0 -->
      <g transform="translate(686.868635 187.918437)scale(0.1 -0.1)">
       <use xlink:href="#DejaVuSans-37"/>
       <use x="63.623047" xlink:href="#DejaVuSans-2e"/>
       <use x="95.410156" xlink:href="#DejaVuSans-30"/>
      </g>
     </g>
    </g>
    <g id="text_27">
     <!-- $E/\epsilon$ -->
     <g transform="translate(601.14 201.596562)scale(0.1 -0.1)">
      <use transform="translate(0 0.09375)" xlink:href="#DejaVuSans-Oblique-45"/>
      <use transform="translate(63.183594 0.09375)" xlink:href="#DejaVuSans-2f"/>
      <use transform="translate(96.875 0.09375)" xlink:href="#DejaVuSans-Oblique-3b5"/>
     </g>
    </g>
   </g>
   <g id="matplotlib.axis_6">
    <g id="ytick_11">
     <g id="line2d_27">
      <g>
       <use style="stroke:#000000;stroke-width:0.8;" x="510.7" xlink:href="#m71dacbfd2d" y="166.630909"/>
      </g>
     </g>
     <g id="text_28">
      <!-- 0.0 -->
      <g transform="translate(487.796875 170.430128)scale(0.1 -0.1)">
       <use xlink:href="#DejaVuSans-30"/>
       <use x="63.623047" xlink:href="#DejaVuSans-2e"/>
       <use x="95.410156" xlink:href="#DejaVuSans-30"/>
      </g>
     </g>
    </g>
    <g id="ytick_12">
     <g id="line2d_28">
      <g>
       <use style="stroke:#000000;stroke-width:0.8;" x="510.7" xlink:href="#m71dacbfd2d" y="126.826217"/>
      </g>
     </g>
     <g id="text_29">
      <!-- 0.5 -->
      <g transform="translate(487.796875 130.625436)scale(0.1 -0.1)">
       <use xlink:href="#DejaVuSans-30"/>
       <use x="63.623047" xlink:href="#DejaVuSans-2e"/>
       <use x="95.410156" xlink:href="#DejaVuSans-35"/>
      </g>
     </g>
    </g>
    <g id="ytick_13">
     <g id="line2d_29">
      <g>
       <use style="stroke:#000000;stroke-width:0.8;" x="510.7" xlink:href="#m71dacbfd2d" y="87.021525"/>
      </g>
     </g>
     <g id="text_30">
      <!-- 1.0 -->
      <g transform="translate(487.796875 90.820744)scale(0.1 -0.1)">
       <use xlink:href="#DejaVuSans-31"/>
       <use x="63.623047" xlink:href="#DejaVuSans-2e"/>
       <use x="95.410156" xlink:href="#DejaVuSans-30"/>
      </g>
     </g>
    </g>
    <g id="ytick_14">
     <g id="line2d_30">
      <g>
       <use style="stroke:#000000;stroke-width:0.8;" x="510.7" xlink:href="#m71dacbfd2d" y="47.216833"/>
      </g>
     </g>
     <g id="text_31">
      <!-- 1.5 -->
      <g transform="translate(487.796875 51.016052)scale(0.1 -0.1)">
       <use xlink:href="#DejaVuSans-31"/>
       <use x="63.623047" xlink:href="#DejaVuSans-2e"/>
       <use x="95.410156" xlink:href="#DejaVuSans-35"/>
      </g>
     </g>
    </g>
   </g>
   <g id="line2d_31">
    <defs>
     <path d="M 0 3 
C 0.795609 3 1.55874 2.683901 2.12132 2.12132 
C 2.683901 1.55874 3 0.795609 3 0 
C 3 -0.795609 2.683901 -1.55874 2.12132 -2.12132 
C 1.55874 -2.683901 0.795609 -3 0 -3 
C -0.795609 -3 -1.55874 -2.683901 -2.12132 -2.12132 
C -2.683901 -1.55874 -3 -0.795609 -3 0 
C -3 0.795609 -2.683901 1.55874 -2.12132 2.12132 
C -1.55874 2.683901 -0.795609 3 0 3 
z
" id="m2b85533ea6" style="stroke:#2ca02c;"/>
    </defs>
    <g clip-path="url(#pd6d6497058)">
     <use style="fill:#2ca02c;stroke:#2ca02c;" x="519.608182" xlink:href="#m2b85533ea6" y="166.62277"/>
     <use style="fill:#2ca02c;stroke:#2ca02c;" x="520.323698" xlink:href="#m2b85533ea6" y="166.6187"/>
     <use style="fill:#2ca02c;stroke:#2ca02c;" x="521.039215" xlink:href="#m2b85533ea6" y="166.608526"/>
     <use style="fill:#2ca02c;stroke:#2ca02c;" x="521.754732" xlink:href="#m2b85533ea6" y="166.604456"/>
     <use style="fill:#2ca02c;stroke:#2ca02c;" x="522.470248" xlink:href="#m2b85533ea6" y="166.606491"/>
     <use style="fill:#2ca02c;stroke:#2ca02c;" x="523.185765" xlink:href="#m2b85533ea6" y="166.61056"/>
     <use style="fill:#2ca02c;stroke:#2ca02c;" x="523.901281" xlink:href="#m2b85533ea6" y="166.604456"/>
     <use style="fill:#2ca02c;stroke:#2ca02c;" x="524.616798" xlink:href="#m2b85533ea6" y="166.604456"/>
     <use style="fill:#2ca02c;stroke:#2ca02c;" x="525.332315" xlink:href="#m2b85533ea6" y="166.586142"/>
     <use style="fill:#2ca02c;stroke:#2ca02c;" x="526.047831" xlink:href="#m2b85533ea6" y="166.584107"/>
     <use style="fill:#2ca02c;stroke:#2ca02c;" x="526.763348" xlink:href="#m2b85533ea6" y="166.578003"/>
     <use style="fill:#2ca02c;stroke:#2ca02c;" x="527.478865" xlink:href="#m2b85533ea6" y="166.541375"/>
     <use style="fill:#2ca02c;stroke:#2ca02c;" x="528.194381" xlink:href="#m2b85533ea6" y="166.523062"/>
     <use style="fill:#2ca02c;stroke:#2ca02c;" x="528.909898" xlink:href="#m2b85533ea6" y="166.478295"/>
     <use style="fill:#2ca02c;stroke:#2ca02c;" x="529.625414" xlink:href="#m2b85533ea6" y="166.470155"/>
     <use style="fill:#2ca02c;stroke:#2ca02c;" x="530.340931" xlink:href="#m2b85533ea6" y="166.449807"/>
     <use style="fill:#2ca02c;stroke:#2ca02c;" x="531.056448" xlink:href="#m2b85533ea6" y="166.398935"/>
     <use style="fill:#2ca02c;stroke:#2ca02c;" x="531.771964" xlink:href="#m2b85533ea6" y="166.335855"/>
     <use style="fill:#2ca02c;stroke:#2ca02c;" x="532.487481" xlink:href="#m2b85533ea6" y="166.252425"/>
     <use style="fill:#2ca02c;stroke:#2ca02c;" x="533.202997" xlink:href="#m2b85533ea6" y="166.197484"/>
     <use style="fill:#2ca02c;stroke:#2ca02c;" x="533.918514" xlink:href="#m2b85533ea6" y="166.130334"/>
     <use style="fill:#2ca02c;stroke:#2ca02c;" x="534.634031" xlink:href="#m2b85533ea6" y="165.983824"/>
     <use style="fill:#2ca02c;stroke:#2ca02c;" x="535.349547" xlink:href="#m2b85533ea6" y="165.851558"/>
     <use style="fill:#2ca02c;stroke:#2ca02c;" x="536.065064" xlink:href="#m2b85533ea6" y="165.723362"/>
     <use style="fill:#2ca02c;stroke:#2ca02c;" x="536.780581" xlink:href="#m2b85533ea6" y="165.648072"/>
     <use style="fill:#2ca02c;stroke:#2ca02c;" x="537.496097" xlink:href="#m2b85533ea6" y="165.511737"/>
     <use style="fill:#2ca02c;stroke:#2ca02c;" x="538.211614" xlink:href="#m2b85533ea6" y="165.184124"/>
     <use style="fill:#2ca02c;stroke:#2ca02c;" x="538.92713" xlink:href="#m2b85533ea6" y="164.939941"/>
     <use style="fill:#2ca02c;stroke:#2ca02c;" x="539.642647" xlink:href="#m2b85533ea6" y="164.681514"/>
     <use style="fill:#2ca02c;stroke:#2ca02c;" x="540.358164" xlink:href="#m2b85533ea6" y="164.341692"/>
     <use style="fill:#2ca02c;stroke:#2ca02c;" x="541.07368" xlink:href="#m2b85533ea6" y="163.918442"/>
     <use style="fill:#2ca02c;stroke:#2ca02c;" x="541.789197" xlink:href="#m2b85533ea6" y="163.472808"/>
     <use style="fill:#2ca02c;stroke:#2ca02c;" x="542.504713" xlink:href="#m2b85533ea6" y="163.149265"/>
     <use style="fill:#2ca02c;stroke:#2ca02c;" x="543.22023" xlink:href="#m2b85533ea6" y="162.664969"/>
     <use style="fill:#2ca02c;stroke:#2ca02c;" x="543.935747" xlink:href="#m2b85533ea6" y="162.237648"/>
     <use style="fill:#2ca02c;stroke:#2ca02c;" x="544.651263" xlink:href="#m2b85533ea6" y="161.71062"/>
     <use style="fill:#2ca02c;stroke:#2ca02c;" x="545.36678" xlink:href="#m2b85533ea6" y="161.081848"/>
     <use style="fill:#2ca02c;stroke:#2ca02c;" x="546.082296" xlink:href="#m2b85533ea6" y="160.489704"/>
     <use style="fill:#2ca02c;stroke:#2ca02c;" x="546.797813" xlink:href="#m2b85533ea6" y="159.834479"/>
     <use style="fill:#2ca02c;stroke:#2ca02c;" x="547.51333" xlink:href="#m2b85533ea6" y="159.083616"/>
     <use style="fill:#2ca02c;stroke:#2ca02c;" x="548.228846" xlink:href="#m2b85533ea6" y="158.16793"/>
     <use style="fill:#2ca02c;stroke:#2ca02c;" x="548.944363" xlink:href="#m2b85533ea6" y="157.103698"/>
     <use style="fill:#2ca02c;stroke:#2ca02c;" x="549.65988" xlink:href="#m2b85533ea6" y="156.495275"/>
     <use style="fill:#2ca02c;stroke:#2ca02c;" x="550.375396" xlink:href="#m2b85533ea6" y="155.805458"/>
     <use style="fill:#2ca02c;stroke:#2ca02c;" x="551.090913" xlink:href="#m2b85533ea6" y="154.529601"/>
     <use style="fill:#2ca02c;stroke:#2ca02c;" x="551.806429" xlink:href="#m2b85533ea6" y="153.459265"/>
     <use style="fill:#2ca02c;stroke:#2ca02c;" x="552.521946" xlink:href="#m2b85533ea6" y="152.692124"/>
     <use style="fill:#2ca02c;stroke:#2ca02c;" x="553.237463" xlink:href="#m2b85533ea6" y="151.399988"/>
     <use style="fill:#2ca02c;stroke:#2ca02c;" x="553.952979" xlink:href="#m2b85533ea6" y="150.472092"/>
     <use style="fill:#2ca02c;stroke:#2ca02c;" x="554.668496" xlink:href="#m2b85533ea6" y="149.053795"/>
     <use style="fill:#2ca02c;stroke:#2ca02c;" x="555.384012" xlink:href="#m2b85533ea6" y="147.537825"/>
     <use style="fill:#2ca02c;stroke:#2ca02c;" x="556.099529" xlink:href="#m2b85533ea6" y="146.178539"/>
     <use style="fill:#2ca02c;stroke:#2ca02c;" x="556.815046" xlink:href="#m2b85533ea6" y="144.835532"/>
     <use style="fill:#2ca02c;stroke:#2ca02c;" x="557.530562" xlink:href="#m2b85533ea6" y="142.629745"/>
     <use style="fill:#2ca02c;stroke:#2ca02c;" x="558.246079" xlink:href="#m2b85533ea6" y="141.231797"/>
     <use style="fill:#2ca02c;stroke:#2ca02c;" x="558.961595" xlink:href="#m2b85533ea6" y="139.844023"/>
     <use style="fill:#2ca02c;stroke:#2ca02c;" x="559.677112" xlink:href="#m2b85533ea6" y="138.684153"/>
     <use style="fill:#2ca02c;stroke:#2ca02c;" x="560.392629" xlink:href="#m2b85533ea6" y="136.830396"/>
     <use style="fill:#2ca02c;stroke:#2ca02c;" x="561.108145" xlink:href="#m2b85533ea6" y="133.963279"/>
     <use style="fill:#2ca02c;stroke:#2ca02c;" x="561.823662" xlink:href="#m2b85533ea6" y="132.970268"/>
     <use style="fill:#2ca02c;stroke:#2ca02c;" x="562.539179" xlink:href="#m2b85533ea6" y="130.628145"/>
     <use style="fill:#2ca02c;stroke:#2ca02c;" x="563.254695" xlink:href="#m2b85533ea6" y="128.552589"/>
     <use style="fill:#2ca02c;stroke:#2ca02c;" x="563.970212" xlink:href="#m2b85533ea6" y="126.670344"/>
     <use style="fill:#2ca02c;stroke:#2ca02c;" x="564.685728" xlink:href="#m2b85533ea6" y="123.703519"/>
     <use style="fill:#2ca02c;stroke:#2ca02c;" x="565.401245" xlink:href="#m2b85533ea6" y="121.998307"/>
     <use style="fill:#2ca02c;stroke:#2ca02c;" x="566.116762" xlink:href="#m2b85533ea6" y="119.753858"/>
     <use style="fill:#2ca02c;stroke:#2ca02c;" x="566.832278" xlink:href="#m2b85533ea6" y="116.61814"/>
     <use style="fill:#2ca02c;stroke:#2ca02c;" x="567.547795" xlink:href="#m2b85533ea6" y="114.695198"/>
     <use style="fill:#2ca02c;stroke:#2ca02c;" x="568.263311" xlink:href="#m2b85533ea6" y="112.64406"/>
     <use style="fill:#2ca02c;stroke:#2ca02c;" x="568.978828" xlink:href="#m2b85533ea6" y="109.019975"/>
     <use style="fill:#2ca02c;stroke:#2ca02c;" x="569.694345" xlink:href="#m2b85533ea6" y="106.388902"/>
     <use style="fill:#2ca02c;stroke:#2ca02c;" x="570.409861" xlink:href="#m2b85533ea6" y="103.806666"/>
     <use style="fill:#2ca02c;stroke:#2ca02c;" x="571.125378" xlink:href="#m2b85533ea6" y="102.072966"/>
     <use style="fill:#2ca02c;stroke:#2ca02c;" x="571.840894" xlink:href="#m2b85533ea6" y="98.861958"/>
     <use style="fill:#2ca02c;stroke:#2ca02c;" x="572.556411" xlink:href="#m2b85533ea6" y="96.802681"/>
     <use style="fill:#2ca02c;stroke:#2ca02c;" x="573.271928" xlink:href="#m2b85533ea6" y="92.629185"/>
     <use style="fill:#2ca02c;stroke:#2ca02c;" x="573.987444" xlink:href="#m2b85533ea6" y="90.588221"/>
     <use style="fill:#2ca02c;stroke:#2ca02c;" x="574.702961" xlink:href="#m2b85533ea6" y="87.743488"/>
     <use style="fill:#2ca02c;stroke:#2ca02c;" x="575.418478" xlink:href="#m2b85533ea6" y="84.357482"/>
     <use style="fill:#2ca02c;stroke:#2ca02c;" x="576.133994" xlink:href="#m2b85533ea6" y="80.175846"/>
     <use style="fill:#2ca02c;stroke:#2ca02c;" x="576.849511" xlink:href="#m2b85533ea6" y="78.979349"/>
     <use style="fill:#2ca02c;stroke:#2ca02c;" x="577.565027" xlink:href="#m2b85533ea6" y="75.459043"/>
     <use style="fill:#2ca02c;stroke:#2ca02c;" x="578.280544" xlink:href="#m2b85533ea6" y="71.977398"/>
     <use style="fill:#2ca02c;stroke:#2ca02c;" x="578.996061" xlink:href="#m2b85533ea6" y="68.180351"/>
     <use style="fill:#2ca02c;stroke:#2ca02c;" x="579.711577" xlink:href="#m2b85533ea6" y="67.708264"/>
     <use style="fill:#2ca02c;stroke:#2ca02c;" x="580.427094" xlink:href="#m2b85533ea6" y="64.045517"/>
     <use style="fill:#2ca02c;stroke:#2ca02c;" x="581.14261" xlink:href="#m2b85533ea6" y="62.33827"/>
     <use style="fill:#2ca02c;stroke:#2ca02c;" x="581.858127" xlink:href="#m2b85533ea6" y="58.183088"/>
     <use style="fill:#2ca02c;stroke:#2ca02c;" x="582.573644" xlink:href="#m2b85533ea6" y="57.348796"/>
     <use style="fill:#2ca02c;stroke:#2ca02c;" x="583.28916" xlink:href="#m2b85533ea6" y="55.063649"/>
     <use style="fill:#2ca02c;stroke:#2ca02c;" x="584.004677" xlink:href="#m2b85533ea6" y="52.80699"/>
     <use style="fill:#2ca02c;stroke:#2ca02c;" x="584.720194" xlink:href="#m2b85533ea6" y="48.710818"/>
     <use style="fill:#2ca02c;stroke:#2ca02c;" x="585.43571" xlink:href="#m2b85533ea6" y="48.200069"/>
     <use style="fill:#2ca02c;stroke:#2ca02c;" x="586.151227" xlink:href="#m2b85533ea6" y="46.397183"/>
     <use style="fill:#2ca02c;stroke:#2ca02c;" x="586.866743" xlink:href="#m2b85533ea6" y="44.439649"/>
     <use style="fill:#2ca02c;stroke:#2ca02c;" x="587.58226" xlink:href="#m2b85533ea6" y="41.230676"/>
     <use style="fill:#2ca02c;stroke:#2ca02c;" x="588.297777" xlink:href="#m2b85533ea6" y="41.820785"/>
     <use style="fill:#2ca02c;stroke:#2ca02c;" x="589.013293" xlink:href="#m2b85533ea6" y="40.418767"/>
     <use style="fill:#2ca02c;stroke:#2ca02c;" x="589.72881" xlink:href="#m2b85533ea6" y="39.250758"/>
     <use style="fill:#2ca02c;stroke:#2ca02c;" x="590.444326" xlink:href="#m2b85533ea6" y="35.917659"/>
     <use style="fill:#2ca02c;stroke:#2ca02c;" x="591.159843" xlink:href="#m2b85533ea6" y="36.298177"/>
     <use style="fill:#2ca02c;stroke:#2ca02c;" x="591.87536" xlink:href="#m2b85533ea6" y="35.54121"/>
     <use style="fill:#2ca02c;stroke:#2ca02c;" x="592.590876" xlink:href="#m2b85533ea6" y="35.740626"/>
     <use style="fill:#2ca02c;stroke:#2ca02c;" x="593.306393" xlink:href="#m2b85533ea6" y="34.957205"/>
     <use style="fill:#2ca02c;stroke:#2ca02c;" x="594.021909" xlink:href="#m2b85533ea6" y="32.849091"/>
     <use style="fill:#2ca02c;stroke:#2ca02c;" x="594.737426" xlink:href="#m2b85533ea6" y="34.468839"/>
     <use style="fill:#2ca02c;stroke:#2ca02c;" x="595.452943" xlink:href="#m2b85533ea6" y="35.402839"/>
     <use style="fill:#2ca02c;stroke:#2ca02c;" x="596.168459" xlink:href="#m2b85533ea6" y="34.094425"/>
     <use style="fill:#2ca02c;stroke:#2ca02c;" x="596.883976" xlink:href="#m2b85533ea6" y="32.93659"/>
     <use style="fill:#2ca02c;stroke:#2ca02c;" x="597.599493" xlink:href="#m2b85533ea6" y="36.135389"/>
     <use style="fill:#2ca02c;stroke:#2ca02c;" x="598.315009" xlink:href="#m2b85533ea6" y="36.031611"/>
     <use style="fill:#2ca02c;stroke:#2ca02c;" x="599.030526" xlink:href="#m2b85533ea6" y="37.476361"/>
     <use style="fill:#2ca02c;stroke:#2ca02c;" x="599.746042" xlink:href="#m2b85533ea6" y="37.101947"/>
     <use style="fill:#2ca02c;stroke:#2ca02c;" x="600.461559" xlink:href="#m2b85533ea6" y="39.366745"/>
     <use style="fill:#2ca02c;stroke:#2ca02c;" x="601.177076" xlink:href="#m2b85533ea6" y="39.470523"/>
     <use style="fill:#2ca02c;stroke:#2ca02c;" x="601.892592" xlink:href="#m2b85533ea6" y="42.058864"/>
     <use style="fill:#2ca02c;stroke:#2ca02c;" x="602.608109" xlink:href="#m2b85533ea6" y="41.845203"/>
     <use style="fill:#2ca02c;stroke:#2ca02c;" x="603.323625" xlink:href="#m2b85533ea6" y="45.93934"/>
     <use style="fill:#2ca02c;stroke:#2ca02c;" x="604.039142" xlink:href="#m2b85533ea6" y="47.178569"/>
     <use style="fill:#2ca02c;stroke:#2ca02c;" x="604.754659" xlink:href="#m2b85533ea6" y="48.045419"/>
     <use style="fill:#2ca02c;stroke:#2ca02c;" x="605.470175" xlink:href="#m2b85533ea6" y="49.368078"/>
     <use style="fill:#2ca02c;stroke:#2ca02c;" x="606.185692" xlink:href="#m2b85533ea6" y="52.638097"/>
     <use style="fill:#2ca02c;stroke:#2ca02c;" x="606.901208" xlink:href="#m2b85533ea6" y="54.599701"/>
     <use style="fill:#2ca02c;stroke:#2ca02c;" x="607.616725" xlink:href="#m2b85533ea6" y="58.3764"/>
     <use style="fill:#2ca02c;stroke:#2ca02c;" x="608.332242" xlink:href="#m2b85533ea6" y="59.530165"/>
     <use style="fill:#2ca02c;stroke:#2ca02c;" x="609.047758" xlink:href="#m2b85533ea6" y="60.614745"/>
     <use style="fill:#2ca02c;stroke:#2ca02c;" x="609.763275" xlink:href="#m2b85533ea6" y="65.083296"/>
     <use style="fill:#2ca02c;stroke:#2ca02c;" x="610.478792" xlink:href="#m2b85533ea6" y="66.656242"/>
     <use style="fill:#2ca02c;stroke:#2ca02c;" x="611.194308" xlink:href="#m2b85533ea6" y="69.814343"/>
     <use style="fill:#2ca02c;stroke:#2ca02c;" x="611.909825" xlink:href="#m2b85533ea6" y="70.994561"/>
     <use style="fill:#2ca02c;stroke:#2ca02c;" x="612.625341" xlink:href="#m2b85533ea6" y="75.194511"/>
     <use style="fill:#2ca02c;stroke:#2ca02c;" x="613.340858" xlink:href="#m2b85533ea6" y="78.273253"/>
     <use style="fill:#2ca02c;stroke:#2ca02c;" x="614.056375" xlink:href="#m2b85533ea6" y="80.33253"/>
     <use style="fill:#2ca02c;stroke:#2ca02c;" x="614.771891" xlink:href="#m2b85533ea6" y="82.395878"/>
     <use style="fill:#2ca02c;stroke:#2ca02c;" x="615.487408" xlink:href="#m2b85533ea6" y="85.635373"/>
     <use style="fill:#2ca02c;stroke:#2ca02c;" x="616.202924" xlink:href="#m2b85533ea6" y="89.243179"/>
     <use style="fill:#2ca02c;stroke:#2ca02c;" x="616.918441" xlink:href="#m2b85533ea6" y="90.968739"/>
     <use style="fill:#2ca02c;stroke:#2ca02c;" x="617.633958" xlink:href="#m2b85533ea6" y="93.683242"/>
     <use style="fill:#2ca02c;stroke:#2ca02c;" x="618.349474" xlink:href="#m2b85533ea6" y="97.482324"/>
     <use style="fill:#2ca02c;stroke:#2ca02c;" x="619.064991" xlink:href="#m2b85533ea6" y="100.392172"/>
     <use style="fill:#2ca02c;stroke:#2ca02c;" x="619.780507" xlink:href="#m2b85533ea6" y="102.709877"/>
     <use style="fill:#2ca02c;stroke:#2ca02c;" x="620.496024" xlink:href="#m2b85533ea6" y="103.672365"/>
     <use style="fill:#2ca02c;stroke:#2ca02c;" x="621.211541" xlink:href="#m2b85533ea6" y="107.390053"/>
     <use style="fill:#2ca02c;stroke:#2ca02c;" x="621.927057" xlink:href="#m2b85533ea6" y="110.017056"/>
     <use style="fill:#2ca02c;stroke:#2ca02c;" x="622.642574" xlink:href="#m2b85533ea6" y="112.300168"/>
     <use style="fill:#2ca02c;stroke:#2ca02c;" x="623.358091" xlink:href="#m2b85533ea6" y="114.123402"/>
     <use style="fill:#2ca02c;stroke:#2ca02c;" x="624.073607" xlink:href="#m2b85533ea6" y="116.878602"/>
     <use style="fill:#2ca02c;stroke:#2ca02c;" x="624.789124" xlink:href="#m2b85533ea6" y="119.216655"/>
     <use style="fill:#2ca02c;stroke:#2ca02c;" x="625.50464" xlink:href="#m2b85533ea6" y="120.73059"/>
     <use style="fill:#2ca02c;stroke:#2ca02c;" x="626.220157" xlink:href="#m2b85533ea6" y="123.249746"/>
     <use style="fill:#2ca02c;stroke:#2ca02c;" x="626.935674" xlink:href="#m2b85533ea6" y="124.468626"/>
     <use style="fill:#2ca02c;stroke:#2ca02c;" x="627.65119" xlink:href="#m2b85533ea6" y="127.08749"/>
     <use style="fill:#2ca02c;stroke:#2ca02c;" x="628.366707" xlink:href="#m2b85533ea6" y="129.451997"/>
     <use style="fill:#2ca02c;stroke:#2ca02c;" x="629.082223" xlink:href="#m2b85533ea6" y="130.890642"/>
     <use style="fill:#2ca02c;stroke:#2ca02c;" x="629.79774" xlink:href="#m2b85533ea6" y="132.526669"/>
     <use style="fill:#2ca02c;stroke:#2ca02c;" x="630.513257" xlink:href="#m2b85533ea6" y="134.815885"/>
     <use style="fill:#2ca02c;stroke:#2ca02c;" x="631.228773" xlink:href="#m2b85533ea6" y="135.841455"/>
     <use style="fill:#2ca02c;stroke:#2ca02c;" x="631.94429" xlink:href="#m2b85533ea6" y="137.469342"/>
     <use style="fill:#2ca02c;stroke:#2ca02c;" x="632.659806" xlink:href="#m2b85533ea6" y="138.527469"/>
     <use style="fill:#2ca02c;stroke:#2ca02c;" x="633.375323" xlink:href="#m2b85533ea6" y="140.09431"/>
     <use style="fill:#2ca02c;stroke:#2ca02c;" x="634.09084" xlink:href="#m2b85533ea6" y="141.642838"/>
     <use style="fill:#2ca02c;stroke:#2ca02c;" x="634.806356" xlink:href="#m2b85533ea6" y="142.633815"/>
     <use style="fill:#2ca02c;stroke:#2ca02c;" x="635.521873" xlink:href="#m2b85533ea6" y="143.799789"/>
     <use style="fill:#2ca02c;stroke:#2ca02c;" x="636.23739" xlink:href="#m2b85533ea6" y="144.847741"/>
     <use style="fill:#2ca02c;stroke:#2ca02c;" x="636.952906" xlink:href="#m2b85533ea6" y="145.922147"/>
     <use style="fill:#2ca02c;stroke:#2ca02c;" x="637.668423" xlink:href="#m2b85533ea6" y="147.674161"/>
     <use style="fill:#2ca02c;stroke:#2ca02c;" x="638.383939" xlink:href="#m2b85533ea6" y="148.77502"/>
     <use style="fill:#2ca02c;stroke:#2ca02c;" x="639.099456" xlink:href="#m2b85533ea6" y="149.578789"/>
     <use style="fill:#2ca02c;stroke:#2ca02c;" x="639.814973" xlink:href="#m2b85533ea6" y="150.602323"/>
     <use style="fill:#2ca02c;stroke:#2ca02c;" x="640.530489" xlink:href="#m2b85533ea6" y="151.609578"/>
     <use style="fill:#2ca02c;stroke:#2ca02c;" x="641.246006" xlink:href="#m2b85533ea6" y="152.169165"/>
     <use style="fill:#2ca02c;stroke:#2ca02c;" x="641.961522" xlink:href="#m2b85533ea6" y="153.184559"/>
     <use style="fill:#2ca02c;stroke:#2ca02c;" x="642.677039" xlink:href="#m2b85533ea6" y="153.990364"/>
     <use style="fill:#2ca02c;stroke:#2ca02c;" x="643.392556" xlink:href="#m2b85533ea6" y="154.608961"/>
     <use style="fill:#2ca02c;stroke:#2ca02c;" x="644.108072" xlink:href="#m2b85533ea6" y="155.34151"/>
     <use style="fill:#2ca02c;stroke:#2ca02c;" x="644.823589" xlink:href="#m2b85533ea6" y="156.175803"/>
     <use style="fill:#2ca02c;stroke:#2ca02c;" x="645.539106" xlink:href="#m2b85533ea6" y="157.250208"/>
     <use style="fill:#2ca02c;stroke:#2ca02c;" x="646.254622" xlink:href="#m2b85533ea6" y="157.467938"/>
     <use style="fill:#2ca02c;stroke:#2ca02c;" x="646.970139" xlink:href="#m2b85533ea6" y="158.391764"/>
     <use style="fill:#2ca02c;stroke:#2ca02c;" x="647.685655" xlink:href="#m2b85533ea6" y="158.631878"/>
     <use style="fill:#2ca02c;stroke:#2ca02c;" x="648.401172" xlink:href="#m2b85533ea6" y="159.171115"/>
     <use style="fill:#2ca02c;stroke:#2ca02c;" x="649.116689" xlink:href="#m2b85533ea6" y="159.883316"/>
     <use style="fill:#2ca02c;stroke:#2ca02c;" x="649.832205" xlink:href="#m2b85533ea6" y="160.206859"/>
     <use style="fill:#2ca02c;stroke:#2ca02c;" x="650.547722" xlink:href="#m2b85533ea6" y="160.424589"/>
     <use style="fill:#2ca02c;stroke:#2ca02c;" x="651.263238" xlink:href="#m2b85533ea6" y="161.295508"/>
     <use style="fill:#2ca02c;stroke:#2ca02c;" x="651.978755" xlink:href="#m2b85533ea6" y="161.464402"/>
     <use style="fill:#2ca02c;stroke:#2ca02c;" x="652.694272" xlink:href="#m2b85533ea6" y="161.967012"/>
     <use style="fill:#2ca02c;stroke:#2ca02c;" x="653.409788" xlink:href="#m2b85533ea6" y="162.42282"/>
     <use style="fill:#2ca02c;stroke:#2ca02c;" x="654.125305" xlink:href="#m2b85533ea6" y="162.815548"/>
     <use style="fill:#2ca02c;stroke:#2ca02c;" x="654.840821" xlink:href="#m2b85533ea6" y="162.919326"/>
     <use style="fill:#2ca02c;stroke:#2ca02c;" x="655.556338" xlink:href="#m2b85533ea6" y="163.3731"/>
     <use style="fill:#2ca02c;stroke:#2ca02c;" x="656.271855" xlink:href="#m2b85533ea6" y="163.619317"/>
     <use style="fill:#2ca02c;stroke:#2ca02c;" x="656.987371" xlink:href="#m2b85533ea6" y="163.885884"/>
     <use style="fill:#2ca02c;stroke:#2ca02c;" x="657.702888" xlink:href="#m2b85533ea6" y="164.048673"/>
     <use style="fill:#2ca02c;stroke:#2ca02c;" x="658.418405" xlink:href="#m2b85533ea6" y="164.335588"/>
     <use style="fill:#2ca02c;stroke:#2ca02c;" x="659.133921" xlink:href="#m2b85533ea6" y="164.37832"/>
     <use style="fill:#2ca02c;stroke:#2ca02c;" x="659.849438" xlink:href="#m2b85533ea6" y="164.703897"/>
     <use style="fill:#2ca02c;stroke:#2ca02c;" x="660.564954" xlink:href="#m2b85533ea6" y="164.852442"/>
     <use style="fill:#2ca02c;stroke:#2ca02c;" x="661.280471" xlink:href="#m2b85533ea6" y="164.901279"/>
     <use style="fill:#2ca02c;stroke:#2ca02c;" x="661.995988" xlink:href="#m2b85533ea6" y="165.03151"/>
     <use style="fill:#2ca02c;stroke:#2ca02c;" x="662.711504" xlink:href="#m2b85533ea6" y="165.237031"/>
     <use style="fill:#2ca02c;stroke:#2ca02c;" x="663.427021" xlink:href="#m2b85533ea6" y="165.200403"/>
     <use style="fill:#2ca02c;stroke:#2ca02c;" x="664.142537" xlink:href="#m2b85533ea6" y="165.361157"/>
     <use style="fill:#2ca02c;stroke:#2ca02c;" x="664.858054" xlink:href="#m2b85533ea6" y="165.542259"/>
     <use style="fill:#2ca02c;stroke:#2ca02c;" x="665.573571" xlink:href="#m2b85533ea6" y="165.53005"/>
     <use style="fill:#2ca02c;stroke:#2ca02c;" x="666.289087" xlink:href="#m2b85533ea6" y="165.690804"/>
     <use style="fill:#2ca02c;stroke:#2ca02c;" x="667.004604" xlink:href="#m2b85533ea6" y="165.782373"/>
     <use style="fill:#2ca02c;stroke:#2ca02c;" x="667.72012" xlink:href="#m2b85533ea6" y="165.904464"/>
     <use style="fill:#2ca02c;stroke:#2ca02c;" x="668.435637" xlink:href="#m2b85533ea6" y="165.900395"/>
     <use style="fill:#2ca02c;stroke:#2ca02c;" x="669.151154" xlink:href="#m2b85533ea6" y="165.975684"/>
     <use style="fill:#2ca02c;stroke:#2ca02c;" x="669.86667" xlink:href="#m2b85533ea6" y="166.057079"/>
     <use style="fill:#2ca02c;stroke:#2ca02c;" x="670.582187" xlink:href="#m2b85533ea6" y="166.148647"/>
     <use style="fill:#2ca02c;stroke:#2ca02c;" x="671.297704" xlink:href="#m2b85533ea6" y="166.156787"/>
     <use style="fill:#2ca02c;stroke:#2ca02c;" x="672.01322" xlink:href="#m2b85533ea6" y="166.215798"/>
     <use style="fill:#2ca02c;stroke:#2ca02c;" x="672.728737" xlink:href="#m2b85533ea6" y="166.256495"/>
     <use style="fill:#2ca02c;stroke:#2ca02c;" x="673.444253" xlink:href="#m2b85533ea6" y="166.309401"/>
     <use style="fill:#2ca02c;stroke:#2ca02c;" x="674.15977" xlink:href="#m2b85533ea6" y="166.32568"/>
     <use style="fill:#2ca02c;stroke:#2ca02c;" x="674.875287" xlink:href="#m2b85533ea6" y="166.390796"/>
     <use style="fill:#2ca02c;stroke:#2ca02c;" x="675.590803" xlink:href="#m2b85533ea6" y="166.346029"/>
     <use style="fill:#2ca02c;stroke:#2ca02c;" x="676.30632" xlink:href="#m2b85533ea6" y="166.409109"/>
     <use style="fill:#2ca02c;stroke:#2ca02c;" x="677.021836" xlink:href="#m2b85533ea6" y="166.470155"/>
     <use style="fill:#2ca02c;stroke:#2ca02c;" x="677.737353" xlink:href="#m2b85533ea6" y="166.445737"/>
     <use style="fill:#2ca02c;stroke:#2ca02c;" x="678.45287" xlink:href="#m2b85533ea6" y="166.496608"/>
     <use style="fill:#2ca02c;stroke:#2ca02c;" x="679.168386" xlink:href="#m2b85533ea6" y="166.514922"/>
     <use style="fill:#2ca02c;stroke:#2ca02c;" x="679.883903" xlink:href="#m2b85533ea6" y="166.523062"/>
     <use style="fill:#2ca02c;stroke:#2ca02c;" x="680.599419" xlink:href="#m2b85533ea6" y="166.521027"/>
     <use style="fill:#2ca02c;stroke:#2ca02c;" x="681.314936" xlink:href="#m2b85533ea6" y="166.541375"/>
     <use style="fill:#2ca02c;stroke:#2ca02c;" x="682.030453" xlink:href="#m2b85533ea6" y="166.549515"/>
     <use style="fill:#2ca02c;stroke:#2ca02c;" x="682.745969" xlink:href="#m2b85533ea6" y="166.55155"/>
     <use style="fill:#2ca02c;stroke:#2ca02c;" x="683.461486" xlink:href="#m2b85533ea6" y="166.55155"/>
     <use style="fill:#2ca02c;stroke:#2ca02c;" x="684.177003" xlink:href="#m2b85533ea6" y="166.584107"/>
     <use style="fill:#2ca02c;stroke:#2ca02c;" x="684.892519" xlink:href="#m2b85533ea6" y="166.596316"/>
     <use style="fill:#2ca02c;stroke:#2ca02c;" x="685.608036" xlink:href="#m2b85533ea6" y="166.592247"/>
     <use style="fill:#2ca02c;stroke:#2ca02c;" x="686.323552" xlink:href="#m2b85533ea6" y="166.588177"/>
     <use style="fill:#2ca02c;stroke:#2ca02c;" x="687.039069" xlink:href="#m2b85533ea6" y="166.606491"/>
     <use style="fill:#2ca02c;stroke:#2ca02c;" x="687.754586" xlink:href="#m2b85533ea6" y="166.616665"/>
     <use style="fill:#2ca02c;stroke:#2ca02c;" x="688.470102" xlink:href="#m2b85533ea6" y="166.61056"/>
     <use style="fill:#2ca02c;stroke:#2ca02c;" x="689.185619" xlink:href="#m2b85533ea6" y="166.602421"/>
     <use style="fill:#2ca02c;stroke:#2ca02c;" x="689.901135" xlink:href="#m2b85533ea6" y="166.61056"/>
     <use style="fill:#2ca02c;stroke:#2ca02c;" x="690.616652" xlink:href="#m2b85533ea6" y="166.628874"/>
     <use style="fill:#2ca02c;stroke:#2ca02c;" x="691.332169" xlink:href="#m2b85533ea6" y="166.62277"/>
     <use style="fill:#2ca02c;stroke:#2ca02c;" x="692.047685" xlink:href="#m2b85533ea6" y="166.620735"/>
     <use style="fill:#2ca02c;stroke:#2ca02c;" x="692.763202" xlink:href="#m2b85533ea6" y="166.630909"/>
     <use style="fill:#2ca02c;stroke:#2ca02c;" x="693.478719" xlink:href="#m2b85533ea6" y="166.630909"/>
     <use style="fill:#2ca02c;stroke:#2ca02c;" x="694.194235" xlink:href="#m2b85533ea6" y="166.628874"/>
     <use style="fill:#2ca02c;stroke:#2ca02c;" x="694.909752" xlink:href="#m2b85533ea6" y="166.628874"/>
     <use style="fill:#2ca02c;stroke:#2ca02c;" x="695.625268" xlink:href="#m2b85533ea6" y="166.630909"/>
     <use style="fill:#2ca02c;stroke:#2ca02c;" x="696.340785" xlink:href="#m2b85533ea6" y="166.630909"/>
     <use style="fill:#2ca02c;stroke:#2ca02c;" x="697.056302" xlink:href="#m2b85533ea6" y="166.628874"/>
     <use style="fill:#2ca02c;stroke:#2ca02c;" x="697.771818" xlink:href="#m2b85533ea6" y="166.626839"/>
    </g>
   </g>
   <g id="line2d_32">
    <path clip-path="url(#pd6d6497058)" d="M 519.608182 166.473539 
L 525.332315 166.212478 
L 529.625414 165.802415 
L 533.202997 165.214471 
L 536.065064 164.502008 
L 538.211614 163.777205 
L 540.358164 162.846673 
L 542.504713 161.666551 
L 544.651263 160.188271 
L 546.797813 158.35949 
L 548.944363 156.125523 
L 551.090913 153.43134 
L 553.237463 150.224136 
L 555.384012 146.456431 
L 557.530562 142.089633 
L 559.677112 137.097901 
L 561.823662 131.472119 
L 563.970212 125.223708 
L 566.116762 118.387995 
L 568.978828 108.471 
L 572.556411 95.11532 
L 580.427094 65.214524 
L 582.573644 57.849958 
L 584.720194 51.202348 
L 586.866743 45.462497 
L 588.297777 42.225924 
L 589.72881 39.51373 
L 591.159843 37.363573 
L 592.590876 35.805699 
L 593.306393 35.256115 
L 594.021909 34.862235 
L 594.737426 34.62547 
L 595.452943 34.546669 
L 596.168459 34.626117 
L 596.883976 34.863527 
L 597.599493 35.258047 
L 598.315009 35.808264 
L 599.746042 37.367375 
L 601.177076 39.518715 
L 602.608109 42.232022 
L 604.039142 45.469625 
L 605.470175 49.187316 
L 607.616725 55.55396 
L 609.763275 62.702504 
L 612.625341 73.105846 
L 624.073607 115.998729 
L 626.935674 125.232639 
L 629.082223 131.480219 
L 631.228773 137.105139 
L 633.375323 142.096009 
L 635.521873 146.461969 
L 637.668423 150.228881 
L 639.814973 153.435351 
L 641.961522 156.12887 
L 644.108072 158.362247 
L 646.254622 160.190514 
L 648.401172 161.668352 
L 650.547722 162.848101 
L 652.694272 163.778324 
L 654.840821 164.502874 
L 657.702888 165.215075 
L 660.564954 165.706811 
L 664.142537 166.103206 
L 669.151154 166.401891 
L 676.30632 166.56814 
L 691.332169 166.628105 
L 697.771818 166.630279 
L 697.771818 166.630279 
" style="fill:none;stroke:#ff0000;stroke-linecap:square;"/>
   </g>
   <g id="patch_13">
    <path d="M 510.7 173.32 
L 510.7 26.16 
" style="fill:none;stroke:#000000;stroke-linecap:square;stroke-linejoin:miter;stroke-width:0.8;"/>
   </g>
   <g id="patch_14">
    <path d="M 706.68 173.32 
L 706.68 26.16 
" style="fill:none;stroke:#000000;stroke-linecap:square;stroke-linejoin:miter;stroke-width:0.8;"/>
   </g>
   <g id="patch_15">
    <path d="M 510.7 173.32 
L 706.68 173.32 
" style="fill:none;stroke:#000000;stroke-linecap:square;stroke-linejoin:miter;stroke-width:0.8;"/>
   </g>
   <g id="patch_16">
    <path d="M 510.7 26.16 
L 706.68 26.16 
" style="fill:none;stroke:#000000;stroke-linecap:square;stroke-linejoin:miter;stroke-width:0.8;"/>
   </g>
   <g id="text_32">
    <!-- Energía cinética -->
    <defs>
     <path d="M 56.203125 29.59375 
L 56.203125 25.203125 
L 14.890625 25.203125 
Q 15.484375 15.921875 20.484375 11.0625 
Q 25.484375 6.203125 34.421875 6.203125 
Q 39.59375 6.203125 44.453125 7.46875 
Q 49.3125 8.734375 54.109375 11.28125 
L 54.109375 2.78125 
Q 49.265625 0.734375 44.1875 -0.34375 
Q 39.109375 -1.421875 33.890625 -1.421875 
Q 20.796875 -1.421875 13.15625 6.1875 
Q 5.515625 13.8125 5.515625 26.8125 
Q 5.515625 40.234375 12.765625 48.109375 
Q 20.015625 56 32.328125 56 
Q 43.359375 56 49.78125 48.890625 
Q 56.203125 41.796875 56.203125 29.59375 
z
M 47.21875 32.234375 
Q 47.125 39.59375 43.09375 43.984375 
Q 39.0625 48.390625 32.421875 48.390625 
Q 24.90625 48.390625 20.390625 44.140625 
Q 15.875 39.890625 15.1875 32.171875 
z
M 38.53125 79.984375 
L 48.25 79.984375 
L 32.34375 61.625 
L 24.859375 61.625 
z
" id="DejaVuSans-e9"/>
    </defs>
    <g transform="translate(560.42375 20.16)scale(0.12 -0.12)">
     <use xlink:href="#DejaVuSans-45"/>
     <use x="63.183594" xlink:href="#DejaVuSans-6e"/>
     <use x="126.5625" xlink:href="#DejaVuSans-65"/>
     <use x="188.085938" xlink:href="#DejaVuSans-72"/>
     <use x="229.183594" xlink:href="#DejaVuSans-67"/>
     <use x="292.660156" xlink:href="#DejaVuSans-ed"/>
     <use x="320.443359" xlink:href="#DejaVuSans-61"/>
     <use x="381.722656" xlink:href="#DejaVuSans-20"/>
     <use x="413.509766" xlink:href="#DejaVuSans-63"/>
     <use x="468.490234" xlink:href="#DejaVuSans-69"/>
     <use x="496.273438" xlink:href="#DejaVuSans-6e"/>
     <use x="559.652344" xlink:href="#DejaVuSans-e9"/>
     <use x="621.175781" xlink:href="#DejaVuSans-74"/>
     <use x="660.384766" xlink:href="#DejaVuSans-69"/>
     <use x="688.167969" xlink:href="#DejaVuSans-63"/>
     <use x="743.148438" xlink:href="#DejaVuSans-61"/>
    </g>
   </g>
  </g>
 </g>
 <defs>
  <clipPath id="p6bd7556d57">
   <rect height="147.16" width="195.98" x="33.64" y="26.16"/>
  </clipPath>
  <clipPath id="p1fb76ef85c">
   <rect height="147.16" width="195.98" x="272.17" y="26.16"/>
  </clipPath>
  <clipPath id="pd6d6497058">
   <rect height="147.16" width="195.98" x="510.7" y="26.16"/>
  </clipPath>
 </defs>
</svg>
